{
    "%vlocity_namespace%__Active__c": true,
    "%vlocity_namespace%__OmniScriptId__c": {
        "Name": "Cover",
        "VlocityDataPackType": "VlocityMatchingKeyObject",
        "VlocityMatchingRecordSourceKey": "%vlocity_namespace%__OmniScript__c/EW/Cover/English",
        "VlocityRecordSObjectType": "%vlocity_namespace%__OmniScript__c"
    },
    "%vlocity_namespace%__ParentElementId__c": {
        "%vlocity_namespace%__OmniScriptId__c": "%vlocity_namespace%__OmniScript__c/EW/Cover/English",
        "Name": "excessAndComissionBlock",
        "VlocityDataPackType": "VlocityMatchingKeyObject",
        "VlocityMatchingRecordSourceKey": "%vlocity_namespace%__Element__c/%vlocity_namespace%__OmniScript__c/EW/Cover/English/excessAndComissionBlock",
        "VlocityRecordSObjectType": "%vlocity_namespace%__Element__c"
    },
    "%vlocity_namespace%__ParentElementName__c": "excessAndComissionBlock",
    "%vlocity_namespace%__ParentElementType__c": "Block",
    "%vlocity_namespace%__PropertySet__c": {
        "HTMLTemplateId": "",
        "accessibleInFutureSteps": false,
        "conditionType": "Hide if False",
        "controlWidth": 12,
        "disOnTplt": false,
        "documentNames": [
            "CABIABBJA4221c239ae5743759ba50d6adee585ed",
            "CABIABBJA3df6478df0c044428dbffd451276e62c",
            "CABIABBJA23484d5d6d2d40279666999792bbb790"
        ],
        "help": true,
        "helpText": "This excess applies to all sections of the policy except legal expenses, home emergency and personal cyber which are fixed.  Taking a higher excess will reduce the clients premium",
        "hide": false,
        "label": "Excess (£)",
        "mask": "£",
        "rangeHigh": 1000,
        "rangeLow": 250,
        "readOnly": false,
        "repeat": false,
        "repeatClone": false,
        "required": false,
        "show": null,
        "step": 250
    },
    "%vlocity_namespace%__ReusableOmniScript__c": true,
    "%vlocity_namespace%__Type__c": "Range",
    "CurrencyIsoCode": "GBP",
    "Name": "excessRange",
    "VlocityDataPackType": "SObject",
    "VlocityRecordSObjectType": "%vlocity_namespace%__Element__c",
    "VlocityRecordSourceKey": "%vlocity_namespace%__Element__c/%vlocity_namespace%__OmniScript__c/EW/Cover/English/excessRange"
}