{
    "AccountId": "0014E00000OqTF3",
    "AnciallarySection": {
        "LimitEUR": 100,
        "Limit__c": 123,
        "PremiumEUR": 159,
        "Premium__c": 250
    },
    "Asset": {
        "Name": "MO07000702Q-00-23"
    },
    "Competitor": [
        {
            "Id": "a6V4E00000000RwUAI",
            "Name": "Aviva"
        },
        {
            "Id": "a6V4E00000000S1UAI",
            "Name": "Horizon"
        }
    ],
    "ContextId": "",
    "DRId_Account": "0014E00000OqTF3QAN",
    "DRId_Asset": "02i4E000002AzuSQAS",
    "OppRecordType": "Motor",
    "StpBrokerageAndBroker": {
        "Messaging 1": true,
        "Referrals": "undefined\nPolicyholder Age Should Be Between 17 and 69",
        "Restrictions": "\nPolicy section taxes not selected or not a suitable country\nEmployer not selected",
        "TA_SearchBrokerage-Block": {
            "TA_SearchBrokerage": "MG Brokerage"
        },
        "TA_SearchProducer-Block": {
            "EmailAddress": "markgrant@mgbrokerage.comm",
            "FirstName": "Mark",
            "LastName": "Grant",
            "PhoneNumber": null,
            "TA_SearchProducer": "Mark Grant - markgrant@mgbrokerage.comm"
        },
        "TA_Underwriter-Block": {
            "TA_Underwriter": "cDecisions User"
        },
        "Warnings": "Gender and title do not match\nName contains special characters\nCommission differs from broker's standard commission",
        "assetName": "MO07000702Q-00-24",
        "blkCover": {
            "changeEuropeanBreakdown": false,
            "changeLegalExpense": false,
            "curBasePremiumEu": 159,
            "curLimit": 123,
            "curLimitEUSymbol": "GBP",
            "curLimitEu": 100,
            "curLimitSymbol": "GBP",
            "curOveridePremium": 250,
            "curOveridePremiumEu": 159,
            "radioEuropeanBreakdown": "Yes",
            "radioLegalExpenses": "Yes"
        },
        "blkPaymentDetails": null,
        "brokerageId": "0014E00000OPgqbQAD",
        "brokerageIdText": "0014E00000OPgqbQAD",
        "brokerageNameText": null,
        "commission": {
            "cmsChange": true,
            "cmsChangeReason": null,
            "finalAzurCommission": 20,
            "percentageRate": 15
        },
        "dateReceived": "2017-02-23T12:02:12.144Z",
        "days": 365,
        "declarationAdditionalTerms": null,
        "declarationBankrupt": null,
        "declarationDeclinedInsurance": null,
        "declarationNonMotoringConvictions": null,
        "effectiveDate": "2017-02-23 00:00:00",
        "endDate": null,
        "endDateTime": "2018-02-23T00:01:00.000Z",
        "endDateTimeDisplay": "2018-02-23T00:01:00.000Z",
        "endTime": null,
        "maxVersionNumber": 24,
        "opportunityId": "0064E000003jxhj",
        "opportunityRecordType": "Motor",
        "policyHolder": "0014E00000OqTF3QAN",
        "policyMasterID": "a6k4E0000004EpLQAU",
        "policyNumber": "MO07000702Q",
        "radioRenew": "Yes",
        "referralAge": "\nPolicyholder Age Should Be Between 17 and 69",
        "referralCode20": null,
        "referralCode20Text": "Start Date more than 30 days ahead ",
        "referralCode21": null,
        "referralCode21Text": "Start Date is in the past",
        "referralCode22": null,
        "referralCode22Text": "Start Date more than 6 months in the past",
        "referralCode23": 23,
        "referralCode23Text": "Commission higher than standard",
        "referralCode29": 29,
        "referralCode29Text": "\n Declarations - Terms is selected",
        "referralCode30": 30,
        "referralCode30Text": "\n Declarations - Convictions is selected",
        "referralCode31": 31,
        "referralCode31Text": "\n Declarations - Bankrupt is selected",
        "referralCode32": 32,
        "referralCode32Text": "Policyholder Age Should Be Between 17 and 69",
        "referralsCode28": 28,
        "referralsCode28Text": "\n Declarations - Declined is selected",
        "renewValue": true,
        "selectCampaign": null,
        "selectCurrency": "GBP",
        "selectEndDateType": "Annual",
        "selectPaymentMethod": null,
        "selectQuoteViability": null,
        "selectTaxSection": null,
        "startDate": "2017-02-23T12:02:12.144Z",
        "startDateTime": "2017-02-23T00:01:00.000Z",
        "startTime": "1970-01-01T00:01:00.000Z",
        "targetPremium": null,
        "todayFormula": "2017-02-23T00:00:00.000Z",
        "underwritingYear": 2017,
        "wrn1": "Gender and title do not match\nName contains special characters"
    },
    "TA_SearchBrokerage-Block": {
        "brokerageDRCode": "00001",
        "brokerageId": "0014E00000OPgqbQAD",
        "brokerageOwnerId": "00558000000tpGDAAY",
        "brokerageRecordType": {
            "Id": "012580000005gQYAAY"
        }
    },
    "TA_SearchProducer-Block": {
        "Gender": "Male",
        "Name": "Mark Grant",
        "PhotoUrl": "/services/images/photo/0034E00000NsL9dQAF",
        "ProducerId": "0034E00000NsL9dQAF",
        "recordtype": {
            "Id": "012580000005gQtAAI"
        }
    },
    "age": 75,
    "assetVersion": [
        {
            "PolicyNumber": "MO07000702Q",
            "Policy_Master__c": "a6k4E0000004EpLQAU",
            "RecordTypeId": "0124E0000000Os0QAE",
            "RecordTypeName": "Quote",
            "Version_Number__c": 23
        },
        {
            "PolicyNumber": "MO07000702Q",
            "Policy_Master__c": "a6k4E0000004EpLQAU",
            "RecordTypeId": "0124E0000000Os0QAE",
            "RecordTypeName": "Quote",
            "Version_Number__c": 22
        },
        {
            "PolicyNumber": "MO07000702Q",
            "Policy_Master__c": "a6k4E0000004EpLQAU",
            "RecordTypeId": "0124E0000000Os0QAE",
            "RecordTypeName": "Quote",
            "Version_Number__c": 21
        },
        {
            "PolicyNumber": "MO07000702Q",
            "Policy_Master__c": "a6k4E0000004EpLQAU",
            "RecordTypeId": "0124E0000000Os0QAE",
            "RecordTypeName": "Quote",
            "Version_Number__c": 20
        },
        {
            "PolicyNumber": "MO07000702Q",
            "Policy_Master__c": "a6k4E0000004EpLQAU",
            "RecordTypeId": "0124E0000000Os0QAE",
            "RecordTypeName": "Quote",
            "Version_Number__c": 19
        },
        {
            "PolicyNumber": "MO07000702Q",
            "Policy_Master__c": "a6k4E0000004EpLQAU",
            "RecordTypeId": "0124E0000000Os0QAE",
            "RecordTypeName": "Quote",
            "Version_Number__c": 18
        },
        {
            "PolicyNumber": "MO07000702Q",
            "Policy_Master__c": "a6k4E0000004EpLQAU",
            "RecordTypeId": "0124E0000000Os0QAE",
            "RecordTypeName": "Quote",
            "Version_Number__c": 17
        },
        {
            "PolicyNumber": "MO07000702Q",
            "Policy_Master__c": "a6k4E0000004EpLQAU",
            "RecordTypeId": "0124E0000000Os0QAE",
            "RecordTypeName": "Quote",
            "Version_Number__c": 16
        },
        {
            "PolicyNumber": "MO07000702Q",
            "Policy_Master__c": "a6k4E0000004EpLQAU",
            "RecordTypeId": "0124E0000000Os0QAE",
            "RecordTypeName": "Quote",
            "Version_Number__c": 15
        },
        {
            "PolicyNumber": "MO07000702Q",
            "Policy_Master__c": "a6k4E0000004EpLQAU",
            "RecordTypeId": "0124E0000000Os0QAE",
            "RecordTypeName": "Quote",
            "Version_Number__c": 14
        },
        {
            "PolicyNumber": "MO07000702Q",
            "Policy_Master__c": "a6k4E0000004EpLQAU",
            "RecordTypeId": "0124E0000000Os0QAE",
            "RecordTypeName": "Quote",
            "Version_Number__c": 13
        },
        {
            "PolicyNumber": "MO07000702Q",
            "Policy_Master__c": "a6k4E0000004EpLQAU",
            "RecordTypeId": "0124E0000000Os0QAE",
            "RecordTypeName": "Quote",
            "Version_Number__c": 12
        },
        {
            "PolicyNumber": "MO07000702Q",
            "Policy_Master__c": "a6k4E0000004EpLQAU",
            "RecordTypeId": "0124E0000000Os0QAE",
            "RecordTypeName": "Quote",
            "Version_Number__c": 11
        },
        {
            "PolicyNumber": "MO07000702Q",
            "Policy_Master__c": "a6k4E0000004EpLQAU",
            "RecordTypeId": "0124E0000000Os0QAE",
            "RecordTypeName": "Quote",
            "Version_Number__c": 10
        },
        {
            "PolicyNumber": "MO07000702Q",
            "Policy_Master__c": "a6k4E0000004EpLQAU",
            "RecordTypeId": "0124E0000000Os0QAE",
            "RecordTypeName": "Quote",
            "Version_Number__c": 9
        },
        {
            "PolicyNumber": "MO07000702Q",
            "Policy_Master__c": "a6k4E0000004EpLQAU",
            "RecordTypeId": "0124E0000000Os0QAE",
            "RecordTypeName": "Quote",
            "Version_Number__c": 8
        },
        {
            "PolicyNumber": "MO07000702Q",
            "Policy_Master__c": "a6k4E0000004EpLQAU",
            "RecordTypeId": "0124E0000000Os0QAE",
            "RecordTypeName": "Quote",
            "Version_Number__c": 7
        },
        {
            "PolicyNumber": "MO07000702Q",
            "Policy_Master__c": "a6k4E0000004EpLQAU",
            "RecordTypeId": "0124E0000000Os0QAE",
            "RecordTypeName": "Quote",
            "Version_Number__c": 6
        },
        {
            "PolicyNumber": "MO07000702Q",
            "Policy_Master__c": "a6k4E0000004EpLQAU",
            "RecordTypeId": "0124E0000000Os0QAE",
            "RecordTypeName": "Quote",
            "Version_Number__c": 5
        },
        {
            "PolicyNumber": "MO07000702Q",
            "Policy_Master__c": "a6k4E0000004EpLQAU",
            "RecordTypeId": "0124E0000000Os0QAE",
            "RecordTypeName": "Quote",
            "Version_Number__c": 4
        },
        {
            "PolicyNumber": "MO07000702Q",
            "Policy_Master__c": "a6k4E0000004EpLQAU",
            "RecordTypeId": "0124E0000000Os0QAE",
            "RecordTypeName": "Quote",
            "Version_Number__c": 3
        },
        {
            "PolicyNumber": "MO07000702Q",
            "Policy_Master__c": "a6k4E0000004EpLQAU",
            "RecordTypeId": "0124E0000000Os0QAE",
            "RecordTypeName": "Quote",
            "Version_Number__c": 2
        },
        {
            "PolicyNumber": "MO07000702Q",
            "Policy_Master__c": "a6k4E0000004EpLQAU",
            "RecordTypeId": "0124E0000000Os0QAE",
            "RecordTypeName": "Quote",
            "Version_Number__c": 1
        },
        {
            "PolicyNumber": "MO07000702Q",
            "Policy_Master__c": "a6k4E0000004EpLQAU",
            "RecordTypeId": "0124E0000000Os0QAE",
            "RecordTypeName": "Quote",
            "Version_Number__c": 0
        }
    ],
    "billingCountry": "Iran",
    "commission": {
        "AzurCommission": 35,
        "EndDate": "2022-01-21",
        "Id": "a5R4E000000EIZ7UAO",
        "StandardPercentage": 10,
        "StartDate": "2016-03-28",
        "Type": "New Business"
    },
    "currentUser": {
        "Id": "00558000000tpGDAAY",
        "Name": "cDecisions User"
    },
    "currentUserId": "cdecisions@azuruw.com.vlctyrone",
    "dateOfBirth": "1941-12-15",
    "datetimeInceptionStart": "2017-01-01T00:01:00.000Z",
    "endTime": "2017-01-01T00:01:00.000Z",
    "fullName": "tester75 salami+",
    "gender": "Male",
    "hasPriorOffences": true,
    "id": "0014E00000OqTF3",
    "licenseType": "Unknown",
    "mailingCountry": "Iran1",
    "maritalStatus": "Common law",
    "noAccidents": true,
    "occupation": "Company Director",
    "oppId": "0064E000003jxhj",
    "opportunity": {
        "AccountId": "0014E00000OqTF3QAN",
        "Id": "0064E000003jxhjQAA",
        "Name": "OPTY-MOT-0123",
        "RecordTypeId": "0124E0000000OtwQAE"
    },
    "opportunityRecordType": {
        "DeveloperName": "Motor"
    },
    "policyEndDate": "2017-01-01T00:01:00.000Z",
    "policyholderFirstName": "tester75",
    "quoteRecordType": {
        "DeveloperName": "Quote",
        "Id": "0124E0000000Os0QAE"
    },
    "salutation": "Ms.",
    "timeStamp": "2017-02-23T11:57:23.110Z",
    "userName": "cdecisions@azuruw.com.vlctyrone",
    "userProfile": "System Administrator",
    "vlcPersistentComponent": {
    },
    "vlcTimeTracking": {
        "DRGetAssetInformation": 314,
        "DRGetCompetitorDetails": 743,
        "DRGetCurrentUser": 619,
        "DRGetMaxVersionNumber": 1087,
        "DRGetOpportunityDetails": 950,
        "DRGetPolicyCoverEUR": 635,
        "DRGetPolicyCoverLegalExpenses": 649,
        "DRGetPolicyholderInfo": 824,
        "DRGetQuoteRecordType": 360,
        "DRPostAccountInfo": 748,
        "DRPostAccountInfoToAsset": 711,
        "DRPostCreateMotorQuote": 1821,
        "DRPostReferralsToAsset": 1838,
        "OmniScriptSessionToken": "5313caa5-b2df-46c3-a8f6-7d3ebd5b68f6",
        "SetDefaultValues": 23,
        "StpBrokerageAndBroker": 34756,
        "TEST-DELETE ON ACTIVATION": 6,
        "setCurrentUser": 2
    }
}