{
    "brokerAccountId": "0010D000002OsETQA0",
    "clientDetails": {
        "jointInsBirthdate": "1970-06-29T00:00:00.000Z",
        "jointInsFirstName": "Cath",
        "jointInsLastName": "Loftus",
        "jointInsSalutation": "Mrs.",
        "primeInsBirthdate": "1969-12-29T00:00:00.000Z",
        "primeInsFirstName": "Steve",
        "primeInsLastName": "Loftus2",
        "primeInsSalutation": "Mr."
    }
}