{
    "ContextId": "",
    "ContinueWithQuote": true,
    "Range1": 7,
    "aDate": "2019-04-26 14:02:40",
    "additionalQuoteData": {
        "underwriterAdjustmentPercent": 0
    },
    "addressChanged": true,
    "ambAPIResponse": {
        "address": "14, BORROWDALE GARDENS, CAMBERLEY, GU15 1QZ",
        "addressVersion": "GB_ABP_E64",
        "administrative_area": "SURREY",
        "band": "None",
        "bufferRadius": 15,
        "building_name": "",
        "building_number": "14",
        "changeType": "I",
        "class": "RD02",
        "code": 200,
        "combinedFloodScore": 0,
        "country": "ENG",
        "defendedCombinedFloodScore": 0,
        "defendedFluvial1000YrDepth": 0,
        "defendedFluvial100YrDepth": 0,
        "defendedFluvial250YrDepth": 0,
        "defendedFluvial500YrDepth": 0,
        "defendedFluvial75YrDepth": 0,
        "defendedFluvialFloodScore": 0,
        "defendedFluvil30YrDepth": 0,
        "defendedTidal1000YrDepth": 0,
        "defendedTidal100YrDepth": 0,
        "defendedTidal250YrDepth": 0,
        "defendedTidal30YrDepth": 0,
        "defendedTidal500YrDepth": 0,
        "defendedTidal75YrDepth": 0,
        "defendedTidalFloodScore": 0,
        "department_name": "",
        "dependent_locality": "",
        "distanceToNearestFluvialFloodplain": "> 250.00m",
        "distanceToNearestPluvialFloodplain": "111.80m",
        "distanceToNearestTidalFloodplain": "> 250.00m",
        "floodDefences": 0,
        "floodRatingScore": 1,
        "fluvial1000YrDepth": 0,
        "fluvial100YrDepth": 0,
        "fluvial250YrDepth": 0,
        "fluvial30YrDepth": 0,
        "fluvial500YrDepth": 0,
        "fluvial75YrDepth": 0,
        "fluvialFloodScore": 0,
        "groundWaterRisk": 1,
        "id": 7451400,
        "latitude": 51.3319256,
        "locality": "",
        "longitude": -0.6976066,
        "message": "OK",
        "modelledOnLidar": 1,
        "organisation": "",
        "organisation_name": "",
        "pao_end_number": "",
        "pao_end_suffix": "",
        "pao_start_number": "14",
        "pao_start_suffix": "",
        "pao_text": "",
        "pluvial1000YrDepth": 0,
        "pluvial100YrDepth": 0,
        "pluvial250YrDepth": 0,
        "pluvial30YrDepth": 0,
        "pluvial500YrDepth": 0,
        "pluvial75YrDepth": 0,
        "pluvialFloodScore": 0,
        "postcodeLocator": "GU15 1QZ",
        "sao_end_number": "",
        "sao_end_suffix": "",
        "sao_start_number": "",
        "sao_start_suffix": "",
        "sao_text": "",
        "street_description": "",
        "sub_building_name": "",
        "thoroughfare": "BORROWDALE GARDENS",
        "tidal1000YrDepth": 0,
        "tidal100YrDepth": 0,
        "tidal250YrDepth": 0,
        "tidal30YrDepth": 0,
        "tidal500YrDepth": 0,
        "tidal75YrDepth": 0,
        "tidalFloodScore": 0,
        "town_name": "CAMBERLEY",
        "uprn": 100061543885,
        "xCoordinate": 490831.1,
        "yCoordinate": 160008.4
    },
    "azurPercentageCommission": 12,
    "basePremium": 1,
    "blockQuote": false,
    "brokerCampaign": "Base Campaign",
    "brokerPercentMaximum": 30,
    "brokerPercentMinimum": 0,
    "brokerPercentageCommission": 25,
    "buildingsLimitTotal": 1000000,
    "burglarAlarm": "Not asked/None",
    "businessUse": "No",
    "calculateBuildingsPremium": "true",
    "claimScores": {
        "AccidentalDamageClaimScore": 0,
        "ID": "UserInputList",
        "MultiClaimFactor__multiFactor": 1,
        "OtherClaimScore": 0,
        "TheftClaimScore": 0,
        "WaterDamageClaimScore": 0,
        "scoredClaims": [
        ]
    },
    "claimsUnderwritingTotalScore": 0,
    "clientDetails": {
        "StartDateBlock": {
            "effectiveFromStartDate": "2019-04-25T23:00:00.000Z",
            "effectiveFromStartDateValidationFormula": true,
            "startDateTextValidation": true
        },
        "brokerConfirmation": "yes",
        "businessSelectedValidation": false,
        "hasEmptyRequiredClientFields": false,
        "hasJointPolicyHolder": "no",
        "jointBusinessSelectedValidation": false,
        "jointInsAge": null,
        "jointInsBirthdate": null,
        "jointInsBirthdateText": null,
        "jointInsBusinessType-Block": {
            "jointBusinessScore": null,
            "jointBusinessTypeaheadId": null,
            "jointInsBusinessType": null
        },
        "jointInsFirstName": null,
        "jointInsLastName": null,
        "jointInsNationality-Block": {
            "jointInsNationality": null,
            "jointNationalityID": null
        },
        "jointInsOccupation-Block": {
            "jointInsOccupation": null,
            "jointOccupationScore": null,
            "jointOccupationTypeaheadId": null
        },
        "jointInsSalutation": null,
        "jointInsYearOfBirth": "",
        "jointNationalitySelectedValidation": false,
        "jointOccupationSelectedValidation": false,
        "msgDeclarationsFalse": false,
        "msgInsuredAge": false,
        "msgRequiredClientFields": false,
        "nationalitySelectedValidation": false,
        "primeInsAge": 30,
        "primeInsBirthdate": "1988-11-28T01:00:00.000Z",
        "primeInsBirthdateText": "28/11/1988",
        "primeInsBusinessType-Block": {
            "businessScore": null,
            "businessTypeaheadId": null,
            "primeInsBusinessType": null
        },
        "primeInsFirstName": "roy",
        "primeInsHasLivePolicy": false,
        "primeInsHasLiveQuote": false,
        "primeInsIsDuplicate": false,
        "primeInsLastName": "lloyd",
        "primeInsNationality-Block": {
            "nationalityTypeaheadId": null,
            "primeInsNationality": null
        },
        "primeInsOccupation-Block": {
            "primeInsOccupation": "Development Manager",
            "typeaheadId": "aD625000000CaY1CAK",
            "typeaheadScore": 10
        },
        "primeInsSalutation": "Mr.",
        "primeInsuredYearOfBirth": "1988",
        "radioBankrupt": "No",
        "radioDomiciledInUK": "Yes",
        "radioOffence": "No",
        "radioPreviousInsuranceRefused": "No",
        "radioSpecialTerms": "No",
        "requiredClientFieldsString": "",
        "sanctionsCheckDateTime": null,
        "warnOccupationSelectedValidation": true
    },
    "closeDate": "2019-05-26T13:02:40.917Z",
    "constructionWork": "Not more than £75k of renovation work",
    "contentsLimitTotal": "Unlimited",
    "damageClaimScore": 0,
    "daysUnoccupied": "Unoccupied Less than 60 days",
    "defaultExcess": 500,
    "employersLiability": 10000000,
    "error": "OK",
    "excess": 500,
    "featureSwitches": {
        "Bind_SanctionChecking__c": true,
        "InsuredDuplication__c": false,
        "IsDeleted": false,
        "Name": "aF925000000CbIn",
        "SanctionChecking__c": false,
        "SetupOwnerId": "00558000004DbHHAA0",
        "Skip_DuplicateAccountCheck__c": true,
        "attributes": {
            "type": "EWFeatureSwitches__c"
        }
    },
    "fireSmokeAlarm": "Battery Operated Detector or More",
    "flatRoofPercentage": "Up to 25percent",
    "floorInteraction": "Other Homes",
    "hasQuoteId": false,
    "homeEmergencyCoverageLimit": 1000,
    "homeEmergencyPremium": 8.7,
    "id": "a3f25000000DHOsAAO",
    "insurancePremiumTaxRate": "Standard rate IPT",
    "iptPercent": 12,
    "isEditAllowed": true,
    "isdtp": "p1",
    "jewelleryAndWatchesLimitBroken": false,
    "jointInsAge": 0,
    "jointInsuredSanctionsResult": "Passed",
    "jointPolicyCategory": "Not a joint policy",
    "layout": "lightning",
    "legalExpenses": 31,
    "legalExpensesCoverageLimit": 100000,
    "listedStatus": "Not Listed/ Not Protected",
    "maxSpecifiedArtValue": 0,
    "maxSpecifiedContentsValue": 0,
    "maxSpecifiedCyclesValue": 0,
    "maxSpecifiedJewelleryAndWatchesValue": 0,
    "objectType": "Picklist_Section__c",
    "occupancyType": "Main residence",
    "openToPublic": "Never",
    "opptyName": "lloyd-EW-26-04-2019",
    "otherClaimScore": 0,
    "otherPermanentStructures": 200000,
    "outraAPIResponse": {
        "bathrooms": 1,
        "bathrooms$confidence": 0.660309,
        "bathrooms$is_modelled": true,
        "bedrooms": 4,
        "bedrooms$confidence": null,
        "bedrooms$is_modelled": false,
        "building_name": null,
        "building_number": "14",
        "code": 200,
        "dependent_locality": null,
        "dependent_thoroughfare": null,
        "double_dependent_locality": null,
        "floor_area": 171,
        "floor_area$confidence": null,
        "floor_area$is_modelled": false,
        "ht_property_type": "Detached",
        "ht_property_type$confidence": null,
        "ht_property_type$is_modelled": false,
        "id": 307060884,
        "last_rent": null,
        "last_sale_date": "2015-01-21T00:00:00.000Z",
        "listed": false,
        "listed$confidence": null,
        "listed$grade": null,
        "message": "OK",
        "postcode": "GU15 1QZ",
        "property_rental_value": 1816,
        "property_rental_value$confidence": 313.296,
        "property_rental_value$is_modelled": false,
        "property_style": "Detached",
        "property_style$confidence": null,
        "property_style$is_modelled": false,
        "property_type": "House",
        "property_type$confidence": null,
        "property_type$is_modelled": false,
        "property_value": 556520,
        "property_value$confidence": 48973.8,
        "property_value$is_modelled": false,
        "reinstatement_cost_final_adjusted_azur": 355552,
        "reinstatement_cost_higher_rate_azur": 410400,
        "reinstatement_cost_higher_rate_azur$confidence": 1,
        "reinstatement_cost_ht": null,
        "reinstatement_cost_notional": 303869,
        "reinstatement_cost_notional$confidence": 1,
        "reinstatement_cost_outra": 296293,
        "reinstatement_cost_outra$confidence": 1,
        "rent_anniversary": null,
        "sale_anniversary": "2020-01-21T00:00:00.000Z",
        "sub_building_name": null,
        "tenure": "Freehold",
        "tenure$confidence": null,
        "tenure$is_modelled": false,
        "thoroughfare": "BORROWDALE GARDENS",
        "uprn": "100061543885",
        "year_built": 1970,
        "year_built$confidence": null,
        "year_built$is_modelled": false
    },
    "paymentMethod": "Broker Collection",
    "personalCyberCoverageLimit": 50000,
    "personalCyberPremium": 24.21,
    "policyAge": 0,
    "previousInsurance": "You have insurance in place at the risk address and have done so for more than one year",
    "primaryInsuredSanctionsResult": "Passed",
    "primeInsAge": 0,
    "primeInsAgeDecimal": 30.41,
    "propAmbPostalCode-Block": {
        "country": "ENG"
    },
    "propertyAge": 49,
    "propertyDetails": {
        "artSpec": 0,
        "artSpecifiedCheck": true,
        "blockCoverage": {
            "alarmCheck": null,
            "errorArtMaxValue": true,
            "errorJewelleryWatchesMaxValue": true,
            "errorPedalCyclesMaxValue": true,
            "msgCoverageArtZero": false,
            "msgCoverageJewelleryWatchesZero": false,
            "msgCoveragePedalCyclesZero": false,
            "rangeArt": 10000,
            "rangeJewelleryWatches": 10000,
            "rangePedalCycles": 2000,
            "rangeTenantsImprovements": 0,
            "safeCheck": null
        },
        "declineWarningMessage": false,
        "editBlockClaimsHistory": null,
        "editBlockSpecifiedItems": null,
        "errorNoAddress": true,
        "formulaListedStatus": "Not Listed/ Not Protected",
        "hasEmptyRequiredPropertyFields": false,
        "hideErrorNoAddress": true,
        "jewelleryCheck": true,
        "jewellerySpec": 0,
        "msgRequiredClaimsHistoryElement": false,
        "msgRequiredPropertyFields": false,
        "multiDeclarationsConfirmationOne": "yes",
        "pedalSpec": 0,
        "pedalSpecifiedCheck": true,
        "percentArtSpecified": 0,
        "percentCyclesSpecified": 0,
        "percentJewellerySpecified": 0,
        "propAmbPostalCode-Block": {
            "id": 7451400,
            "propAmbPostalCode": "14, BORROWDALE GARDENS, CAMBERLEY, GU15 1QZ",
            "uprn": 100061543885
        },
        "radioBusinessUse": null,
        "radioClaimsHistory": "no",
        "radioGoodStateOfRepair": "Yes",
        "radioListedStatus": null,
        "radioMinimumConstructionType": "yes",
        "radioMinimumSecurity": "yes",
        "radioNoSignsOfSubsidence": "yes",
        "radioNotBusinessUseOrOpenToPublic": "yes",
        "radioNotListedDeclaration": "yes",
        "radioNotPlanningWorks": "yes",
        "radioNotPreviouslyFlooded": "yes",
        "radioOpenToPublic": null,
        "radioPolicyType": "Building & Contents",
        "radioPreviousInsurance": "yes",
        "radioPreviousInsuranceReason": null,
        "radioSpecifiedItems": "no",
        "requiredPropertyFieldsString": "",
        "selectFlatRoofPercentage": null,
        "selectRoofConstruction": null,
        "selectWallConstruction": null,
        "specifiedItemCount": 0,
        "sumInsuredTenantsImprovements": 0
    },
    "propertyDetailsUrl": "https://azur-integrations.herokuapp.com/outraUPRN",
    "publicLiability": 5000000,
    "quoteDateOfIssue": "2019-04-25T23:00:00.000Z",
    "quoteExpiryDate": "2019-05-26T13:03:26.186Z",
    "quoteId": "",
    "quoteName": "lloyd_roy",
    "quotePrefix": "88-EWA",
    "quoteSheet": {
        "msgEmailSent": null
    },
    "quoteStatus": "",
    "quotedDate": "2019-04-25 16:40:05",
    "radioGoodStateOfRepair": "Yes",
    "radioMinimumConstructionType": "yes",
    "radioMinimumSecurity": "yes",
    "radioNoSignsOfSubsidence": "yes",
    "radioNotBusinessUseOrOpenToPublic": "yes",
    "radioNotListedDeclaration": "yes",
    "radioNotPlanningWorks": "yes",
    "radioNotPreviouslyFlooded": "yes",
    "radioPolicyType": "Building & Contents",
    "radioPreviousInsurance": "yes",
    "radioSpecifiedItems": "no",
    "randomNumber": 2,
    "rangeArt": 10000,
    "rangeJewelleryWatches": 10000,
    "rangePedalCycles": 2000,
    "rangeTenantsImprovements": 0,
    "recordTypes": {
        "%vlocity_namespace%__InsurableItem__c": {
            "EW_Property": "01258000000Vee9AAC",
            "EW_SpecifiedItem": "01258000000VeeAAAS"
        },
        "%vlocity_namespace%__InsuranceClaim__c": {
            "EW_Quote": "01258000000VeeBAAS"
        },
        "Account": {
            "AgencyBrokerage": "012580000005gQYAAY",
            "Business_Account": "012580000005gQZAAY",
            "Carrier": "012580000005gQaAAI",
            "Group": "012580000005gQbAAI",
            "PersonAccount": "01258000000cYS8AAM",
            "StandardAccount": "012580000005gQdAAI",
            "Supplier": "01258000000FR6lAAG"
        },
        "Opportunity": {
            "EW_Opportunity": "01258000000cworAAA"
        },
        "Picklist_Section__c": {
            "Business_Type": "01258000000FR74AAG",
            "Nationality": "01258000000AoNRAA0",
            "Occupation": "01258000000FR75AAG",
            "Title": "01258000000FR76AAG"
        },
        "Quote": {
            "EW_Quote": "01258000000cwosAAA"
        }
    },
    "rewardPoints": 0,
    "roofConstruction": "Tile",
    "safe": "no",
    "sanctionCheckFuzziness": 1,
    "sfdcIFrameHost": "web",
    "sfdcIFrameOrigin": "https://azuruw--dev--vlocity-ins.visualforce.com",
    "skipToCoverageStep": false,
    "subsAPIResponse": {
        "PC": "GU15 1QZ",
        "PCNOSPACES": "GU151QZ",
        "Subs_Class": "0",
        "Subs_Total": "0",
        "area": "Surrey Heath",
        "code": 200,
        "crime_arson": "1",
        "crime_dom_theft": "1",
        "district": "Surrey Heath",
        "easting_x": "490795",
        "easting_y": "490795",
        "latitude": "51.33",
        "longitude": "-0.69",
        "message": "OK",
        "northing_x": "160012",
        "northing_y": "160012",
        "pc_area": "GU",
        "subsgroup": "1",
        "theft_score": "2",
        "ward": "Heatherside",
        "water_score": "9",
        "wind_score": "11",
        "x_x": "635575",
        "x_y": "1486528"
    },
    "theftClaimScore": 0,
    "timeStamp": "2019-04-26T13:02:27.926Z",
    "totalContentsSpecified": 0,
    "typeOfResidence": "Main residence",
    "urlPrefix": "https://azuruw--dev--vlocity-ins.visualforce.com/apex",
    "userCurrencyCode": "GBP",
    "userId": "00558000004DbHHAA0",
    "userName": "rlloyd@azuruw.com.dev",
    "userProfile": "System Administrator",
    "userTimeZone": 60,
    "vlcPersistentComponent": {
    },
    "vlcTimeTracking": {
        "EWGetClaimScore": 163,
        "EWGetClaimScoreForCalculation": 816,
        "OmniScriptSessionToken": "cbc274c5-5275-4ebb-aac2-70f5f1eb75d4",
        "SetQuoteIdFromContext": 540,
        "checkAddressChanged": 20,
        "clientDetails": 19192,
        "extractAdditionalQuoteData": 994,
        "extractBrokerDetails": 1444,
        "extractRecordTypes": 2305,
        "getAreaPerilsScore": 67,
        "getFeatureSwtiches": 548,
        "getFixedCoverageValues": 885,
        "getFloodData": 980,
        "getPropertyData": 412,
        "propertyDetails": 22034,
        "raPrimaryDuplicateCheck": 472,
        "setFormDefaultValues": 140,
        "setFormDefaultValues2": 84,
        "setMainSwitch": 720,
        "setOpportunityName": 7,
        "setQuoteName": 7,
        "setQuoteStatusData": 33,
        "setValuesForCoverages": 26,
        "specifiedItemMaxValues": 28,
        "svBlockQuote": 14
    },
    "wallConstruction": "Brick",
    "waterDamageClaimScore": 0
}