{
    "input": {
        "DriverAgeRestriction": "N/A",
        "IdIn": "88",
        "NamedDrivers ": "Yes",
        "NumberOfCars ": "1",
        "NumberOfDrivers": "1",
        "Product": "Auto"
    }
}