{
    "%vlocity_namespace%__Active__c": true,
    "%vlocity_namespace%__OmniScriptId__c": {
        "Name": "PCL Agreement Callout",
        "VlocityDataPackType": "VlocityMatchingKeyObject",
        "VlocityMatchingRecordSourceKey": "%vlocity_namespace%__OmniScript__c/EW/PCLAgreementCallout/Procedure",
        "VlocityRecordSObjectType": "%vlocity_namespace%__OmniScript__c"
    },
    "%vlocity_namespace%__ParentElementId__c": {
        "%vlocity_namespace%__OmniScriptId__c": {
            "Name": "PCL Agreement Callout",
            "VlocityDataPackType": "VlocityMatchingKeyObject",
            "VlocityMatchingRecordSourceKey": "%vlocity_namespace%__OmniScript__c/EW/PCLAgreementCallout/Procedure",
            "VlocityRecordSObjectType": "%vlocity_namespace%__OmniScript__c"
        },
        "Name": "CB_PCLReviewCheckCallout",
        "VlocityDataPackType": "VlocityMatchingKeyObject",
        "VlocityMatchingRecordSourceKey": "%vlocity_namespace%__Element__c/%vlocity_namespace%__OmniScript__c/EW/PCLAgreementCallout/Procedure/CB_PCLReviewCheckCallout",
        "VlocityRecordSObjectType": "%vlocity_namespace%__Element__c"
    },
    "%vlocity_namespace%__ParentElementName__c": "CB_PCLReviewCheckCallout",
    "%vlocity_namespace%__ParentElementType__c": "Conditional Block",
    "%vlocity_namespace%__PropertySet__c": {
        "additionalOutput": {
        },
        "disOnTplt": false,
        "executionConditionalFormula": "",
        "label": "ResponseAction2",
        "responseDefaultData": {
        },
        "responseFormat": "JSON",
        "responseJSONNode": "",
        "responseJSONPath": "",
        "returnFullDataJSON": false,
        "returnOnlyAdditionalOutput": false,
        "sendJSONNode": "PCLReviewCheckResponse",
        "sendJSONPath": "HTTP_PCLReviewCheck",
        "show": null,
        "useFormulas": true,
        "vlcResponseHeaders": {
        }
    },
    "%vlocity_namespace%__ReusableOmniScript__c": false,
    "%vlocity_namespace%__Type__c": "Response Action",
    "CurrencyIsoCode": "GBP",
    "Name": "PCLReviewCheckResponse",
    "VlocityDataPackType": "SObject",
    "VlocityRecordSObjectType": "%vlocity_namespace%__Element__c",
    "VlocityRecordSourceKey": "%vlocity_namespace%__Element__c/%vlocity_namespace%__OmniScript__c/EW/PCLAgreementCallout/Procedure/PCLReviewCheckResponse"
}