{
    "ContextId": null,
    "Save &amp; Email PDF": {
        "generateDocument": null
    },
    "configure": {
        "configurePolicy": null
    },
    "newQuote": {
        "covAggregateLimit": null,
        "covCoinsurance": null,
        "covDeductible": null,
        "covOccurrenceLimit": null,
        "covWindHailDeductible": null,
        "editTotalBuildingLimitCheckbox": null,
        "effectiveDate": null,
        "insAddressLookup-Block": {
            "insAddressLookup": null
        },
        "insEntityClass": null,
        "insEntityEmail": null,
        "insEntityFirstName": null,
        "insEntityLastName": null,
        "insEntityName": null,
        "insPropertyAge": null,
        "insPropertyBGII": null,
        "insPropertyBasementSpecification": null,
        "insPropertyCity": null,
        "insPropertyClass": null,
        "insPropertyConstruction": null,
        "insPropertyCostNew": null,
        "insPropertyFloodScore": null,
        "insPropertyLoanAmount": null,
        "insPropertyPublicProtectionClass": null,
        "insPropertyPurchasePrice": null,
        "insPropertyRenovationBudget": null,
        "insPropertySquareFootage": null,
        "insPropertyState": null,
        "insPropertyStateLabel": null,
        "insPropertyStories": null,
        "insPropertyStreetAddress": null,
        "insPropertyStreetAddress2": null,
        "insPropertyTotalBuildingLimit": null,
        "insPropertyYearBuilt": null,
        "insPropertyZipCode": null,
        "liabilityCoverage": null,
        "msgFlood": null,
        "policyCausesOfLoss": null,
        "policyLeadSource": null,
        "policyLeadSourceTA-Block": {
            "policyLeadSourceTA": null,
            "typeaheadId": null
        },
        "policyLoanNumber": null,
        "primeLenderTA-Block": {
            "primeLenderTA": null,
            "typeaheadId2": null
        },
        "propertyCoverage": null
    },
    "timeStamp": null,
    "userId": null,
    "userName": null,
    "userProfile": null,
    "userTimeZone": null,
    "vlcPersistentComponent": {
    },
    "vlcTimeTracking": {
        "Create Document": null,
        "DR - Get Account related to Opportunity": null,
        "DR - Get Contact related to Person Account": null,
        "DR - Get Document Template Id": null,
        "DR - Get Opportunity related to the Quote": null,
        "DR - Get Quote and Quote Line Items": null,
        "DRChangeQuoteRecordTypeId": null,
        "DRCreateAccountAndOpp": null,
        "DRGetAgentAndCarrierAccounts": null,
        "RARecordTypeSelectorWithOptions": null,
        "Save &amp; Email PDF": null,
        "Set CONSTANTS": null,
        "Set account Id from opportunity JSON": null,
        "Set emailTargetObjectId": null,
        "Set opportunity Id from quote JSON": null,
        "Set person account Id from account JSON": null,
        "SetDefaultValues": null,
        "configure": null,
        "createQuote": null,
        "getRatedProducts": null,
        "newQuote": null,
        "transformToQuote": null
    }
}