{
    "ContextId": "02i4E0000024fJk",
    "DRId_Asset": "02i4E0000024fxaQAA",
    "DRId_Clause_Assignment__c": "a6U4E000000013kUAA",
    "DRId_Policy_Member_Rel__c": "a674E00000001ExQAI",
    "asset": {
        "Agreed_Amount_From_Broker__c": 272.5985598173516,
        "Agreed_Amount_To_Carrier__c": 0,
        "Agreed_Azur_Commission__c": 68.492100456621,
        "Agreed_Commission__c": 27.3968401826484,
        "Agreed_Gross_Premium__c": 299.9954,
        "Agreed_Premium__c": 273.968401826484,
        "Agreed_Tax__c": 26.02699817351598,
        "Amount_From_Broker_TP__c": 272.5985598173516,
        "Amount_To_Carrier_TP__c": 0,
        "Annual_Amount_From_Broker_AP__c": 3980.4143198173515,
        "Annual_Amount_To_Carrier_AP__c": 2471.49876,
        "Annual_Commission_AP__c": 400.0416401826484,
        "Annual_Gross_Premium_AP__c": 4380.45596,
        "Annual_Premium_AP__c": 4000.416401826484,
        "Annual_Tax_AP__c": 380.03955817351596,
        "Azur_Commission_AP__c": 1000.104100456621,
        "Azur_Commission_Amount__c": 68.492100456621,
        "Azur_Commission__c": 25,
        "Calculation_Date__c": "2017-05-17 00:00:00",
        "Chargeable_Amount_From_Broker_CP__c": 3980.4143198173515,
        "Chargeable_Amount_To_Carrier_CP__c": 2471.49876,
        "Chargeable_Azur_Commission_CP__c": 1000.104100456621,
        "Chargeable_Commission_CP__c": 400.0416401826484,
        "Chargeable_Gross_Premium_CP__c": 4380.45596,
        "Chargeable_Premium_CP__c": 4000.416401826484,
        "Chargeable_Tax_CP__c": 380.03955817351596,
        "Commission__c": 10,
        "Currency_Type__c": "GBP",
        "Inception_End_Date_Time__c": "2018-05-17T00:01:00.000Z",
        "Inception_Start_Date_Time__c": "2017-05-17T08:14:57.000Z",
        "Name": "HMT0700166QP-00-2",
        "Opportunity__c": "0064E000004FLNJQA4",
        "Original_Commission__c": 10,
        "Payment_Method__c": "Cash",
        "Policy_Master__c": "a6k4E0000008SiBQAU",
        "Policy_Section_taxes__c": "United Kingdom",
        "Policy_Type__c": "Motor",
        "Policyholder_Additional_Terms__c": "No",
        "Policyholder_Age__c": 18,
        "Policyholder_Bankrupt__c": "No",
        "Policyholder_Business_Type__c": "Other",
        "Policyholder_Date_of_Birth__c": "1998-12-27",
        "Policyholder_Declined_Insurance__c": "No",
        "Policyholder_Gender__c": "Female",
        "Policyholder_License_Type__c": "Provisional",
        "Policyholder_Marital_Status__c": "Single",
        "Policyholder_Non_Motoring_Convictions__c": "No",
        "Policyholder_Occupation__c": "Consultant",
        "Policyholder_Relationship__c": "Additional Adul",
        "Quote_Received_Date__c": "2017-05-17T08:14:57.000Z",
        "Reason_For_MTA_Text__c": "MTA Reason: tereer",
        "Reason_for_MTA__c": "tereer",
        "Renew__c": true,
        "Tax_Percent__c": 9.5,
        "Total_Commission__c": 27.3968401826484,
        "Total_Gross_Premium__c": 299.9954,
        "Total_Premium__c": 273.968401826484,
        "Total_Tax__c": 26.02699817351598,
        "Total_Warnings__c": "Gender and title do not match",
        "Warnings__c": "Gender and title do not match",
        "accountId": "0014E00000OPgs3QAD",
        "clonedName": "HMT0700166QP-00-2",
        "contactId": "0034E00000Rb1XrQAJ",
        "coverage": [
            {
                "Active__c": true,
                "Agreed_Amount_From_Broker__c": 0,
                "Agreed_Amount_To_Carrier__c": 0,
                "Agreed_Azur_Commission__c": 0,
                "Agreed_Commission__c": 0,
                "Agreed_Gross_Premium__c": 0,
                "Agreed_Premium__c": 0,
                "Agreed_Tax__c": 0,
                "Amount_From_Broker_TP__c": 0,
                "Amount_To_Carrier_TP__c": 0,
                "Annual_Amount_From_Broker_AP__c": 248.75,
                "Annual_Amount_To_Carrier_AP__c": 186.25,
                "Annual_Commission_AP__c": 25,
                "Annual_Gross_Premium_AP__c": 273.75,
                "Annual_Premium_AP__c": 250,
                "Annual_Tax_AP__c": 23.75,
                "Azur_Commission__c": 0,
                "Chargeable_Amount_From_Broker_CP__c": 248.75,
                "Chargeable_Amount_To_Carrier_CP__c": 186.25,
                "Chargeable_Azur_Commission__c": 62.5,
                "Chargeable_Commission_CP__c": 25,
                "Chargeable_Gross_Premium_CP__c": 273.75,
                "Chargeable_Premium_CP__c": 250,
                "Chargeable_Tax_CP__c": 23.75,
                "Commission_AP__c": 25,
                "Commission__c": 0,
                "Cover_End_Date__c": "2018-05-17T00:01:00.000Z",
                "Cover_Start_Date__c": "2017-05-17T00:01:00.000Z",
                "Driving_Other_Cars__c": false,
                "Gross_Premium_AP__c": 273.75,
                "Gross_Premium__c": 0,
                "Name": "Legal Expenses",
                "Overritten_Premium__c": 250,
                "Policy_Holder__c": false,
                "PremiumAmount__c": 0,
                "Premium_AP__c": 250,
                "Primary_Driver__c": false,
                "Rated_Driver__c": false,
                "SHOW_ON_Certificate__c": false,
                "Tax_Amount_AP__c": 23.75,
                "Tax_Amount__c": 0,
                "Total_Azur_Commission_AP__c": 62.5,
                "id": "a6Q4E00000001ccUAA",
                "limit__c": 123,
                "type__c": "Legal Expenses"
            },
            {
                "Active__c": true,
                "Agreed_Amount_From_Broker__c": 0,
                "Agreed_Amount_To_Carrier__c": 0,
                "Agreed_Azur_Commission__c": 0,
                "Agreed_Commission__c": 0,
                "Agreed_Gross_Premium__c": 0,
                "Agreed_Premium__c": 0,
                "Agreed_Tax__c": 0,
                "Amount_From_Broker_TP__c": 0,
                "Amount_To_Carrier_TP__c": 0,
                "Annual_Amount_From_Broker_AP__c": 158.205,
                "Annual_Amount_To_Carrier_AP__c": 118.455,
                "Annual_Commission_AP__c": 15.9,
                "Annual_Gross_Premium_AP__c": 174.105,
                "Annual_Premium_AP__c": 159,
                "Annual_Tax_AP__c": 15.105,
                "Azur_Commission__c": 0,
                "Chargeable_Amount_From_Broker_CP__c": 158.205,
                "Chargeable_Amount_To_Carrier_CP__c": 118.455,
                "Chargeable_Azur_Commission__c": 39.75,
                "Chargeable_Commission_CP__c": 15.9,
                "Chargeable_Gross_Premium_CP__c": 174.105,
                "Chargeable_Premium_CP__c": 159,
                "Chargeable_Tax_CP__c": 15.105,
                "Commission_AP__c": 15.9,
                "Commission__c": 0,
                "Cover_End_Date__c": "2018-05-17T00:01:00.000Z",
                "Cover_Start_Date__c": "2017-05-17T00:01:00.000Z",
                "Driving_Other_Cars__c": false,
                "Gross_Premium_AP__c": 174.105,
                "Gross_Premium__c": 0,
                "Name": "EU Breakdown",
                "Overritten_Premium__c": 159,
                "Policy_Holder__c": false,
                "PremiumAmount__c": 0,
                "Premium_AP__c": 159,
                "Primary_Driver__c": false,
                "Rated_Driver__c": false,
                "SHOW_ON_Certificate__c": false,
                "Tax_Amount_AP__c": 15.105,
                "Tax_Amount__c": 0,
                "Total_Azur_Commission_AP__c": 39.75,
                "id": "a6Q4E00000001cdUAA",
                "limit__c": 100,
                "type__c": "EU Breakdown"
            },
            {
                "Active__c": true,
                "Agreed_Amount_From_Broker__c": 0,
                "Agreed_Amount_To_Carrier__c": 0,
                "Agreed_Azur_Commission__c": 0,
                "Agreed_Commission__c": 0,
                "Agreed_Gross_Premium__c": 0,
                "Agreed_Premium__c": 0,
                "Agreed_Tax__c": 0,
                "Amount_From_Broker_TP__c": 0,
                "Amount_To_Carrier_TP__c": 0,
                "Annual_Amount_From_Broker_AP__c": 248.75,
                "Annual_Amount_To_Carrier_AP__c": 186.25,
                "Annual_Commission_AP__c": 25,
                "Annual_Gross_Premium_AP__c": 273.75,
                "Annual_Premium_AP__c": 250,
                "Annual_Tax_AP__c": 23.75,
                "Azur_Commission__c": 0,
                "Chargeable_Amount_From_Broker_CP__c": 248.75,
                "Chargeable_Amount_To_Carrier_CP__c": 186.25,
                "Chargeable_Azur_Commission__c": 62.5,
                "Chargeable_Commission_CP__c": 25,
                "Chargeable_Gross_Premium_CP__c": 273.75,
                "Chargeable_Premium_CP__c": 3317.448,
                "Chargeable_Tax_CP__c": 23.75,
                "Commission_AP__c": 25,
                "Commission__c": 0,
                "Cover_End_Date__c": "2018-05-17T00:01:00.000Z",
                "Cover_Start_Date__c": "2017-05-17T00:01:00.000Z",
                "Driving_Other_Cars__c": false,
                "Gross_Premium_AP__c": 273.75,
                "Gross_Premium__c": 0,
                "Name": "Legal Expenses",
                "Overritten_Premium__c": 250,
                "Policy_Holder__c": false,
                "PremiumAmount__c": 0,
                "Premium_AP__c": 250,
                "Primary_Driver__c": false,
                "Rated_Driver__c": false,
                "SHOW_ON_Certificate__c": false,
                "Tax_Amount_AP__c": 23.75,
                "Tax_Amount__c": 0,
                "Total_Azur_Commission_AP__c": 62.5,
                "id": "a6Q4E00000001ccUAA",
                "limit__c": 123,
                "type__c": "Legal Expenses"
            },
            {
                "Active__c": true,
                "Agreed_Amount_From_Broker__c": 0,
                "Agreed_Amount_To_Carrier__c": 0,
                "Agreed_Azur_Commission__c": 0,
                "Agreed_Commission__c": 0,
                "Agreed_Gross_Premium__c": 0,
                "Agreed_Premium__c": 0,
                "Agreed_Tax__c": 0,
                "Amount_From_Broker_TP__c": 0,
                "Amount_To_Carrier_TP__c": 0,
                "Annual_Amount_From_Broker_AP__c": 158.205,
                "Annual_Amount_To_Carrier_AP__c": 118.455,
                "Annual_Commission_AP__c": 15.9,
                "Annual_Gross_Premium_AP__c": 174.105,
                "Annual_Premium_AP__c": 159,
                "Annual_Tax_AP__c": 15.105,
                "Azur_Commission__c": 0,
                "Chargeable_Amount_From_Broker_CP__c": 158.205,
                "Chargeable_Amount_To_Carrier_CP__c": 118.455,
                "Chargeable_Azur_Commission__c": 39.75,
                "Chargeable_Commission_CP__c": 15.9,
                "Chargeable_Gross_Premium_CP__c": 174.105,
                "Chargeable_Premium_CP__c": 3317.448,
                "Chargeable_Tax_CP__c": 15.105,
                "Commission_AP__c": 15.9,
                "Commission__c": 0,
                "Cover_End_Date__c": "2018-05-17T00:01:00.000Z",
                "Cover_Start_Date__c": "2017-05-17T00:01:00.000Z",
                "Driving_Other_Cars__c": false,
                "Gross_Premium_AP__c": 174.105,
                "Gross_Premium__c": 0,
                "Name": "EU Breakdown",
                "Overritten_Premium__c": 159,
                "Policy_Holder__c": false,
                "PremiumAmount__c": 0,
                "Premium_AP__c": 159,
                "Primary_Driver__c": false,
                "Rated_Driver__c": false,
                "SHOW_ON_Certificate__c": false,
                "Tax_Amount_AP__c": 15.105,
                "Tax_Amount__c": 0,
                "Total_Azur_Commission_AP__c": 39.75,
                "id": "a6Q4E00000001cdUAA",
                "limit__c": 100,
                "type__c": "EU Breakdown"
            }
        ],
        "insuredItem": [
            {
                "Agreed_Commission__c": 27.3968401826484,
                "vehicleCoverages": [
                    {
                        "Active__c": false,
                        "Driving_Other_Cars__c": false,
                        "End_Date__c": "2018-05-17",
                        "Id": "a6Q4E00000001chUAA",
                        "Insured_Item__c": "a6B4E00000004TJUAY",
                        "Name": "a6Q4E00000001cJUAQ",
                        "Policy_Holder__c": false,
                        "Policy_Member_Relationship__c": "a674E00000001ByQAI",
                        "Primary_Driver__c": false,
                        "Rated_Driver__c": false,
                        "SHOW_ON_Certificate__c": false,
                        "Start_Date__c": "2017-05-17T00:01:00.000Z",
                        "Type__c": "Comprehensive",
                        "polMemberRel": {
                            "Account__c": "0014E00000OPgs3QAD",
                            "Total_Conviction_Points__c": 0,
                            "Type__c": "Driver"
                        }
                    },
                    {
                        "Active__c": true,
                        "Driving_Other_Cars__c": false,
                        "Id": "a6Q4E00000001ciUAA",
                        "Insured_Item__c": "a6B4E00000004TJUAY",
                        "Name": "Driver",
                        "Policy_Holder__c": true,
                        "Policy_Member_Relationship__c": "a674E00000001ByQAI",
                        "Primary_Driver__c": true,
                        "Rated_Driver__c": true,
                        "SHOW_ON_Certificate__c": true,
                        "Type__c": "Driver",
                        "polMemberRel": {
                            "Account__c": "0014E00000OPgs3QAD",
                            "Total_Conviction_Points__c": 0,
                            "Type__c": "Driver"
                        }
                    },
                    {
                        "Active__c": false,
                        "Driving_Other_Cars__c": false,
                        "End_Date__c": "2018-05-17",
                        "Excess__c": 100,
                        "Id": "a6Q4E00000001cjUAA",
                        "Insured_Item__c": "a6B4E00000004TJUAY",
                        "Name": "a6Q4E00000001cKUAQ",
                        "Policy_Holder__c": false,
                        "Policy_Member_Relationship__c": "a674E00000001ByQAI",
                        "Primary_Driver__c": false,
                        "Rated_Driver__c": false,
                        "SHOW_ON_Certificate__c": false,
                        "Start_Date__c": "2017-05-17T00:01:00.000Z",
                        "Type__c": "Windscreen",
                        "polMemberRel": {
                            "Account__c": "0014E00000OPgs3QAD",
                            "Total_Conviction_Points__c": 0,
                            "Type__c": "Driver"
                        }
                    },
                    {
                        "Active__c": true,
                        "Agreed_Amount_From_Broker__c": 90.8634,
                        "Agreed_Amount_To_Carrier__c": 68.0334,
                        "Agreed_Azur_Commission__c": 22.83,
                        "Agreed_Commission__c": 9.132,
                        "Agreed_Gross_Premium__c": 99.9954,
                        "Agreed_Premium__c": 91.32,
                        "Agreed_Tax__c": 8.6754,
                        "Amount_From_Broker_TP__c": 90.8634,
                        "Amount_To_Carrier_TP__c": 68.0334,
                        "Annual_Amount_From_Broker_AP__c": 90.8634,
                        "Annual_Amount_To_Carrier_AP__c": 68.0334,
                        "Azur_Commission__c": 22.83,
                        "Chargeable_Amount_From_Broker_CP__c": 90.8634,
                        "Chargeable_Amount_To_Carrier_CP__c": 68.0334,
                        "Chargeable_Azur_Commission__c": 22.83,
                        "Chargeable_Commission_CP__c": 9.132,
                        "Chargeable_Gross_Premium_CP__c": 99.9954,
                        "Chargeable_Premium_CP__c": 91.32,
                        "Chargeable_Tax_CP__c": 8.6754,
                        "Commission_AP__c": 9.132,
                        "Commission__c": 9.132,
                        "Description__c": "test123",
                        "Driving_Other_Cars__c": false,
                        "Gross_Premium_AP__c": 99.9954,
                        "Gross_Premium__c": 99.9954,
                        "Id": "a6Q4E00000001cmUAA",
                        "Insured_Item__c": "a6B4E00000004TJUAY",
                        "Name": "Temporary Vehicle Premium",
                        "Policy_Holder__c": false,
                        "PremiumAmount__c": 91.32,
                        "Premium_AP__c": 91.32,
                        "Primary_Driver__c": false,
                        "Rated_Driver__c": false,
                        "SHOW_ON_Certificate__c": false,
                        "Tax_Amount_AP__c": 8.6754,
                        "Tax_Amount__c": 8.6754,
                        "Total_Azur_Commission_AP__c": 22.83,
                        "Type__c": "Temporary Risk"
                    },
                    {
                        "Active__c": true,
                        "Agreed_Amount_From_Broker__c": 181.7351598173516,
                        "Agreed_Amount_To_Carrier__c": 136.07305936073058,
                        "Agreed_Azur_Commission__c": 45.662100456621005,
                        "Agreed_Commission__c": 18.264840182648403,
                        "Agreed_Gross_Premium__c": 200,
                        "Agreed_Premium__c": 182.64840182648402,
                        "Agreed_Tax__c": 17.35159817351598,
                        "Amount_From_Broker_TP__c": 181.7351598173516,
                        "Amount_To_Carrier_TP__c": 136.07305936073058,
                        "Annual_Amount_From_Broker_AP__c": 181.7351598173516,
                        "Annual_Amount_To_Carrier_AP__c": 136.07305936073058,
                        "Azur_Commission__c": 45.662100456621005,
                        "Chargeable_Amount_From_Broker_CP__c": 181.7351598173516,
                        "Chargeable_Amount_To_Carrier_CP__c": 136.07305936073058,
                        "Chargeable_Azur_Commission__c": 45.662100456621005,
                        "Chargeable_Commission_CP__c": 18.264840182648403,
                        "Chargeable_Gross_Premium_CP__c": 200,
                        "Chargeable_Premium_CP__c": 182.64840182648402,
                        "Chargeable_Tax_CP__c": 17.35159817351598,
                        "Commission_AP__c": 18.264840182648403,
                        "Commission__c": 18.264840182648403,
                        "Description__c": "test2",
                        "Driving_Other_Cars__c": false,
                        "Gross_Premium_AP__c": 200,
                        "Gross_Premium__c": 200,
                        "Id": "a6Q4E00000001crUAA",
                        "Insured_Item__c": "a6B4E00000004TJUAY",
                        "Name": "Temporary Vehicle Premium",
                        "Policy_Holder__c": false,
                        "PremiumAmount__c": 182.64840182648402,
                        "Premium_AP__c": 182.64840182648402,
                        "Primary_Driver__c": false,
                        "Rated_Driver__c": false,
                        "SHOW_ON_Certificate__c": false,
                        "Tax_Amount_AP__c": 17.35159817351598,
                        "Tax_Amount__c": 17.35159817351598,
                        "Total_Azur_Commission_AP__c": 45.662100456621005,
                        "Type__c": "Temporary Risk"
                    }
                ]
            },
            {
                "Active__c": true,
                "AdjustmentPercentage__c": 0,
                "Agreed_Amount_From_Broker__c": 0,
                "Agreed_Amount_To_Carrier__c": 0,
                "Agreed_Azur_Commission__c": 0,
                "Agreed_Commission__c": 0,
                "Agreed_Gross_Premium__c": 0,
                "Agreed_Premium__c": 0,
                "Agreed_Tax__c": 0,
                "Amount_From_Broker_TP__c": 0,
                "Amount_To_Carrier_TP__c": 0,
                "AnnualMileage__c": 10000,
                "Annual_Amount_From_Broker_AP__c": 3300.86076,
                "Annual_Amount_To_Carrier_AP__c": 2471.49876,
                "Annual_Commission_AP__c": 331.7448,
                "Annual_Gross_Premium_AP__c": 3632.60556,
                "Annual_Premium_AP__c": 3317.448,
                "Annual_Premium__c": 2439.3,
                "Annual_Tax_AP__c": 315.15756,
                "Chargable_Premium__c": 0,
                "Chargeable_Amount_From_Broker_CP__c": 3300.86076,
                "Chargeable_Amount_To_Carrier_CP__c": 2471.49876,
                "Chargeable_Azur_Commission_CP__c": 829.362,
                "Chargeable_Commission_CP__c": 331.7448,
                "Chargeable_Gross_Premium_CP__c": 3632.60556,
                "Chargeable_Premium_CP__c": 3317.448,
                "Chargeable_Tax_CP__c": 315.15756,
                "City__c": "London",
                "Commission__c": 0,
                "Compulsory_Excess__c": 250,
                "Country__c": "United Kingdom",
                "Cover_End_Date__c": "2018-05-17T00:01:00.000Z",
                "Cover_Start_Date__c": "2017-05-17T00:01:00.000Z",
                "Driver_Setup__c": "Any driver",
                "Flood_Band__c": "None",
                "Gross_Premium__c": 0,
                "HasModifications__c": "Yes",
                "Id": "a6B4E00000004TJUAY",
                "Item_Overview__c": "LS09OTT - Peugeot 207",
                "Multi_Car_Discount_Rating__c": 1.36,
                "PostCode__c": "SW14 7RA",
                "Product__c": "01t4E000001GE0IQAW",
                "Rated_Excess__c": 0,
                "Rated_Value__c": 2840,
                "Rating_Data__c": "{\"AgeGenderPrice\":2323.14,\"AgeGender__AgeGenderRating\":4.9,\"AnnualMileagePrice\":499.06,\"AnnualMileage__AnnualMileageRating\":1,\"AreaRatingPrice\":599.7,\"AreaRating__AreaRatingFactor\":1.476,\"BasePriceOutput\":406.3,\"CarKeptPrice\":474.11,\"CarKept__CarKeptRating\":0.95,\"Claims&ConvictionsPrice\":474.11,\"Claims&Convictions__ClaimsConvictionsRating\":1,\"EngineSizePrice\":2323.14,\"EngineSize__EngineSizeRating\":1,\"LaidUpDiscount__LaidUpRating\":1,\"LaidUpPrice\":2439.3,\"VehicleAgePrice\":499.06,\"VehicleAge__VehicleAgeRating\":0.89565,\"VehicleGroupPrice\":557.2,\"VehicleGroup__VehicleGroupRating\":1.6562,\"VehicleSecurityPrice\":2439.3,\"VehicleSecurity__SecurityRating\":1,\"VehicleUsePrice\":2439.3,\"VehicleUse__VehicleUseRating\":1.05,\"VehicleValuePrice\":336.43,\"VehicleValue__VehicleValueRating\":0.561,\"VolExcessPrice\":474.11,\"VolExcess__VolExcessRating\":1,\"MultiCarRatingFactor\":1.36}",
                "Rating_Premium__c": 3317.448,
                "Reinsurance_in_place__c": false,
                "SecurityFeatures__c": "None",
                "Street__c": "20 Watney Road",
                "Tax_Amount__c": 0,
                "Total_Azur_Commission_AP__c": 829.362,
                "Total_Azur_Commission__c": 0,
                "Valuation_Type__c": "Agreed",
                "ValueGlasses__c": 2840,
                "Value_Overidden__c": false,
                "VehicleKept__c": "Parked on Drive",
                "VehicleUse__c": "Class 1",
                "Vehicle_Age__c": 8,
                "Vehicle_Area_Code__c": 21,
                "Vehicle_Type__c": "Auto",
                "Vehicle__c": "a6C4E0000004Cd2UAE",
                "Voluntary_Excess__c": "0",
                "vehicleCoverages": [
                    {
                        "Active__c": false,
                        "Driving_Other_Cars__c": false,
                        "End_Date__c": "2018-05-17",
                        "Id": "a6Q4E00000001chUAA",
                        "Insured_Item__c": "a6B4E00000004TJUAY",
                        "Name": "a6Q4E00000001cJUAQ",
                        "Policy_Holder__c": false,
                        "Policy_Member_Relationship__c": "a674E00000001ByQAI",
                        "Primary_Driver__c": false,
                        "Rated_Driver__c": false,
                        "SHOW_ON_Certificate__c": false,
                        "Start_Date__c": "2017-05-17T00:01:00.000Z",
                        "Type__c": "Comprehensive",
                        "polMemberRel": {
                            "Account__c": "0014E00000OPgs3QAD",
                            "Total_Conviction_Points__c": 0,
                            "Type__c": "Driver"
                        }
                    },
                    {
                        "Active__c": true,
                        "Driving_Other_Cars__c": false,
                        "Id": "a6Q4E00000001ciUAA",
                        "Insured_Item__c": "a6B4E00000004TJUAY",
                        "Name": "Driver",
                        "Policy_Holder__c": true,
                        "Policy_Member_Relationship__c": "a674E00000001ByQAI",
                        "Primary_Driver__c": true,
                        "Rated_Driver__c": true,
                        "SHOW_ON_Certificate__c": true,
                        "Type__c": "Driver",
                        "polMemberRel": {
                            "Account__c": "0014E00000OPgs3QAD",
                            "Total_Conviction_Points__c": 0,
                            "Type__c": "Driver"
                        }
                    },
                    {
                        "Active__c": false,
                        "Driving_Other_Cars__c": false,
                        "End_Date__c": "2018-05-17",
                        "Excess__c": 100,
                        "Id": "a6Q4E00000001cjUAA",
                        "Insured_Item__c": "a6B4E00000004TJUAY",
                        "Name": "a6Q4E00000001cKUAQ",
                        "Policy_Holder__c": false,
                        "Policy_Member_Relationship__c": "a674E00000001ByQAI",
                        "Primary_Driver__c": false,
                        "Rated_Driver__c": false,
                        "SHOW_ON_Certificate__c": false,
                        "Start_Date__c": "2017-05-17T00:01:00.000Z",
                        "Type__c": "Windscreen",
                        "polMemberRel": {
                            "Account__c": "0014E00000OPgs3QAD",
                            "Total_Conviction_Points__c": 0,
                            "Type__c": "Driver"
                        }
                    },
                    {
                        "Active__c": true,
                        "Agreed_Amount_From_Broker__c": 90.8634,
                        "Agreed_Amount_To_Carrier__c": 68.0334,
                        "Agreed_Azur_Commission__c": 22.83,
                        "Agreed_Commission__c": 9.132,
                        "Agreed_Gross_Premium__c": 99.9954,
                        "Agreed_Premium__c": 91.32,
                        "Agreed_Tax__c": 8.6754,
                        "Amount_From_Broker_TP__c": 90.8634,
                        "Amount_To_Carrier_TP__c": 68.0334,
                        "Annual_Amount_From_Broker_AP__c": 90.8634,
                        "Annual_Amount_To_Carrier_AP__c": 68.0334,
                        "Azur_Commission__c": 22.83,
                        "Chargeable_Amount_From_Broker_CP__c": 90.8634,
                        "Chargeable_Amount_To_Carrier_CP__c": 68.0334,
                        "Chargeable_Azur_Commission__c": 22.83,
                        "Chargeable_Commission_CP__c": 9.132,
                        "Chargeable_Gross_Premium_CP__c": 99.9954,
                        "Chargeable_Premium_CP__c": 91.32,
                        "Chargeable_Tax_CP__c": 8.6754,
                        "Commission_AP__c": 9.132,
                        "Commission__c": 9.132,
                        "Description__c": "test123",
                        "Driving_Other_Cars__c": false,
                        "Gross_Premium_AP__c": 99.9954,
                        "Gross_Premium__c": 99.9954,
                        "Id": "a6Q4E00000001cmUAA",
                        "Insured_Item__c": "a6B4E00000004TJUAY",
                        "Name": "Temporary Vehicle Premium",
                        "Policy_Holder__c": false,
                        "PremiumAmount__c": 91.32,
                        "Premium_AP__c": 91.32,
                        "Primary_Driver__c": false,
                        "Rated_Driver__c": false,
                        "SHOW_ON_Certificate__c": false,
                        "Tax_Amount_AP__c": 8.6754,
                        "Tax_Amount__c": 8.6754,
                        "Total_Azur_Commission_AP__c": 22.83,
                        "Type__c": "Temporary Risk"
                    },
                    {
                        "Active__c": true,
                        "Agreed_Amount_From_Broker__c": 181.7351598173516,
                        "Agreed_Amount_To_Carrier__c": 136.07305936073058,
                        "Agreed_Azur_Commission__c": 45.662100456621005,
                        "Agreed_Commission__c": 18.264840182648403,
                        "Agreed_Gross_Premium__c": 200,
                        "Agreed_Premium__c": 182.64840182648402,
                        "Agreed_Tax__c": 17.35159817351598,
                        "Amount_From_Broker_TP__c": 181.7351598173516,
                        "Amount_To_Carrier_TP__c": 136.07305936073058,
                        "Annual_Amount_From_Broker_AP__c": 181.7351598173516,
                        "Annual_Amount_To_Carrier_AP__c": 136.07305936073058,
                        "Azur_Commission__c": 45.662100456621005,
                        "Chargeable_Amount_From_Broker_CP__c": 181.7351598173516,
                        "Chargeable_Amount_To_Carrier_CP__c": 136.07305936073058,
                        "Chargeable_Azur_Commission__c": 45.662100456621005,
                        "Chargeable_Commission_CP__c": 18.264840182648403,
                        "Chargeable_Gross_Premium_CP__c": 200,
                        "Chargeable_Premium_CP__c": 182.64840182648402,
                        "Chargeable_Tax_CP__c": 17.35159817351598,
                        "Commission_AP__c": 18.264840182648403,
                        "Commission__c": 18.264840182648403,
                        "Description__c": "test2",
                        "Driving_Other_Cars__c": false,
                        "Gross_Premium_AP__c": 200,
                        "Gross_Premium__c": 200,
                        "Id": "a6Q4E00000001crUAA",
                        "Insured_Item__c": "a6B4E00000004TJUAY",
                        "Name": "Temporary Vehicle Premium",
                        "Policy_Holder__c": false,
                        "PremiumAmount__c": 182.64840182648402,
                        "Premium_AP__c": 182.64840182648402,
                        "Primary_Driver__c": false,
                        "Rated_Driver__c": false,
                        "SHOW_ON_Certificate__c": false,
                        "Tax_Amount_AP__c": 17.35159817351598,
                        "Tax_Amount__c": 17.35159817351598,
                        "Total_Azur_Commission_AP__c": 45.662100456621005,
                        "Type__c": "Temporary Risk"
                    }
                ]
            }
        ],
        "polClauseAssignments": {
            "Active__c": true,
            "Custom_Clause__c": false,
            "Customised_from_Standard_Clause__c": false
        },
        "primaryProducerId": "0034E00000Rb1XrQAJ",
        "status": "MTA Quote"
    },
    "assetCloned": "cloning test",
    "cloneType": "withoutPrevious",
    "id": "a3f4E0000004eXpQAI",
    "newPolicyStatus": "MTA Quote",
    "recordTypeId": "0124E0000000Os0QAE",
    "recordTypes": {
        "Id": "0124E0000000Os0QAE"
    },
    "timeStamp": "2017-05-17T14:36:01.971Z",
    "userName": "cdecisions@azuruw.com.vlctyrone",
    "userProfile": "System Administrator",
    "vlcPersistentComponent": {
    },
    "vlcTimeTracking": {
        "DRExtractAssetForClone": 2458,
        "DRPostAssetForClone": 1422,
        "DRPostCoveragesIssued": 2982,
        "DRPostInsuredItemsVehiclesIssued": 3657,
        "DRPostPolicyClauses": 1055,
        "OmniScriptSessionToken": "80148069-e56a-4f71-befd-1c99325212f9",
        "TEST-dELETEoNaCTIVATION": 5
    }
}