{
    "%vlocity_namespace%__Active__c": true,
    "%vlocity_namespace%__OmniScriptId__c": {
        "Name": "MTA Policy",
        "VlocityDataPackType": "VlocityMatchingKeyObject",
        "VlocityMatchingRecordSourceKey": "%vlocity_namespace%__OmniScript__c/EW/MTA Policy/English",
        "VlocityRecordSObjectType": "%vlocity_namespace%__OmniScript__c"
    },
    "%vlocity_namespace%__PropertySet__c": {
        "HTMLTemplateId": "",
        "controlWidth": 12,
        "disOnTplt": false,
        "extraPayload": {
        },
        "failureAbortLabel": "Abort",
        "failureAbortMessage": "Are you sure?",
        "failureNextLabel": "Continue",
        "inProgressMessage": "In Progress",
        "label": null,
        "message": {
        },
        "namedCredential": "",
        "postMessage": "Done",
        "postTransformBundle": "EW-DRPostTransformJointSanctions",
        "preTransformBundle": "",
        "redirectNextLabel": "Next",
        "redirectNextWidth": 3,
        "redirectPageName": "",
        "redirectPreviousLabel": "Previous",
        "redirectPreviousWidth": 3,
        "redirectTemplateUrl": "vlcAcknowledge.html",
        "responseJSONNode": "",
        "responseJSONPath": "",
        "restMethod": "GET",
        "restOptions": {
            "URIEncode": false,
            "cache": false,
            "headers": {
            },
            "params": {
                "firstName": "%fullJSONData:clientNode:jointInsFirstName%",
                "fuzziness": "%sanctionCheckFuzziness%",
                "lastName": "%%fullJSONData:clientNode:jointInsLastName%",
                "nationality": "%fullJSONData:clientNode:jointInsNationality-Block:jointCountryCode%",
                "type": "=IF(%featureSwitches:SanctionsCheckinLive__c%, \"live\",\"test\")",
		"yob": "%fullJSONData:clientNode:jointInsYearOfBirth%"
            },
            "sendBody": true,
            "timeout": 0,
            "withCredentials": false
        },
        "restPath": "https://azur-integrations.herokuapp.com/sanctions",
        "sendJSONNode": "",
        "sendJSONPath": "",
        "show": {
            "group": {
                "operator": "AND",
                "rules": [
                    {
                        "condition": "=",
                        "data": "true",
                        "field": "featureSwitches:Bind_SanctionChecking__c"
                    },
                    {
                        "condition": "=",
                        "data": "true",
                        "field": "hasJointPolicyHolder"
                    },
                    {
                        "condition": "=",
                        "data": "true",
                        "field": "jointInsChanged"
                    }
                ]
            }
        },
        "showPersistentComponent": [
            false,
            false
        ],
        "ssm": false,
        "svgIcon": "",
        "svgSprite": "",
        "type": "Web",
        "validationRequired": "None",
        "wpm": false,
        "xmlPostTransformBundle": "",
        "xmlPreTransformBundle": ""
    },
    "%vlocity_namespace%__ReusableOmniScript__c": false,
    "%vlocity_namespace%__Type__c": "Rest Action",
    "CurrencyIsoCode": "GBP",
    "Name": "getJointInsuredSanctionsResult",
    "VlocityDataPackType": "SObject",
    "VlocityRecordSObjectType": "%vlocity_namespace%__Element__c",
    "VlocityRecordSourceKey": "%vlocity_namespace%__Element__c/%vlocity_namespace%__OmniScript__c/EW/MTA Policy/English/getJointInsuredSanctionsResult"
}