{
    "%vlocity_namespace%__Active__c": true,
    "%vlocity_namespace%__InternalNotes__c": "NOTE - THIS FUNCTIONALITY WORKS IN THE COMMUNITY, NOT IN THE DESIGNER",
    "%vlocity_namespace%__OmniScriptId__c": {
        "Name": "MTA Policy",
        "VlocityDataPackType": "VlocityMatchingKeyObject",
        "VlocityMatchingRecordSourceKey": "%vlocity_namespace%__OmniScript__c/EW/MTA Policy/English",
        "VlocityRecordSObjectType": "%vlocity_namespace%__OmniScript__c"
    },
    "%vlocity_namespace%__PropertySet__c": {
        "HTMLTemplateId": "",
        "Outcome": "",
        "consoleTabLabel": "New",
        "controlWidth": 12,
        "disOnTplt": false,
        "label": "DoneAction3",
        "message": {
        },
        "redirectPageName": "mobileDone",
        "redirectTemplateUrl": "vlcMobileConfirmation.html",
        "show": {
            "group": {
                "operator": "OR",
                "rules": [
                    {
                        "condition": "=",
                        "data": "false",
                        "field": "ContinueWithBind"
                    },
                    {
                        "condition": "=",
                        "data": "false",
                        "field": "policyId"
                    }
                ]
            }
        },
        "source": "ltngpage:/quote/Quote/Recent",
        "ssm": false,
        "type": "URL",
        "validationRequired": null,
        "wpm": false
    },
    "%vlocity_namespace%__ReusableOmniScript__c": false,
    "%vlocity_namespace%__Type__c": "Done Action",
    "CurrencyIsoCode": "GBP",
    "Name": "ReturnToHome",
    "VlocityDataPackType": "SObject",
    "VlocityRecordSObjectType": "%vlocity_namespace%__Element__c",
    "VlocityRecordSourceKey": "%vlocity_namespace%__Element__c/%vlocity_namespace%__OmniScript__c/EW/MTA Policy/English/ReturnToHome"
}