{
    "%vlocity_namespace%__Active__c": true,
    "%vlocity_namespace%__OmniScriptId__c": {
        "Name": "MTA Policy",
        "VlocityDataPackType": "VlocityMatchingKeyObject",
        "VlocityMatchingRecordSourceKey": "%vlocity_namespace%__OmniScript__c/EW/MTA Policy/English",
        "VlocityRecordSObjectType": "%vlocity_namespace%__OmniScript__c"
    },
    "%vlocity_namespace%__PropertySet__c": {
        "HTMLTemplateId": "",
        "Outcome": "",
        "consoleTabLabel": "New",
        "controlWidth": 4,
        "disOnTplt": false,
        "label": "Edit MTA",
        "message": {
        },
        "redirectPageName": "mobileDone",
        "redirectTemplateUrl": "vlcMobileConfirmation.html",
        "show": {
            "group": {
                "operator": "AND",
                "rules": [
                    {
                        "condition": "=",
                        "data": "false",
                        "field": "effectiveDateIsValid"
                    }
                ]
            }
        },
        "source": "%urlEditMta%",
        "ssm": false,
        "type": "URL",
        "validationRequired": null,
        "wpm": false
    },
    "%vlocity_namespace%__ReusableOmniScript__c": false,
    "%vlocity_namespace%__Type__c": "Done Action",
    "CurrencyIsoCode": "GBP",
    "Name": "DA_backToMtaEdit",
    "VlocityDataPackType": "SObject",
    "VlocityRecordSObjectType": "%vlocity_namespace%__Element__c",
    "VlocityRecordSourceKey": "%vlocity_namespace%__Element__c/%vlocity_namespace%__OmniScript__c/EW/MTA Policy/English/DA_backToMtaEdit"
}