{
    "%vlocity_namespace%__Active__c": true,
    "%vlocity_namespace%__OmniScriptId__c": {
        "Name": "MTA Policy",
        "VlocityDataPackType": "VlocityMatchingKeyObject",
        "VlocityMatchingRecordSourceKey": "%vlocity_namespace%__OmniScript__c/EW/MTA Policy/English",
        "VlocityRecordSObjectType": "%vlocity_namespace%__OmniScript__c"
    },
    "%vlocity_namespace%__PropertySet__c": {
        "HTMLTemplateId": "",
        "bundle": "EW-DRCreatePCLAdjustmentRequestBody",
        "controlWidth": 12,
        "dataRaptor Input Parameters": [
            {
                "element": "qDetails:quote:EWQuoteDisplayNumber__c",
                "inputParam": "quoteName"
            },
            {
                "element": "qDetails:quote:LoanAmount",
                "inputParam": "quoteLoanAmount"
            },
            {
                "element": "qDetails:quote:%vlocity_namespace%__EffectiveDate__c",
                "inputParam": "quoteEffectiveDate"
            }
        ],
        "disOnTplt": false,
        "enableActionMessage": false,
        "enableDefaultAbort": false,
        "errorMessage": {
            "custom": [
            ],
            "default": null
        },
        "failureAbortLabel": "Abort",
        "failureAbortMessage": "Are you sure?",
        "failureGoBackLabel": "Go Back",
        "failureNextLabel": "Continue",
        "ignoreCache": false,
        "inProgressMessage": "In Progress",
        "label": null,
        "message": {
        },
        "postMessage": "Done",
        "pubsub": false,
        "redirectNextLabel": "Next",
        "redirectNextWidth": 3,
        "redirectPageName": "",
        "redirectPreviousLabel": "Previous",
        "redirectPreviousWidth": 3,
        "redirectTemplateUrl": "vlcAcknowledge.html",
        "remoteTimeout": 30000,
        "responseJSONNode": "pclRequestBody",
        "responseJSONPath": "",
        "show": {
            "group": {
                "operator": "AND",
                "rules": [
                    {
                        "condition": "=",
                        "data": "Direct Debit",
                        "field": "paymentMethod"
                    }
                ]
            }
        },
        "showPersistentComponent": [
            false,
            false
        ],
        "ssm": false,
        "validationRequired": "Step",
        "wpm": false
    },
    "%vlocity_namespace%__ReusableOmniScript__c": false,
    "%vlocity_namespace%__Type__c": "DataRaptor Extract Action",
    "CurrencyIsoCode": "GBP",
    "Name": "createPCLCallRequest",
    "VlocityDataPackType": "SObject",
    "VlocityRecordSObjectType": "%vlocity_namespace%__Element__c",
    "VlocityRecordSourceKey": "%vlocity_namespace%__Element__c/%vlocity_namespace%__OmniScript__c/EW/MTA Policy/English/createPCLCallRequest"
}