{
    "%vlocity_namespace%__Active__c": true,
    "%vlocity_namespace%__OmniScriptId__c": {
        "Name": "MTA Policy",
        "VlocityDataPackType": "VlocityMatchingKeyObject",
        "VlocityMatchingRecordSourceKey": "%vlocity_namespace%__OmniScript__c/EW/MTA Policy/English",
        "VlocityRecordSObjectType": "%vlocity_namespace%__OmniScript__c"
    },
    "%vlocity_namespace%__PropertySet__c": {
        "Language": "English",
        "Sub Type": "Documents",
        "Type": "EW Policy",
        "disOnTplt": false,
        "show": {
            "group": {
                "operator": "AND",
                "rules": [
                    {
                        "condition": "=",
                        "data": "true",
                        "field": "ContinueWithBind"
                    },
                    {
                        "condition": "<>",
                        "data": null,
                        "field": "policyId"
                    },
                    {
                        "condition": "=",
                        "data": "true",
                        "field": "effectiveDateIsValid"
                    }
                ]
            }
        }
    },
    "%vlocity_namespace%__ReusableOmniScript__c": false,
    "%vlocity_namespace%__SearchKey__c": "EW Policy|Documents|English",
    "%vlocity_namespace%__Type__c": "OmniScript",
    "CurrencyIsoCode": "GBP",
    "Name": "EWPolicyDocuments1",
    "VlocityDataPackType": "SObject",
    "VlocityRecordSObjectType": "%vlocity_namespace%__Element__c",
    "VlocityRecordSourceKey": "%vlocity_namespace%__Element__c/%vlocity_namespace%__OmniScript__c/EW/MTA Policy/English/EWPolicyDocuments1"
}