{
    "%vlocity_namespace%__AdditionalInformation__c": "EWH-1778 Direct Debit MTA and Windback",
    "%vlocity_namespace%__DisableMetadataCache__c": false,
    "%vlocity_namespace%__ElementTypeToHTMLTemplateList__c": "{\"ElementTypeToHTMLTemplateList\":[\"ins-os-attribute-component\",\"ins-os-coverage-component\",\"ew-omniLightning-vlcRemoteAction\",\"ew-omniLightning-vlcRemoteAction\",\"ew-omniLightning-vlcRemoteAction\",\"ew-omniLightning-vlcRemoteAction\",\"ew-omniLightning-vlcRemoteAction\"]}",
    "%vlocity_namespace%__Element__c": [
        "EW_MTA-Policy_English_Element_TEST_underwriterBind.json",
        "EW_MTA-Policy_English_Element_extractRecordTypes.json",
        "EW_MTA-Policy_English_Element_getFeatureSwtiches.json",
        "EW_MTA-Policy_English_Element_SetQuoteId.json",
        "EW_MTA-Policy_English_Element_TEST-Set-values.json",
        "EW_MTA-Policy_English_Element_extractQuoteDetails.json",
        "EW_MTA-Policy_English_Element_extractBrokerDetails.json",
        "EW_MTA-Policy_English_Element_checkIsQuoteActive.json",
        "EW_MTA-Policy_English_Element_getURLs.json",
        "EW_MTA-Policy_English_Element_setURLs.json",
        "EW_MTA-Policy_English_Element_getCoverageDetails.json",
        "EW_MTA-Policy_English_Element_getFullJSONData.json",
        "EW_MTA-Policy_English_Element_setFormDefaultValues.json",
        "EW_MTA-Policy_English_Element_extractJointInsured.json",
        "EW_MTA-Policy_English_Element_setDefaultValue.json",
        "EW_MTA-Policy_English_Element_checkContinueWithBind.json",
        "EW_MTA-Policy_English_Element_EffectiveDateInPast.json",
        "EW_MTA-Policy_English_Element_effectiveDateHasPassedError.json",
        "EW_MTA-Policy_English_Element_DA_backToMtaEdit.json",
        "EW_MTA-Policy_English_Element_BindQuote.json",
        "EW_MTA-Policy_English_Element_quoteHeadline.json",
        "EW_MTA-Policy_English_Element_quoteHeadilineForDirectDebit.json",
        "EW_MTA-Policy_English_Element_spacing.json",
        "EW_MTA-Policy_English_Element_btnEditMta.json",
        "EW_MTA-Policy_English_Element_checkForDuplication.json",
        "EW_MTA-Policy_English_Element_setMainSwitch.json",
        "EW_MTA-Policy_English_Element_createPCLCallRequest.json",
        "EW_MTA-Policy_English_Element_IP_PCLAgreementAdjustmentCallout.json",
        "EW_MTA-Policy_English_Element_DR_PostDDErrors.json",
        "EW_MTA-Policy_English_Element_PCLUnauthorizedCalloutError.json",
        "EW_MTA-Policy_English_Element_UnauthorizedOrUnavailableError.json",
        "EW_MTA-Policy_English_Element_PCLDeclineCalloutError.json",
        "EW_MTA-Policy_English_Element_DeclineError.json",
        "EW_MTA-Policy_English_Element_IP_PCLQueuedResponseHandling.json",
        "EW_MTA-Policy_English_Element_PCLQueuedStatusWarning.json",
        "EW_MTA-Policy_English_Element_QueuedWarning.json",
        "EW_MTA-Policy_English_Element_createPolicySnapshot.json",
        "EW_MTA-Policy_English_Element_checkSnapshotOK.json",
        "EW_MTA-Policy_English_Element_setIfInsuredsChanged.json",
        "EW_MTA-Policy_English_Element_getPrimaryInsuredSanctionsResult.json",
        "EW_MTA-Policy_English_Element_postPrimaryInsuredSanctionsResult.json",
        "EW_MTA-Policy_English_Element_getJointInsuredSanctionsResult.json",
        "EW_MTA-Policy_English_Element_postJointInsuredSanctionsResult.json",
        "EW_MTA-Policy_English_Element_sanctionsResult.json",
        "EW_MTA-Policy_English_Element_sanctionsJointResultSet.json",
        "EW_MTA-Policy_English_Element_updateSanctionsResult.json",
        "EW_MTA-Policy_English_Element_sanctionsCheckFinalResult.json",
        "EW_MTA-Policy_English_Element_createUpdatePolicy.json",
        "EW_MTA-Policy_English_Element_postPropertyInsuredItems.json",
        "EW_MTA-Policy_English_Element_postSpecifiedInsuredItems.json",
        "EW_MTA-Policy_English_Element_postClauses.json",
        "EW_MTA-Policy_English_Element_updateQuoteStatus.json",
        "EW_MTA-Policy_English_Element_postClaims.json",
        "EW_MTA-Policy_English_Element_updatePolicyStatus.json",
        "EW_MTA-Policy_English_Element_RA_expireRenewalQuote.json",
        "EW_MTA-Policy_English_Element_RA_ChangeEmailTemplateFlagOnPolicy.json",
        "EW_MTA-Policy_English_Element_RA_copyNotesFromQuote.json",
        "EW_MTA-Policy_English_Element_RA_updatePolicyBrokerage.json",
        "EW_MTA-Policy_English_Element_UnableToBind.json",
        "EW_MTA-Policy_English_Element_errorHasExistingPolicy.json",
        "EW_MTA-Policy_English_Element_errorInactiveQuote.json",
        "EW_MTA-Policy_English_Element_errorSanctionsChecking.json",
        "EW_MTA-Policy_English_Element_EWPolicyDocuments1.json",
        "EW_MTA-Policy_English_Element_ReturnToHome.json",
        "EW_MTA-Policy_English_Element_DisplayPolicy.json"
    ],
    "%vlocity_namespace%__IsLwcEnabled__c": false,
    "%vlocity_namespace%__IsProcedure__c": false,
    "%vlocity_namespace%__IsReusable__c": false,
    "%vlocity_namespace%__Language__c": "English",
    "%vlocity_namespace%__PropertySet__c": "EW_MTA-Policy_English_PropertySet.json",
    "%vlocity_namespace%__SubType__c": "MTA Policy",
    "%vlocity_namespace%__TestHTMLTemplates__c": "EW_MTA-Policy_English_HTMLTemplates.html",
    "%vlocity_namespace%__Type__c": "EW",
    "CurrencyIsoCode": "GBP",
    "Name": "MTA Policy",
    "VlocityDataPackType": "SObject",
    "VlocityRecordSObjectType": "%vlocity_namespace%__OmniScript__c",
    "VlocityRecordSourceKey": "%vlocity_namespace%__OmniScript__c/EW/MTA Policy/English"
}