{
    "%vlocity_namespace%__AdditionalInformation__c": "Proxy Omniscript which allows us to generate documents upon a click on button in Vlocity Card.",
    "%vlocity_namespace%__CustomJavaScript__c": "EW_Document-From-Card_English_JavaScript.js",
    "%vlocity_namespace%__ElementTypeToHTMLTemplateList__c": "{\"ElementTypeToHTMLTemplateList\":[]}",
    "%vlocity_namespace%__Element__c": [
        "EW_Document-From-Card_English_Element_SV_DefinitionOfContext.json",
        "EW_Document-From-Card_English_Element_IP_PolicyDocumentCreation.json",
        "EW_Document-From-Card_English_Element_IP_QuoteDocumentCreation.json",
        "EW_Document-From-Card_English_Element_SV_SetURLs.json",
        "EW_Document-From-Card_English_Element_Step_DocumentGenerationResult.json",
        "EW_Document-From-Card_English_Element_PolicyMessage.json",
        "EW_Document-From-Card_English_Element_QuoteMessage.json",
        "EW_Document-From-Card_English_Element_generateDocument.json"
    ],
    "%vlocity_namespace%__IsProcedure__c": false,
    "%vlocity_namespace%__IsReusable__c": true,
    "%vlocity_namespace%__Language__c": "English",
    "%vlocity_namespace%__PropertySet__c": "EW_Document-From-Card_English_PropertySet.json",
    "%vlocity_namespace%__SubType__c": "Document From Card",
    "%vlocity_namespace%__TestHTMLTemplates__c": "EW_Document-From-Card_English_HTMLTemplates.html",
    "%vlocity_namespace%__Type__c": "EW",
    "CurrencyIsoCode": "GBP",
    "Name": "DocumentFromCards",
    "VlocityDataPackType": "SObject",
    "VlocityRecordSObjectType": "%vlocity_namespace%__OmniScript__c",
    "VlocityRecordSourceKey": "%vlocity_namespace%__OmniScript__c/EW/Document From Card/English"
}