{
    "ContextId": "",
    "Range1": 7,
    "additionalQuoteData": {
        "underwriterAdjustmentPercent": 10
    },
    "ambAPIResponse": {
        "address": "4, OLD HILL, ORPINGTON, BR6 6BN",
        "addressVersion": "GB_ABP_E60",
        "administrative_area": "BROMLEY",
        "band": "Significant",
        "bufferRadius": 15,
        "building_name": "",
        "building_number": "4",
        "changeType": "I",
        "class": "RD03",
        "code": 200,
        "combinedFloodScore": 64,
        "country": "ENG",
        "defendedCombinedFloodScore": 64,
        "defendedFluvial1000YrDepth": 0,
        "defendedFluvial100YrDepth": 0,
        "defendedFluvial250YrDepth": 0,
        "defendedFluvial500YrDepth": 0,
        "defendedFluvial75YrDepth": 0,
        "defendedFluvialFloodScore": 0,
        "defendedFluvil30YrDepth": 0,
        "defendedTidal1000YrDepth": 0,
        "defendedTidal100YrDepth": 0,
        "defendedTidal250YrDepth": 0,
        "defendedTidal30YrDepth": 0,
        "defendedTidal500YrDepth": 0,
        "defendedTidal75YrDepth": 0,
        "defendedTidalFloodScore": 0,
        "department_name": "",
        "dependent_locality": "",
        "distanceToNearestFluvialFloodplain": "18m",
        "distanceToNearestPluvialFloodplain": "Within",
        "distanceToNearestTidalFloodplain": "> 250m",
        "floodDefences": 0,
        "floodRatingScore": 13,
        "fluvial1000YrDepth": 0,
        "fluvial100YrDepth": 0,
        "fluvial250YrDepth": 0,
        "fluvial30YrDepth": 0,
        "fluvial500YrDepth": 0,
        "fluvial75YrDepth": 0,
        "fluvialFloodScore": 0,
        "groundWaterRisk": 4,
        "id": 10614856,
        "latitude": 51.3498791,
        "locality": "",
        "longitude": 0.088024,
        "message": "OK",
        "modelledOnLidar": 1,
        "organisation": "",
        "organisation_name": "",
        "pao_end_number": "",
        "pao_end_suffix": "",
        "pao_start_number": "4",
        "pao_start_suffix": "",
        "pao_text": "",
        "pluvial1000YrDepth": 1.09909999370575,
        "pluvial100YrDepth": 0.458769977092743,
        "pluvial250YrDepth": 0.673370003700256,
        "pluvial30YrDepth": 0.279039978981018,
        "pluvial500YrDepth": 0.886299967765808,
        "pluvial75YrDepth": 0.411180019378662,
        "pluvialFloodScore": 64,
        "postcodeLocator": "BR6 6BN",
        "sao_end_number": "",
        "sao_end_suffix": "",
        "sao_start_number": "",
        "sao_start_suffix": "",
        "sao_text": "",
        "street_description": "OLD HILL",
        "sub_building_name": "",
        "thoroughfare": "OLD HILL",
        "tidal1000YrDepth": 0,
        "tidal100YrDepth": 0,
        "tidal250YrDepth": 0,
        "tidal30YrDepth": 0,
        "tidal500YrDepth": 0,
        "tidal75YrDepth": 0,
        "tidalFloodScore": 0,
        "town_name": "ORPINGTON",
        "uprn": 100020469214,
        "xCoordinate": 545503,
        "yCoordinate": 163269
    },
    "azurPercentageCommission": 0.12,
    "basePremium": 1,
    "blockQuote": false,
    "brokerAccountName": "Llyr Jones",
    "brokerCampaign": "Base Campaign",
    "brokerPercentageCommission": "0.24",
    "buildingsLimitTotal": 1000000,
    "burglarAlarm": "Not asked/None",
    "businessUse": "No",
    "calculateBuildingsPremium": "true",
    "claimScores": {
        "AccidentalDamageClaimScore": 0,
        "ID": "UserInputList",
        "MultiClaimFactor__multiFactor": 1,
        "OtherClaimScore": 0,
        "TheftClaimScore": 0,
        "WaterDamageClaimScore": 0,
        "scoredClaims": [
        ]
    },
    "claimsUnderwritingTotalScore": 0,
    "clientDetails": {
        "StartDateBlock": {
            "effectiveFromStartDate": "2018-11-30T00:00:00.000Z",
            "effectiveFromStartDateValidationFormula": true,
            "startDateTextValidation": true
        },
        "brokerConfirmation": "yes",
        "businessSelectedValidation": false,
        "hasJointPolicyHolder": "no",
        "jointBusinessSelectedValidation": false,
        "jointInsAge": null,
        "jointInsBirthdate": null,
        "jointInsBirthdateText": null,
        "jointInsBusinessType-Block": null,
        "jointInsFirstName": null,
        "jointInsLastName": null,
        "jointInsNationality-Block": null,
        "jointInsOccupation-Block": null,
        "jointInsSalutation": null,
        "jointInsYearOfBirth": "",
        "jointNationalitySelectedValidation": false,
        "jointOccupationSelectedValidation": false,
        "msgDeclarationsFalse": false,
        "msgInsuredAge": false,
        "nationalitySelectedValidation": false,
        "occupationSelectedValidation": true,
        "primaryInsuredSanctionsResult": "Passed",
        "primeInsAge": 28,
        "primeInsBirthdate": "1990-09-20T00:00:00.000Z",
        "primeInsBirthdateText": "20/09/1990",
        "primeInsBusinessType-Block": null,
        "primeInsFirstName": "Devel",
        "primeInsHasLivePolicy": false,
        "primeInsHasLiveQuote": false,
        "primeInsIsDuplicate": false,
        "primeInsLastName": "rerq",
        "primeInsNationality-Block": {
            "nationalityTypeaheadId": "aD60D000000000oSAA",
            "primeInsNationality": "Greek"
        },
        "primeInsOccupation-Block": {
            "primeInsOccupation": "Developer",
            "typeaheadId": null,
            "typeaheadScore": null
        },
        "primeInsSalutation": "Mr.",
        "primeInsuredYearOfBirth": "1990",
        "radioBankrupt": "No",
        "radioOffence": "No",
        "radioPreviousInsuranceRefused": "No",
        "radioSpecialTerms": "No",
        "sanctionsCheckDateTime": "2018-11-30T15:47:59.000Z"
    },
    "closeDate": "2018-11-30T00:00:00.000Z",
    "constructionWork": "Not more than £75k of renovation work",
    "contentsLimitTotal": "Unlimited",
    "damageClaimScore": 0,
    "daysUnoccupied": "Unoccupied Less than 60 days",
    "defaultExcess": 500,
    "employersLiability": 5000000,
    "error": "OK",
    "excess": 500,
    "fireSmokeAlarm": "Battery Operated Detector or More",
    "flatRoofPercentage": "Up to 25%",
    "floorInteraction": "Other Homes",
    "homeEmergencyCoverageLimit": 1000,
    "homeEmergencyPremium": 8.7,
    "id": "a3f0D0000008cpdQAA",
    "insurancePremiumTaxRate": "Standard rate IPT",
    "iptPercent": 0.12,
    "isdtp": "p1",
    "jointInsAge": 0,
    "jointPolicyCategory": "Not a joint policy",
    "layout": "lightning",
    "legalExpenses": 31,
    "legalExpensesCoverageLimit": 100000,
    "listedStatus": "Not Listed/ Not Protected",
    "objectType": "Picklist_Section__c",
    "occupancyType": "Main residence",
    "openToPublic": "Never",
    "opptyName": "Llyr Jones-EW-30-11-2018",
    "otherClaimScore": 0,
    "otherPermanentStructures": 200000,
    "outraAPIResponse": {
        "bathrooms": 1,
        "bathrooms$confidence": 0.709702,
        "bathrooms$is_modelled": true,
        "bedrooms": 3,
        "bedrooms$confidence": 0.392036,
        "bedrooms$is_modelled": true,
        "building_name": null,
        "building_number": "4",
        "code": 200,
        "dependent_locality": null,
        "dependent_thoroughfare": null,
        "double_dependent_locality": null,
        "floor_area": 104,
        "floor_area$confidence": 0.702922,
        "floor_area$is_modelled": true,
        "ht_property_type": "Semi-Detached",
        "ht_property_type$confidence": 0.5102,
        "ht_property_type$is_modelled": true,
        "id": 206039472,
        "last_rent": null,
        "last_sale_date": null,
        "listed": false,
        "listed$confidence": null,
        "listed$grade": null,
        "message": "OK",
        "most_recent_new_home_approval": null,
        "most_recent_planning_app_date": null,
        "most_recent_planning_dev_type": null,
        "most_recent_planning_stage": null,
        "most_recent_planning_start_date": null,
        "planning_applications_past_5_years": null,
        "planning_approvals_past_5_years": null,
        "postcode": "BR6 6BN",
        "property_rental_value": 2047.46,
        "property_rental_value$confidence": 0.83348,
        "property_rental_value$is_modelled": false,
        "property_style": "Semi-Detached",
        "property_style$confidence": 0.43011,
        "property_style$is_modelled": true,
        "property_type": "House",
        "property_type$confidence": 0.769006,
        "property_type$is_modelled": true,
        "property_value": 530174,
        "property_value$confidence": 0.86948,
        "property_value$is_modelled": false,
        "reinstatement_cost_final_adjusted_azur": 224784,
        "reinstatement_cost_higher_rate_azur": 260000,
        "reinstatement_cost_higher_rate_azur$confidence": 0.702922,
        "reinstatement_cost_ht": null,
        "reinstatement_cost_notional": 199609,
        "reinstatement_cost_notional$confidence": 0.309451,
        "reinstatement_cost_outra": 187320,
        "reinstatement_cost_outra$confidence": 0.554847,
        "rent_anniversary": null,
        "sale_anniversary": null,
        "sub_building_name": null,
        "tenure": "Freehold",
        "tenure$confidence": 0.980348,
        "tenure$is_modelled": true,
        "thoroughfare": "OLD HILL",
        "uprn": "100020469214",
        "year_built": 1969,
        "year_built$confidence": 0.969905,
        "year_built$is_modelled": true
    },
    "paymentMethod": "Broker Collection",
    "personalCyberCoverageLimit": 50000,
    "personalCyberPremium": 24.21,
    "policyAge": 0,
    "previousInsurance": "You have insurance in place at the risk address and have done so for more than one year",
    "primeInsAge": 0,
    "primeInsAgeDecimal": 28.19,
    "propAmbPostalCode-Block": {
        "country": "ENG"
    },
    "propertyAge": 49,
    "propertyDetails": {
        "artSpec": 0,
        "artSpecifiedCheck": true,
        "blockCoverage": {
            "alarmCheck": null,
            "rangeArt": 10000,
            "rangeJewelleryWatches": 10000,
            "rangePedalCycles": 2000,
            "rangeTenantsImprovements": null,
            "safeCheck": null
        },
        "declineWarningMessage": false,
        "editBlockClaimsHistory": null,
        "editBlockSpecifiedItems": null,
        "formulaListedStatus": "Not Listed/Not protected",
        "jewelleryCheck": true,
        "jewellerySpec": 0,
        "multiDeclarationsConfirmationOne": "yes",
        "pedalSpec": 0,
        "pedalSpecifiedCheck": true,
        "percentArtSpecified": 0,
        "percentCyclesSpecified": 0,
        "percentJewellerySpecified": 0,
        "propAmbPostalCode-Block": {
            "id": 10614856,
            "propAmbPostalCode": "4, OLD HILL, ORPINGTON, BR6 6BN",
            "uprn": 100020469214
        },
        "radioBusinessUse": null,
        "radioClaimsHistory": "no",
        "radioGoodStateOfRepair": "Yes",
        "radioListedStatus": null,
        "radioMinimumConstructionType": "yes",
        "radioMinimumSecurity": "yes",
        "radioNoSignsOfSubsidence": "yes",
        "radioNotBusinessUseOrOpenToPublic": "yes",
        "radioNotListedDeclaration": "yes",
        "radioNotPlanningWorks": "yes",
        "radioNotPreviouslyFlooded": "yes",
        "radioOpenToPublic": null,
        "radioPolicyType": "Building & Contents",
        "radioPreviousInsurance": "yes",
        "radioPreviousInsuranceReason": null,
        "radioSpecifiedItems": "no",
        "selectFlatRoofPercentage": null,
        "selectRoofConstruction": null,
        "selectWallConstruction": null,
        "sumInsuredTenantsImprovements": 0
    },
    "propertyDetailsUrl": "https://azur-integrations.herokuapp.com/outraUPRN",
    "publicLiability": 10000000,
    "quoteDateOfIssue": "2018-11-30T00:00:00.000Z",
    "quoteExpiryDate": "2018-12-30T15:48:36.318Z",
    "quotePrefix": "88-EWA",
    "randomNumber": 2,
    "rangeTenantsImprovements": 0,
    "recordTypes": {
        "%vlocity_namespace%__InsurableItem__c": {
            "EW_Property": "0120D0000000ELzQAM",
            "EW_SpecifiedItem": "0120D0000000EM4QAM"
        },
        "Account": {
            "AgencyBrokerage": "012580000005gQYAAY",
            "Business_Account": "012580000005gQZAAY",
            "Carrier": "012580000005gQaAAI",
            "Group": "012580000005gQbAAI",
            "PersonAccount": "01258000000cYS8AAM",
            "StandardAccount": "012580000005gQdAAI",
            "Supplier": "01258000000FR6lAAG"
        },
        "Opportunity": {
            "EW_Opportunity": "0120D00000007bgQAA"
        },
        "Picklist_Section__c": {
            "Business_Type": "01258000000FR74AAG",
            "Nationality": "01258000000AoNRAA0",
            "Occupation": "01258000000FR75AAG",
            "Title": "01258000000FR76AAG"
        },
        "Quote": {
            "EW_Quote": "0120D00000007blQAA"
        }
    },
    "rewardPoints": 0,
    "roofConstruction": "Tile",
    "safe": "no",
    "sfdcIFrameHost": "web",
    "sfdcIFrameOrigin": "https://azuruw--ew--vlocity-ins.cs106.visual.force.com",
    "subsAPIResponse": {
        "PC": "BR6 6BN",
        "PCNOSPACES": "BR66BN",
        "Subs_Class": "0",
        "Subs_Total": "0",
        "area": "Bromley",
        "code": 200,
        "crime_arson": "2",
        "crime_dom_theft": "3",
        "district": "Bromley",
        "easting_x": "545414",
        "easting_y": "545414",
        "latitude": "51.35",
        "longitude": "0.08",
        "message": "OK",
        "northing_x": "163336",
        "northing_y": "163336",
        "pc_area": "BR",
        "subsgroup": "2",
        "theft_score": "10",
        "ward": "Darwin",
        "water_score": "13",
        "wind_score": "9",
        "x_x": "163151",
        "x_y": "158284"
    },
    "theftClaimScore": 0,
    "timeStamp": "2018-11-30T15:41:43.979Z",
    "totalContentsSpecified": 0,
    "typeOfResidence": "Main residence",
    "urlPrefix": "https://azuruw--ew--vlocity-ins.cs106.visual.force.com/apex",
    "userCurrencyCode": "GBP",
    "userId": "0050D000000Dqx5QAC",
    "userName": "ljones@azuruw.com.ew",
    "userProfile": "System Administrator",
    "userTimeZone": 0,
    "vlcPersistentComponent": {
    },
    "vlcTimeTracking": {
        "EWGetClaimScore": 211,
        "EWGetClaimScoreForCalculation": 1164,
        "OmniScriptSessionToken": "956ae94f-d39c-4bf1-8a56-39c91bcd7b71",
        "clientDetails": 366770,
        "extractBrokerDetails": 2937,
        "extractRecordTypes": 527,
        "getAreaPerilsScore": 69,
        "getFixedCoverageValues": 367,
        "getFloodData": 945,
        "getPrimaryInsuredSanctionsResult": 867,
        "getPropertyData": 340,
        "propertyDetails": 32224,
        "raJointDuplicateCheck": 470,
        "raPrimaryDuplicateCheck": 363,
        "setFormDefaultValues": 1064,
        "setMainSwitch": 878,
        "setOpportunityName": 1099,
        "setValuesForCoverages": 27,
        "svBlockQuote": 6
    },
    "wallConstruction": "Brick",
    "waterDamageClaimScore": 0
}