{
    "allowSaveForLater": true,
    "autoFocus": false,
    "autoSaveOnStepNext": false,
    "bLK": false,
    "cancelRedirectPageName": "OmniScriptCancelled",
    "cancelRedirectTemplateUrl": "vlcCancelled.html",
    "cancelSource": "%ContextId%",
    "cancelType": "SObject",
    "consoleTabIcon": "custom:custom18",
    "consoleTabLabel": "New",
    "consoleTabTitle": null,
    "currencyCode": "GBP",
    "elementTypeToHTMLTemplateMapping": {
    },
    "enableKnowledge": false,
    "hideStepChart": false,
    "knowledgeArticleTypeQueryFieldsMap": {
    },
    "lkObjName": null,
    "message": {
    },
    "persistentComponent": [
        {
            "id": "vlcCart",
            "itemsKey": "cartItems",
            "label": "",
            "modalConfigurationSetting": {
                "modalController": "ModalProductCtrl",
                "modalHTMLTemplateId": "vlcProductConfig.html",
                "modalSize": "lg"
            },
            "postTransformBundle": "",
            "preTransformBundle": "",
            "remoteClass": "",
            "remoteMethod": "",
            "remoteOptions": {
                "postTransformBundle": "",
                "preTransformBundle": ""
            },
            "remoteTimeout": 30000,
            "render": false,
            "responseJSONNode": "",
            "responseJSONPath": "",
            "sendJSONNode": "",
            "sendJSONPath": ""
        },
        {
            "id": "vlcKnowledge",
            "itemsKey": "knowledgeItems",
            "label": "",
            "modalConfigurationSetting": {
                "modalController": "",
                "modalHTMLTemplateId": "",
                "modalSize": "lg"
            },
            "postTransformBundle": "",
            "preTransformBundle": "",
            "remoteClass": "",
            "remoteMethod": "",
            "remoteOptions": {
                "postTransformBundle": "",
                "preTransformBundle": ""
            },
            "remoteTimeout": 30000,
            "render": false
        }
    ],
    "rtpSeed": false,
    "saveContentEncoded": false,
    "saveExpireInDays": null,
    "saveForLaterRedirectPageName": "sflRedirect",
    "saveForLaterRedirectTemplateUrl": "vlcSaveForLaterAcknowledge.html",
    "saveNameTemplate": null,
    "saveObjectId": "%ContextId%",
    "saveURLPatterns": {
    },
    "seedDataJSON": {
    },
    "showInputWidth": false,
    "ssm": false,
    "timeTracking": false,
    "trackingCustomData": {
    },
    "visualforcePagesAvailableInPreview": {
    },
    "wpm": false
}