{
    "%vlocity_namespace%__Active__c": true,
    "%vlocity_namespace%__OmniScriptId__c": {
        "Name": "Insured Account Duplicate Checker",
        "VlocityDataPackType": "VlocityMatchingKeyObject",
        "VlocityMatchingRecordSourceKey": "%vlocity_namespace%__OmniScript__c/EW/InsuredDuplicateCheck/English",
        "VlocityRecordSObjectType": "%vlocity_namespace%__OmniScript__c"
    },
    "%vlocity_namespace%__PropertySet__c": {
        "HTMLTemplateId": "",
        "controlWidth": 12,
        "disOnTplt": false,
        "elementValueMap": {
            "anyInsIsBlocked": "=OR(%clientDetails:primeInsIsBlocked%, AND(%hasJointPolicyHolder%, %clientDetails:jointInsIsBlocked%))",
            "blockQuote": "=OR(AND(%clientDetails:primeInsIsDuplicate%, OR(%clientDetails:primeInsHasLivePolicy%, %clientDetails:primeInsHasLiveQuote%)), AND(AND(%clientDetails:hasJointPolicyHolder% == 'yes', %clientDetails:jointInsIsDuplicate%), OR(%clientDetails:jointInsHasLivePolicy%, %clientDetails:jointInsHasLiveQuote%)))",
            "jointInsIsBlocked": "=%clientDetails:jointInsIsBlocked%",
            "primeInsIsBlocked": "=%clientDetails:primeInsIsBlocked%"
        },
        "label": "Block Quote",
        "message": {
        },
        "show": null,
        "showPersistentComponent": [
            false,
            false
        ],
        "ssm": false,
        "validationRequired": "None",
        "wpm": false
    },
    "%vlocity_namespace%__ReusableOmniScript__c": true,
    "%vlocity_namespace%__Type__c": "Set Values",
    "CurrencyIsoCode": "GBP",
    "Name": "svBlockQuote",
    "VlocityDataPackType": "SObject",
    "VlocityRecordSObjectType": "%vlocity_namespace%__Element__c",
    "VlocityRecordSourceKey": "%vlocity_namespace%__Element__c/%vlocity_namespace%__OmniScript__c/EW/InsuredDuplicateCheck/English/svBlockQuote"
}