[
    {
        "%vlocity_namespace%__DomainObjectAPIName__c": "json",
        "%vlocity_namespace%__DomainObjectCreationOrder__c": 0,
        "%vlocity_namespace%__DomainObjectFieldAPIName__c": "Competitor",
        "%vlocity_namespace%__FilterOperator__c": "<>",
        "%vlocity_namespace%__FilterValue__c": "''",
        "%vlocity_namespace%__InterfaceFieldAPIName__c": "Id",
        "%vlocity_namespace%__InterfaceObjectLookupOrder__c": 1,
        "%vlocity_namespace%__InterfaceObjectName__c": "Competitor__c",
        "%vlocity_namespace%__IsDisabled__c": false,
        "%vlocity_namespace%__IsRequiredForUpsert__c": false,
        "%vlocity_namespace%__LinkCreatedIndex__c": 0,
        "%vlocity_namespace%__MapId__c": "DRGetCompetitorsCustoma2i4E0000003GEhQAMItem1",
        "%vlocity_namespace%__UpsertKey__c": false,
        "CurrencyIsoCode": "GBP",
        "Name": "DRGetCompetitors",
        "VlocityDataPackType": "SObject",
        "VlocityRecordSObjectType": "%vlocity_namespace%__DRMapItem__c"
    },
    {
        "%vlocity_namespace%__DomainObjectAPIName__c": "json",
        "%vlocity_namespace%__DomainObjectCreationOrder__c": 0,
        "%vlocity_namespace%__DomainObjectFieldAPIName__c": "Competitor",
        "%vlocity_namespace%__FilterOperator__c": "LIMIT",
        "%vlocity_namespace%__InterfaceObjectLookupOrder__c": 1,
        "%vlocity_namespace%__InterfaceObjectName__c": "Competitor__c",
        "%vlocity_namespace%__IsDisabled__c": false,
        "%vlocity_namespace%__IsRequiredForUpsert__c": false,
        "%vlocity_namespace%__LinkCreatedIndex__c": 0,
        "%vlocity_namespace%__MapId__c": "DRGetCompetitorsCustoma2i4E0000003GEhQAMItem0",
        "%vlocity_namespace%__UpsertKey__c": false,
        "CurrencyIsoCode": "GBP",
        "Name": "DRGetCompetitors",
        "VlocityDataPackType": "SObject",
        "VlocityRecordSObjectType": "%vlocity_namespace%__DRMapItem__c"
    },
    {
        "%vlocity_namespace%__DomainObjectAPIName__c": "json",
        "%vlocity_namespace%__DomainObjectCreationOrder__c": 1,
        "%vlocity_namespace%__DomainObjectFieldAPIName__c": "Competitor:Id",
        "%vlocity_namespace%__InterfaceFieldAPIName__c": "Competitor:Id",
        "%vlocity_namespace%__IsDisabled__c": false,
        "%vlocity_namespace%__IsRequiredForUpsert__c": false,
        "%vlocity_namespace%__LinkCreatedIndex__c": 0,
        "%vlocity_namespace%__MapId__c": "DRGetCompetitorsCustoma2i4E0000003GEhQAMItem2",
        "%vlocity_namespace%__UpsertKey__c": false,
        "CurrencyIsoCode": "GBP",
        "Name": "DRGetCompetitors",
        "VlocityDataPackType": "SObject",
        "VlocityRecordSObjectType": "%vlocity_namespace%__DRMapItem__c"
    },
    {
        "%vlocity_namespace%__DomainObjectAPIName__c": "json",
        "%vlocity_namespace%__DomainObjectCreationOrder__c": 1,
        "%vlocity_namespace%__DomainObjectFieldAPIName__c": "Competitor:Name",
        "%vlocity_namespace%__InterfaceFieldAPIName__c": "Competitor:Name",
        "%vlocity_namespace%__IsDisabled__c": false,
        "%vlocity_namespace%__IsRequiredForUpsert__c": false,
        "%vlocity_namespace%__LinkCreatedIndex__c": 0,
        "%vlocity_namespace%__MapId__c": "DRGetCompetitorsCustoma2i4E0000003GEhQAMItem3",
        "%vlocity_namespace%__UpsertKey__c": false,
        "CurrencyIsoCode": "GBP",
        "Name": "DRGetCompetitors",
        "VlocityDataPackType": "SObject",
        "VlocityRecordSObjectType": "%vlocity_namespace%__DRMapItem__c"
    }
]