[
    {
        "%vlocity_namespace%__CalculationMatrixVersionId__c": {
            "%vlocity_namespace%__CalculationMatrixId__r.Name": "SquareMetres",
            "%vlocity_namespace%__VersionNumber__c": 1,
            "VlocityDataPackType": "VlocityMatchingKeyObject",
            "VlocityMatchingRecordSourceKey": "%vlocity_namespace%__CalculationMatrixVersion__c/SquareMetres",
            "VlocityRecordSObjectType": "%vlocity_namespace%__CalculationMatrixVersion__c"
        },
        "%vlocity_namespace%__InputData__c": {
            "columnKey": "12435d",
            "dataType": "Number",
            "displayOrder": 15,
            "headerType": "Output",
            "label": null,
            "lineItemId": "a2H0D0000008Xt1UAE",
            "listValues": null,
            "name": "CAD"
        },
        "CurrencyIsoCode": "GBP",
        "Name": "Header",
        "VlocityDataPackType": "SObject",
        "VlocityRecordSObjectType": "%vlocity_namespace%__CalculationMatrixRow__c"
    },
    {
        "%vlocity_namespace%__CalculationMatrixVersionId__c": {
            "%vlocity_namespace%__CalculationMatrixId__r.Name": "SquareMetres",
            "%vlocity_namespace%__VersionNumber__c": 1,
            "VlocityDataPackType": "VlocityMatchingKeyObject",
            "VlocityMatchingRecordSourceKey": "%vlocity_namespace%__CalculationMatrixVersion__c/SquareMetres",
            "VlocityRecordSObjectType": "%vlocity_namespace%__CalculationMatrixVersion__c"
        },
        "%vlocity_namespace%__InputData__c": {
            "columnKey": "12ce56",
            "dataType": "Number",
            "displayOrder": 8,
            "headerType": "Output",
            "label": null,
            "lineItemId": "a2H0D0000008XsuUAE",
            "listValues": null,
            "name": "BTG"
        },
        "CurrencyIsoCode": "GBP",
        "Name": "Header",
        "VlocityDataPackType": "SObject",
        "VlocityRecordSObjectType": "%vlocity_namespace%__CalculationMatrixRow__c"
    },
    {
        "%vlocity_namespace%__CalculationMatrixVersionId__c": {
            "%vlocity_namespace%__CalculationMatrixId__r.Name": "SquareMetres",
            "%vlocity_namespace%__VersionNumber__c": 1,
            "VlocityDataPackType": "VlocityMatchingKeyObject",
            "VlocityMatchingRecordSourceKey": "%vlocity_namespace%__CalculationMatrixVersion__c/SquareMetres",
            "VlocityRecordSObjectType": "%vlocity_namespace%__CalculationMatrixVersion__c"
        },
        "%vlocity_namespace%__InputData__c": {
            "columnKey": "372e2f",
            "dataType": "Number",
            "displayOrder": 5,
            "headerType": "Output",
            "label": null,
            "lineItemId": "a2H0D0000008XsrUAE",
            "listValues": null,
            "name": "CFL"
        },
        "CurrencyIsoCode": "GBP",
        "Name": "Header",
        "VlocityDataPackType": "SObject",
        "VlocityRecordSObjectType": "%vlocity_namespace%__CalculationMatrixRow__c"
    },
    {
        "%vlocity_namespace%__CalculationMatrixVersionId__c": {
            "%vlocity_namespace%__CalculationMatrixId__r.Name": "SquareMetres",
            "%vlocity_namespace%__VersionNumber__c": 1,
            "VlocityDataPackType": "VlocityMatchingKeyObject",
            "VlocityMatchingRecordSourceKey": "%vlocity_namespace%__CalculationMatrixVersion__c/SquareMetres",
            "VlocityRecordSObjectType": "%vlocity_namespace%__CalculationMatrixVersion__c"
        },
        "%vlocity_namespace%__InputData__c": {
            "columnKey": "395057",
            "dataType": "Number",
            "displayOrder": 10,
            "headerType": "Output",
            "label": null,
            "lineItemId": "a2H0D0000008XswUAE",
            "listValues": null,
            "name": "BWE"
        },
        "CurrencyIsoCode": "GBP",
        "Name": "Header",
        "VlocityDataPackType": "SObject",
        "VlocityRecordSObjectType": "%vlocity_namespace%__CalculationMatrixRow__c"
    },
    {
        "%vlocity_namespace%__CalculationMatrixVersionId__c": {
            "%vlocity_namespace%__CalculationMatrixId__r.Name": "SquareMetres",
            "%vlocity_namespace%__VersionNumber__c": 1,
            "VlocityDataPackType": "VlocityMatchingKeyObject",
            "VlocityMatchingRecordSourceKey": "%vlocity_namespace%__CalculationMatrixVersion__c/SquareMetres",
            "VlocityRecordSObjectType": "%vlocity_namespace%__CalculationMatrixVersion__c"
        },
        "%vlocity_namespace%__InputData__c": {
            "columnKey": "3d725f",
            "dataType": "Number",
            "displayOrder": 19,
            "headerType": "Output",
            "label": null,
            "lineItemId": "a2H0D0000008Xt5UAE",
            "listValues": null,
            "name": "AJW"
        },
        "CurrencyIsoCode": "GBP",
        "Name": "Header",
        "VlocityDataPackType": "SObject",
        "VlocityRecordSObjectType": "%vlocity_namespace%__CalculationMatrixRow__c"
    },
    {
        "%vlocity_namespace%__CalculationMatrixVersionId__c": {
            "%vlocity_namespace%__CalculationMatrixId__r.Name": "SquareMetres",
            "%vlocity_namespace%__VersionNumber__c": 1,
            "VlocityDataPackType": "VlocityMatchingKeyObject",
            "VlocityMatchingRecordSourceKey": "%vlocity_namespace%__CalculationMatrixVersion__c/SquareMetres",
            "VlocityRecordSObjectType": "%vlocity_namespace%__CalculationMatrixVersion__c"
        },
        "%vlocity_namespace%__InputData__c": {
            "columnKey": "454e6f",
            "dataType": "Number",
            "displayOrder": 7,
            "headerType": "Output",
            "label": null,
            "lineItemId": "a2H0D0000008XstUAE",
            "listValues": null,
            "name": "CFI"
        },
        "CurrencyIsoCode": "GBP",
        "Name": "Header",
        "VlocityDataPackType": "SObject",
        "VlocityRecordSObjectType": "%vlocity_namespace%__CalculationMatrixRow__c"
    },
    {
        "%vlocity_namespace%__CalculationMatrixVersionId__c": {
            "%vlocity_namespace%__CalculationMatrixId__r.Name": "SquareMetres",
            "%vlocity_namespace%__VersionNumber__c": 1,
            "VlocityDataPackType": "VlocityMatchingKeyObject",
            "VlocityMatchingRecordSourceKey": "%vlocity_namespace%__CalculationMatrixVersion__c/SquareMetres",
            "VlocityRecordSObjectType": "%vlocity_namespace%__CalculationMatrixVersion__c"
        },
        "%vlocity_namespace%__InputData__c": {
            "columnKey": "4b4c12",
            "dataType": "Number",
            "displayOrder": 23,
            "headerType": "Output",
            "label": null,
            "lineItemId": "a2H0D0000008Xt9UAE",
            "listValues": null,
            "name": "ATI"
        },
        "CurrencyIsoCode": "GBP",
        "Name": "Header",
        "VlocityDataPackType": "SObject",
        "VlocityRecordSObjectType": "%vlocity_namespace%__CalculationMatrixRow__c"
    },
    {
        "%vlocity_namespace%__CalculationMatrixVersionId__c": {
            "%vlocity_namespace%__CalculationMatrixId__r.Name": "SquareMetres",
            "%vlocity_namespace%__VersionNumber__c": 1,
            "VlocityDataPackType": "VlocityMatchingKeyObject",
            "VlocityMatchingRecordSourceKey": "%vlocity_namespace%__CalculationMatrixVersion__c/SquareMetres",
            "VlocityRecordSObjectType": "%vlocity_namespace%__CalculationMatrixVersion__c"
        },
        "%vlocity_namespace%__InputData__c": {
            "columnKey": "584706",
            "dataType": "Number",
            "displayOrder": 17,
            "headerType": "Output",
            "label": null,
            "lineItemId": "a2H0D0000008Xt3UAE",
            "listValues": null,
            "name": "CAL"
        },
        "CurrencyIsoCode": "GBP",
        "Name": "Header",
        "VlocityDataPackType": "SObject",
        "VlocityRecordSObjectType": "%vlocity_namespace%__CalculationMatrixRow__c"
    },
    {
        "%vlocity_namespace%__CalculationMatrixVersionId__c": {
            "%vlocity_namespace%__CalculationMatrixId__r.Name": "SquareMetres",
            "%vlocity_namespace%__VersionNumber__c": 1,
            "VlocityDataPackType": "VlocityMatchingKeyObject",
            "VlocityMatchingRecordSourceKey": "%vlocity_namespace%__CalculationMatrixVersion__c/SquareMetres",
            "VlocityRecordSObjectType": "%vlocity_namespace%__CalculationMatrixVersion__c"
        },
        "%vlocity_namespace%__InputData__c": {
            "columnKey": "69981d",
            "dataType": "Number",
            "displayOrder": 20,
            "headerType": "Output",
            "label": null,
            "lineItemId": "a2H0D0000008Xt6UAE",
            "listValues": null,
            "name": "AAC"
        },
        "CurrencyIsoCode": "GBP",
        "Name": "Header",
        "VlocityDataPackType": "SObject",
        "VlocityRecordSObjectType": "%vlocity_namespace%__CalculationMatrixRow__c"
    },
    {
        "%vlocity_namespace%__CalculationMatrixVersionId__c": {
            "%vlocity_namespace%__CalculationMatrixId__r.Name": "SquareMetres",
            "%vlocity_namespace%__VersionNumber__c": 1,
            "VlocityDataPackType": "VlocityMatchingKeyObject",
            "VlocityMatchingRecordSourceKey": "%vlocity_namespace%__CalculationMatrixVersion__c/SquareMetres",
            "VlocityRecordSObjectType": "%vlocity_namespace%__CalculationMatrixVersion__c"
        },
        "%vlocity_namespace%__InputData__c": {
            "columnKey": "791355",
            "dataType": "Number",
            "displayOrder": 3,
            "headerType": "Output",
            "label": null,
            "lineItemId": "a2H0D0000008XspUAE",
            "listValues": null,
            "name": "CEW"
        },
        "CurrencyIsoCode": "GBP",
        "Name": "Header",
        "VlocityDataPackType": "SObject",
        "VlocityRecordSObjectType": "%vlocity_namespace%__CalculationMatrixRow__c"
    },
    {
        "%vlocity_namespace%__CalculationMatrixVersionId__c": {
            "%vlocity_namespace%__CalculationMatrixId__r.Name": "SquareMetres",
            "%vlocity_namespace%__VersionNumber__c": 1,
            "VlocityDataPackType": "VlocityMatchingKeyObject",
            "VlocityMatchingRecordSourceKey": "%vlocity_namespace%__CalculationMatrixVersion__c/SquareMetres",
            "VlocityRecordSObjectType": "%vlocity_namespace%__CalculationMatrixVersion__c"
        },
        "%vlocity_namespace%__InputData__c": {
            "columnKey": "7aec5b",
            "dataType": "Number",
            "displayOrder": 22,
            "headerType": "Output",
            "label": null,
            "lineItemId": "a2H0D0000008Xt8UAE",
            "listValues": null,
            "name": "AGC"
        },
        "CurrencyIsoCode": "GBP",
        "Name": "Header",
        "VlocityDataPackType": "SObject",
        "VlocityRecordSObjectType": "%vlocity_namespace%__CalculationMatrixRow__c"
    },
    {
        "%vlocity_namespace%__CalculationMatrixVersionId__c": {
            "%vlocity_namespace%__CalculationMatrixId__r.Name": "SquareMetres",
            "%vlocity_namespace%__VersionNumber__c": 1,
            "VlocityDataPackType": "VlocityMatchingKeyObject",
            "VlocityMatchingRecordSourceKey": "%vlocity_namespace%__CalculationMatrixVersion__c/SquareMetres",
            "VlocityRecordSObjectType": "%vlocity_namespace%__CalculationMatrixVersion__c"
        },
        "%vlocity_namespace%__InputData__c": {
            "columnKey": "7c1282",
            "dataType": "Number",
            "displayOrder": 24,
            "headerType": "Output",
            "label": null,
            "lineItemId": "a2H0D0000008XtAUAU",
            "listValues": null,
            "name": "FE"
        },
        "CurrencyIsoCode": "GBP",
        "Name": "Header",
        "VlocityDataPackType": "SObject",
        "VlocityRecordSObjectType": "%vlocity_namespace%__CalculationMatrixRow__c"
    },
    {
        "%vlocity_namespace%__CalculationMatrixVersionId__c": {
            "%vlocity_namespace%__CalculationMatrixId__r.Name": "SquareMetres",
            "%vlocity_namespace%__VersionNumber__c": 1,
            "VlocityDataPackType": "VlocityMatchingKeyObject",
            "VlocityMatchingRecordSourceKey": "%vlocity_namespace%__CalculationMatrixVersion__c/SquareMetres",
            "VlocityRecordSObjectType": "%vlocity_namespace%__CalculationMatrixVersion__c"
        },
        "%vlocity_namespace%__InputData__c": {
            "columnKey": "7d8634",
            "dataType": "Number",
            "displayOrder": 11,
            "headerType": "Output",
            "label": null,
            "lineItemId": "a2H0D0000008XsxUAE",
            "listValues": null,
            "name": "CWE"
        },
        "CurrencyIsoCode": "GBP",
        "Name": "Header",
        "VlocityDataPackType": "SObject",
        "VlocityRecordSObjectType": "%vlocity_namespace%__CalculationMatrixRow__c"
    },
    {
        "%vlocity_namespace%__CalculationMatrixVersionId__c": {
            "%vlocity_namespace%__CalculationMatrixId__r.Name": "SquareMetres",
            "%vlocity_namespace%__VersionNumber__c": 1,
            "VlocityDataPackType": "VlocityMatchingKeyObject",
            "VlocityMatchingRecordSourceKey": "%vlocity_namespace%__CalculationMatrixVersion__c/SquareMetres",
            "VlocityRecordSObjectType": "%vlocity_namespace%__CalculationMatrixVersion__c"
        },
        "%vlocity_namespace%__InputData__c": {
            "columnKey": "8d98f1",
            "dataType": "Number",
            "displayOrder": 18,
            "headerType": "Output",
            "label": null,
            "lineItemId": "a2H0D0000008Xt4UAE",
            "listValues": null,
            "name": "LI"
        },
        "CurrencyIsoCode": "GBP",
        "Name": "Header",
        "VlocityDataPackType": "SObject",
        "VlocityRecordSObjectType": "%vlocity_namespace%__CalculationMatrixRow__c"
    },
    {
        "%vlocity_namespace%__CalculationMatrixVersionId__c": {
            "%vlocity_namespace%__CalculationMatrixId__r.Name": "SquareMetres",
            "%vlocity_namespace%__VersionNumber__c": 1,
            "VlocityDataPackType": "VlocityMatchingKeyObject",
            "VlocityMatchingRecordSourceKey": "%vlocity_namespace%__CalculationMatrixVersion__c/SquareMetres",
            "VlocityRecordSObjectType": "%vlocity_namespace%__CalculationMatrixVersion__c"
        },
        "%vlocity_namespace%__InputData__c": {
            "columnKey": "93e815",
            "dataType": "Number",
            "displayOrder": 6,
            "headerType": "Output",
            "label": null,
            "lineItemId": "a2H0D0000008XssUAE",
            "listValues": null,
            "name": "BFI"
        },
        "CurrencyIsoCode": "GBP",
        "Name": "Header",
        "VlocityDataPackType": "SObject",
        "VlocityRecordSObjectType": "%vlocity_namespace%__CalculationMatrixRow__c"
    },
    {
        "%vlocity_namespace%__CalculationMatrixVersionId__c": {
            "%vlocity_namespace%__CalculationMatrixId__r.Name": "SquareMetres",
            "%vlocity_namespace%__VersionNumber__c": 1,
            "VlocityDataPackType": "VlocityMatchingKeyObject",
            "VlocityMatchingRecordSourceKey": "%vlocity_namespace%__CalculationMatrixVersion__c/SquareMetres",
            "VlocityRecordSObjectType": "%vlocity_namespace%__CalculationMatrixVersion__c"
        },
        "%vlocity_namespace%__InputData__c": {
            "columnKey": "9d4090",
            "dataType": "Number",
            "displayOrder": 21,
            "headerType": "Output",
            "label": null,
            "lineItemId": "a2H0D0000008Xt7UAE",
            "listValues": null,
            "name": "ABI"
        },
        "CurrencyIsoCode": "GBP",
        "Name": "Header",
        "VlocityDataPackType": "SObject",
        "VlocityRecordSObjectType": "%vlocity_namespace%__CalculationMatrixRow__c"
    },
    {
        "%vlocity_namespace%__CalculationMatrixVersionId__c": {
            "%vlocity_namespace%__CalculationMatrixId__r.Name": "SquareMetres",
            "%vlocity_namespace%__VersionNumber__c": 1,
            "VlocityDataPackType": "VlocityMatchingKeyObject",
            "VlocityMatchingRecordSourceKey": "%vlocity_namespace%__CalculationMatrixVersion__c/SquareMetres",
            "VlocityRecordSObjectType": "%vlocity_namespace%__CalculationMatrixVersion__c"
        },
        "%vlocity_namespace%__InputData__c": {
            "columnKey": "9f82a7",
            "dataType": "Number",
            "displayOrder": 9,
            "headerType": "Output",
            "label": null,
            "lineItemId": "a2H0D0000008XsvUAE",
            "listValues": null,
            "name": "CTG"
        },
        "CurrencyIsoCode": "GBP",
        "Name": "Header",
        "VlocityDataPackType": "SObject",
        "VlocityRecordSObjectType": "%vlocity_namespace%__CalculationMatrixRow__c"
    },
    {
        "%vlocity_namespace%__CalculationMatrixVersionId__c": {
            "%vlocity_namespace%__CalculationMatrixId__r.Name": "SquareMetres",
            "%vlocity_namespace%__VersionNumber__c": 1,
            "VlocityDataPackType": "VlocityMatchingKeyObject",
            "VlocityMatchingRecordSourceKey": "%vlocity_namespace%__CalculationMatrixVersion__c/SquareMetres",
            "VlocityRecordSObjectType": "%vlocity_namespace%__CalculationMatrixVersion__c"
        },
        "%vlocity_namespace%__InputData__c": {
            "columnKey": "a0f6a0",
            "dataType": "Number",
            "displayOrder": 16,
            "headerType": "Output",
            "label": null,
            "lineItemId": "a2H0D0000008Xt2UAE",
            "listValues": null,
            "name": "BAL"
        },
        "CurrencyIsoCode": "GBP",
        "Name": "Header",
        "VlocityDataPackType": "SObject",
        "VlocityRecordSObjectType": "%vlocity_namespace%__CalculationMatrixRow__c"
    },
    {
        "%vlocity_namespace%__CalculationMatrixVersionId__c": {
            "%vlocity_namespace%__CalculationMatrixId__r.Name": "SquareMetres",
            "%vlocity_namespace%__VersionNumber__c": 1,
            "VlocityDataPackType": "VlocityMatchingKeyObject",
            "VlocityMatchingRecordSourceKey": "%vlocity_namespace%__CalculationMatrixVersion__c/SquareMetres",
            "VlocityRecordSObjectType": "%vlocity_namespace%__CalculationMatrixVersion__c"
        },
        "%vlocity_namespace%__InputData__c": {
            "columnKey": "aa75f8",
            "dataType": "Number",
            "displayOrder": 12,
            "headerType": "Output",
            "label": null,
            "lineItemId": "a2H0D0000008XsyUAE",
            "listValues": null,
            "name": "BSU"
        },
        "CurrencyIsoCode": "GBP",
        "Name": "Header",
        "VlocityDataPackType": "SObject",
        "VlocityRecordSObjectType": "%vlocity_namespace%__CalculationMatrixRow__c"
    },
    {
        "%vlocity_namespace%__CalculationMatrixVersionId__c": {
            "%vlocity_namespace%__CalculationMatrixId__r.Name": "SquareMetres",
            "%vlocity_namespace%__VersionNumber__c": 1,
            "VlocityDataPackType": "VlocityMatchingKeyObject",
            "VlocityMatchingRecordSourceKey": "%vlocity_namespace%__CalculationMatrixVersion__c/SquareMetres",
            "VlocityRecordSObjectType": "%vlocity_namespace%__CalculationMatrixVersion__c"
        },
        "%vlocity_namespace%__InputData__c": {
            "columnKey": "b7b9ba",
            "dataType": "Number Range",
            "displayOrder": 1,
            "headerType": "Input",
            "label": null,
            "lineItemId": "a2H0D0000008XsnUAE",
            "listValues": "0,46.0001,66.0001,88.0001,102.0001,127.0001,152.0001,177.0001,202.0001,252.0001,302.0001,402.0001,502.0001,602.0001",
            "name": "squareMetres"
        },
        "CurrencyIsoCode": "GBP",
        "Name": "Header",
        "VlocityDataPackType": "SObject",
        "VlocityRecordSObjectType": "%vlocity_namespace%__CalculationMatrixRow__c"
    },
    {
        "%vlocity_namespace%__CalculationMatrixVersionId__c": {
            "%vlocity_namespace%__CalculationMatrixId__r.Name": "SquareMetres",
            "%vlocity_namespace%__VersionNumber__c": 1,
            "VlocityDataPackType": "VlocityMatchingKeyObject",
            "VlocityMatchingRecordSourceKey": "%vlocity_namespace%__CalculationMatrixVersion__c/SquareMetres",
            "VlocityRecordSObjectType": "%vlocity_namespace%__CalculationMatrixVersion__c"
        },
        "%vlocity_namespace%__InputData__c": {
            "columnKey": "c2caa1",
            "dataType": "Number",
            "displayOrder": 14,
            "headerType": "Output",
            "label": null,
            "lineItemId": "a2H0D0000008Xt0UAE",
            "listValues": null,
            "name": "BAD"
        },
        "CurrencyIsoCode": "GBP",
        "Name": "Header",
        "VlocityDataPackType": "SObject",
        "VlocityRecordSObjectType": "%vlocity_namespace%__CalculationMatrixRow__c"
    },
    {
        "%vlocity_namespace%__CalculationMatrixVersionId__c": {
            "%vlocity_namespace%__CalculationMatrixId__r.Name": "SquareMetres",
            "%vlocity_namespace%__VersionNumber__c": 1,
            "VlocityDataPackType": "VlocityMatchingKeyObject",
            "VlocityMatchingRecordSourceKey": "%vlocity_namespace%__CalculationMatrixVersion__c/SquareMetres",
            "VlocityRecordSObjectType": "%vlocity_namespace%__CalculationMatrixVersion__c"
        },
        "%vlocity_namespace%__InputData__c": {
            "columnKey": "cba33d",
            "dataType": "Number",
            "displayOrder": 4,
            "headerType": "Output",
            "label": null,
            "lineItemId": "a2H0D0000008XsqUAE",
            "listValues": null,
            "name": "BFL"
        },
        "CurrencyIsoCode": "GBP",
        "Name": "Header",
        "VlocityDataPackType": "SObject",
        "VlocityRecordSObjectType": "%vlocity_namespace%__CalculationMatrixRow__c"
    },
    {
        "%vlocity_namespace%__CalculationMatrixVersionId__c": {
            "%vlocity_namespace%__CalculationMatrixId__r.Name": "SquareMetres",
            "%vlocity_namespace%__VersionNumber__c": 1,
            "VlocityDataPackType": "VlocityMatchingKeyObject",
            "VlocityMatchingRecordSourceKey": "%vlocity_namespace%__CalculationMatrixVersion__c/SquareMetres",
            "VlocityRecordSObjectType": "%vlocity_namespace%__CalculationMatrixVersion__c"
        },
        "%vlocity_namespace%__InputData__c": {
            "columnKey": "daa9ff",
            "dataType": "Number",
            "displayOrder": 13,
            "headerType": "Output",
            "label": null,
            "lineItemId": "a2H0D0000008XszUAE",
            "listValues": null,
            "name": "CSU"
        },
        "CurrencyIsoCode": "GBP",
        "Name": "Header",
        "VlocityDataPackType": "SObject",
        "VlocityRecordSObjectType": "%vlocity_namespace%__CalculationMatrixRow__c"
    },
    {
        "%vlocity_namespace%__CalculationMatrixVersionId__c": {
            "%vlocity_namespace%__CalculationMatrixId__r.Name": "SquareMetres",
            "%vlocity_namespace%__VersionNumber__c": 1,
            "VlocityDataPackType": "VlocityMatchingKeyObject",
            "VlocityMatchingRecordSourceKey": "%vlocity_namespace%__CalculationMatrixVersion__c/SquareMetres",
            "VlocityRecordSObjectType": "%vlocity_namespace%__CalculationMatrixVersion__c"
        },
        "%vlocity_namespace%__InputData__c": {
            "columnKey": "eac64c",
            "dataType": "Number",
            "displayOrder": 2,
            "headerType": "Output",
            "label": null,
            "lineItemId": "a2H0D0000008XsoUAE",
            "listValues": null,
            "name": "BEW"
        },
        "CurrencyIsoCode": "GBP",
        "Name": "Header",
        "VlocityDataPackType": "SObject",
        "VlocityRecordSObjectType": "%vlocity_namespace%__CalculationMatrixRow__c"
    },
    {
        "%vlocity_namespace%__CalculationMatrixVersionId__c": {
            "%vlocity_namespace%__CalculationMatrixId__r.Name": "SquareMetres",
            "%vlocity_namespace%__VersionNumber__c": 1,
            "VlocityDataPackType": "VlocityMatchingKeyObject",
            "VlocityMatchingRecordSourceKey": "%vlocity_namespace%__CalculationMatrixVersion__c/SquareMetres",
            "VlocityRecordSObjectType": "%vlocity_namespace%__CalculationMatrixVersion__c"
        },
        "%vlocity_namespace%__InputData__c": {
            "squareMetres": "0"
        },
        "%vlocity_namespace%__OutputData__c": {
            "AAC": 1,
            "ABI": 1,
            "AGC": 1,
            "AJW": 1,
            "ATI": 1,
            "BAD": 1,
            "BAL": 1,
            "BEW": 1,
            "BFI": 1,
            "BFL": 1,
            "BSU": 1,
            "BTG": 1,
            "BWE": 1,
            "CAD": 1,
            "CAL": 1,
            "CEW": 1,
            "CFI": 1,
            "CFL": 1,
            "CSU": 1,
            "CTG": 1,
            "CWE": 1,
            "FE": 1,
            "LI": 1
        },
        "CurrencyIsoCode": "GBP",
        "Name": "8e244966667be0dd496932b12d47297e",
        "VlocityDataPackType": "SObject",
        "VlocityRecordSObjectType": "%vlocity_namespace%__CalculationMatrixRow__c"
    },
    {
        "%vlocity_namespace%__CalculationMatrixVersionId__c": {
            "%vlocity_namespace%__CalculationMatrixId__r.Name": "SquareMetres",
            "%vlocity_namespace%__VersionNumber__c": 1,
            "VlocityDataPackType": "VlocityMatchingKeyObject",
            "VlocityMatchingRecordSourceKey": "%vlocity_namespace%__CalculationMatrixVersion__c/SquareMetres",
            "VlocityRecordSObjectType": "%vlocity_namespace%__CalculationMatrixVersion__c"
        },
        "%vlocity_namespace%__InputData__c": {
            "squareMetres": "102.0001"
        },
        "%vlocity_namespace%__OutputData__c": {
            "AAC": 1,
            "ABI": 1,
            "AGC": 1,
            "AJW": 1,
            "ATI": 1,
            "BAD": 1,
            "BAL": 1,
            "BEW": 1,
            "BFI": 1,
            "BFL": 1,
            "BSU": 1,
            "BTG": 1,
            "BWE": 1,
            "CAD": 1,
            "CAL": 1,
            "CEW": 1,
            "CFI": 1,
            "CFL": 1,
            "CSU": 1,
            "CTG": 1,
            "CWE": 1,
            "FE": 1,
            "LI": 1
        },
        "CurrencyIsoCode": "GBP",
        "Name": "16f78de7063f5ba5d580246445893a49",
        "VlocityDataPackType": "SObject",
        "VlocityRecordSObjectType": "%vlocity_namespace%__CalculationMatrixRow__c"
    },
    {
        "%vlocity_namespace%__CalculationMatrixVersionId__c": {
            "%vlocity_namespace%__CalculationMatrixId__r.Name": "SquareMetres",
            "%vlocity_namespace%__VersionNumber__c": 1,
            "VlocityDataPackType": "VlocityMatchingKeyObject",
            "VlocityMatchingRecordSourceKey": "%vlocity_namespace%__CalculationMatrixVersion__c/SquareMetres",
            "VlocityRecordSObjectType": "%vlocity_namespace%__CalculationMatrixVersion__c"
        },
        "%vlocity_namespace%__InputData__c": {
            "squareMetres": "127.0001"
        },
        "%vlocity_namespace%__OutputData__c": {
            "AAC": 1,
            "ABI": 1,
            "AGC": 1,
            "AJW": 1,
            "ATI": 1,
            "BAD": 1,
            "BAL": 1,
            "BEW": 1,
            "BFI": 1,
            "BFL": 1,
            "BSU": 1,
            "BTG": 1,
            "BWE": 1,
            "CAD": 1,
            "CAL": 1,
            "CEW": 1,
            "CFI": 1,
            "CFL": 1,
            "CSU": 1,
            "CTG": 1,
            "CWE": 1,
            "FE": 1,
            "LI": 1
        },
        "CurrencyIsoCode": "GBP",
        "Name": "67eef98f76928b490b48208153d7054c",
        "VlocityDataPackType": "SObject",
        "VlocityRecordSObjectType": "%vlocity_namespace%__CalculationMatrixRow__c"
    },
    {
        "%vlocity_namespace%__CalculationMatrixVersionId__c": {
            "%vlocity_namespace%__CalculationMatrixId__r.Name": "SquareMetres",
            "%vlocity_namespace%__VersionNumber__c": 1,
            "VlocityDataPackType": "VlocityMatchingKeyObject",
            "VlocityMatchingRecordSourceKey": "%vlocity_namespace%__CalculationMatrixVersion__c/SquareMetres",
            "VlocityRecordSObjectType": "%vlocity_namespace%__CalculationMatrixVersion__c"
        },
        "%vlocity_namespace%__InputData__c": {
            "squareMetres": "152.0001"
        },
        "%vlocity_namespace%__OutputData__c": {
            "AAC": 1,
            "ABI": 1,
            "AGC": 1,
            "AJW": 1,
            "ATI": 1,
            "BAD": 1,
            "BAL": 1,
            "BEW": 1,
            "BFI": 1,
            "BFL": 1,
            "BSU": 1,
            "BTG": 1,
            "BWE": 1,
            "CAD": 1,
            "CAL": 1,
            "CEW": 1,
            "CFI": 1,
            "CFL": 1,
            "CSU": 1,
            "CTG": 1,
            "CWE": 1,
            "FE": 1,
            "LI": 1
        },
        "CurrencyIsoCode": "GBP",
        "Name": "bb43f72058690cfc4925dcef39983007",
        "VlocityDataPackType": "SObject",
        "VlocityRecordSObjectType": "%vlocity_namespace%__CalculationMatrixRow__c"
    },
    {
        "%vlocity_namespace%__CalculationMatrixVersionId__c": {
            "%vlocity_namespace%__CalculationMatrixId__r.Name": "SquareMetres",
            "%vlocity_namespace%__VersionNumber__c": 1,
            "VlocityDataPackType": "VlocityMatchingKeyObject",
            "VlocityMatchingRecordSourceKey": "%vlocity_namespace%__CalculationMatrixVersion__c/SquareMetres",
            "VlocityRecordSObjectType": "%vlocity_namespace%__CalculationMatrixVersion__c"
        },
        "%vlocity_namespace%__InputData__c": {
            "squareMetres": "177.0001"
        },
        "%vlocity_namespace%__OutputData__c": {
            "AAC": 1,
            "ABI": 1,
            "AGC": 1,
            "AJW": 1,
            "ATI": 1,
            "BAD": 1,
            "BAL": 1,
            "BEW": 1,
            "BFI": 1,
            "BFL": 1,
            "BSU": 1,
            "BTG": 1,
            "BWE": 1,
            "CAD": 1,
            "CAL": 1,
            "CEW": 1,
            "CFI": 1,
            "CFL": 1,
            "CSU": 1,
            "CTG": 1,
            "CWE": 1,
            "FE": 1,
            "LI": 1
        },
        "CurrencyIsoCode": "GBP",
        "Name": "40c43d677370ba3c36c531c378db7794",
        "VlocityDataPackType": "SObject",
        "VlocityRecordSObjectType": "%vlocity_namespace%__CalculationMatrixRow__c"
    },
    {
        "%vlocity_namespace%__CalculationMatrixVersionId__c": {
            "%vlocity_namespace%__CalculationMatrixId__r.Name": "SquareMetres",
            "%vlocity_namespace%__VersionNumber__c": 1,
            "VlocityDataPackType": "VlocityMatchingKeyObject",
            "VlocityMatchingRecordSourceKey": "%vlocity_namespace%__CalculationMatrixVersion__c/SquareMetres",
            "VlocityRecordSObjectType": "%vlocity_namespace%__CalculationMatrixVersion__c"
        },
        "%vlocity_namespace%__InputData__c": {
            "squareMetres": "202.0001"
        },
        "%vlocity_namespace%__OutputData__c": {
            "AAC": 1,
            "ABI": 1,
            "AGC": 1,
            "AJW": 1,
            "ATI": 1,
            "BAD": 1,
            "BAL": 1,
            "BEW": 1,
            "BFI": 1,
            "BFL": 1,
            "BSU": 1,
            "BTG": 1,
            "BWE": 1,
            "CAD": 1,
            "CAL": 1,
            "CEW": 1,
            "CFI": 1,
            "CFL": 1,
            "CSU": 1,
            "CTG": 1,
            "CWE": 1,
            "FE": 1,
            "LI": 1
        },
        "CurrencyIsoCode": "GBP",
        "Name": "42efb172c48fd7fea5c6040d269d5714",
        "VlocityDataPackType": "SObject",
        "VlocityRecordSObjectType": "%vlocity_namespace%__CalculationMatrixRow__c"
    },
    {
        "%vlocity_namespace%__CalculationMatrixVersionId__c": {
            "%vlocity_namespace%__CalculationMatrixId__r.Name": "SquareMetres",
            "%vlocity_namespace%__VersionNumber__c": 1,
            "VlocityDataPackType": "VlocityMatchingKeyObject",
            "VlocityMatchingRecordSourceKey": "%vlocity_namespace%__CalculationMatrixVersion__c/SquareMetres",
            "VlocityRecordSObjectType": "%vlocity_namespace%__CalculationMatrixVersion__c"
        },
        "%vlocity_namespace%__InputData__c": {
            "squareMetres": "252.0001"
        },
        "%vlocity_namespace%__OutputData__c": {
            "AAC": 1,
            "ABI": 1,
            "AGC": 1,
            "AJW": 1,
            "ATI": 1,
            "BAD": 1,
            "BAL": 1,
            "BEW": 1,
            "BFI": 1,
            "BFL": 1,
            "BSU": 1,
            "BTG": 1,
            "BWE": 1,
            "CAD": 1,
            "CAL": 1,
            "CEW": 1,
            "CFI": 1,
            "CFL": 1,
            "CSU": 1,
            "CTG": 1,
            "CWE": 1,
            "FE": 1,
            "LI": 1
        },
        "CurrencyIsoCode": "GBP",
        "Name": "1e9530a5d496569fbb1554a2d496ea1a",
        "VlocityDataPackType": "SObject",
        "VlocityRecordSObjectType": "%vlocity_namespace%__CalculationMatrixRow__c"
    },
    {
        "%vlocity_namespace%__CalculationMatrixVersionId__c": {
            "%vlocity_namespace%__CalculationMatrixId__r.Name": "SquareMetres",
            "%vlocity_namespace%__VersionNumber__c": 1,
            "VlocityDataPackType": "VlocityMatchingKeyObject",
            "VlocityMatchingRecordSourceKey": "%vlocity_namespace%__CalculationMatrixVersion__c/SquareMetres",
            "VlocityRecordSObjectType": "%vlocity_namespace%__CalculationMatrixVersion__c"
        },
        "%vlocity_namespace%__InputData__c": {
            "squareMetres": "302.0001"
        },
        "%vlocity_namespace%__OutputData__c": {
            "AAC": 1,
            "ABI": 1,
            "AGC": 1,
            "AJW": 1,
            "ATI": 1,
            "BAD": 1,
            "BAL": 1,
            "BEW": 1,
            "BFI": 1,
            "BFL": 1,
            "BSU": 1,
            "BTG": 1,
            "BWE": 1,
            "CAD": 1,
            "CAL": 1,
            "CEW": 1,
            "CFI": 1,
            "CFL": 1,
            "CSU": 1,
            "CTG": 1,
            "CWE": 1,
            "FE": 1,
            "LI": 1
        },
        "CurrencyIsoCode": "GBP",
        "Name": "5ee8224df77cbee3c1824202e25b8b79",
        "VlocityDataPackType": "SObject",
        "VlocityRecordSObjectType": "%vlocity_namespace%__CalculationMatrixRow__c"
    },
    {
        "%vlocity_namespace%__CalculationMatrixVersionId__c": {
            "%vlocity_namespace%__CalculationMatrixId__r.Name": "SquareMetres",
            "%vlocity_namespace%__VersionNumber__c": 1,
            "VlocityDataPackType": "VlocityMatchingKeyObject",
            "VlocityMatchingRecordSourceKey": "%vlocity_namespace%__CalculationMatrixVersion__c/SquareMetres",
            "VlocityRecordSObjectType": "%vlocity_namespace%__CalculationMatrixVersion__c"
        },
        "%vlocity_namespace%__InputData__c": {
            "squareMetres": "402.0001"
        },
        "%vlocity_namespace%__OutputData__c": {
            "AAC": 1,
            "ABI": 1,
            "AGC": 1,
            "AJW": 1,
            "ATI": 1,
            "BAD": 1,
            "BAL": 1,
            "BEW": 1,
            "BFI": 1,
            "BFL": 1,
            "BSU": 1,
            "BTG": 1,
            "BWE": 1,
            "CAD": 1,
            "CAL": 1,
            "CEW": 1,
            "CFI": 1,
            "CFL": 1,
            "CSU": 1,
            "CTG": 1,
            "CWE": 1,
            "FE": 1,
            "LI": 1
        },
        "CurrencyIsoCode": "GBP",
        "Name": "a50dc8e9ef4b8fb0022ff8c1ada60949",
        "VlocityDataPackType": "SObject",
        "VlocityRecordSObjectType": "%vlocity_namespace%__CalculationMatrixRow__c"
    },
    {
        "%vlocity_namespace%__CalculationMatrixVersionId__c": {
            "%vlocity_namespace%__CalculationMatrixId__r.Name": "SquareMetres",
            "%vlocity_namespace%__VersionNumber__c": 1,
            "VlocityDataPackType": "VlocityMatchingKeyObject",
            "VlocityMatchingRecordSourceKey": "%vlocity_namespace%__CalculationMatrixVersion__c/SquareMetres",
            "VlocityRecordSObjectType": "%vlocity_namespace%__CalculationMatrixVersion__c"
        },
        "%vlocity_namespace%__InputData__c": {
            "squareMetres": "46.0001"
        },
        "%vlocity_namespace%__OutputData__c": {
            "AAC": 1,
            "ABI": 1,
            "AGC": 1,
            "AJW": 1,
            "ATI": 1,
            "BAD": 1,
            "BAL": 1,
            "BEW": 1,
            "BFI": 1,
            "BFL": 1,
            "BSU": 1,
            "BTG": 1,
            "BWE": 1,
            "CAD": 1,
            "CAL": 1,
            "CEW": 1,
            "CFI": 1,
            "CFL": 1,
            "CSU": 1,
            "CTG": 1,
            "CWE": 1,
            "FE": 1,
            "LI": 1
        },
        "CurrencyIsoCode": "GBP",
        "Name": "e79da8bf2d2bc727f98cd12322da88b2",
        "VlocityDataPackType": "SObject",
        "VlocityRecordSObjectType": "%vlocity_namespace%__CalculationMatrixRow__c"
    },
    {
        "%vlocity_namespace%__CalculationMatrixVersionId__c": {
            "%vlocity_namespace%__CalculationMatrixId__r.Name": "SquareMetres",
            "%vlocity_namespace%__VersionNumber__c": 1,
            "VlocityDataPackType": "VlocityMatchingKeyObject",
            "VlocityMatchingRecordSourceKey": "%vlocity_namespace%__CalculationMatrixVersion__c/SquareMetres",
            "VlocityRecordSObjectType": "%vlocity_namespace%__CalculationMatrixVersion__c"
        },
        "%vlocity_namespace%__InputData__c": {
            "squareMetres": "502.0001"
        },
        "%vlocity_namespace%__OutputData__c": {
            "AAC": 1,
            "ABI": 1,
            "AGC": 1,
            "AJW": 1,
            "ATI": 1,
            "BAD": 1,
            "BAL": 1,
            "BEW": 1,
            "BFI": 1,
            "BFL": 1,
            "BSU": 1,
            "BTG": 1,
            "BWE": 1,
            "CAD": 1,
            "CAL": 1,
            "CEW": 1,
            "CFI": 1,
            "CFL": 1,
            "CSU": 1,
            "CTG": 1,
            "CWE": 1,
            "FE": 1,
            "LI": 1
        },
        "CurrencyIsoCode": "GBP",
        "Name": "aff38aca24dac4b1c6123f496406ef56",
        "VlocityDataPackType": "SObject",
        "VlocityRecordSObjectType": "%vlocity_namespace%__CalculationMatrixRow__c"
    },
    {
        "%vlocity_namespace%__CalculationMatrixVersionId__c": {
            "%vlocity_namespace%__CalculationMatrixId__r.Name": "SquareMetres",
            "%vlocity_namespace%__VersionNumber__c": 1,
            "VlocityDataPackType": "VlocityMatchingKeyObject",
            "VlocityMatchingRecordSourceKey": "%vlocity_namespace%__CalculationMatrixVersion__c/SquareMetres",
            "VlocityRecordSObjectType": "%vlocity_namespace%__CalculationMatrixVersion__c"
        },
        "%vlocity_namespace%__InputData__c": {
            "squareMetres": "602.0001"
        },
        "%vlocity_namespace%__OutputData__c": {
            "AAC": 1,
            "ABI": 1,
            "AGC": 1,
            "AJW": 1,
            "ATI": 1,
            "BAD": 1,
            "BAL": 1,
            "BEW": 1,
            "BFI": 1,
            "BFL": 1,
            "BSU": 1,
            "BTG": 1,
            "BWE": 1,
            "CAD": 1,
            "CAL": 1,
            "CEW": 1,
            "CFI": 1,
            "CFL": 1,
            "CSU": 1,
            "CTG": 1,
            "CWE": 1,
            "FE": 1,
            "LI": 1
        },
        "CurrencyIsoCode": "GBP",
        "Name": "663742fe7db83def69d76353d1dcb60f",
        "VlocityDataPackType": "SObject",
        "VlocityRecordSObjectType": "%vlocity_namespace%__CalculationMatrixRow__c"
    },
    {
        "%vlocity_namespace%__CalculationMatrixVersionId__c": {
            "%vlocity_namespace%__CalculationMatrixId__r.Name": "SquareMetres",
            "%vlocity_namespace%__VersionNumber__c": 1,
            "VlocityDataPackType": "VlocityMatchingKeyObject",
            "VlocityMatchingRecordSourceKey": "%vlocity_namespace%__CalculationMatrixVersion__c/SquareMetres",
            "VlocityRecordSObjectType": "%vlocity_namespace%__CalculationMatrixVersion__c"
        },
        "%vlocity_namespace%__InputData__c": {
            "squareMetres": "66.0001"
        },
        "%vlocity_namespace%__OutputData__c": {
            "AAC": 1,
            "ABI": 1,
            "AGC": 1,
            "AJW": 1,
            "ATI": 1,
            "BAD": 1,
            "BAL": 1,
            "BEW": 1,
            "BFI": 1,
            "BFL": 1,
            "BSU": 1,
            "BTG": 1,
            "BWE": 1,
            "CAD": 1,
            "CAL": 1,
            "CEW": 1,
            "CFI": 1,
            "CFL": 1,
            "CSU": 1,
            "CTG": 1,
            "CWE": 1,
            "FE": 1,
            "LI": 1
        },
        "CurrencyIsoCode": "GBP",
        "Name": "6f5135cadb4036d1fb4d53a6d6c619fe",
        "VlocityDataPackType": "SObject",
        "VlocityRecordSObjectType": "%vlocity_namespace%__CalculationMatrixRow__c"
    },
    {
        "%vlocity_namespace%__CalculationMatrixVersionId__c": {
            "%vlocity_namespace%__CalculationMatrixId__r.Name": "SquareMetres",
            "%vlocity_namespace%__VersionNumber__c": 1,
            "VlocityDataPackType": "VlocityMatchingKeyObject",
            "VlocityMatchingRecordSourceKey": "%vlocity_namespace%__CalculationMatrixVersion__c/SquareMetres",
            "VlocityRecordSObjectType": "%vlocity_namespace%__CalculationMatrixVersion__c"
        },
        "%vlocity_namespace%__InputData__c": {
            "squareMetres": "88.0001"
        },
        "%vlocity_namespace%__OutputData__c": {
            "AAC": 1,
            "ABI": 1,
            "AGC": 1,
            "AJW": 1,
            "ATI": 1,
            "BAD": 1,
            "BAL": 1,
            "BEW": 1,
            "BFI": 1,
            "BFL": 1,
            "BSU": 1,
            "BTG": 1,
            "BWE": 1,
            "CAD": 1,
            "CAL": 1,
            "CEW": 1,
            "CFI": 1,
            "CFL": 1,
            "CSU": 1,
            "CTG": 1,
            "CWE": 1,
            "FE": 1,
            "LI": 1
        },
        "CurrencyIsoCode": "GBP",
        "Name": "07c614d822036ad7fd702c5fe1dd8abe",
        "VlocityDataPackType": "SObject",
        "VlocityRecordSObjectType": "%vlocity_namespace%__CalculationMatrixRow__c"
    }
]