{
    "%vlocity_namespace%__Active__c": true,
    "%vlocity_namespace%__OmniScriptId__c": {
        "Name": "PCLCancellationCallout",
        "VlocityDataPackType": "VlocityMatchingKeyObject",
        "VlocityMatchingRecordSourceKey": "%vlocity_namespace%__OmniScript__c/EW/PCLCancellationCallout/Procedure",
        "VlocityRecordSObjectType": "%vlocity_namespace%__OmniScript__c"
    },
    "%vlocity_namespace%__ParentElementId__c": {
        "%vlocity_namespace%__OmniScriptId__c": {
            "Name": "PCLCancellationCallout",
            "VlocityDataPackType": "VlocityMatchingKeyObject",
            "VlocityMatchingRecordSourceKey": "%vlocity_namespace%__OmniScript__c/EW/PCLCancellationCallout/Procedure",
            "VlocityRecordSObjectType": "%vlocity_namespace%__OmniScript__c"
        },
        "Name": "CB_CancellationCallout",
        "VlocityDataPackType": "VlocityMatchingKeyObject",
        "VlocityMatchingRecordSourceKey": "%vlocity_namespace%__Element__c/%vlocity_namespace%__OmniScript__c/EW/PCLCancellationCallout/Procedure/CB_CancellationCallout",
        "VlocityRecordSObjectType": "%vlocity_namespace%__Element__c"
    },
    "%vlocity_namespace%__ParentElementName__c": "CB_CancellationCallout",
    "%vlocity_namespace%__ParentElementType__c": "Conditional Block",
    "%vlocity_namespace%__PropertySet__c": {
        "actionMessage": "",
        "additionalInput": {
            "": ""
        },
        "additionalOutput": {
        },
        "chainOnStep": true,
        "disOnTplt": false,
        "executionConditionalFormula": "",
        "failOnStepError": true,
        "failureConditionalFormula": "",
        "failureResponse": {
        },
        "label": "HTTPAction2",
        "namedCredential": "",
        "postActionLogging": "",
        "preActionLogging": "%endpoint%",
        "responseJSONNode": "",
        "responseJSONPath": "",
        "restMethod": "POST",
        "restOptions": {
            "clientCertificateName": "",
            "headers": {
                "Api-Version": "%calloutParams:apiVersion%",
                "Authorization": "%SV_SetUpValuesForCallout:accessToken%",
                "Content-Type": "%calloutParams:agreementContentType%",
                "Ocp-Apim-Subscription-Key": "%calloutParams:subscriptionKey%",
                "pcl-apig-client-channel": "%calloutParams:agreementChannel%",
                "pcl-apig-client-channel-version": "%calloutParams:agreementChannelVersion%",
                "pcl-apig-client-originator": "%calloutParams:agreementOriginator%",
                "pcl-apig-request-datetime-stamp": "%SV_SetUpValuesForCallout:timestamp%",
                "pcl-apig-request-uid": "%SV_CancellationParams:uid%"
            },
            "isCompressed": false,
            "params": {
            },
            "sendBody": true,
            "timeout": 120000,
            "xmlEscapeResponse": false
        },
        "restPath": "%SV_CancellationParams:requestUrl%",
        "retryCount": 0,
        "returnOnlyAdditionalOutput": false,
        "returnOnlyFailureResponse": false,
        "sendJSONNode": "",
        "sendJSONPath": "SV_CancellationParams:pclRequestBody",
        "sendOnlyAdditionalInput": false,
        "show": null,
        "type": "Integration",
        "useFormulas": true
    },
    "%vlocity_namespace%__ReusableOmniScript__c": false,
    "%vlocity_namespace%__Type__c": "Rest Action",
    "CurrencyIsoCode": "GBP",
    "Name": "HTTP_CancellationCallout",
    "VlocityDataPackType": "SObject",
    "VlocityRecordSObjectType": "%vlocity_namespace%__Element__c",
    "VlocityRecordSourceKey": "%vlocity_namespace%__Element__c/%vlocity_namespace%__OmniScript__c/EW/PCLCancellationCallout/Procedure/HTTP_CancellationCallout"
}