{
    "%vlocity_namespace%__Active__c": true,
    "%vlocity_namespace%__OmniScriptId__c": {
        "Name": "QuoteProductCalculation",
        "VlocityDataPackType": "VlocityMatchingKeyObject",
        "VlocityMatchingRecordSourceKey": "%vlocity_namespace%__OmniScript__c/EW/QuoteProductCalculation/Procedure",
        "VlocityRecordSObjectType": "%vlocity_namespace%__OmniScript__c"
    },
    "%vlocity_namespace%__PropertySet__c": {
        "actionMessage": "",
        "additionalInput": {
        },
        "additionalOutput": {
        },
        "chainOnStep": true,
        "controlWidth": 12,
        "disOnTplt": false,
        "executionConditionalFormula": "",
        "extraPayload": {
        },
        "failOnStepError": true,
        "failureAbortLabel": "Abort",
        "failureAbortMessage": "Are you sure?",
        "failureConditionalFormula": "",
        "failureNextLabel": "Continue",
        "failureResponse": {
        },
        "inProgressMessage": "In Progress",
        "label": "CalculatePerilsPremium",
        "message": {
        },
        "postMessage": "Done",
        "redirectNextLabel": "Next",
        "redirectNextWidth": 3,
        "redirectPreviousLabel": "Previous",
        "redirectPreviousWidth": 3,
        "redirectTemplateUrl": "vlcAcknowledge.html",
        "remoteClass": "%vlocity_namespace%.PricingMatrixCalculationService",
        "remoteMethod": "calculate",
        "remoteOptions": {
            "configurationName": "EmergingWealthPerilPremiumRatings",
            "effectiveDate": "%getEffectiveDate:effectiveDate%",
            "includeInputKeys": "%options:includeInputKeys%",
            "includeInputs": true,
            "inputKey": "transformedInput_1",
            "matchInputVariables": false
        },
        "remoteTimeout": 30000,
        "responseJSONNode": "",
        "responseJSONPath": "",
        "returnOnlyAdditionalOutput": false,
        "returnOnlyFailureResponse": false,
        "sendJSONNode": "",
        "sendJSONPath": "",
        "sendOnlyAdditionalInput": false,
        "show": {
            "group": {
                "operator": "AND",
                "rules": [
                    {
                        "condition": "=",
                        "data": "false",
                        "field": "blockQuote"
                    }
                ]
            }
        },
        "showPersistentComponent": [
        ],
        "ssm": false,
        "useFormulas": true,
        "validationRequired": "None",
        "wpm": false
    },
    "%vlocity_namespace%__ReusableOmniScript__c": false,
    "%vlocity_namespace%__Type__c": "Calculation Action",
    "CurrencyIsoCode": "GBP",
    "Name": "CalculatePremiums",
    "VlocityDataPackType": "SObject",
    "VlocityRecordSObjectType": "%vlocity_namespace%__Element__c",
    "VlocityRecordSourceKey": "%vlocity_namespace%__Element__c/%vlocity_namespace%__OmniScript__c/EW/QuoteProductCalculation/Procedure/CalculatePremiums"
}