[
    {
        "%vlocity_namespace%__Alias__c": "ClaimOtherProperties__relevanceFactor",
        "%vlocity_namespace%__CalculationProcedureVersionId__c": {
            "%vlocity_namespace%__CalculationProcedureId__r.Name": "EmergingWealthSingleClaimCalculation",
            "%vlocity_namespace%__VersionNumber__c": 2,
            "VlocityDataPackType": "VlocityMatchingKeyObject",
            "VlocityMatchingRecordSourceKey": "%vlocity_namespace%__CalculationProcedureVersion__c/2/%vlocity_namespace%__CalculationProcedure__c/EmergingWealthSingleClaimCalculation",
            "VlocityRecordSObjectType": "%vlocity_namespace%__CalculationProcedureVersion__c"
        },
        "%vlocity_namespace%__DataType__c": "Number",
        "%vlocity_namespace%__DefaultValue__c": "",
        "%vlocity_namespace%__DuplicateAlias__c": false,
        "%vlocity_namespace%__Index__c": 1,
        "%vlocity_namespace%__IsEditable__c": false,
        "%vlocity_namespace%__IsSelected__c": false,
        "%vlocity_namespace%__MatrixName__c": "ClaimOtherProperties",
        "%vlocity_namespace%__Precision__c": "",
        "%vlocity_namespace%__TypeaheadDisplayName__c": "relevanceFactor ( ClaimOtherProperties )",
        "%vlocity_namespace%__UserDefined__c": false,
        "CurrencyIsoCode": "GBP",
        "Name": "relevanceFactor",
        "VlocityDataPackType": "SObject",
        "VlocityRecordSObjectType": "%vlocity_namespace%__CalculationProcedureVariable__c",
        "VlocityRecordSourceKey": "%vlocity_namespace%__CalculationProcedureVariable__c/relevanceFactor"
    },
    {
        "%vlocity_namespace%__Alias__c": "ClaimPeril__peril",
        "%vlocity_namespace%__CalculationProcedureVersionId__c": {
            "%vlocity_namespace%__CalculationProcedureId__r.Name": "EmergingWealthSingleClaimCalculation",
            "%vlocity_namespace%__VersionNumber__c": 2,
            "VlocityDataPackType": "VlocityMatchingKeyObject",
            "VlocityMatchingRecordSourceKey": "%vlocity_namespace%__CalculationProcedureVersion__c/2/%vlocity_namespace%__CalculationProcedure__c/EmergingWealthSingleClaimCalculation",
            "VlocityRecordSObjectType": "%vlocity_namespace%__CalculationProcedureVersion__c"
        },
        "%vlocity_namespace%__DataType__c": "Text",
        "%vlocity_namespace%__DefaultValue__c": "",
        "%vlocity_namespace%__DuplicateAlias__c": false,
        "%vlocity_namespace%__Index__c": 4,
        "%vlocity_namespace%__IsEditable__c": false,
        "%vlocity_namespace%__IsSelected__c": false,
        "%vlocity_namespace%__MatrixName__c": "ClaimPeril",
        "%vlocity_namespace%__Precision__c": "",
        "%vlocity_namespace%__TypeaheadDisplayName__c": "peril ( ClaimPeril )",
        "%vlocity_namespace%__UserDefined__c": false,
        "CurrencyIsoCode": "GBP",
        "Name": "peril",
        "VlocityDataPackType": "SObject",
        "VlocityRecordSObjectType": "%vlocity_namespace%__CalculationProcedureVariable__c",
        "VlocityRecordSourceKey": "%vlocity_namespace%__CalculationProcedureVariable__c/peril"
    },
    {
        "%vlocity_namespace%__Alias__c": "ClaimScore",
        "%vlocity_namespace%__CalculationProcedureVersionId__c": {
            "%vlocity_namespace%__CalculationProcedureId__r.Name": "EmergingWealthSingleClaimCalculation",
            "%vlocity_namespace%__VersionNumber__c": 2,
            "VlocityDataPackType": "VlocityMatchingKeyObject",
            "VlocityMatchingRecordSourceKey": "%vlocity_namespace%__CalculationProcedureVersion__c/2/%vlocity_namespace%__CalculationProcedure__c/EmergingWealthSingleClaimCalculation",
            "VlocityRecordSObjectType": "%vlocity_namespace%__CalculationProcedureVersion__c"
        },
        "%vlocity_namespace%__DataType__c": "Number",
        "%vlocity_namespace%__DefaultValue__c": "0",
        "%vlocity_namespace%__DuplicateAlias__c": false,
        "%vlocity_namespace%__Index__c": "",
        "%vlocity_namespace%__IsEditable__c": false,
        "%vlocity_namespace%__IsSelected__c": false,
        "%vlocity_namespace%__MatrixName__c": "",
        "%vlocity_namespace%__Precision__c": 5,
        "%vlocity_namespace%__TypeaheadDisplayName__c": "",
        "%vlocity_namespace%__UserDefined__c": true,
        "CurrencyIsoCode": "GBP",
        "Name": "ClaimScore",
        "VlocityDataPackType": "SObject",
        "VlocityRecordSObjectType": "%vlocity_namespace%__CalculationProcedureVariable__c",
        "VlocityRecordSourceKey": "%vlocity_namespace%__CalculationProcedureVariable__c/ClaimScore"
    },
    {
        "%vlocity_namespace%__Alias__c": "ClaimTimeDecay__decayFactor",
        "%vlocity_namespace%__CalculationProcedureVersionId__c": {
            "%vlocity_namespace%__CalculationProcedureId__r.Name": "EmergingWealthSingleClaimCalculation",
            "%vlocity_namespace%__VersionNumber__c": 2,
            "VlocityDataPackType": "VlocityMatchingKeyObject",
            "VlocityMatchingRecordSourceKey": "%vlocity_namespace%__CalculationProcedureVersion__c/2/%vlocity_namespace%__CalculationProcedure__c/EmergingWealthSingleClaimCalculation",
            "VlocityRecordSObjectType": "%vlocity_namespace%__CalculationProcedureVersion__c"
        },
        "%vlocity_namespace%__DataType__c": "Number",
        "%vlocity_namespace%__DefaultValue__c": "",
        "%vlocity_namespace%__DuplicateAlias__c": false,
        "%vlocity_namespace%__Index__c": 2,
        "%vlocity_namespace%__IsEditable__c": false,
        "%vlocity_namespace%__IsSelected__c": false,
        "%vlocity_namespace%__MatrixName__c": "ClaimTimeDecay",
        "%vlocity_namespace%__Precision__c": "",
        "%vlocity_namespace%__TypeaheadDisplayName__c": "decayFactor ( ClaimTimeDecay )",
        "%vlocity_namespace%__UserDefined__c": false,
        "CurrencyIsoCode": "GBP",
        "Name": "decayFactor",
        "VlocityDataPackType": "SObject",
        "VlocityRecordSObjectType": "%vlocity_namespace%__CalculationProcedureVariable__c",
        "VlocityRecordSourceKey": "%vlocity_namespace%__CalculationProcedureVariable__c/decayFactor"
    },
    {
        "%vlocity_namespace%__Alias__c": "ClaimValue__valueScore",
        "%vlocity_namespace%__CalculationProcedureVersionId__c": {
            "%vlocity_namespace%__CalculationProcedureId__r.Name": "EmergingWealthSingleClaimCalculation",
            "%vlocity_namespace%__VersionNumber__c": 2,
            "VlocityDataPackType": "VlocityMatchingKeyObject",
            "VlocityMatchingRecordSourceKey": "%vlocity_namespace%__CalculationProcedureVersion__c/2/%vlocity_namespace%__CalculationProcedure__c/EmergingWealthSingleClaimCalculation",
            "VlocityRecordSObjectType": "%vlocity_namespace%__CalculationProcedureVersion__c"
        },
        "%vlocity_namespace%__DataType__c": "Number",
        "%vlocity_namespace%__DefaultValue__c": "",
        "%vlocity_namespace%__DuplicateAlias__c": false,
        "%vlocity_namespace%__Index__c": 0,
        "%vlocity_namespace%__IsEditable__c": false,
        "%vlocity_namespace%__IsSelected__c": false,
        "%vlocity_namespace%__MatrixName__c": "ClaimValue",
        "%vlocity_namespace%__Precision__c": "",
        "%vlocity_namespace%__TypeaheadDisplayName__c": "valueScore ( ClaimValue )",
        "%vlocity_namespace%__UserDefined__c": false,
        "CurrencyIsoCode": "GBP",
        "Name": "valueScore",
        "VlocityDataPackType": "SObject",
        "VlocityRecordSObjectType": "%vlocity_namespace%__CalculationProcedureVariable__c",
        "VlocityRecordSourceKey": "%vlocity_namespace%__CalculationProcedureVariable__c/valueScore"
    },
    {
        "%vlocity_namespace%__Alias__c": "claimKey",
        "%vlocity_namespace%__CalculationProcedureVersionId__c": {
            "%vlocity_namespace%__CalculationProcedureId__r.Name": "EmergingWealthSingleClaimCalculation",
            "%vlocity_namespace%__VersionNumber__c": 2,
            "VlocityDataPackType": "VlocityMatchingKeyObject",
            "VlocityMatchingRecordSourceKey": "%vlocity_namespace%__CalculationProcedureVersion__c/2/%vlocity_namespace%__CalculationProcedure__c/EmergingWealthSingleClaimCalculation",
            "VlocityRecordSObjectType": "%vlocity_namespace%__CalculationProcedureVersion__c"
        },
        "%vlocity_namespace%__DataType__c": "Text",
        "%vlocity_namespace%__DefaultValue__c": "",
        "%vlocity_namespace%__DuplicateAlias__c": false,
        "%vlocity_namespace%__Index__c": "",
        "%vlocity_namespace%__IsEditable__c": true,
        "%vlocity_namespace%__IsSelected__c": true,
        "%vlocity_namespace%__MatrixName__c": "",
        "%vlocity_namespace%__Precision__c": "",
        "%vlocity_namespace%__TypeaheadDisplayName__c": "",
        "%vlocity_namespace%__UserDefined__c": true,
        "CurrencyIsoCode": "GBP",
        "Name": "claimKey",
        "VlocityDataPackType": "SObject",
        "VlocityRecordSObjectType": "%vlocity_namespace%__CalculationProcedureVariable__c",
        "VlocityRecordSourceKey": "%vlocity_namespace%__CalculationProcedureVariable__c/claimKey"
    },
    {
        "%vlocity_namespace%__Alias__c": "claimType",
        "%vlocity_namespace%__CalculationProcedureVersionId__c": {
            "%vlocity_namespace%__CalculationProcedureId__r.Name": "EmergingWealthSingleClaimCalculation",
            "%vlocity_namespace%__VersionNumber__c": 2,
            "VlocityDataPackType": "VlocityMatchingKeyObject",
            "VlocityMatchingRecordSourceKey": "%vlocity_namespace%__CalculationProcedureVersion__c/2/%vlocity_namespace%__CalculationProcedure__c/EmergingWealthSingleClaimCalculation",
            "VlocityRecordSObjectType": "%vlocity_namespace%__CalculationProcedureVersion__c"
        },
        "%vlocity_namespace%__DataType__c": "Text",
        "%vlocity_namespace%__DefaultValue__c": "",
        "%vlocity_namespace%__DuplicateAlias__c": false,
        "%vlocity_namespace%__Index__c": 4,
        "%vlocity_namespace%__IsEditable__c": false,
        "%vlocity_namespace%__IsSelected__c": false,
        "%vlocity_namespace%__MatrixName__c": "ClaimPeril",
        "%vlocity_namespace%__Precision__c": "",
        "%vlocity_namespace%__TypeaheadDisplayName__c": "claimType",
        "%vlocity_namespace%__UserDefined__c": false,
        "CurrencyIsoCode": "GBP",
        "Name": "claimType",
        "VlocityDataPackType": "SObject",
        "VlocityRecordSObjectType": "%vlocity_namespace%__CalculationProcedureVariable__c",
        "VlocityRecordSourceKey": "%vlocity_namespace%__CalculationProcedureVariable__c/claimType"
    },
    {
        "%vlocity_namespace%__Alias__c": "claimTypeOtherProperties",
        "%vlocity_namespace%__CalculationProcedureVersionId__c": {
            "%vlocity_namespace%__CalculationProcedureId__r.Name": "EmergingWealthSingleClaimCalculation",
            "%vlocity_namespace%__VersionNumber__c": 2,
            "VlocityDataPackType": "VlocityMatchingKeyObject",
            "VlocityMatchingRecordSourceKey": "%vlocity_namespace%__CalculationProcedureVersion__c/2/%vlocity_namespace%__CalculationProcedure__c/EmergingWealthSingleClaimCalculation",
            "VlocityRecordSObjectType": "%vlocity_namespace%__CalculationProcedureVersion__c"
        },
        "%vlocity_namespace%__DataType__c": "Text",
        "%vlocity_namespace%__DefaultValue__c": "",
        "%vlocity_namespace%__DuplicateAlias__c": false,
        "%vlocity_namespace%__Index__c": 1,
        "%vlocity_namespace%__IsEditable__c": false,
        "%vlocity_namespace%__IsSelected__c": false,
        "%vlocity_namespace%__MatrixName__c": "ClaimOtherProperties",
        "%vlocity_namespace%__Precision__c": "",
        "%vlocity_namespace%__TypeaheadDisplayName__c": "claimTypeOtherProperties",
        "%vlocity_namespace%__UserDefined__c": false,
        "CurrencyIsoCode": "GBP",
        "Name": "claimTypeOtherProperties",
        "VlocityDataPackType": "SObject",
        "VlocityRecordSObjectType": "%vlocity_namespace%__CalculationProcedureVariable__c",
        "VlocityRecordSourceKey": "%vlocity_namespace%__CalculationProcedureVariable__c/claimTypeOtherProperties"
    },
    {
        "%vlocity_namespace%__Alias__c": "claimTypeYear",
        "%vlocity_namespace%__CalculationProcedureVersionId__c": {
            "%vlocity_namespace%__CalculationProcedureId__r.Name": "EmergingWealthSingleClaimCalculation",
            "%vlocity_namespace%__VersionNumber__c": 2,
            "VlocityDataPackType": "VlocityMatchingKeyObject",
            "VlocityMatchingRecordSourceKey": "%vlocity_namespace%__CalculationProcedureVersion__c/2/%vlocity_namespace%__CalculationProcedure__c/EmergingWealthSingleClaimCalculation",
            "VlocityRecordSObjectType": "%vlocity_namespace%__CalculationProcedureVersion__c"
        },
        "%vlocity_namespace%__DataType__c": "Text",
        "%vlocity_namespace%__DefaultValue__c": "",
        "%vlocity_namespace%__DuplicateAlias__c": false,
        "%vlocity_namespace%__Index__c": 2,
        "%vlocity_namespace%__IsEditable__c": false,
        "%vlocity_namespace%__IsSelected__c": false,
        "%vlocity_namespace%__MatrixName__c": "ClaimTimeDecay",
        "%vlocity_namespace%__Precision__c": "",
        "%vlocity_namespace%__TypeaheadDisplayName__c": "claimTypeYear",
        "%vlocity_namespace%__UserDefined__c": false,
        "CurrencyIsoCode": "GBP",
        "Name": "claimTypeYear",
        "VlocityDataPackType": "SObject",
        "VlocityRecordSObjectType": "%vlocity_namespace%__CalculationProcedureVariable__c",
        "VlocityRecordSourceKey": "%vlocity_namespace%__CalculationProcedureVariable__c/claimTypeYear"
    },
    {
        "%vlocity_namespace%__Alias__c": "claimValue",
        "%vlocity_namespace%__CalculationProcedureVersionId__c": {
            "%vlocity_namespace%__CalculationProcedureId__r.Name": "EmergingWealthSingleClaimCalculation",
            "%vlocity_namespace%__VersionNumber__c": 2,
            "VlocityDataPackType": "VlocityMatchingKeyObject",
            "VlocityMatchingRecordSourceKey": "%vlocity_namespace%__CalculationProcedureVersion__c/2/%vlocity_namespace%__CalculationProcedure__c/EmergingWealthSingleClaimCalculation",
            "VlocityRecordSObjectType": "%vlocity_namespace%__CalculationProcedureVersion__c"
        },
        "%vlocity_namespace%__DataType__c": "Number Range",
        "%vlocity_namespace%__DefaultValue__c": "",
        "%vlocity_namespace%__DuplicateAlias__c": false,
        "%vlocity_namespace%__Index__c": 0,
        "%vlocity_namespace%__IsEditable__c": false,
        "%vlocity_namespace%__IsSelected__c": false,
        "%vlocity_namespace%__MatrixName__c": "ClaimValue",
        "%vlocity_namespace%__Precision__c": "",
        "%vlocity_namespace%__TypeaheadDisplayName__c": "claimValue",
        "%vlocity_namespace%__UserDefined__c": false,
        "CurrencyIsoCode": "GBP",
        "Name": "claimValue",
        "VlocityDataPackType": "SObject",
        "VlocityRecordSObjectType": "%vlocity_namespace%__CalculationProcedureVariable__c",
        "VlocityRecordSourceKey": "%vlocity_namespace%__CalculationProcedureVariable__c/claimValue"
    },
    {
        "%vlocity_namespace%__Alias__c": "otherProperty",
        "%vlocity_namespace%__CalculationProcedureVersionId__c": {
            "%vlocity_namespace%__CalculationProcedureId__r.Name": "EmergingWealthSingleClaimCalculation",
            "%vlocity_namespace%__VersionNumber__c": 2,
            "VlocityDataPackType": "VlocityMatchingKeyObject",
            "VlocityMatchingRecordSourceKey": "%vlocity_namespace%__CalculationProcedureVersion__c/2/%vlocity_namespace%__CalculationProcedure__c/EmergingWealthSingleClaimCalculation",
            "VlocityRecordSObjectType": "%vlocity_namespace%__CalculationProcedureVersion__c"
        },
        "%vlocity_namespace%__DataType__c": "Boolean",
        "%vlocity_namespace%__DefaultValue__c": "",
        "%vlocity_namespace%__DuplicateAlias__c": false,
        "%vlocity_namespace%__Index__c": 1,
        "%vlocity_namespace%__IsEditable__c": false,
        "%vlocity_namespace%__IsSelected__c": false,
        "%vlocity_namespace%__MatrixName__c": "ClaimOtherProperties",
        "%vlocity_namespace%__Precision__c": "",
        "%vlocity_namespace%__TypeaheadDisplayName__c": "otherProperty",
        "%vlocity_namespace%__UserDefined__c": false,
        "CurrencyIsoCode": "GBP",
        "Name": "otherProperty",
        "VlocityDataPackType": "SObject",
        "VlocityRecordSObjectType": "%vlocity_namespace%__CalculationProcedureVariable__c",
        "VlocityRecordSourceKey": "%vlocity_namespace%__CalculationProcedureVariable__c/otherProperty"
    },
    {
        "%vlocity_namespace%__Alias__c": "year",
        "%vlocity_namespace%__CalculationProcedureVersionId__c": {
            "%vlocity_namespace%__CalculationProcedureId__r.Name": "EmergingWealthSingleClaimCalculation",
            "%vlocity_namespace%__VersionNumber__c": 2,
            "VlocityDataPackType": "VlocityMatchingKeyObject",
            "VlocityMatchingRecordSourceKey": "%vlocity_namespace%__CalculationProcedureVersion__c/2/%vlocity_namespace%__CalculationProcedure__c/EmergingWealthSingleClaimCalculation",
            "VlocityRecordSObjectType": "%vlocity_namespace%__CalculationProcedureVersion__c"
        },
        "%vlocity_namespace%__DataType__c": "Number",
        "%vlocity_namespace%__DefaultValue__c": "",
        "%vlocity_namespace%__DuplicateAlias__c": false,
        "%vlocity_namespace%__Index__c": 2,
        "%vlocity_namespace%__IsEditable__c": false,
        "%vlocity_namespace%__IsSelected__c": false,
        "%vlocity_namespace%__MatrixName__c": "ClaimTimeDecay",
        "%vlocity_namespace%__Precision__c": "",
        "%vlocity_namespace%__TypeaheadDisplayName__c": "year",
        "%vlocity_namespace%__UserDefined__c": false,
        "CurrencyIsoCode": "GBP",
        "Name": "year",
        "VlocityDataPackType": "SObject",
        "VlocityRecordSObjectType": "%vlocity_namespace%__CalculationProcedureVariable__c",
        "VlocityRecordSourceKey": "%vlocity_namespace%__CalculationProcedureVariable__c/year"
    }
]