{
    "CalculatedPriceData": {
        "ID": "input",
        "adjustmentFactor": 1,
        "aigAzurCommissionValue": 128.4408,
        "aigBrokerCommission": 267.59,
        "aigIPTTotal": 128.44,
        "aigPemiumGrossIncIPT": 1198.78,
        "aigPremiumGrossExIPT": 1070.34,
        "aigPremiumNet": 674.31675,
        "artAzurCommissionValue": 1.66,
        "artBrokerCommissionValue": 3.46,
        "artIPTTotal": 1.66,
        "artPremiumGrossExIPT": 13.84,
        "artPremiumGrossIncIPT": 15.5,
        "artPremiumNet": 8.71626,
        "artSpecified": 0,
        "artUnspecified": 10000,
        "artValue": 10000,
        "azurCommissionValue": 140.62,
        "azurPercentCommission": 0.12,
        "brokerCommission": 292.95,
        "brokerPercentCommission": 0.25,
        "buildingsAzurCommissionValue": 74.81,
        "buildingsBrokerCommissionValue": 155.85,
        "buildingsIPTTotal": 74.81,
        "buildingsPremiumGrossExIPT": 623.4,
        "buildingsPremiumGrossIncIPT": 698.21,
        "buildingsPremiumInput": 392.74037,
        "buildingsPremiumNet": 392.74037,
        "contentsAzurCommissionValue": 38.81,
        "contentsBrokerCommissionValue": 80.85,
        "contentsIPTTotal": 38.81,
        "contentsLimitTotal": "Unlimited",
        "contentsPremiumGrossExIPT": 323.38,
        "contentsPremiumGrossIncIPT": 362.19,
        "contentsPremiumInput": 203.73012,
        "contentsPremiumNet": 203.73012,
        "cyclesSpecified": 0,
        "cyclesUnspecified": 2000,
        "employersLiability": 10000000,
        "fixedExpenseAzurCommissionValue": 4.29,
        "fixedExpenseBrokerCommissionValue": 8.93,
        "fixedExpenseGrossExIPT": 35.71,
        "fixedExpenseGrossIncIPT": 40,
        "fixedExpenseIPTTotal": 4.29,
        "homeEmergencyAzurCommissionValue": 1.66,
        "homeEmergencyBrokerCommissionValue": 3.45,
        "homeEmergencyCoverageLimit": 1000,
        "homeEmergencyIPTTotal": 1.66,
        "homeEmergencyPremiumGrossExIPT": 13.81,
        "homeEmergencyPremiumGrossIncIPT": 15.47,
        "homeEmergencyPremiumNet": 8.7,
        "iptPercent": 0.12,
        "iptTotal": 140.62,
        "jewelleryAzurCommissionValue": 3.8,
        "jewelleryBrokerCommissionValue": 7.91,
        "jewelleryIPTTotal": 3.8,
        "jewelleryPremiumGrossExIPT": 31.65,
        "jewelleryPremiumGrossIncIPT": 35.45,
        "jewelleryPremiumNet": 19.94,
        "jewellerySpecified": 0,
        "jewelleryUnspecified": 10000,
        "jewelleryValue": 10000,
        "legalExpensesAzurCommissionValue": 5.91,
        "legalExpensesBrokerCommissionValue": 12.3,
        "legalExpensesCoverageLimit": 100000,
        "legalExpensesIPTTotal": 5.91,
        "legalExpensesPremiumGrossExIPT": 49.21,
        "legalExpensesPremiumGrossIncIPT": 55.12,
        "legalExpensesPremiumNet": 31,
        "otherPermanentStructures": 200000,
        "pedalAzurCommissionValue": 4.1772,
        "pedalBrokerCommissionValue": 8.7,
        "pedalIPTTotal": 4.18,
        "pedalPremiumGrossExIPT": 34.81,
        "pedalPremiumGrossIncIPT": 38.99,
        "pedalPremiumNet": 21.93,
        "pedalValue": 2000,
        "personalCyberAzurCommissionValue": 4.61,
        "personalCyberBrokerCommissionValue": 9.61,
        "personalCyberCoverageLimit": 50000,
        "personalCyberIPTTotal": 4.61,
        "personalCyberPremiumGrossExIPT": 38.43,
        "personalCyberPremiumGrossIncIPT": 43.04,
        "personalCyberPremiumNet": 24.21,
        "premiumGrossExIPT": 1171.79,
        "premiumGrossIncIPT": 1312.41,
        "premiumNet": 738.22675,
        "publicLiability": 5000000,
        "publicLiabilityAzurCommissionValue": 0.91,
        "publicLiabilityBrokerCommissionValue": 1.89,
        "publicLiabilityIPTTotal": 0.91,
        "publicLiabilityPremiumGrossExIPT": 7.56,
        "publicLiabilityPremiumGrossIncIPT": 8.47,
        "publicLiabilityPremiumNet": 4.76,
        "ratio": 1.66045,
        "tenantsAzurCommissionValue": 0,
        "tenantsBrokerCommissionValue": 0,
        "tenantsIPTTotal": 0,
        "tenantsPremiumGrossExIPT": 0,
        "tenantsPremiumGrossIncIPT": 0,
        "tenantsPremiumNet": 0,
        "tenantsValue": 0,
        "totalCommission": 1.5873,
        "totalPercentCommission": 0.37
    },
    "quoteId": "0Q025000000DcHzCAK"
}