[
    {
        "%vlocity_namespace%__CalculationMatrixVersionId__c": {
            "%vlocity_namespace%__CalculationMatrixId__r.Name": "RandomFactor",
            "%vlocity_namespace%__VersionNumber__c": 2,
            "VlocityDataPackType": "VlocityMatchingKeyObject",
            "VlocityMatchingRecordSourceKey": "%vlocity_namespace%__CalculationMatrixVersion__c/RandomFactor V2",
            "VlocityRecordSObjectType": "%vlocity_namespace%__CalculationMatrixVersion__c"
        },
        "%vlocity_namespace%__InputData__c": {
            "columnKey": "16728d",
            "dataType": "Number",
            "displayOrder": 9,
            "headerType": "Output",
            "label": null,
            "lineItemId": null,
            "listValues": null,
            "name": "CTG"
        },
        "CurrencyIsoCode": "GBP",
        "Name": "Header",
        "VlocityDataPackType": "SObject",
        "VlocityRecordSObjectType": "%vlocity_namespace%__CalculationMatrixRow__c"
    },
    {
        "%vlocity_namespace%__CalculationMatrixVersionId__c": {
            "%vlocity_namespace%__CalculationMatrixId__r.Name": "RandomFactor",
            "%vlocity_namespace%__VersionNumber__c": 2,
            "VlocityDataPackType": "VlocityMatchingKeyObject",
            "VlocityMatchingRecordSourceKey": "%vlocity_namespace%__CalculationMatrixVersion__c/RandomFactor V2",
            "VlocityRecordSObjectType": "%vlocity_namespace%__CalculationMatrixVersion__c"
        },
        "%vlocity_namespace%__InputData__c": {
            "columnKey": "2336a2",
            "dataType": "Number",
            "displayOrder": 20,
            "headerType": "Output",
            "label": null,
            "lineItemId": null,
            "listValues": null,
            "name": "AAC"
        },
        "CurrencyIsoCode": "GBP",
        "Name": "Header",
        "VlocityDataPackType": "SObject",
        "VlocityRecordSObjectType": "%vlocity_namespace%__CalculationMatrixRow__c"
    },
    {
        "%vlocity_namespace%__CalculationMatrixVersionId__c": {
            "%vlocity_namespace%__CalculationMatrixId__r.Name": "RandomFactor",
            "%vlocity_namespace%__VersionNumber__c": 2,
            "VlocityDataPackType": "VlocityMatchingKeyObject",
            "VlocityMatchingRecordSourceKey": "%vlocity_namespace%__CalculationMatrixVersion__c/RandomFactor V2",
            "VlocityRecordSObjectType": "%vlocity_namespace%__CalculationMatrixVersion__c"
        },
        "%vlocity_namespace%__InputData__c": {
            "columnKey": "242e25",
            "dataType": "Number",
            "displayOrder": 22,
            "headerType": "Output",
            "label": null,
            "lineItemId": null,
            "listValues": null,
            "name": "AGC"
        },
        "CurrencyIsoCode": "GBP",
        "Name": "Header",
        "VlocityDataPackType": "SObject",
        "VlocityRecordSObjectType": "%vlocity_namespace%__CalculationMatrixRow__c"
    },
    {
        "%vlocity_namespace%__CalculationMatrixVersionId__c": {
            "%vlocity_namespace%__CalculationMatrixId__r.Name": "RandomFactor",
            "%vlocity_namespace%__VersionNumber__c": 2,
            "VlocityDataPackType": "VlocityMatchingKeyObject",
            "VlocityMatchingRecordSourceKey": "%vlocity_namespace%__CalculationMatrixVersion__c/RandomFactor V2",
            "VlocityRecordSObjectType": "%vlocity_namespace%__CalculationMatrixVersion__c"
        },
        "%vlocity_namespace%__InputData__c": {
            "columnKey": "254a9b",
            "dataType": "Number",
            "displayOrder": 11,
            "headerType": "Output",
            "label": null,
            "lineItemId": null,
            "listValues": null,
            "name": "CWE"
        },
        "CurrencyIsoCode": "GBP",
        "Name": "Header",
        "VlocityDataPackType": "SObject",
        "VlocityRecordSObjectType": "%vlocity_namespace%__CalculationMatrixRow__c"
    },
    {
        "%vlocity_namespace%__CalculationMatrixVersionId__c": {
            "%vlocity_namespace%__CalculationMatrixId__r.Name": "RandomFactor",
            "%vlocity_namespace%__VersionNumber__c": 2,
            "VlocityDataPackType": "VlocityMatchingKeyObject",
            "VlocityMatchingRecordSourceKey": "%vlocity_namespace%__CalculationMatrixVersion__c/RandomFactor V2",
            "VlocityRecordSObjectType": "%vlocity_namespace%__CalculationMatrixVersion__c"
        },
        "%vlocity_namespace%__InputData__c": {
            "columnKey": "276c19",
            "dataType": "Number",
            "displayOrder": 23,
            "headerType": "Output",
            "label": null,
            "lineItemId": null,
            "listValues": null,
            "name": "ATI"
        },
        "CurrencyIsoCode": "GBP",
        "Name": "Header",
        "VlocityDataPackType": "SObject",
        "VlocityRecordSObjectType": "%vlocity_namespace%__CalculationMatrixRow__c"
    },
    {
        "%vlocity_namespace%__CalculationMatrixVersionId__c": {
            "%vlocity_namespace%__CalculationMatrixId__r.Name": "RandomFactor",
            "%vlocity_namespace%__VersionNumber__c": 2,
            "VlocityDataPackType": "VlocityMatchingKeyObject",
            "VlocityMatchingRecordSourceKey": "%vlocity_namespace%__CalculationMatrixVersion__c/RandomFactor V2",
            "VlocityRecordSObjectType": "%vlocity_namespace%__CalculationMatrixVersion__c"
        },
        "%vlocity_namespace%__InputData__c": {
            "columnKey": "30ea64",
            "dataType": "Number",
            "displayOrder": 19,
            "headerType": "Output",
            "label": null,
            "lineItemId": null,
            "listValues": null,
            "name": "AJW"
        },
        "CurrencyIsoCode": "GBP",
        "Name": "Header",
        "VlocityDataPackType": "SObject",
        "VlocityRecordSObjectType": "%vlocity_namespace%__CalculationMatrixRow__c"
    },
    {
        "%vlocity_namespace%__CalculationMatrixVersionId__c": {
            "%vlocity_namespace%__CalculationMatrixId__r.Name": "RandomFactor",
            "%vlocity_namespace%__VersionNumber__c": 2,
            "VlocityDataPackType": "VlocityMatchingKeyObject",
            "VlocityMatchingRecordSourceKey": "%vlocity_namespace%__CalculationMatrixVersion__c/RandomFactor V2",
            "VlocityRecordSObjectType": "%vlocity_namespace%__CalculationMatrixVersion__c"
        },
        "%vlocity_namespace%__InputData__c": {
            "columnKey": "368ab8",
            "dataType": "Number",
            "displayOrder": 17,
            "headerType": "Output",
            "label": null,
            "lineItemId": null,
            "listValues": null,
            "name": "CAL"
        },
        "CurrencyIsoCode": "GBP",
        "Name": "Header",
        "VlocityDataPackType": "SObject",
        "VlocityRecordSObjectType": "%vlocity_namespace%__CalculationMatrixRow__c"
    },
    {
        "%vlocity_namespace%__CalculationMatrixVersionId__c": {
            "%vlocity_namespace%__CalculationMatrixId__r.Name": "RandomFactor",
            "%vlocity_namespace%__VersionNumber__c": 2,
            "VlocityDataPackType": "VlocityMatchingKeyObject",
            "VlocityMatchingRecordSourceKey": "%vlocity_namespace%__CalculationMatrixVersion__c/RandomFactor V2",
            "VlocityRecordSObjectType": "%vlocity_namespace%__CalculationMatrixVersion__c"
        },
        "%vlocity_namespace%__InputData__c": {
            "columnKey": "3ac4df",
            "dataType": "Number",
            "displayOrder": 8,
            "headerType": "Output",
            "label": null,
            "lineItemId": null,
            "listValues": null,
            "name": "BTG"
        },
        "CurrencyIsoCode": "GBP",
        "Name": "Header",
        "VlocityDataPackType": "SObject",
        "VlocityRecordSObjectType": "%vlocity_namespace%__CalculationMatrixRow__c"
    },
    {
        "%vlocity_namespace%__CalculationMatrixVersionId__c": {
            "%vlocity_namespace%__CalculationMatrixId__r.Name": "RandomFactor",
            "%vlocity_namespace%__VersionNumber__c": 2,
            "VlocityDataPackType": "VlocityMatchingKeyObject",
            "VlocityMatchingRecordSourceKey": "%vlocity_namespace%__CalculationMatrixVersion__c/RandomFactor V2",
            "VlocityRecordSObjectType": "%vlocity_namespace%__CalculationMatrixVersion__c"
        },
        "%vlocity_namespace%__InputData__c": {
            "columnKey": "4c205c",
            "dataType": "Number",
            "displayOrder": 14,
            "headerType": "Output",
            "label": null,
            "lineItemId": null,
            "listValues": null,
            "name": "BAD"
        },
        "CurrencyIsoCode": "GBP",
        "Name": "Header",
        "VlocityDataPackType": "SObject",
        "VlocityRecordSObjectType": "%vlocity_namespace%__CalculationMatrixRow__c"
    },
    {
        "%vlocity_namespace%__CalculationMatrixVersionId__c": {
            "%vlocity_namespace%__CalculationMatrixId__r.Name": "RandomFactor",
            "%vlocity_namespace%__VersionNumber__c": 2,
            "VlocityDataPackType": "VlocityMatchingKeyObject",
            "VlocityMatchingRecordSourceKey": "%vlocity_namespace%__CalculationMatrixVersion__c/RandomFactor V2",
            "VlocityRecordSObjectType": "%vlocity_namespace%__CalculationMatrixVersion__c"
        },
        "%vlocity_namespace%__InputData__c": {
            "columnKey": "4f1aba",
            "dataType": "Number",
            "displayOrder": 10,
            "headerType": "Output",
            "label": null,
            "lineItemId": null,
            "listValues": null,
            "name": "BWE"
        },
        "CurrencyIsoCode": "GBP",
        "Name": "Header",
        "VlocityDataPackType": "SObject",
        "VlocityRecordSObjectType": "%vlocity_namespace%__CalculationMatrixRow__c"
    },
    {
        "%vlocity_namespace%__CalculationMatrixVersionId__c": {
            "%vlocity_namespace%__CalculationMatrixId__r.Name": "RandomFactor",
            "%vlocity_namespace%__VersionNumber__c": 2,
            "VlocityDataPackType": "VlocityMatchingKeyObject",
            "VlocityMatchingRecordSourceKey": "%vlocity_namespace%__CalculationMatrixVersion__c/RandomFactor V2",
            "VlocityRecordSObjectType": "%vlocity_namespace%__CalculationMatrixVersion__c"
        },
        "%vlocity_namespace%__InputData__c": {
            "columnKey": "5a1d72",
            "dataType": "Number",
            "displayOrder": 6,
            "headerType": "Output",
            "label": null,
            "lineItemId": null,
            "listValues": null,
            "name": "BFI"
        },
        "CurrencyIsoCode": "GBP",
        "Name": "Header",
        "VlocityDataPackType": "SObject",
        "VlocityRecordSObjectType": "%vlocity_namespace%__CalculationMatrixRow__c"
    },
    {
        "%vlocity_namespace%__CalculationMatrixVersionId__c": {
            "%vlocity_namespace%__CalculationMatrixId__r.Name": "RandomFactor",
            "%vlocity_namespace%__VersionNumber__c": 2,
            "VlocityDataPackType": "VlocityMatchingKeyObject",
            "VlocityMatchingRecordSourceKey": "%vlocity_namespace%__CalculationMatrixVersion__c/RandomFactor V2",
            "VlocityRecordSObjectType": "%vlocity_namespace%__CalculationMatrixVersion__c"
        },
        "%vlocity_namespace%__InputData__c": {
            "columnKey": "638ca5",
            "dataType": "Number",
            "displayOrder": 21,
            "headerType": "Output",
            "label": null,
            "lineItemId": null,
            "listValues": null,
            "name": "ABI"
        },
        "CurrencyIsoCode": "GBP",
        "Name": "Header",
        "VlocityDataPackType": "SObject",
        "VlocityRecordSObjectType": "%vlocity_namespace%__CalculationMatrixRow__c"
    },
    {
        "%vlocity_namespace%__CalculationMatrixVersionId__c": {
            "%vlocity_namespace%__CalculationMatrixId__r.Name": "RandomFactor",
            "%vlocity_namespace%__VersionNumber__c": 2,
            "VlocityDataPackType": "VlocityMatchingKeyObject",
            "VlocityMatchingRecordSourceKey": "%vlocity_namespace%__CalculationMatrixVersion__c/RandomFactor V2",
            "VlocityRecordSObjectType": "%vlocity_namespace%__CalculationMatrixVersion__c"
        },
        "%vlocity_namespace%__InputData__c": {
            "columnKey": "6813f0",
            "dataType": "Number",
            "displayOrder": 3,
            "headerType": "Output",
            "label": null,
            "lineItemId": null,
            "listValues": null,
            "name": "CEW"
        },
        "CurrencyIsoCode": "GBP",
        "Name": "Header",
        "VlocityDataPackType": "SObject",
        "VlocityRecordSObjectType": "%vlocity_namespace%__CalculationMatrixRow__c"
    },
    {
        "%vlocity_namespace%__CalculationMatrixVersionId__c": {
            "%vlocity_namespace%__CalculationMatrixId__r.Name": "RandomFactor",
            "%vlocity_namespace%__VersionNumber__c": 2,
            "VlocityDataPackType": "VlocityMatchingKeyObject",
            "VlocityMatchingRecordSourceKey": "%vlocity_namespace%__CalculationMatrixVersion__c/RandomFactor V2",
            "VlocityRecordSObjectType": "%vlocity_namespace%__CalculationMatrixVersion__c"
        },
        "%vlocity_namespace%__InputData__c": {
            "columnKey": "7037bb",
            "dataType": "Number",
            "displayOrder": 24,
            "headerType": "Output",
            "label": null,
            "lineItemId": null,
            "listValues": null,
            "name": "FE"
        },
        "CurrencyIsoCode": "GBP",
        "Name": "Header",
        "VlocityDataPackType": "SObject",
        "VlocityRecordSObjectType": "%vlocity_namespace%__CalculationMatrixRow__c"
    },
    {
        "%vlocity_namespace%__CalculationMatrixVersionId__c": {
            "%vlocity_namespace%__CalculationMatrixId__r.Name": "RandomFactor",
            "%vlocity_namespace%__VersionNumber__c": 2,
            "VlocityDataPackType": "VlocityMatchingKeyObject",
            "VlocityMatchingRecordSourceKey": "%vlocity_namespace%__CalculationMatrixVersion__c/RandomFactor V2",
            "VlocityRecordSObjectType": "%vlocity_namespace%__CalculationMatrixVersion__c"
        },
        "%vlocity_namespace%__InputData__c": {
            "columnKey": "717b92",
            "dataType": "Number Range",
            "displayOrder": 1,
            "headerType": "Input",
            "label": null,
            "lineItemId": null,
            "listValues": "0,25.0001,50.0001,75.0001,100.0001,125.0001,150.0001,175.0001,200.0001,225.0001,250.0001,275.0001,300.0001,325.0001,350.0001,375.0001,400.0001,425.0001,450.0001,475.0001,500.0001,525.0001,550.0001,575.0001,600.0001,625.0001,650.0001,675.0001,700.0001,725.0001,750.0001,775.0001,800.0001,825.0001,850.0001,875.0001,900.0001,925.0001,950.0001,975.0001",
            "name": "randomNumber"
        },
        "CurrencyIsoCode": "GBP",
        "Name": "Header",
        "VlocityDataPackType": "SObject",
        "VlocityRecordSObjectType": "%vlocity_namespace%__CalculationMatrixRow__c"
    },
    {
        "%vlocity_namespace%__CalculationMatrixVersionId__c": {
            "%vlocity_namespace%__CalculationMatrixId__r.Name": "RandomFactor",
            "%vlocity_namespace%__VersionNumber__c": 2,
            "VlocityDataPackType": "VlocityMatchingKeyObject",
            "VlocityMatchingRecordSourceKey": "%vlocity_namespace%__CalculationMatrixVersion__c/RandomFactor V2",
            "VlocityRecordSObjectType": "%vlocity_namespace%__CalculationMatrixVersion__c"
        },
        "%vlocity_namespace%__InputData__c": {
            "columnKey": "73153a",
            "dataType": "Number",
            "displayOrder": 2,
            "headerType": "Output",
            "label": null,
            "lineItemId": null,
            "listValues": null,
            "name": "BEW"
        },
        "CurrencyIsoCode": "GBP",
        "Name": "Header",
        "VlocityDataPackType": "SObject",
        "VlocityRecordSObjectType": "%vlocity_namespace%__CalculationMatrixRow__c"
    },
    {
        "%vlocity_namespace%__CalculationMatrixVersionId__c": {
            "%vlocity_namespace%__CalculationMatrixId__r.Name": "RandomFactor",
            "%vlocity_namespace%__VersionNumber__c": 2,
            "VlocityDataPackType": "VlocityMatchingKeyObject",
            "VlocityMatchingRecordSourceKey": "%vlocity_namespace%__CalculationMatrixVersion__c/RandomFactor V2",
            "VlocityRecordSObjectType": "%vlocity_namespace%__CalculationMatrixVersion__c"
        },
        "%vlocity_namespace%__InputData__c": {
            "columnKey": "8746df",
            "dataType": "Number",
            "displayOrder": 7,
            "headerType": "Output",
            "label": null,
            "lineItemId": null,
            "listValues": null,
            "name": "CFI"
        },
        "CurrencyIsoCode": "GBP",
        "Name": "Header",
        "VlocityDataPackType": "SObject",
        "VlocityRecordSObjectType": "%vlocity_namespace%__CalculationMatrixRow__c"
    },
    {
        "%vlocity_namespace%__CalculationMatrixVersionId__c": {
            "%vlocity_namespace%__CalculationMatrixId__r.Name": "RandomFactor",
            "%vlocity_namespace%__VersionNumber__c": 2,
            "VlocityDataPackType": "VlocityMatchingKeyObject",
            "VlocityMatchingRecordSourceKey": "%vlocity_namespace%__CalculationMatrixVersion__c/RandomFactor V2",
            "VlocityRecordSObjectType": "%vlocity_namespace%__CalculationMatrixVersion__c"
        },
        "%vlocity_namespace%__InputData__c": {
            "columnKey": "927161",
            "dataType": "Number",
            "displayOrder": 18,
            "headerType": "Output",
            "label": null,
            "lineItemId": null,
            "listValues": null,
            "name": "LI"
        },
        "CurrencyIsoCode": "GBP",
        "Name": "Header",
        "VlocityDataPackType": "SObject",
        "VlocityRecordSObjectType": "%vlocity_namespace%__CalculationMatrixRow__c"
    },
    {
        "%vlocity_namespace%__CalculationMatrixVersionId__c": {
            "%vlocity_namespace%__CalculationMatrixId__r.Name": "RandomFactor",
            "%vlocity_namespace%__VersionNumber__c": 2,
            "VlocityDataPackType": "VlocityMatchingKeyObject",
            "VlocityMatchingRecordSourceKey": "%vlocity_namespace%__CalculationMatrixVersion__c/RandomFactor V2",
            "VlocityRecordSObjectType": "%vlocity_namespace%__CalculationMatrixVersion__c"
        },
        "%vlocity_namespace%__InputData__c": {
            "columnKey": "abd50d",
            "dataType": "Number",
            "displayOrder": 16,
            "headerType": "Output",
            "label": null,
            "lineItemId": null,
            "listValues": null,
            "name": "BAL"
        },
        "CurrencyIsoCode": "GBP",
        "Name": "Header",
        "VlocityDataPackType": "SObject",
        "VlocityRecordSObjectType": "%vlocity_namespace%__CalculationMatrixRow__c"
    },
    {
        "%vlocity_namespace%__CalculationMatrixVersionId__c": {
            "%vlocity_namespace%__CalculationMatrixId__r.Name": "RandomFactor",
            "%vlocity_namespace%__VersionNumber__c": 2,
            "VlocityDataPackType": "VlocityMatchingKeyObject",
            "VlocityMatchingRecordSourceKey": "%vlocity_namespace%__CalculationMatrixVersion__c/RandomFactor V2",
            "VlocityRecordSObjectType": "%vlocity_namespace%__CalculationMatrixVersion__c"
        },
        "%vlocity_namespace%__InputData__c": {
            "columnKey": "ac5e35",
            "dataType": "Number",
            "displayOrder": 15,
            "headerType": "Output",
            "label": null,
            "lineItemId": null,
            "listValues": null,
            "name": "CAD"
        },
        "CurrencyIsoCode": "GBP",
        "Name": "Header",
        "VlocityDataPackType": "SObject",
        "VlocityRecordSObjectType": "%vlocity_namespace%__CalculationMatrixRow__c"
    },
    {
        "%vlocity_namespace%__CalculationMatrixVersionId__c": {
            "%vlocity_namespace%__CalculationMatrixId__r.Name": "RandomFactor",
            "%vlocity_namespace%__VersionNumber__c": 2,
            "VlocityDataPackType": "VlocityMatchingKeyObject",
            "VlocityMatchingRecordSourceKey": "%vlocity_namespace%__CalculationMatrixVersion__c/RandomFactor V2",
            "VlocityRecordSObjectType": "%vlocity_namespace%__CalculationMatrixVersion__c"
        },
        "%vlocity_namespace%__InputData__c": {
            "columnKey": "b8b5d8",
            "dataType": "Number",
            "displayOrder": 4,
            "headerType": "Output",
            "label": null,
            "lineItemId": null,
            "listValues": null,
            "name": "BFL"
        },
        "CurrencyIsoCode": "GBP",
        "Name": "Header",
        "VlocityDataPackType": "SObject",
        "VlocityRecordSObjectType": "%vlocity_namespace%__CalculationMatrixRow__c"
    },
    {
        "%vlocity_namespace%__CalculationMatrixVersionId__c": {
            "%vlocity_namespace%__CalculationMatrixId__r.Name": "RandomFactor",
            "%vlocity_namespace%__VersionNumber__c": 2,
            "VlocityDataPackType": "VlocityMatchingKeyObject",
            "VlocityMatchingRecordSourceKey": "%vlocity_namespace%__CalculationMatrixVersion__c/RandomFactor V2",
            "VlocityRecordSObjectType": "%vlocity_namespace%__CalculationMatrixVersion__c"
        },
        "%vlocity_namespace%__InputData__c": {
            "columnKey": "c7320d",
            "dataType": "Number",
            "displayOrder": 5,
            "headerType": "Output",
            "label": null,
            "lineItemId": null,
            "listValues": null,
            "name": "CFL"
        },
        "CurrencyIsoCode": "GBP",
        "Name": "Header",
        "VlocityDataPackType": "SObject",
        "VlocityRecordSObjectType": "%vlocity_namespace%__CalculationMatrixRow__c"
    },
    {
        "%vlocity_namespace%__CalculationMatrixVersionId__c": {
            "%vlocity_namespace%__CalculationMatrixId__r.Name": "RandomFactor",
            "%vlocity_namespace%__VersionNumber__c": 2,
            "VlocityDataPackType": "VlocityMatchingKeyObject",
            "VlocityMatchingRecordSourceKey": "%vlocity_namespace%__CalculationMatrixVersion__c/RandomFactor V2",
            "VlocityRecordSObjectType": "%vlocity_namespace%__CalculationMatrixVersion__c"
        },
        "%vlocity_namespace%__InputData__c": {
            "columnKey": "d582f3",
            "dataType": "Number",
            "displayOrder": 12,
            "headerType": "Output",
            "label": null,
            "lineItemId": null,
            "listValues": null,
            "name": "BSU"
        },
        "CurrencyIsoCode": "GBP",
        "Name": "Header",
        "VlocityDataPackType": "SObject",
        "VlocityRecordSObjectType": "%vlocity_namespace%__CalculationMatrixRow__c"
    },
    {
        "%vlocity_namespace%__CalculationMatrixVersionId__c": {
            "%vlocity_namespace%__CalculationMatrixId__r.Name": "RandomFactor",
            "%vlocity_namespace%__VersionNumber__c": 2,
            "VlocityDataPackType": "VlocityMatchingKeyObject",
            "VlocityMatchingRecordSourceKey": "%vlocity_namespace%__CalculationMatrixVersion__c/RandomFactor V2",
            "VlocityRecordSObjectType": "%vlocity_namespace%__CalculationMatrixVersion__c"
        },
        "%vlocity_namespace%__InputData__c": {
            "columnKey": "edd7af",
            "dataType": "Number",
            "displayOrder": 13,
            "headerType": "Output",
            "label": null,
            "lineItemId": null,
            "listValues": null,
            "name": "CSU"
        },
        "CurrencyIsoCode": "GBP",
        "Name": "Header",
        "VlocityDataPackType": "SObject",
        "VlocityRecordSObjectType": "%vlocity_namespace%__CalculationMatrixRow__c"
    },
    {
        "%vlocity_namespace%__CalculationMatrixVersionId__c": {
            "%vlocity_namespace%__CalculationMatrixId__r.Name": "RandomFactor",
            "%vlocity_namespace%__VersionNumber__c": 2,
            "VlocityDataPackType": "VlocityMatchingKeyObject",
            "VlocityMatchingRecordSourceKey": "%vlocity_namespace%__CalculationMatrixVersion__c/RandomFactor V2",
            "VlocityRecordSObjectType": "%vlocity_namespace%__CalculationMatrixVersion__c"
        },
        "%vlocity_namespace%__InputData__c": {
            "randomNumber": "0"
        },
        "%vlocity_namespace%__OutputData__c": {
            "AAC": 1,
            "ABI": 1,
            "AGC": 1,
            "AJW": 1,
            "ATI": 1,
            "BAD": 1,
            "BAL": 1,
            "BEW": 1,
            "BFI": 1,
            "BFL": 1,
            "BSU": 1,
            "BTG": 1,
            "BWE": 1,
            "CAD": 1,
            "CAL": 1,
            "CEW": 1,
            "CFI": 1,
            "CFL": 1,
            "CSU": 1,
            "CTG": 1,
            "CWE": 1,
            "FE": 1,
            "LI": 1
        },
        "CurrencyIsoCode": "GBP",
        "Name": "d108b375d39fce9e2a7da3c1a0a8f26b",
        "VlocityDataPackType": "SObject",
        "VlocityRecordSObjectType": "%vlocity_namespace%__CalculationMatrixRow__c"
    },
    {
        "%vlocity_namespace%__CalculationMatrixVersionId__c": {
            "%vlocity_namespace%__CalculationMatrixId__r.Name": "RandomFactor",
            "%vlocity_namespace%__VersionNumber__c": 2,
            "VlocityDataPackType": "VlocityMatchingKeyObject",
            "VlocityMatchingRecordSourceKey": "%vlocity_namespace%__CalculationMatrixVersion__c/RandomFactor V2",
            "VlocityRecordSObjectType": "%vlocity_namespace%__CalculationMatrixVersion__c"
        },
        "%vlocity_namespace%__InputData__c": {
            "randomNumber": "100.0001"
        },
        "%vlocity_namespace%__OutputData__c": {
            "AAC": 0.96,
            "ABI": 0.96,
            "AGC": 0.96,
            "AJW": 0.96,
            "ATI": 0.96,
            "BAD": 0.96,
            "BAL": 0.96,
            "BEW": 0.96,
            "BFI": 0.96,
            "BFL": 0.96,
            "BSU": 0.96,
            "BTG": 0.96,
            "BWE": 0.96,
            "CAD": 0.96,
            "CAL": 0.96,
            "CEW": 0.96,
            "CFI": 0.96,
            "CFL": 0.96,
            "CSU": 0.96,
            "CTG": 0.96,
            "CWE": 0.96,
            "FE": 0.96,
            "LI": 0.96
        },
        "CurrencyIsoCode": "GBP",
        "Name": "4ec9c0311cd966a5cb2ecb22632bb456",
        "VlocityDataPackType": "SObject",
        "VlocityRecordSObjectType": "%vlocity_namespace%__CalculationMatrixRow__c"
    },
    {
        "%vlocity_namespace%__CalculationMatrixVersionId__c": {
            "%vlocity_namespace%__CalculationMatrixId__r.Name": "RandomFactor",
            "%vlocity_namespace%__VersionNumber__c": 2,
            "VlocityDataPackType": "VlocityMatchingKeyObject",
            "VlocityMatchingRecordSourceKey": "%vlocity_namespace%__CalculationMatrixVersion__c/RandomFactor V2",
            "VlocityRecordSObjectType": "%vlocity_namespace%__CalculationMatrixVersion__c"
        },
        "%vlocity_namespace%__InputData__c": {
            "randomNumber": "125.0001"
        },
        "%vlocity_namespace%__OutputData__c": {
            "AAC": 0.94,
            "ABI": 0.94,
            "AGC": 0.94,
            "AJW": 0.94,
            "ATI": 0.94,
            "BAD": 0.94,
            "BAL": 0.94,
            "BEW": 0.94,
            "BFI": 0.94,
            "BFL": 0.94,
            "BSU": 0.94,
            "BTG": 0.94,
            "BWE": 0.94,
            "CAD": 0.94,
            "CAL": 0.94,
            "CEW": 0.94,
            "CFI": 0.94,
            "CFL": 0.94,
            "CSU": 0.94,
            "CTG": 0.94,
            "CWE": 0.94,
            "FE": 0.94,
            "LI": 0.94
        },
        "CurrencyIsoCode": "GBP",
        "Name": "e124a590609d7872983db15bfd2e85c3",
        "VlocityDataPackType": "SObject",
        "VlocityRecordSObjectType": "%vlocity_namespace%__CalculationMatrixRow__c"
    },
    {
        "%vlocity_namespace%__CalculationMatrixVersionId__c": {
            "%vlocity_namespace%__CalculationMatrixId__r.Name": "RandomFactor",
            "%vlocity_namespace%__VersionNumber__c": 2,
            "VlocityDataPackType": "VlocityMatchingKeyObject",
            "VlocityMatchingRecordSourceKey": "%vlocity_namespace%__CalculationMatrixVersion__c/RandomFactor V2",
            "VlocityRecordSObjectType": "%vlocity_namespace%__CalculationMatrixVersion__c"
        },
        "%vlocity_namespace%__InputData__c": {
            "randomNumber": "150.0001"
        },
        "%vlocity_namespace%__OutputData__c": {
            "AAC": 1,
            "ABI": 1,
            "AGC": 1,
            "AJW": 1,
            "ATI": 1,
            "BAD": 1,
            "BAL": 1,
            "BEW": 1,
            "BFI": 1,
            "BFL": 1,
            "BSU": 1,
            "BTG": 1,
            "BWE": 1,
            "CAD": 1,
            "CAL": 1,
            "CEW": 1,
            "CFI": 1,
            "CFL": 1,
            "CSU": 1,
            "CTG": 1,
            "CWE": 1,
            "FE": 1,
            "LI": 0.94
        },
        "CurrencyIsoCode": "GBP",
        "Name": "5052a2ca62955ad226769184e3fa6eed",
        "VlocityDataPackType": "SObject",
        "VlocityRecordSObjectType": "%vlocity_namespace%__CalculationMatrixRow__c"
    },
    {
        "%vlocity_namespace%__CalculationMatrixVersionId__c": {
            "%vlocity_namespace%__CalculationMatrixId__r.Name": "RandomFactor",
            "%vlocity_namespace%__VersionNumber__c": 2,
            "VlocityDataPackType": "VlocityMatchingKeyObject",
            "VlocityMatchingRecordSourceKey": "%vlocity_namespace%__CalculationMatrixVersion__c/RandomFactor V2",
            "VlocityRecordSObjectType": "%vlocity_namespace%__CalculationMatrixVersion__c"
        },
        "%vlocity_namespace%__InputData__c": {
            "randomNumber": "175.0001"
        },
        "%vlocity_namespace%__OutputData__c": {
            "AAC": 1,
            "ABI": 1,
            "AGC": 1,
            "AJW": 1,
            "ATI": 1,
            "BAD": 1,
            "BAL": 1,
            "BEW": 1,
            "BFI": 1,
            "BFL": 1,
            "BSU": 1,
            "BTG": 1,
            "BWE": 1,
            "CAD": 1,
            "CAL": 1,
            "CEW": 1,
            "CFI": 1,
            "CFL": 1,
            "CSU": 1,
            "CTG": 1,
            "CWE": 1,
            "FE": 1,
            "LI": 1
        },
        "CurrencyIsoCode": "GBP",
        "Name": "6833d13f378550abe1c79891a2ddcefb",
        "VlocityDataPackType": "SObject",
        "VlocityRecordSObjectType": "%vlocity_namespace%__CalculationMatrixRow__c"
    },
    {
        "%vlocity_namespace%__CalculationMatrixVersionId__c": {
            "%vlocity_namespace%__CalculationMatrixId__r.Name": "RandomFactor",
            "%vlocity_namespace%__VersionNumber__c": 2,
            "VlocityDataPackType": "VlocityMatchingKeyObject",
            "VlocityMatchingRecordSourceKey": "%vlocity_namespace%__CalculationMatrixVersion__c/RandomFactor V2",
            "VlocityRecordSObjectType": "%vlocity_namespace%__CalculationMatrixVersion__c"
        },
        "%vlocity_namespace%__InputData__c": {
            "randomNumber": "200.0001"
        },
        "%vlocity_namespace%__OutputData__c": {
            "AAC": 1,
            "ABI": 1,
            "AGC": 1,
            "AJW": 1,
            "ATI": 1,
            "BAD": 1,
            "BAL": 1,
            "BEW": 1,
            "BFI": 1,
            "BFL": 1,
            "BSU": 1,
            "BTG": 1,
            "BWE": 1,
            "CAD": 1,
            "CAL": 1,
            "CEW": 1,
            "CFI": 1,
            "CFL": 1,
            "CSU": 1,
            "CTG": 1,
            "CWE": 1,
            "FE": 1,
            "LI": 1
        },
        "CurrencyIsoCode": "GBP",
        "Name": "d553329fdc17cecba508ae38a0c39a25",
        "VlocityDataPackType": "SObject",
        "VlocityRecordSObjectType": "%vlocity_namespace%__CalculationMatrixRow__c"
    },
    {
        "%vlocity_namespace%__CalculationMatrixVersionId__c": {
            "%vlocity_namespace%__CalculationMatrixId__r.Name": "RandomFactor",
            "%vlocity_namespace%__VersionNumber__c": 2,
            "VlocityDataPackType": "VlocityMatchingKeyObject",
            "VlocityMatchingRecordSourceKey": "%vlocity_namespace%__CalculationMatrixVersion__c/RandomFactor V2",
            "VlocityRecordSObjectType": "%vlocity_namespace%__CalculationMatrixVersion__c"
        },
        "%vlocity_namespace%__InputData__c": {
            "randomNumber": "225.0001"
        },
        "%vlocity_namespace%__OutputData__c": {
            "AAC": 1,
            "ABI": 1,
            "AGC": 1,
            "AJW": 1,
            "ATI": 1,
            "BAD": 1,
            "BAL": 1,
            "BEW": 1,
            "BFI": 1,
            "BFL": 1,
            "BSU": 1,
            "BTG": 1,
            "BWE": 1,
            "CAD": 1,
            "CAL": 1,
            "CEW": 1,
            "CFI": 1,
            "CFL": 1,
            "CSU": 1,
            "CTG": 1,
            "CWE": 1,
            "FE": 1,
            "LI": 1
        },
        "CurrencyIsoCode": "GBP",
        "Name": "5f75e8a0987188d923e9506617dec75b",
        "VlocityDataPackType": "SObject",
        "VlocityRecordSObjectType": "%vlocity_namespace%__CalculationMatrixRow__c"
    },
    {
        "%vlocity_namespace%__CalculationMatrixVersionId__c": {
            "%vlocity_namespace%__CalculationMatrixId__r.Name": "RandomFactor",
            "%vlocity_namespace%__VersionNumber__c": 2,
            "VlocityDataPackType": "VlocityMatchingKeyObject",
            "VlocityMatchingRecordSourceKey": "%vlocity_namespace%__CalculationMatrixVersion__c/RandomFactor V2",
            "VlocityRecordSObjectType": "%vlocity_namespace%__CalculationMatrixVersion__c"
        },
        "%vlocity_namespace%__InputData__c": {
            "randomNumber": "25.0001"
        },
        "%vlocity_namespace%__OutputData__c": {
            "AAC": 1,
            "ABI": 1,
            "AGC": 1,
            "AJW": 1,
            "ATI": 1,
            "BAD": 1,
            "BAL": 1,
            "BEW": 1,
            "BFI": 1,
            "BFL": 1,
            "BSU": 1,
            "BTG": 1,
            "BWE": 1,
            "CAD": 1,
            "CAL": 1,
            "CEW": 1,
            "CFI": 1,
            "CFL": 1,
            "CSU": 1,
            "CTG": 1,
            "CWE": 1,
            "FE": 1,
            "LI": 1
        },
        "CurrencyIsoCode": "GBP",
        "Name": "59c3651d3006b8aa6363eb1c5d68c924",
        "VlocityDataPackType": "SObject",
        "VlocityRecordSObjectType": "%vlocity_namespace%__CalculationMatrixRow__c"
    },
    {
        "%vlocity_namespace%__CalculationMatrixVersionId__c": {
            "%vlocity_namespace%__CalculationMatrixId__r.Name": "RandomFactor",
            "%vlocity_namespace%__VersionNumber__c": 2,
            "VlocityDataPackType": "VlocityMatchingKeyObject",
            "VlocityMatchingRecordSourceKey": "%vlocity_namespace%__CalculationMatrixVersion__c/RandomFactor V2",
            "VlocityRecordSObjectType": "%vlocity_namespace%__CalculationMatrixVersion__c"
        },
        "%vlocity_namespace%__InputData__c": {
            "randomNumber": "250.0001"
        },
        "%vlocity_namespace%__OutputData__c": {
            "AAC": 1.04,
            "ABI": 1.04,
            "AGC": 1.04,
            "AJW": 1.04,
            "ATI": 1.04,
            "BAD": 1.04,
            "BAL": 1.04,
            "BEW": 1.04,
            "BFI": 1.04,
            "BFL": 1.04,
            "BSU": 1.04,
            "BTG": 1.04,
            "BWE": 1.04,
            "CAD": 1.04,
            "CAL": 1.04,
            "CEW": 1.04,
            "CFI": 1.04,
            "CFL": 1.04,
            "CSU": 1.04,
            "CTG": 1.04,
            "CWE": 1.04,
            "FE": 1,
            "LI": 1.04
        },
        "CurrencyIsoCode": "GBP",
        "Name": "efaedd18ab581c1a4f151542aa54c006",
        "VlocityDataPackType": "SObject",
        "VlocityRecordSObjectType": "%vlocity_namespace%__CalculationMatrixRow__c"
    },
    {
        "%vlocity_namespace%__CalculationMatrixVersionId__c": {
            "%vlocity_namespace%__CalculationMatrixId__r.Name": "RandomFactor",
            "%vlocity_namespace%__VersionNumber__c": 2,
            "VlocityDataPackType": "VlocityMatchingKeyObject",
            "VlocityMatchingRecordSourceKey": "%vlocity_namespace%__CalculationMatrixVersion__c/RandomFactor V2",
            "VlocityRecordSObjectType": "%vlocity_namespace%__CalculationMatrixVersion__c"
        },
        "%vlocity_namespace%__InputData__c": {
            "randomNumber": "275.0001"
        },
        "%vlocity_namespace%__OutputData__c": {
            "AAC": 1.06,
            "ABI": 1.06,
            "AGC": 1.06,
            "AJW": 1.06,
            "ATI": 1.06,
            "BAD": 1.06,
            "BAL": 1.06,
            "BEW": 1.06,
            "BFI": 1.06,
            "BFL": 1.06,
            "BSU": 1.06,
            "BTG": 1.06,
            "BWE": 1.06,
            "CAD": 1.06,
            "CAL": 1.06,
            "CEW": 1.06,
            "CFI": 1.06,
            "CFL": 1.06,
            "CSU": 1.06,
            "CTG": 1.06,
            "CWE": 1.06,
            "FE": 1,
            "LI": 1.06
        },
        "CurrencyIsoCode": "GBP",
        "Name": "75165b128b54d5879b12d3e28d120660",
        "VlocityDataPackType": "SObject",
        "VlocityRecordSObjectType": "%vlocity_namespace%__CalculationMatrixRow__c"
    },
    {
        "%vlocity_namespace%__CalculationMatrixVersionId__c": {
            "%vlocity_namespace%__CalculationMatrixId__r.Name": "RandomFactor",
            "%vlocity_namespace%__VersionNumber__c": 2,
            "VlocityDataPackType": "VlocityMatchingKeyObject",
            "VlocityMatchingRecordSourceKey": "%vlocity_namespace%__CalculationMatrixVersion__c/RandomFactor V2",
            "VlocityRecordSObjectType": "%vlocity_namespace%__CalculationMatrixVersion__c"
        },
        "%vlocity_namespace%__InputData__c": {
            "randomNumber": "300.0001"
        },
        "%vlocity_namespace%__OutputData__c": {
            "AAC": 1,
            "ABI": 1,
            "AGC": 1,
            "AJW": 1,
            "ATI": 1,
            "BAD": 1,
            "BAL": 1,
            "BEW": 1,
            "BFI": 1,
            "BFL": 1,
            "BSU": 1,
            "BTG": 1,
            "BWE": 1,
            "CAD": 1,
            "CAL": 1,
            "CEW": 1,
            "CFI": 1,
            "CFL": 1,
            "CSU": 1,
            "CTG": 1,
            "CWE": 1,
            "FE": 1,
            "LI": 1
        },
        "CurrencyIsoCode": "GBP",
        "Name": "5af0f526a1dd9be7c33ecd2997394247",
        "VlocityDataPackType": "SObject",
        "VlocityRecordSObjectType": "%vlocity_namespace%__CalculationMatrixRow__c"
    },
    {
        "%vlocity_namespace%__CalculationMatrixVersionId__c": {
            "%vlocity_namespace%__CalculationMatrixId__r.Name": "RandomFactor",
            "%vlocity_namespace%__VersionNumber__c": 2,
            "VlocityDataPackType": "VlocityMatchingKeyObject",
            "VlocityMatchingRecordSourceKey": "%vlocity_namespace%__CalculationMatrixVersion__c/RandomFactor V2",
            "VlocityRecordSObjectType": "%vlocity_namespace%__CalculationMatrixVersion__c"
        },
        "%vlocity_namespace%__InputData__c": {
            "randomNumber": "325.0001"
        },
        "%vlocity_namespace%__OutputData__c": {
            "AAC": 1,
            "ABI": 1,
            "AGC": 1,
            "AJW": 1,
            "ATI": 1,
            "BAD": 1,
            "BAL": 1,
            "BEW": 1,
            "BFI": 1,
            "BFL": 1,
            "BSU": 1,
            "BTG": 1,
            "BWE": 1,
            "CAD": 1,
            "CAL": 1,
            "CEW": 1,
            "CFI": 1,
            "CFL": 1,
            "CSU": 1,
            "CTG": 1,
            "CWE": 1,
            "FE": 1,
            "LI": 1
        },
        "CurrencyIsoCode": "GBP",
        "Name": "477f84cfb7976327e2f544ceba7dc61a",
        "VlocityDataPackType": "SObject",
        "VlocityRecordSObjectType": "%vlocity_namespace%__CalculationMatrixRow__c"
    },
    {
        "%vlocity_namespace%__CalculationMatrixVersionId__c": {
            "%vlocity_namespace%__CalculationMatrixId__r.Name": "RandomFactor",
            "%vlocity_namespace%__VersionNumber__c": 2,
            "VlocityDataPackType": "VlocityMatchingKeyObject",
            "VlocityMatchingRecordSourceKey": "%vlocity_namespace%__CalculationMatrixVersion__c/RandomFactor V2",
            "VlocityRecordSObjectType": "%vlocity_namespace%__CalculationMatrixVersion__c"
        },
        "%vlocity_namespace%__InputData__c": {
            "randomNumber": "350.0001"
        },
        "%vlocity_namespace%__OutputData__c": {
            "AAC": 1,
            "ABI": 1,
            "AGC": 1,
            "AJW": 1,
            "ATI": 1,
            "BAD": 1,
            "BAL": 1,
            "BEW": 1,
            "BFI": 1,
            "BFL": 1,
            "BSU": 1,
            "BTG": 1,
            "BWE": 1,
            "CAD": 1,
            "CAL": 1,
            "CEW": 1,
            "CFI": 1,
            "CFL": 1,
            "CSU": 1,
            "CTG": 1,
            "CWE": 1,
            "FE": 1,
            "LI": 1
        },
        "CurrencyIsoCode": "GBP",
        "Name": "1105cf95e84d3a7ea1eba85f20c463b5",
        "VlocityDataPackType": "SObject",
        "VlocityRecordSObjectType": "%vlocity_namespace%__CalculationMatrixRow__c"
    },
    {
        "%vlocity_namespace%__CalculationMatrixVersionId__c": {
            "%vlocity_namespace%__CalculationMatrixId__r.Name": "RandomFactor",
            "%vlocity_namespace%__VersionNumber__c": 2,
            "VlocityDataPackType": "VlocityMatchingKeyObject",
            "VlocityMatchingRecordSourceKey": "%vlocity_namespace%__CalculationMatrixVersion__c/RandomFactor V2",
            "VlocityRecordSObjectType": "%vlocity_namespace%__CalculationMatrixVersion__c"
        },
        "%vlocity_namespace%__InputData__c": {
            "randomNumber": "375.0001"
        },
        "%vlocity_namespace%__OutputData__c": {
            "AAC": 1,
            "ABI": 1,
            "AGC": 1,
            "AJW": 1,
            "ATI": 1,
            "BAD": 1,
            "BAL": 1,
            "BEW": 1,
            "BFI": 1,
            "BFL": 1,
            "BSU": 1,
            "BTG": 1,
            "BWE": 1,
            "CAD": 1,
            "CAL": 1,
            "CEW": 1,
            "CFI": 1,
            "CFL": 1,
            "CSU": 1,
            "CTG": 1,
            "CWE": 1,
            "FE": 1,
            "LI": 1
        },
        "CurrencyIsoCode": "GBP",
        "Name": "b596fdf4455420f20b89fec7ed91e65b",
        "VlocityDataPackType": "SObject",
        "VlocityRecordSObjectType": "%vlocity_namespace%__CalculationMatrixRow__c"
    },
    {
        "%vlocity_namespace%__CalculationMatrixVersionId__c": {
            "%vlocity_namespace%__CalculationMatrixId__r.Name": "RandomFactor",
            "%vlocity_namespace%__VersionNumber__c": 2,
            "VlocityDataPackType": "VlocityMatchingKeyObject",
            "VlocityMatchingRecordSourceKey": "%vlocity_namespace%__CalculationMatrixVersion__c/RandomFactor V2",
            "VlocityRecordSObjectType": "%vlocity_namespace%__CalculationMatrixVersion__c"
        },
        "%vlocity_namespace%__InputData__c": {
            "randomNumber": "400.0001"
        },
        "%vlocity_namespace%__OutputData__c": {
            "AAC": 1,
            "ABI": 1,
            "AGC": 1,
            "AJW": 1,
            "ATI": 1,
            "BAD": 1,
            "BAL": 1,
            "BEW": 1,
            "BFI": 1,
            "BFL": 1,
            "BSU": 1,
            "BTG": 1,
            "BWE": 1,
            "CAD": 1,
            "CAL": 1,
            "CEW": 1,
            "CFI": 1,
            "CFL": 1,
            "CSU": 1,
            "CTG": 1,
            "CWE": 1,
            "FE": 1,
            "LI": 1
        },
        "CurrencyIsoCode": "GBP",
        "Name": "d29123a7c8136cf8dc37b79d8a0250cf",
        "VlocityDataPackType": "SObject",
        "VlocityRecordSObjectType": "%vlocity_namespace%__CalculationMatrixRow__c"
    },
    {
        "%vlocity_namespace%__CalculationMatrixVersionId__c": {
            "%vlocity_namespace%__CalculationMatrixId__r.Name": "RandomFactor",
            "%vlocity_namespace%__VersionNumber__c": 2,
            "VlocityDataPackType": "VlocityMatchingKeyObject",
            "VlocityMatchingRecordSourceKey": "%vlocity_namespace%__CalculationMatrixVersion__c/RandomFactor V2",
            "VlocityRecordSObjectType": "%vlocity_namespace%__CalculationMatrixVersion__c"
        },
        "%vlocity_namespace%__InputData__c": {
            "randomNumber": "425.0001"
        },
        "%vlocity_namespace%__OutputData__c": {
            "AAC": 1,
            "ABI": 1,
            "AGC": 1,
            "AJW": 1,
            "ATI": 1,
            "BAD": 1,
            "BAL": 1,
            "BEW": 1,
            "BFI": 1,
            "BFL": 1,
            "BSU": 1,
            "BTG": 1,
            "BWE": 1,
            "CAD": 1,
            "CAL": 1,
            "CEW": 1,
            "CFI": 1,
            "CFL": 1,
            "CSU": 1,
            "CTG": 1,
            "CWE": 1,
            "FE": 1,
            "LI": 1
        },
        "CurrencyIsoCode": "GBP",
        "Name": "4468d48d69a3b368e92b06bbd6950748",
        "VlocityDataPackType": "SObject",
        "VlocityRecordSObjectType": "%vlocity_namespace%__CalculationMatrixRow__c"
    },
    {
        "%vlocity_namespace%__CalculationMatrixVersionId__c": {
            "%vlocity_namespace%__CalculationMatrixId__r.Name": "RandomFactor",
            "%vlocity_namespace%__VersionNumber__c": 2,
            "VlocityDataPackType": "VlocityMatchingKeyObject",
            "VlocityMatchingRecordSourceKey": "%vlocity_namespace%__CalculationMatrixVersion__c/RandomFactor V2",
            "VlocityRecordSObjectType": "%vlocity_namespace%__CalculationMatrixVersion__c"
        },
        "%vlocity_namespace%__InputData__c": {
            "randomNumber": "450.0001"
        },
        "%vlocity_namespace%__OutputData__c": {
            "AAC": 1,
            "ABI": 1,
            "AGC": 1,
            "AJW": 1,
            "ATI": 1,
            "BAD": 1,
            "BAL": 1,
            "BEW": 1,
            "BFI": 1,
            "BFL": 1,
            "BSU": 1,
            "BTG": 1,
            "BWE": 1,
            "CAD": 1,
            "CAL": 1,
            "CEW": 1,
            "CFI": 1,
            "CFL": 1,
            "CSU": 1,
            "CTG": 1,
            "CWE": 1,
            "FE": 1,
            "LI": 1
        },
        "CurrencyIsoCode": "GBP",
        "Name": "91f9dd9e3bba3aa838057f0d80998d40",
        "VlocityDataPackType": "SObject",
        "VlocityRecordSObjectType": "%vlocity_namespace%__CalculationMatrixRow__c"
    },
    {
        "%vlocity_namespace%__CalculationMatrixVersionId__c": {
            "%vlocity_namespace%__CalculationMatrixId__r.Name": "RandomFactor",
            "%vlocity_namespace%__VersionNumber__c": 2,
            "VlocityDataPackType": "VlocityMatchingKeyObject",
            "VlocityMatchingRecordSourceKey": "%vlocity_namespace%__CalculationMatrixVersion__c/RandomFactor V2",
            "VlocityRecordSObjectType": "%vlocity_namespace%__CalculationMatrixVersion__c"
        },
        "%vlocity_namespace%__InputData__c": {
            "randomNumber": "475.0001"
        },
        "%vlocity_namespace%__OutputData__c": {
            "AAC": 1,
            "ABI": 1,
            "AGC": 1,
            "AJW": 1,
            "ATI": 1,
            "BAD": 1,
            "BAL": 1,
            "BEW": 1,
            "BFI": 1,
            "BFL": 1,
            "BSU": 1,
            "BTG": 1,
            "BWE": 1,
            "CAD": 1,
            "CAL": 1,
            "CEW": 1,
            "CFI": 1,
            "CFL": 1,
            "CSU": 1,
            "CTG": 1,
            "CWE": 1,
            "FE": 1,
            "LI": 1
        },
        "CurrencyIsoCode": "GBP",
        "Name": "85bc29bfd4a7a5c1a08d233be4992ba0",
        "VlocityDataPackType": "SObject",
        "VlocityRecordSObjectType": "%vlocity_namespace%__CalculationMatrixRow__c"
    },
    {
        "%vlocity_namespace%__CalculationMatrixVersionId__c": {
            "%vlocity_namespace%__CalculationMatrixId__r.Name": "RandomFactor",
            "%vlocity_namespace%__VersionNumber__c": 2,
            "VlocityDataPackType": "VlocityMatchingKeyObject",
            "VlocityMatchingRecordSourceKey": "%vlocity_namespace%__CalculationMatrixVersion__c/RandomFactor V2",
            "VlocityRecordSObjectType": "%vlocity_namespace%__CalculationMatrixVersion__c"
        },
        "%vlocity_namespace%__InputData__c": {
            "randomNumber": "50.0001"
        },
        "%vlocity_namespace%__OutputData__c": {
            "AAC": 1,
            "ABI": 1,
            "AGC": 1,
            "AJW": 1,
            "ATI": 1,
            "BAD": 1,
            "BAL": 1,
            "BEW": 1,
            "BFI": 1,
            "BFL": 1,
            "BSU": 1,
            "BTG": 1,
            "BWE": 1,
            "CAD": 1,
            "CAL": 1,
            "CEW": 1,
            "CFI": 1,
            "CFL": 1,
            "CSU": 1,
            "CTG": 1,
            "CWE": 1,
            "FE": 1,
            "LI": 1
        },
        "CurrencyIsoCode": "GBP",
        "Name": "751973330826fa4c4c6aa94ccac6b9f5",
        "VlocityDataPackType": "SObject",
        "VlocityRecordSObjectType": "%vlocity_namespace%__CalculationMatrixRow__c"
    },
    {
        "%vlocity_namespace%__CalculationMatrixVersionId__c": {
            "%vlocity_namespace%__CalculationMatrixId__r.Name": "RandomFactor",
            "%vlocity_namespace%__VersionNumber__c": 2,
            "VlocityDataPackType": "VlocityMatchingKeyObject",
            "VlocityMatchingRecordSourceKey": "%vlocity_namespace%__CalculationMatrixVersion__c/RandomFactor V2",
            "VlocityRecordSObjectType": "%vlocity_namespace%__CalculationMatrixVersion__c"
        },
        "%vlocity_namespace%__InputData__c": {
            "randomNumber": "500.0001"
        },
        "%vlocity_namespace%__OutputData__c": {
            "AAC": 1,
            "ABI": 1,
            "AGC": 1,
            "AJW": 1,
            "ATI": 1,
            "BAD": 1,
            "BAL": 1,
            "BEW": 1,
            "BFI": 1,
            "BFL": 1,
            "BSU": 1,
            "BTG": 1,
            "BWE": 1,
            "CAD": 1,
            "CAL": 1,
            "CEW": 1,
            "CFI": 1,
            "CFL": 1,
            "CSU": 1,
            "CTG": 1,
            "CWE": 1,
            "FE": 1,
            "LI": 1
        },
        "CurrencyIsoCode": "GBP",
        "Name": "21ac55da67ad09d4894cd072af5153b5",
        "VlocityDataPackType": "SObject",
        "VlocityRecordSObjectType": "%vlocity_namespace%__CalculationMatrixRow__c"
    },
    {
        "%vlocity_namespace%__CalculationMatrixVersionId__c": {
            "%vlocity_namespace%__CalculationMatrixId__r.Name": "RandomFactor",
            "%vlocity_namespace%__VersionNumber__c": 2,
            "VlocityDataPackType": "VlocityMatchingKeyObject",
            "VlocityMatchingRecordSourceKey": "%vlocity_namespace%__CalculationMatrixVersion__c/RandomFactor V2",
            "VlocityRecordSObjectType": "%vlocity_namespace%__CalculationMatrixVersion__c"
        },
        "%vlocity_namespace%__InputData__c": {
            "randomNumber": "525.0001"
        },
        "%vlocity_namespace%__OutputData__c": {
            "AAC": 1,
            "ABI": 1,
            "AGC": 1,
            "AJW": 1,
            "ATI": 1,
            "BAD": 1,
            "BAL": 1,
            "BEW": 1,
            "BFI": 1,
            "BFL": 1,
            "BSU": 1,
            "BTG": 1,
            "BWE": 1,
            "CAD": 1,
            "CAL": 1,
            "CEW": 1,
            "CFI": 1,
            "CFL": 1,
            "CSU": 1,
            "CTG": 1,
            "CWE": 1,
            "FE": 1,
            "LI": 1
        },
        "CurrencyIsoCode": "GBP",
        "Name": "230b40eae706e87ab814b062e3949122",
        "VlocityDataPackType": "SObject",
        "VlocityRecordSObjectType": "%vlocity_namespace%__CalculationMatrixRow__c"
    },
    {
        "%vlocity_namespace%__CalculationMatrixVersionId__c": {
            "%vlocity_namespace%__CalculationMatrixId__r.Name": "RandomFactor",
            "%vlocity_namespace%__VersionNumber__c": 2,
            "VlocityDataPackType": "VlocityMatchingKeyObject",
            "VlocityMatchingRecordSourceKey": "%vlocity_namespace%__CalculationMatrixVersion__c/RandomFactor V2",
            "VlocityRecordSObjectType": "%vlocity_namespace%__CalculationMatrixVersion__c"
        },
        "%vlocity_namespace%__InputData__c": {
            "randomNumber": "550.0001"
        },
        "%vlocity_namespace%__OutputData__c": {
            "AAC": 1,
            "ABI": 1,
            "AGC": 1,
            "AJW": 1,
            "ATI": 1,
            "BAD": 1,
            "BAL": 1,
            "BEW": 1,
            "BFI": 1,
            "BFL": 1,
            "BSU": 1,
            "BTG": 1,
            "BWE": 1,
            "CAD": 1,
            "CAL": 1,
            "CEW": 1,
            "CFI": 1,
            "CFL": 1,
            "CSU": 1,
            "CTG": 1,
            "CWE": 1,
            "FE": 1,
            "LI": 1
        },
        "CurrencyIsoCode": "GBP",
        "Name": "f9bd7f62948e07b28662796880120415",
        "VlocityDataPackType": "SObject",
        "VlocityRecordSObjectType": "%vlocity_namespace%__CalculationMatrixRow__c"
    },
    {
        "%vlocity_namespace%__CalculationMatrixVersionId__c": {
            "%vlocity_namespace%__CalculationMatrixId__r.Name": "RandomFactor",
            "%vlocity_namespace%__VersionNumber__c": 2,
            "VlocityDataPackType": "VlocityMatchingKeyObject",
            "VlocityMatchingRecordSourceKey": "%vlocity_namespace%__CalculationMatrixVersion__c/RandomFactor V2",
            "VlocityRecordSObjectType": "%vlocity_namespace%__CalculationMatrixVersion__c"
        },
        "%vlocity_namespace%__InputData__c": {
            "randomNumber": "575.0001"
        },
        "%vlocity_namespace%__OutputData__c": {
            "AAC": 1,
            "ABI": 1,
            "AGC": 1,
            "AJW": 1,
            "ATI": 1,
            "BAD": 1,
            "BAL": 1,
            "BEW": 1,
            "BFI": 1,
            "BFL": 1,
            "BSU": 1,
            "BTG": 1,
            "BWE": 1,
            "CAD": 1,
            "CAL": 1,
            "CEW": 1,
            "CFI": 1,
            "CFL": 1,
            "CSU": 1,
            "CTG": 1,
            "CWE": 1,
            "FE": 1,
            "LI": 1
        },
        "CurrencyIsoCode": "GBP",
        "Name": "af7c5994cd9b884e6b86aea645b528e3",
        "VlocityDataPackType": "SObject",
        "VlocityRecordSObjectType": "%vlocity_namespace%__CalculationMatrixRow__c"
    },
    {
        "%vlocity_namespace%__CalculationMatrixVersionId__c": {
            "%vlocity_namespace%__CalculationMatrixId__r.Name": "RandomFactor",
            "%vlocity_namespace%__VersionNumber__c": 2,
            "VlocityDataPackType": "VlocityMatchingKeyObject",
            "VlocityMatchingRecordSourceKey": "%vlocity_namespace%__CalculationMatrixVersion__c/RandomFactor V2",
            "VlocityRecordSObjectType": "%vlocity_namespace%__CalculationMatrixVersion__c"
        },
        "%vlocity_namespace%__InputData__c": {
            "randomNumber": "600.0001"
        },
        "%vlocity_namespace%__OutputData__c": {
            "AAC": 1,
            "ABI": 1,
            "AGC": 1,
            "AJW": 1,
            "ATI": 1,
            "BAD": 1,
            "BAL": 1,
            "BEW": 1,
            "BFI": 1,
            "BFL": 1,
            "BSU": 1,
            "BTG": 1,
            "BWE": 1,
            "CAD": 1,
            "CAL": 1,
            "CEW": 1,
            "CFI": 1,
            "CFL": 1,
            "CSU": 1,
            "CTG": 1,
            "CWE": 1,
            "FE": 1,
            "LI": 1
        },
        "CurrencyIsoCode": "GBP",
        "Name": "4c823975e86eabb8b857fa1809e7c829",
        "VlocityDataPackType": "SObject",
        "VlocityRecordSObjectType": "%vlocity_namespace%__CalculationMatrixRow__c"
    },
    {
        "%vlocity_namespace%__CalculationMatrixVersionId__c": {
            "%vlocity_namespace%__CalculationMatrixId__r.Name": "RandomFactor",
            "%vlocity_namespace%__VersionNumber__c": 2,
            "VlocityDataPackType": "VlocityMatchingKeyObject",
            "VlocityMatchingRecordSourceKey": "%vlocity_namespace%__CalculationMatrixVersion__c/RandomFactor V2",
            "VlocityRecordSObjectType": "%vlocity_namespace%__CalculationMatrixVersion__c"
        },
        "%vlocity_namespace%__InputData__c": {
            "randomNumber": "625.0001"
        },
        "%vlocity_namespace%__OutputData__c": {
            "AAC": 1,
            "ABI": 1,
            "AGC": 1,
            "AJW": 1,
            "ATI": 1,
            "BAD": 1,
            "BAL": 1,
            "BEW": 1,
            "BFI": 1,
            "BFL": 1,
            "BSU": 1,
            "BTG": 1,
            "BWE": 1,
            "CAD": 1,
            "CAL": 1,
            "CEW": 1,
            "CFI": 1,
            "CFL": 1,
            "CSU": 1,
            "CTG": 1,
            "CWE": 1,
            "FE": 1,
            "LI": 1
        },
        "CurrencyIsoCode": "GBP",
        "Name": "7b8c4debb8543723cb5990da9015bed1",
        "VlocityDataPackType": "SObject",
        "VlocityRecordSObjectType": "%vlocity_namespace%__CalculationMatrixRow__c"
    },
    {
        "%vlocity_namespace%__CalculationMatrixVersionId__c": {
            "%vlocity_namespace%__CalculationMatrixId__r.Name": "RandomFactor",
            "%vlocity_namespace%__VersionNumber__c": 2,
            "VlocityDataPackType": "VlocityMatchingKeyObject",
            "VlocityMatchingRecordSourceKey": "%vlocity_namespace%__CalculationMatrixVersion__c/RandomFactor V2",
            "VlocityRecordSObjectType": "%vlocity_namespace%__CalculationMatrixVersion__c"
        },
        "%vlocity_namespace%__InputData__c": {
            "randomNumber": "650.0001"
        },
        "%vlocity_namespace%__OutputData__c": {
            "AAC": 1,
            "ABI": 1,
            "AGC": 1,
            "AJW": 1,
            "ATI": 1,
            "BAD": 1,
            "BAL": 1,
            "BEW": 1,
            "BFI": 1,
            "BFL": 1,
            "BSU": 1,
            "BTG": 1,
            "BWE": 1,
            "CAD": 1,
            "CAL": 1,
            "CEW": 1,
            "CFI": 1,
            "CFL": 1,
            "CSU": 1,
            "CTG": 1,
            "CWE": 1,
            "FE": 1,
            "LI": 1
        },
        "CurrencyIsoCode": "GBP",
        "Name": "f471fadae2e4c7d5ff856ac8a9d9c7ee",
        "VlocityDataPackType": "SObject",
        "VlocityRecordSObjectType": "%vlocity_namespace%__CalculationMatrixRow__c"
    },
    {
        "%vlocity_namespace%__CalculationMatrixVersionId__c": {
            "%vlocity_namespace%__CalculationMatrixId__r.Name": "RandomFactor",
            "%vlocity_namespace%__VersionNumber__c": 2,
            "VlocityDataPackType": "VlocityMatchingKeyObject",
            "VlocityMatchingRecordSourceKey": "%vlocity_namespace%__CalculationMatrixVersion__c/RandomFactor V2",
            "VlocityRecordSObjectType": "%vlocity_namespace%__CalculationMatrixVersion__c"
        },
        "%vlocity_namespace%__InputData__c": {
            "randomNumber": "675.0001"
        },
        "%vlocity_namespace%__OutputData__c": {
            "AAC": 1,
            "ABI": 1,
            "AGC": 1,
            "AJW": 1,
            "ATI": 1,
            "BAD": 1,
            "BAL": 1,
            "BEW": 1,
            "BFI": 1,
            "BFL": 1,
            "BSU": 1,
            "BTG": 1,
            "BWE": 1,
            "CAD": 1,
            "CAL": 1,
            "CEW": 1,
            "CFI": 1,
            "CFL": 1,
            "CSU": 1,
            "CTG": 1,
            "CWE": 1,
            "FE": 1,
            "LI": 1
        },
        "CurrencyIsoCode": "GBP",
        "Name": "6682cc6fe23fed2fc5a9089fdb939e21",
        "VlocityDataPackType": "SObject",
        "VlocityRecordSObjectType": "%vlocity_namespace%__CalculationMatrixRow__c"
    },
    {
        "%vlocity_namespace%__CalculationMatrixVersionId__c": {
            "%vlocity_namespace%__CalculationMatrixId__r.Name": "RandomFactor",
            "%vlocity_namespace%__VersionNumber__c": 2,
            "VlocityDataPackType": "VlocityMatchingKeyObject",
            "VlocityMatchingRecordSourceKey": "%vlocity_namespace%__CalculationMatrixVersion__c/RandomFactor V2",
            "VlocityRecordSObjectType": "%vlocity_namespace%__CalculationMatrixVersion__c"
        },
        "%vlocity_namespace%__InputData__c": {
            "randomNumber": "700.0001"
        },
        "%vlocity_namespace%__OutputData__c": {
            "AAC": 1,
            "ABI": 1,
            "AGC": 1,
            "AJW": 1,
            "ATI": 1,
            "BAD": 1,
            "BAL": 1,
            "BEW": 1,
            "BFI": 1,
            "BFL": 1,
            "BSU": 1,
            "BTG": 1,
            "BWE": 1,
            "CAD": 1,
            "CAL": 1,
            "CEW": 1,
            "CFI": 1,
            "CFL": 1,
            "CSU": 1,
            "CTG": 1,
            "CWE": 1,
            "FE": 1,
            "LI": 1
        },
        "CurrencyIsoCode": "GBP",
        "Name": "61cf88786ba566d79d00ef4001c9be18",
        "VlocityDataPackType": "SObject",
        "VlocityRecordSObjectType": "%vlocity_namespace%__CalculationMatrixRow__c"
    },
    {
        "%vlocity_namespace%__CalculationMatrixVersionId__c": {
            "%vlocity_namespace%__CalculationMatrixId__r.Name": "RandomFactor",
            "%vlocity_namespace%__VersionNumber__c": 2,
            "VlocityDataPackType": "VlocityMatchingKeyObject",
            "VlocityMatchingRecordSourceKey": "%vlocity_namespace%__CalculationMatrixVersion__c/RandomFactor V2",
            "VlocityRecordSObjectType": "%vlocity_namespace%__CalculationMatrixVersion__c"
        },
        "%vlocity_namespace%__InputData__c": {
            "randomNumber": "725.0001"
        },
        "%vlocity_namespace%__OutputData__c": {
            "AAC": 1,
            "ABI": 1,
            "AGC": 1,
            "AJW": 1,
            "ATI": 1,
            "BAD": 1,
            "BAL": 1,
            "BEW": 1,
            "BFI": 1,
            "BFL": 1,
            "BSU": 1,
            "BTG": 1,
            "BWE": 1,
            "CAD": 1,
            "CAL": 1,
            "CEW": 1,
            "CFI": 1,
            "CFL": 1,
            "CSU": 1,
            "CTG": 1,
            "CWE": 1,
            "FE": 1,
            "LI": 1
        },
        "CurrencyIsoCode": "GBP",
        "Name": "531ce3f741c36da61754ee8962e5a55c",
        "VlocityDataPackType": "SObject",
        "VlocityRecordSObjectType": "%vlocity_namespace%__CalculationMatrixRow__c"
    },
    {
        "%vlocity_namespace%__CalculationMatrixVersionId__c": {
            "%vlocity_namespace%__CalculationMatrixId__r.Name": "RandomFactor",
            "%vlocity_namespace%__VersionNumber__c": 2,
            "VlocityDataPackType": "VlocityMatchingKeyObject",
            "VlocityMatchingRecordSourceKey": "%vlocity_namespace%__CalculationMatrixVersion__c/RandomFactor V2",
            "VlocityRecordSObjectType": "%vlocity_namespace%__CalculationMatrixVersion__c"
        },
        "%vlocity_namespace%__InputData__c": {
            "randomNumber": "75.0001"
        },
        "%vlocity_namespace%__OutputData__c": {
            "AAC": 1,
            "ABI": 1,
            "AGC": 1,
            "AJW": 1,
            "ATI": 1,
            "BAD": 1,
            "BAL": 1,
            "BEW": 1,
            "BFI": 1,
            "BFL": 1,
            "BSU": 1,
            "BTG": 1,
            "BWE": 1,
            "CAD": 1,
            "CAL": 1,
            "CEW": 1,
            "CFI": 1,
            "CFL": 1,
            "CSU": 1,
            "CTG": 1,
            "CWE": 1,
            "FE": 1,
            "LI": 1
        },
        "CurrencyIsoCode": "GBP",
        "Name": "5d86619e3fc14ae647f61c716d90e558",
        "VlocityDataPackType": "SObject",
        "VlocityRecordSObjectType": "%vlocity_namespace%__CalculationMatrixRow__c"
    },
    {
        "%vlocity_namespace%__CalculationMatrixVersionId__c": {
            "%vlocity_namespace%__CalculationMatrixId__r.Name": "RandomFactor",
            "%vlocity_namespace%__VersionNumber__c": 2,
            "VlocityDataPackType": "VlocityMatchingKeyObject",
            "VlocityMatchingRecordSourceKey": "%vlocity_namespace%__CalculationMatrixVersion__c/RandomFactor V2",
            "VlocityRecordSObjectType": "%vlocity_namespace%__CalculationMatrixVersion__c"
        },
        "%vlocity_namespace%__InputData__c": {
            "randomNumber": "750.0001"
        },
        "%vlocity_namespace%__OutputData__c": {
            "AAC": 1,
            "ABI": 1,
            "AGC": 1,
            "AJW": 1,
            "ATI": 1,
            "BAD": 1,
            "BAL": 1,
            "BEW": 1,
            "BFI": 1,
            "BFL": 1,
            "BSU": 1,
            "BTG": 1,
            "BWE": 1,
            "CAD": 1,
            "CAL": 1,
            "CEW": 1,
            "CFI": 1,
            "CFL": 1,
            "CSU": 1,
            "CTG": 1,
            "CWE": 1,
            "FE": 1,
            "LI": 1
        },
        "CurrencyIsoCode": "GBP",
        "Name": "89ac9f01e8de084ef1dbae84d98ffaeb",
        "VlocityDataPackType": "SObject",
        "VlocityRecordSObjectType": "%vlocity_namespace%__CalculationMatrixRow__c"
    },
    {
        "%vlocity_namespace%__CalculationMatrixVersionId__c": {
            "%vlocity_namespace%__CalculationMatrixId__r.Name": "RandomFactor",
            "%vlocity_namespace%__VersionNumber__c": 2,
            "VlocityDataPackType": "VlocityMatchingKeyObject",
            "VlocityMatchingRecordSourceKey": "%vlocity_namespace%__CalculationMatrixVersion__c/RandomFactor V2",
            "VlocityRecordSObjectType": "%vlocity_namespace%__CalculationMatrixVersion__c"
        },
        "%vlocity_namespace%__InputData__c": {
            "randomNumber": "775.0001"
        },
        "%vlocity_namespace%__OutputData__c": {
            "AAC": 1,
            "ABI": 1,
            "AGC": 1,
            "AJW": 1,
            "ATI": 1,
            "BAD": 1,
            "BAL": 1,
            "BEW": 1,
            "BFI": 1,
            "BFL": 1,
            "BSU": 1,
            "BTG": 1,
            "BWE": 1,
            "CAD": 1,
            "CAL": 1,
            "CEW": 1,
            "CFI": 1,
            "CFL": 1,
            "CSU": 1,
            "CTG": 1,
            "CWE": 1,
            "FE": 1,
            "LI": 1
        },
        "CurrencyIsoCode": "GBP",
        "Name": "965d211c6fd39f1a1e4b5b6f06c22326",
        "VlocityDataPackType": "SObject",
        "VlocityRecordSObjectType": "%vlocity_namespace%__CalculationMatrixRow__c"
    },
    {
        "%vlocity_namespace%__CalculationMatrixVersionId__c": {
            "%vlocity_namespace%__CalculationMatrixId__r.Name": "RandomFactor",
            "%vlocity_namespace%__VersionNumber__c": 2,
            "VlocityDataPackType": "VlocityMatchingKeyObject",
            "VlocityMatchingRecordSourceKey": "%vlocity_namespace%__CalculationMatrixVersion__c/RandomFactor V2",
            "VlocityRecordSObjectType": "%vlocity_namespace%__CalculationMatrixVersion__c"
        },
        "%vlocity_namespace%__InputData__c": {
            "randomNumber": "800.0001"
        },
        "%vlocity_namespace%__OutputData__c": {
            "AAC": 1,
            "ABI": 1,
            "AGC": 1,
            "AJW": 1,
            "ATI": 1,
            "BAD": 1,
            "BAL": 1,
            "BEW": 1,
            "BFI": 1,
            "BFL": 1,
            "BSU": 1,
            "BTG": 1,
            "BWE": 1,
            "CAD": 1,
            "CAL": 1,
            "CEW": 1,
            "CFI": 1,
            "CFL": 1,
            "CSU": 1,
            "CTG": 1,
            "CWE": 1,
            "FE": 1,
            "LI": 1
        },
        "CurrencyIsoCode": "GBP",
        "Name": "332ec156d8d0c99889bd4039db306006",
        "VlocityDataPackType": "SObject",
        "VlocityRecordSObjectType": "%vlocity_namespace%__CalculationMatrixRow__c"
    },
    {
        "%vlocity_namespace%__CalculationMatrixVersionId__c": {
            "%vlocity_namespace%__CalculationMatrixId__r.Name": "RandomFactor",
            "%vlocity_namespace%__VersionNumber__c": 2,
            "VlocityDataPackType": "VlocityMatchingKeyObject",
            "VlocityMatchingRecordSourceKey": "%vlocity_namespace%__CalculationMatrixVersion__c/RandomFactor V2",
            "VlocityRecordSObjectType": "%vlocity_namespace%__CalculationMatrixVersion__c"
        },
        "%vlocity_namespace%__InputData__c": {
            "randomNumber": "825.0001"
        },
        "%vlocity_namespace%__OutputData__c": {
            "AAC": 1,
            "ABI": 1,
            "AGC": 1,
            "AJW": 1,
            "ATI": 1,
            "BAD": 1,
            "BAL": 1,
            "BEW": 1,
            "BFI": 1,
            "BFL": 1,
            "BSU": 1,
            "BTG": 1,
            "BWE": 1,
            "CAD": 1,
            "CAL": 1,
            "CEW": 1,
            "CFI": 1,
            "CFL": 1,
            "CSU": 1,
            "CTG": 1,
            "CWE": 1,
            "FE": 1,
            "LI": 1
        },
        "CurrencyIsoCode": "GBP",
        "Name": "fe13441ccda459e74ec528d2b6cf8de0",
        "VlocityDataPackType": "SObject",
        "VlocityRecordSObjectType": "%vlocity_namespace%__CalculationMatrixRow__c"
    },
    {
        "%vlocity_namespace%__CalculationMatrixVersionId__c": {
            "%vlocity_namespace%__CalculationMatrixId__r.Name": "RandomFactor",
            "%vlocity_namespace%__VersionNumber__c": 2,
            "VlocityDataPackType": "VlocityMatchingKeyObject",
            "VlocityMatchingRecordSourceKey": "%vlocity_namespace%__CalculationMatrixVersion__c/RandomFactor V2",
            "VlocityRecordSObjectType": "%vlocity_namespace%__CalculationMatrixVersion__c"
        },
        "%vlocity_namespace%__InputData__c": {
            "randomNumber": "850.0001"
        },
        "%vlocity_namespace%__OutputData__c": {
            "AAC": 1,
            "ABI": 1,
            "AGC": 1,
            "AJW": 1,
            "ATI": 1,
            "BAD": 1,
            "BAL": 1,
            "BEW": 1,
            "BFI": 1,
            "BFL": 1,
            "BSU": 1,
            "BTG": 1,
            "BWE": 1,
            "CAD": 1,
            "CAL": 1,
            "CEW": 1,
            "CFI": 1,
            "CFL": 1,
            "CSU": 1,
            "CTG": 1,
            "CWE": 1,
            "FE": 1,
            "LI": 1
        },
        "CurrencyIsoCode": "GBP",
        "Name": "e23668ee924b9e6e489ae03795c5ee04",
        "VlocityDataPackType": "SObject",
        "VlocityRecordSObjectType": "%vlocity_namespace%__CalculationMatrixRow__c"
    },
    {
        "%vlocity_namespace%__CalculationMatrixVersionId__c": {
            "%vlocity_namespace%__CalculationMatrixId__r.Name": "RandomFactor",
            "%vlocity_namespace%__VersionNumber__c": 2,
            "VlocityDataPackType": "VlocityMatchingKeyObject",
            "VlocityMatchingRecordSourceKey": "%vlocity_namespace%__CalculationMatrixVersion__c/RandomFactor V2",
            "VlocityRecordSObjectType": "%vlocity_namespace%__CalculationMatrixVersion__c"
        },
        "%vlocity_namespace%__InputData__c": {
            "randomNumber": "875.0001"
        },
        "%vlocity_namespace%__OutputData__c": {
            "AAC": 1,
            "ABI": 1,
            "AGC": 1,
            "AJW": 1,
            "ATI": 1,
            "BAD": 1,
            "BAL": 1,
            "BEW": 1,
            "BFI": 1,
            "BFL": 1,
            "BSU": 1,
            "BTG": 1,
            "BWE": 1,
            "CAD": 1,
            "CAL": 1,
            "CEW": 1,
            "CFI": 1,
            "CFL": 1,
            "CSU": 1,
            "CTG": 1,
            "CWE": 1,
            "FE": 1,
            "LI": 1
        },
        "CurrencyIsoCode": "GBP",
        "Name": "7441f707cb4eed59e6ad99b971af8658",
        "VlocityDataPackType": "SObject",
        "VlocityRecordSObjectType": "%vlocity_namespace%__CalculationMatrixRow__c"
    },
    {
        "%vlocity_namespace%__CalculationMatrixVersionId__c": {
            "%vlocity_namespace%__CalculationMatrixId__r.Name": "RandomFactor",
            "%vlocity_namespace%__VersionNumber__c": 2,
            "VlocityDataPackType": "VlocityMatchingKeyObject",
            "VlocityMatchingRecordSourceKey": "%vlocity_namespace%__CalculationMatrixVersion__c/RandomFactor V2",
            "VlocityRecordSObjectType": "%vlocity_namespace%__CalculationMatrixVersion__c"
        },
        "%vlocity_namespace%__InputData__c": {
            "randomNumber": "900.0001"
        },
        "%vlocity_namespace%__OutputData__c": {
            "AAC": 1,
            "ABI": 1,
            "AGC": 1,
            "AJW": 1,
            "ATI": 1,
            "BAD": 1,
            "BAL": 1,
            "BEW": 1,
            "BFI": 1,
            "BFL": 1,
            "BSU": 1,
            "BTG": 1,
            "BWE": 1,
            "CAD": 1,
            "CAL": 1,
            "CEW": 1,
            "CFI": 1,
            "CFL": 1,
            "CSU": 1,
            "CTG": 1,
            "CWE": 1,
            "FE": 1,
            "LI": 1
        },
        "CurrencyIsoCode": "GBP",
        "Name": "5718a0e244e1680c5aa245101481b482",
        "VlocityDataPackType": "SObject",
        "VlocityRecordSObjectType": "%vlocity_namespace%__CalculationMatrixRow__c"
    },
    {
        "%vlocity_namespace%__CalculationMatrixVersionId__c": {
            "%vlocity_namespace%__CalculationMatrixId__r.Name": "RandomFactor",
            "%vlocity_namespace%__VersionNumber__c": 2,
            "VlocityDataPackType": "VlocityMatchingKeyObject",
            "VlocityMatchingRecordSourceKey": "%vlocity_namespace%__CalculationMatrixVersion__c/RandomFactor V2",
            "VlocityRecordSObjectType": "%vlocity_namespace%__CalculationMatrixVersion__c"
        },
        "%vlocity_namespace%__InputData__c": {
            "randomNumber": "925.0001"
        },
        "%vlocity_namespace%__OutputData__c": {
            "AAC": 1,
            "ABI": 1,
            "AGC": 1,
            "AJW": 1,
            "ATI": 1,
            "BAD": 1,
            "BAL": 1,
            "BEW": 1,
            "BFI": 1,
            "BFL": 1,
            "BSU": 1,
            "BTG": 1,
            "BWE": 1,
            "CAD": 1,
            "CAL": 1,
            "CEW": 1,
            "CFI": 1,
            "CFL": 1,
            "CSU": 1,
            "CTG": 1,
            "CWE": 1,
            "FE": 1,
            "LI": 1
        },
        "CurrencyIsoCode": "GBP",
        "Name": "ccfe3a73745ee149b7845a9c80c33882",
        "VlocityDataPackType": "SObject",
        "VlocityRecordSObjectType": "%vlocity_namespace%__CalculationMatrixRow__c"
    },
    {
        "%vlocity_namespace%__CalculationMatrixVersionId__c": {
            "%vlocity_namespace%__CalculationMatrixId__r.Name": "RandomFactor",
            "%vlocity_namespace%__VersionNumber__c": 2,
            "VlocityDataPackType": "VlocityMatchingKeyObject",
            "VlocityMatchingRecordSourceKey": "%vlocity_namespace%__CalculationMatrixVersion__c/RandomFactor V2",
            "VlocityRecordSObjectType": "%vlocity_namespace%__CalculationMatrixVersion__c"
        },
        "%vlocity_namespace%__InputData__c": {
            "randomNumber": "950.0001"
        },
        "%vlocity_namespace%__OutputData__c": {
            "AAC": 1,
            "ABI": 1,
            "AGC": 1,
            "AJW": 1,
            "ATI": 1,
            "BAD": 1,
            "BAL": 1,
            "BEW": 1,
            "BFI": 1,
            "BFL": 1,
            "BSU": 1,
            "BTG": 1,
            "BWE": 1,
            "CAD": 1,
            "CAL": 1,
            "CEW": 1,
            "CFI": 1,
            "CFL": 1,
            "CSU": 1,
            "CTG": 1,
            "CWE": 1,
            "FE": 1,
            "LI": 1
        },
        "CurrencyIsoCode": "GBP",
        "Name": "9851931ab971fb3f22ec7482521fefaa",
        "VlocityDataPackType": "SObject",
        "VlocityRecordSObjectType": "%vlocity_namespace%__CalculationMatrixRow__c"
    },
    {
        "%vlocity_namespace%__CalculationMatrixVersionId__c": {
            "%vlocity_namespace%__CalculationMatrixId__r.Name": "RandomFactor",
            "%vlocity_namespace%__VersionNumber__c": 2,
            "VlocityDataPackType": "VlocityMatchingKeyObject",
            "VlocityMatchingRecordSourceKey": "%vlocity_namespace%__CalculationMatrixVersion__c/RandomFactor V2",
            "VlocityRecordSObjectType": "%vlocity_namespace%__CalculationMatrixVersion__c"
        },
        "%vlocity_namespace%__InputData__c": {
            "randomNumber": "975.0001"
        },
        "%vlocity_namespace%__OutputData__c": {
            "AAC": 1,
            "ABI": 1,
            "AGC": 1,
            "AJW": 1,
            "ATI": 1,
            "BAD": 1,
            "BAL": 1,
            "BEW": 1,
            "BFI": 1,
            "BFL": 1,
            "BSU": 1,
            "BTG": 1,
            "BWE": 1,
            "CAD": 1,
            "CAL": 1,
            "CEW": 1,
            "CFI": 1,
            "CFL": 1,
            "CSU": 1,
            "CTG": 1,
            "CWE": 1,
            "FE": 1,
            "LI": 1
        },
        "CurrencyIsoCode": "GBP",
        "Name": "110084e8145cd0d911acd9b532dcfe27",
        "VlocityDataPackType": "SObject",
        "VlocityRecordSObjectType": "%vlocity_namespace%__CalculationMatrixRow__c"
    }
]