{
    "ContextId": "",
    "ContinueWithQuote": true,
    "Range1": 7,
    "additionalQuoteData": {
        "underwriterAdjustmentPercent": 0
    },
    "artAndCollectablesLimit": 100000,
    "artAndCollectablesLimitText": "100,000",
    "azurPercentageCommission": 12,
    "blockQuote": false,
    "claimsUnderwritingTotalScore": 0,
    "clientDetails": {
        "StartDateBlock": {
            "effectiveFromStartDate": "2019-09-25T07:48:41.797Z"
        },
        "brokerConfirmation": "yes",
        "businessSelectedValidation": false,
        "hasEmptyRequiredClientFields": false,
        "hasJointPolicyHolder": "no",
        "hasJointPolicyHolderFlag": false,
        "jointBusinessSelectedValidation": false,
        "jointInsAge": null,
        "jointInsBirthdate": null,
        "jointInsBirthdateText": null,
        "jointInsBusinessType-Block": {
            "jointBusinessScore": null,
            "jointBusinessTypeaheadId": null,
            "jointInsBusinessType": null
        },
        "jointInsFirstName": null,
        "jointInsLastName": null,
        "jointInsNationality-Block": {
            "jointInsNationality": null,
            "jointNationalityID": null
        },
        "jointInsOccupation-Block": {
            "jointInsOccupation": null,
            "jointOccupationScore": null,
            "jointOccupationTypeaheadId": null
        },
        "jointInsSalutation": null,
        "jointInsYearOfBirth": "",
        "jointNationalitySelectedValidation": false,
        "jointOccupationSelectedValidation": true,
        "msgDeclarationsFalse": false,
        "msgInsuredAge": false,
        "msgRequiredClientFields": false,
        "nationalitySelectedValidation": false,
        "primeInsAge": 27,
        "primeInsBirthdate": "1992-01-29T00:00:00.000Z",
        "primeInsBirthdateText": "29/01/1992",
        "primeInsBusinessType-Block": {
            "businessScore": null,
            "businessTypeaheadId": null,
            "primeInsBusinessType": null
        },
        "primeInsFirstName": "Bartoszmnsb",
        "primeInsHasLivePolicy": false,
        "primeInsHasLiveQuote": false,
        "primeInsIsDuplicate": false,
        "primeInsLastName": "Decdq",
        "primeInsNationality-Block": {
            "nationalityTypeaheadId": null,
            "primeInsNationality": null
        },
        "primeInsOccupation-Block": {
            "primeInsOccupation": "Artist",
            "typeaheadId": "aD625000000CaelCAC",
            "typeaheadScore": 10
        },
        "primeInsSalutation": "Capt.",
        "primeInsuredYearOfBirth": "1992",
        "radioBankrupt": "No",
        "radioDomiciledInUK": "Yes",
        "radioOffence": "No",
        "radioPreviousInsuranceRefused": "No",
        "radioSpecialTerms": "No",
        "requiredClientFieldsString": "",
        "sanctionsCheckDateTime": null,
        "warnOccupationSelectedValidation": true
    },
    "closeDate": "2019-10-25T07:48:42.033Z",
    "contextId": "",
    "defaultExcess": 500,
    "employersLiability": 10000000,
    "error": "OK",
    "excludedPostcode": "text",
    "featureSwitches": {
        "Bind_SanctionChecking__c": false,
        "CreatedById": "00558000004Fx12AAC",
        "CreatedDate": "2019-08-27T11:04:18.000+0000",
        "CurrencyIsoCode": "GBP",
        "Id": "aF925000000CbPFCA0",
        "InsuredDuplication__c": false,
        "IsDeleted": false,
        "LastModifiedById": "00558000004Fx12AAC",
        "LastModifiedDate": "2019-08-27T11:04:18.000+0000",
        "Name": "EW Feature Switches (User)",
        "SanctionChecking__c": false,
        "SetupOwnerId": "00558000004Fx12AAC",
        "Skip_DuplicateAccountCheck__c": true,
        "SystemModstamp": "2019-08-27T11:04:18.000+0000",
        "attributes": {
            "type": "EWFeatureSwitches__c",
            "url": "/services/data/v47.0/sobjects/EWFeatureSwitches__c/aF925000000CbPFCA0"
        }
    },
    "globals": {
        "ArtAndCollectablesLimit__c": 10000,
        "Excess__c": 500,
        "FloodDataURL__c": "https://azur-integrations.herokuapp.com/ambId",
        "IsDeleted": false,
        "JewelleryAndWatchesLimit__c": 10000,
        "Name": "EW Globals (Organization)",
        "PedalCyclesLimit__c": 2000,
        "PerilsScoreURL__c": "https://azur-integrations.herokuapp.com/subsidence",
        "PostCodeExcludedMessage__c": "Unfortunately, we cannot quote on properties in Jersey and Guernsey at this time 💔",
        "PropertyDetailsURL__c": "https://azur-integrations.herokuapp.com/outraUPRN",
        "QuotePrefix__c": "88-EWA",
        "SanctionsCheckURL__c": "https://azur-integrations.herokuapp.com/sanctionCheck",
        "SetupOwnerId": "00558000004Fx12AAC",
        "attributes": {
            "type": "EWGlobals__c"
        }
    },
    "hasQuoteId": false,
    "homeEmergencyCoverageLimit": 1000,
    "homeEmergencyPremium": 8.7,
    "id": "a3f25000000EY2CAAW",
    "insurancePremiumTaxRate": "Standard rate IPT",
    "iptPercent": 12,
    "isEditAllowed": true,
    "isdtp": "p1",
    "jewelleryAndWatchesLimit": 100000,
    "jewelleryAndWatchesLimitText": "100,000",
    "jointInsAge": 0,
    "layout": "lightning",
    "legalExpenses": 31,
    "legalExpensesCoverageLimit": 100000,
    "nameCapResult": {
        "cPrimeInsFirstName": "Bartoszmnsb",
        "cPrimeInsLastName": "Decdq"
    },
    "objectType": "Picklist_Section__c",
    "occupancyType": "Main residence",
    "opptyName": "Decdq-EW-25-09-2019",
    "otherPermanentStructures": 200000,
    "pedalCyclesLimit": 30000,
    "pedalCyclesLimitText": "30,000",
    "personalCyberCoverageLimit": 50000,
    "personalCyberPremium": 24.21,
    "primeInsAge": 0,
    "propAmbPostalCode-Block": {
        "country": "GGY"
    },
    "propertyDetails": {
        "artSpec": 0,
        "artSpecifiedCheck": true,
        "blockCoverage": {
            "alarmCheck": null,
            "errorArtMaxValue": true,
            "errorJewelleryWatchesMaxValue": true,
            "errorPedalCyclesMaxValue": true,
            "msgCoverageArtZero": false,
            "msgCoverageJewelleryWatchesZero": false,
            "msgCoveragePedalCyclesZero": false,
            "rangeArt": 10000,
            "rangeJewelleryWatches": 10000,
            "rangePedalCycles": 2000,
            "rangeTenantsImprovements": 0,
            "safeCheck": null
        },
        "declineWarningMessage": false,
        "editBlockClaimsHistory": null,
        "editBlockSpecifiedItems": null,
        "errorNoAddress": true,
        "formulaListedStatus": "Not Listed/ Not Protected",
        "hasEmptyRequiredPropertyFields": false,
        "hideErrorNoAddress": true,
        "jewelleryCheck": true,
        "jewellerySpec": 0,
        "msgRequiredClaimsHistoryElement": true,
        "msgRequiredPropertyFields": false,
        "multiDeclarationsConfirmationOne": "yes",
        "pedalSpec": 0,
        "pedalSpecifiedCheck": true,
        "percentArtSpecified": 0,
        "percentCyclesSpecified": 0,
        "percentJewellerySpecified": 0,
        "propAmbPostalCode-Block": {
            "id": 37146949,
            "propAmbPostalCode": "The Marton Private Hotel, Pied des Vardes, Les Vardes, St. Peter Port, Guernsey, GY1 1BH",
            "uprn": 174
        },
        "radioBusinessUse": null,
        "radioClaimsHistory": "no",
        "radioGoodStateOfRepair": "Yes",
        "radioListedStatus": null,
        "radioMinimumConstructionType": "yes",
        "radioMinimumSecurity": "yes",
        "radioNoSignsOfSubsidence": "yes",
        "radioNotBusinessUseOrOpenToPublic": "yes",
        "radioNotListedDeclaration": "yes",
        "radioNotPlanningWorks": "yes",
        "radioNotPreviouslyFlooded": "yes",
        "radioOpenToPublic": null,
        "radioPolicyType": "Building & Contents",
        "radioPreviousInsurance": "yes",
        "radioPreviousInsuranceReason": null,
        "radioSpecifiedItems": "no",
        "requiredPropertyFieldsString": "",
        "selectFlatRoofPercentage": null,
        "selectRoofConstruction": null,
        "selectWallConstruction": null,
        "specifiedItemCount": 0,
        "sumInsuredTenantsImprovements": 0
    },
    "propertyDetailsUrl": "https://azur-integrations.herokuapp.com/outraUPRN",
    "publicLiability": 5000000,
    "quoteId": "",
    "quoteName": "Decdq_Bartoszmnsb",
    "quoteSheet": {
        "msgEmailSent": null
    },
    "quoteStatus": "",
    "quoteTransactionType": "New Business",
    "quotedDate": "2019-09-25 09:48:42",
    "recordTypes": {
        "%vlocity_namespace%__InsurableItem__c": {
            "EW_Property": "01258000000Vee9AAC",
            "EW_SpecifiedItem": "01258000000VeeAAAS"
        },
        "%vlocity_namespace%__InsuranceClaim__c": {
            "EW_Quote": "01258000000VeeBAAS"
        },
        "Account": {
            "AgencyBrokerage": "012580000005gQYAAY",
            "Business_Account": "012580000005gQZAAY",
            "Carrier": "012580000005gQaAAI",
            "Group": "012580000005gQbAAI",
            "PersonAccount": "01258000000cYS8AAM",
            "StandardAccount": "012580000005gQdAAI",
            "Supplier": "01258000000FR6lAAG"
        },
        "Opportunity": {
            "EW_Opportunity": "01258000000cworAAA"
        },
        "Picklist_Section__c": {
            "Business_Type": "01258000000FR74AAG",
            "Nationality": "01258000000AoNRAA0",
            "Occupation": "01258000000FR75AAG",
            "Title": "01258000000FR76AAG"
        },
        "Quote": {
            "EW_Quote": "01258000000cwosAAA"
        }
    },
    "sanctionCheckFuzziness": 1,
    "sfdcIFrameHost": "web",
    "sfdcIFrameOrigin": "https://azuruw--dev--vlocity-ins.visualforce.com",
    "skipToCoverageStep": false,
    "timeStamp": "2019-09-25T07:48:34.095Z",
    "userCurrencyCode": "GBP",
    "userId": "00558000004Fx12AAC",
    "userName": "bdec@azuruw.com.dev",
    "userProfile": "System Administrator",
    "userTimeZone": 60,
    "uw_excludedPostcode": true,
    "uw_excludedPostcodeMessage": "Unfortunately, we cannot quote on properties in Guernsey at this time 💔",
    "vlcPersistentComponent": {
    },
    "vlcTimeTracking": {
        "DRTransform_CapitaliseNames": 439,
        "OmniScriptSessionToken": "7be9ec4a-9325-48e8-9387-b4fe631155fa",
        "RA_CheckForExcludedPostcodes": 4638,
        "SV_CapitaliseNames": 31,
        "SV_ClearJointPolicyHolder": 27,
        "SetQuoteIdFromContext": 1012,
        "clientDetails": 33097,
        "extractAdditionalQuoteData": 1377,
        "extractBrokerDetails": 2401,
        "extractRecordTypes": 889,
        "getFeatureSwtiches": 215,
        "getFixedCoverageValues": 475,
        "getGlobals": 420,
        "propertyDetails": 1468,
        "raPrimaryDuplicateCheck": 400,
        "setFormDefaultValues": 234,
        "setFormDefaultValues2": 190,
        "setLimitTexts": 106,
        "setLimits": 215,
        "setMainSwitch": 591,
        "setOpportunityName": 14,
        "setQuoteName": 5,
        "setQuoteStatusData": 22,
        "svBlockQuote": 7
    }
}