[
    {
        "%vlocity_namespace%__CalculationMatrixVersionId__c": {
            "%vlocity_namespace%__CalculationMatrixId__r.Name": "OtherClaimScore",
            "%vlocity_namespace%__VersionNumber__c": 3,
            "VlocityDataPackType": "VlocityMatchingKeyObject",
            "VlocityMatchingRecordSourceKey": "%vlocity_namespace%__CalculationMatrixVersion__c/OtherClaimScore V3",
            "VlocityRecordSObjectType": "%vlocity_namespace%__CalculationMatrixVersion__c"
        },
        "%vlocity_namespace%__InputData__c": {
            "columnKey": "20a98c",
            "dataType": "Number",
            "displayOrder": 3,
            "headerType": "Output",
            "label": null,
            "lineItemId": null,
            "listValues": null,
            "name": "CEW"
        },
        "CurrencyIsoCode": "GBP",
        "Name": "Header",
        "VlocityDataPackType": "SObject",
        "VlocityRecordSObjectType": "%vlocity_namespace%__CalculationMatrixRow__c"
    },
    {
        "%vlocity_namespace%__CalculationMatrixVersionId__c": {
            "%vlocity_namespace%__CalculationMatrixId__r.Name": "OtherClaimScore",
            "%vlocity_namespace%__VersionNumber__c": 3,
            "VlocityDataPackType": "VlocityMatchingKeyObject",
            "VlocityMatchingRecordSourceKey": "%vlocity_namespace%__CalculationMatrixVersion__c/OtherClaimScore V3",
            "VlocityRecordSObjectType": "%vlocity_namespace%__CalculationMatrixVersion__c"
        },
        "%vlocity_namespace%__InputData__c": {
            "columnKey": "2865e5",
            "dataType": "Number",
            "displayOrder": 15,
            "headerType": "Output",
            "label": null,
            "lineItemId": null,
            "listValues": null,
            "name": "CAD"
        },
        "CurrencyIsoCode": "GBP",
        "Name": "Header",
        "VlocityDataPackType": "SObject",
        "VlocityRecordSObjectType": "%vlocity_namespace%__CalculationMatrixRow__c"
    },
    {
        "%vlocity_namespace%__CalculationMatrixVersionId__c": {
            "%vlocity_namespace%__CalculationMatrixId__r.Name": "OtherClaimScore",
            "%vlocity_namespace%__VersionNumber__c": 3,
            "VlocityDataPackType": "VlocityMatchingKeyObject",
            "VlocityMatchingRecordSourceKey": "%vlocity_namespace%__CalculationMatrixVersion__c/OtherClaimScore V3",
            "VlocityRecordSObjectType": "%vlocity_namespace%__CalculationMatrixVersion__c"
        },
        "%vlocity_namespace%__InputData__c": {
            "columnKey": "2cc4e4",
            "dataType": "Number",
            "displayOrder": 4,
            "headerType": "Output",
            "label": null,
            "lineItemId": null,
            "listValues": null,
            "name": "BFL"
        },
        "CurrencyIsoCode": "GBP",
        "Name": "Header",
        "VlocityDataPackType": "SObject",
        "VlocityRecordSObjectType": "%vlocity_namespace%__CalculationMatrixRow__c"
    },
    {
        "%vlocity_namespace%__CalculationMatrixVersionId__c": {
            "%vlocity_namespace%__CalculationMatrixId__r.Name": "OtherClaimScore",
            "%vlocity_namespace%__VersionNumber__c": 3,
            "VlocityDataPackType": "VlocityMatchingKeyObject",
            "VlocityMatchingRecordSourceKey": "%vlocity_namespace%__CalculationMatrixVersion__c/OtherClaimScore V3",
            "VlocityRecordSObjectType": "%vlocity_namespace%__CalculationMatrixVersion__c"
        },
        "%vlocity_namespace%__InputData__c": {
            "columnKey": "3ce6a7",
            "dataType": "Number",
            "displayOrder": 17,
            "headerType": "Output",
            "label": null,
            "lineItemId": null,
            "listValues": null,
            "name": "CAL"
        },
        "CurrencyIsoCode": "GBP",
        "Name": "Header",
        "VlocityDataPackType": "SObject",
        "VlocityRecordSObjectType": "%vlocity_namespace%__CalculationMatrixRow__c"
    },
    {
        "%vlocity_namespace%__CalculationMatrixVersionId__c": {
            "%vlocity_namespace%__CalculationMatrixId__r.Name": "OtherClaimScore",
            "%vlocity_namespace%__VersionNumber__c": 3,
            "VlocityDataPackType": "VlocityMatchingKeyObject",
            "VlocityMatchingRecordSourceKey": "%vlocity_namespace%__CalculationMatrixVersion__c/OtherClaimScore V3",
            "VlocityRecordSObjectType": "%vlocity_namespace%__CalculationMatrixVersion__c"
        },
        "%vlocity_namespace%__InputData__c": {
            "columnKey": "3f66a1",
            "dataType": "Number",
            "displayOrder": 7,
            "headerType": "Output",
            "label": null,
            "lineItemId": null,
            "listValues": null,
            "name": "CFI"
        },
        "CurrencyIsoCode": "GBP",
        "Name": "Header",
        "VlocityDataPackType": "SObject",
        "VlocityRecordSObjectType": "%vlocity_namespace%__CalculationMatrixRow__c"
    },
    {
        "%vlocity_namespace%__CalculationMatrixVersionId__c": {
            "%vlocity_namespace%__CalculationMatrixId__r.Name": "OtherClaimScore",
            "%vlocity_namespace%__VersionNumber__c": 3,
            "VlocityDataPackType": "VlocityMatchingKeyObject",
            "VlocityMatchingRecordSourceKey": "%vlocity_namespace%__CalculationMatrixVersion__c/OtherClaimScore V3",
            "VlocityRecordSObjectType": "%vlocity_namespace%__CalculationMatrixVersion__c"
        },
        "%vlocity_namespace%__InputData__c": {
            "columnKey": "438130",
            "dataType": "Number",
            "displayOrder": 22,
            "headerType": "Output",
            "label": null,
            "lineItemId": null,
            "listValues": null,
            "name": "AGC"
        },
        "CurrencyIsoCode": "GBP",
        "Name": "Header",
        "VlocityDataPackType": "SObject",
        "VlocityRecordSObjectType": "%vlocity_namespace%__CalculationMatrixRow__c"
    },
    {
        "%vlocity_namespace%__CalculationMatrixVersionId__c": {
            "%vlocity_namespace%__CalculationMatrixId__r.Name": "OtherClaimScore",
            "%vlocity_namespace%__VersionNumber__c": 3,
            "VlocityDataPackType": "VlocityMatchingKeyObject",
            "VlocityMatchingRecordSourceKey": "%vlocity_namespace%__CalculationMatrixVersion__c/OtherClaimScore V3",
            "VlocityRecordSObjectType": "%vlocity_namespace%__CalculationMatrixVersion__c"
        },
        "%vlocity_namespace%__InputData__c": {
            "columnKey": "4f0fa2",
            "dataType": "Number",
            "displayOrder": 2,
            "headerType": "Output",
            "label": null,
            "lineItemId": null,
            "listValues": null,
            "name": "BEW"
        },
        "CurrencyIsoCode": "GBP",
        "Name": "Header",
        "VlocityDataPackType": "SObject",
        "VlocityRecordSObjectType": "%vlocity_namespace%__CalculationMatrixRow__c"
    },
    {
        "%vlocity_namespace%__CalculationMatrixVersionId__c": {
            "%vlocity_namespace%__CalculationMatrixId__r.Name": "OtherClaimScore",
            "%vlocity_namespace%__VersionNumber__c": 3,
            "VlocityDataPackType": "VlocityMatchingKeyObject",
            "VlocityMatchingRecordSourceKey": "%vlocity_namespace%__CalculationMatrixVersion__c/OtherClaimScore V3",
            "VlocityRecordSObjectType": "%vlocity_namespace%__CalculationMatrixVersion__c"
        },
        "%vlocity_namespace%__InputData__c": {
            "columnKey": "4fec30",
            "dataType": "Number",
            "displayOrder": 14,
            "headerType": "Output",
            "label": null,
            "lineItemId": null,
            "listValues": null,
            "name": "BAD"
        },
        "CurrencyIsoCode": "GBP",
        "Name": "Header",
        "VlocityDataPackType": "SObject",
        "VlocityRecordSObjectType": "%vlocity_namespace%__CalculationMatrixRow__c"
    },
    {
        "%vlocity_namespace%__CalculationMatrixVersionId__c": {
            "%vlocity_namespace%__CalculationMatrixId__r.Name": "OtherClaimScore",
            "%vlocity_namespace%__VersionNumber__c": 3,
            "VlocityDataPackType": "VlocityMatchingKeyObject",
            "VlocityMatchingRecordSourceKey": "%vlocity_namespace%__CalculationMatrixVersion__c/OtherClaimScore V3",
            "VlocityRecordSObjectType": "%vlocity_namespace%__CalculationMatrixVersion__c"
        },
        "%vlocity_namespace%__InputData__c": {
            "columnKey": "5ae23",
            "dataType": "Number",
            "displayOrder": 10,
            "headerType": "Output",
            "label": null,
            "lineItemId": null,
            "listValues": null,
            "name": "BWE"
        },
        "CurrencyIsoCode": "GBP",
        "Name": "Header",
        "VlocityDataPackType": "SObject",
        "VlocityRecordSObjectType": "%vlocity_namespace%__CalculationMatrixRow__c"
    },
    {
        "%vlocity_namespace%__CalculationMatrixVersionId__c": {
            "%vlocity_namespace%__CalculationMatrixId__r.Name": "OtherClaimScore",
            "%vlocity_namespace%__VersionNumber__c": 3,
            "VlocityDataPackType": "VlocityMatchingKeyObject",
            "VlocityMatchingRecordSourceKey": "%vlocity_namespace%__CalculationMatrixVersion__c/OtherClaimScore V3",
            "VlocityRecordSObjectType": "%vlocity_namespace%__CalculationMatrixVersion__c"
        },
        "%vlocity_namespace%__InputData__c": {
            "columnKey": "6b7ba3",
            "dataType": "Number",
            "displayOrder": 18,
            "headerType": "Output",
            "label": null,
            "lineItemId": null,
            "listValues": null,
            "name": "LI"
        },
        "CurrencyIsoCode": "GBP",
        "Name": "Header",
        "VlocityDataPackType": "SObject",
        "VlocityRecordSObjectType": "%vlocity_namespace%__CalculationMatrixRow__c"
    },
    {
        "%vlocity_namespace%__CalculationMatrixVersionId__c": {
            "%vlocity_namespace%__CalculationMatrixId__r.Name": "OtherClaimScore",
            "%vlocity_namespace%__VersionNumber__c": 3,
            "VlocityDataPackType": "VlocityMatchingKeyObject",
            "VlocityMatchingRecordSourceKey": "%vlocity_namespace%__CalculationMatrixVersion__c/OtherClaimScore V3",
            "VlocityRecordSObjectType": "%vlocity_namespace%__CalculationMatrixVersion__c"
        },
        "%vlocity_namespace%__InputData__c": {
            "columnKey": "700ab8",
            "dataType": "Number",
            "displayOrder": 8,
            "headerType": "Output",
            "label": null,
            "lineItemId": null,
            "listValues": null,
            "name": "BTG"
        },
        "CurrencyIsoCode": "GBP",
        "Name": "Header",
        "VlocityDataPackType": "SObject",
        "VlocityRecordSObjectType": "%vlocity_namespace%__CalculationMatrixRow__c"
    },
    {
        "%vlocity_namespace%__CalculationMatrixVersionId__c": {
            "%vlocity_namespace%__CalculationMatrixId__r.Name": "OtherClaimScore",
            "%vlocity_namespace%__VersionNumber__c": 3,
            "VlocityDataPackType": "VlocityMatchingKeyObject",
            "VlocityMatchingRecordSourceKey": "%vlocity_namespace%__CalculationMatrixVersion__c/OtherClaimScore V3",
            "VlocityRecordSObjectType": "%vlocity_namespace%__CalculationMatrixVersion__c"
        },
        "%vlocity_namespace%__InputData__c": {
            "columnKey": "73d30",
            "dataType": "Number",
            "displayOrder": 23,
            "headerType": "Output",
            "label": null,
            "lineItemId": null,
            "listValues": null,
            "name": "ATI"
        },
        "CurrencyIsoCode": "GBP",
        "Name": "Header",
        "VlocityDataPackType": "SObject",
        "VlocityRecordSObjectType": "%vlocity_namespace%__CalculationMatrixRow__c"
    },
    {
        "%vlocity_namespace%__CalculationMatrixVersionId__c": {
            "%vlocity_namespace%__CalculationMatrixId__r.Name": "OtherClaimScore",
            "%vlocity_namespace%__VersionNumber__c": 3,
            "VlocityDataPackType": "VlocityMatchingKeyObject",
            "VlocityMatchingRecordSourceKey": "%vlocity_namespace%__CalculationMatrixVersion__c/OtherClaimScore V3",
            "VlocityRecordSObjectType": "%vlocity_namespace%__CalculationMatrixVersion__c"
        },
        "%vlocity_namespace%__InputData__c": {
            "columnKey": "75430f",
            "dataType": "Number",
            "displayOrder": 6,
            "headerType": "Output",
            "label": null,
            "lineItemId": null,
            "listValues": null,
            "name": "BFI"
        },
        "CurrencyIsoCode": "GBP",
        "Name": "Header",
        "VlocityDataPackType": "SObject",
        "VlocityRecordSObjectType": "%vlocity_namespace%__CalculationMatrixRow__c"
    },
    {
        "%vlocity_namespace%__CalculationMatrixVersionId__c": {
            "%vlocity_namespace%__CalculationMatrixId__r.Name": "OtherClaimScore",
            "%vlocity_namespace%__VersionNumber__c": 3,
            "VlocityDataPackType": "VlocityMatchingKeyObject",
            "VlocityMatchingRecordSourceKey": "%vlocity_namespace%__CalculationMatrixVersion__c/OtherClaimScore V3",
            "VlocityRecordSObjectType": "%vlocity_namespace%__CalculationMatrixVersion__c"
        },
        "%vlocity_namespace%__InputData__c": {
            "columnKey": "799b3a",
            "dataType": "Number",
            "displayOrder": 24,
            "headerType": "Output",
            "label": null,
            "lineItemId": null,
            "listValues": null,
            "name": "FE"
        },
        "CurrencyIsoCode": "GBP",
        "Name": "Header",
        "VlocityDataPackType": "SObject",
        "VlocityRecordSObjectType": "%vlocity_namespace%__CalculationMatrixRow__c"
    },
    {
        "%vlocity_namespace%__CalculationMatrixVersionId__c": {
            "%vlocity_namespace%__CalculationMatrixId__r.Name": "OtherClaimScore",
            "%vlocity_namespace%__VersionNumber__c": 3,
            "VlocityDataPackType": "VlocityMatchingKeyObject",
            "VlocityMatchingRecordSourceKey": "%vlocity_namespace%__CalculationMatrixVersion__c/OtherClaimScore V3",
            "VlocityRecordSObjectType": "%vlocity_namespace%__CalculationMatrixVersion__c"
        },
        "%vlocity_namespace%__InputData__c": {
            "columnKey": "7ccbf8",
            "dataType": "Number",
            "displayOrder": 21,
            "headerType": "Output",
            "label": null,
            "lineItemId": null,
            "listValues": null,
            "name": "ABI"
        },
        "CurrencyIsoCode": "GBP",
        "Name": "Header",
        "VlocityDataPackType": "SObject",
        "VlocityRecordSObjectType": "%vlocity_namespace%__CalculationMatrixRow__c"
    },
    {
        "%vlocity_namespace%__CalculationMatrixVersionId__c": {
            "%vlocity_namespace%__CalculationMatrixId__r.Name": "OtherClaimScore",
            "%vlocity_namespace%__VersionNumber__c": 3,
            "VlocityDataPackType": "VlocityMatchingKeyObject",
            "VlocityMatchingRecordSourceKey": "%vlocity_namespace%__CalculationMatrixVersion__c/OtherClaimScore V3",
            "VlocityRecordSObjectType": "%vlocity_namespace%__CalculationMatrixVersion__c"
        },
        "%vlocity_namespace%__InputData__c": {
            "columnKey": "83458a",
            "dataType": "Number",
            "displayOrder": 5,
            "headerType": "Output",
            "label": null,
            "lineItemId": null,
            "listValues": null,
            "name": "CFL"
        },
        "CurrencyIsoCode": "GBP",
        "Name": "Header",
        "VlocityDataPackType": "SObject",
        "VlocityRecordSObjectType": "%vlocity_namespace%__CalculationMatrixRow__c"
    },
    {
        "%vlocity_namespace%__CalculationMatrixVersionId__c": {
            "%vlocity_namespace%__CalculationMatrixId__r.Name": "OtherClaimScore",
            "%vlocity_namespace%__VersionNumber__c": 3,
            "VlocityDataPackType": "VlocityMatchingKeyObject",
            "VlocityMatchingRecordSourceKey": "%vlocity_namespace%__CalculationMatrixVersion__c/OtherClaimScore V3",
            "VlocityRecordSObjectType": "%vlocity_namespace%__CalculationMatrixVersion__c"
        },
        "%vlocity_namespace%__InputData__c": {
            "columnKey": "92c602",
            "dataType": "Number",
            "displayOrder": 19,
            "headerType": "Output",
            "label": null,
            "lineItemId": null,
            "listValues": null,
            "name": "AJW"
        },
        "CurrencyIsoCode": "GBP",
        "Name": "Header",
        "VlocityDataPackType": "SObject",
        "VlocityRecordSObjectType": "%vlocity_namespace%__CalculationMatrixRow__c"
    },
    {
        "%vlocity_namespace%__CalculationMatrixVersionId__c": {
            "%vlocity_namespace%__CalculationMatrixId__r.Name": "OtherClaimScore",
            "%vlocity_namespace%__VersionNumber__c": 3,
            "VlocityDataPackType": "VlocityMatchingKeyObject",
            "VlocityMatchingRecordSourceKey": "%vlocity_namespace%__CalculationMatrixVersion__c/OtherClaimScore V3",
            "VlocityRecordSObjectType": "%vlocity_namespace%__CalculationMatrixVersion__c"
        },
        "%vlocity_namespace%__InputData__c": {
            "columnKey": "a24e3a",
            "dataType": "Number",
            "displayOrder": 20,
            "headerType": "Output",
            "label": null,
            "lineItemId": null,
            "listValues": null,
            "name": "AAC"
        },
        "CurrencyIsoCode": "GBP",
        "Name": "Header",
        "VlocityDataPackType": "SObject",
        "VlocityRecordSObjectType": "%vlocity_namespace%__CalculationMatrixRow__c"
    },
    {
        "%vlocity_namespace%__CalculationMatrixVersionId__c": {
            "%vlocity_namespace%__CalculationMatrixId__r.Name": "OtherClaimScore",
            "%vlocity_namespace%__VersionNumber__c": 3,
            "VlocityDataPackType": "VlocityMatchingKeyObject",
            "VlocityMatchingRecordSourceKey": "%vlocity_namespace%__CalculationMatrixVersion__c/OtherClaimScore V3",
            "VlocityRecordSObjectType": "%vlocity_namespace%__CalculationMatrixVersion__c"
        },
        "%vlocity_namespace%__InputData__c": {
            "columnKey": "adf926",
            "dataType": "Number",
            "displayOrder": 16,
            "headerType": "Output",
            "label": null,
            "lineItemId": null,
            "listValues": null,
            "name": "BAL"
        },
        "CurrencyIsoCode": "GBP",
        "Name": "Header",
        "VlocityDataPackType": "SObject",
        "VlocityRecordSObjectType": "%vlocity_namespace%__CalculationMatrixRow__c"
    },
    {
        "%vlocity_namespace%__CalculationMatrixVersionId__c": {
            "%vlocity_namespace%__CalculationMatrixId__r.Name": "OtherClaimScore",
            "%vlocity_namespace%__VersionNumber__c": 3,
            "VlocityDataPackType": "VlocityMatchingKeyObject",
            "VlocityMatchingRecordSourceKey": "%vlocity_namespace%__CalculationMatrixVersion__c/OtherClaimScore V3",
            "VlocityRecordSObjectType": "%vlocity_namespace%__CalculationMatrixVersion__c"
        },
        "%vlocity_namespace%__InputData__c": {
            "columnKey": "aff414",
            "dataType": "Number",
            "displayOrder": 11,
            "headerType": "Output",
            "label": null,
            "lineItemId": null,
            "listValues": null,
            "name": "CWE"
        },
        "CurrencyIsoCode": "GBP",
        "Name": "Header",
        "VlocityDataPackType": "SObject",
        "VlocityRecordSObjectType": "%vlocity_namespace%__CalculationMatrixRow__c"
    },
    {
        "%vlocity_namespace%__CalculationMatrixVersionId__c": {
            "%vlocity_namespace%__CalculationMatrixId__r.Name": "OtherClaimScore",
            "%vlocity_namespace%__VersionNumber__c": 3,
            "VlocityDataPackType": "VlocityMatchingKeyObject",
            "VlocityMatchingRecordSourceKey": "%vlocity_namespace%__CalculationMatrixVersion__c/OtherClaimScore V3",
            "VlocityRecordSObjectType": "%vlocity_namespace%__CalculationMatrixVersion__c"
        },
        "%vlocity_namespace%__InputData__c": {
            "columnKey": "b28a5e",
            "dataType": "Number",
            "displayOrder": 13,
            "headerType": "Output",
            "label": null,
            "lineItemId": null,
            "listValues": null,
            "name": "CSU"
        },
        "CurrencyIsoCode": "GBP",
        "Name": "Header",
        "VlocityDataPackType": "SObject",
        "VlocityRecordSObjectType": "%vlocity_namespace%__CalculationMatrixRow__c"
    },
    {
        "%vlocity_namespace%__CalculationMatrixVersionId__c": {
            "%vlocity_namespace%__CalculationMatrixId__r.Name": "OtherClaimScore",
            "%vlocity_namespace%__VersionNumber__c": 3,
            "VlocityDataPackType": "VlocityMatchingKeyObject",
            "VlocityMatchingRecordSourceKey": "%vlocity_namespace%__CalculationMatrixVersion__c/OtherClaimScore V3",
            "VlocityRecordSObjectType": "%vlocity_namespace%__CalculationMatrixVersion__c"
        },
        "%vlocity_namespace%__InputData__c": {
            "columnKey": "b6d397",
            "dataType": "Number",
            "displayOrder": 12,
            "headerType": "Output",
            "label": null,
            "lineItemId": null,
            "listValues": null,
            "name": "BSU"
        },
        "CurrencyIsoCode": "GBP",
        "Name": "Header",
        "VlocityDataPackType": "SObject",
        "VlocityRecordSObjectType": "%vlocity_namespace%__CalculationMatrixRow__c"
    },
    {
        "%vlocity_namespace%__CalculationMatrixVersionId__c": {
            "%vlocity_namespace%__CalculationMatrixId__r.Name": "OtherClaimScore",
            "%vlocity_namespace%__VersionNumber__c": 3,
            "VlocityDataPackType": "VlocityMatchingKeyObject",
            "VlocityMatchingRecordSourceKey": "%vlocity_namespace%__CalculationMatrixVersion__c/OtherClaimScore V3",
            "VlocityRecordSObjectType": "%vlocity_namespace%__CalculationMatrixVersion__c"
        },
        "%vlocity_namespace%__InputData__c": {
            "columnKey": "c1354",
            "dataType": "Number Range",
            "displayOrder": 1,
            "headerType": "Input",
            "label": null,
            "lineItemId": null,
            "listValues": "-1,0.0001,0.5001,1.0001,1.5001,1.7501,2.0001,2.2501,2.5001,2.7501,3.0001,3.5001,4.0001,4.5001,5.0001,6.0001,7.0001,8.0001",
            "name": "otherClaimScore"
        },
        "CurrencyIsoCode": "GBP",
        "Name": "Header",
        "VlocityDataPackType": "SObject",
        "VlocityRecordSObjectType": "%vlocity_namespace%__CalculationMatrixRow__c"
    },
    {
        "%vlocity_namespace%__CalculationMatrixVersionId__c": {
            "%vlocity_namespace%__CalculationMatrixId__r.Name": "OtherClaimScore",
            "%vlocity_namespace%__VersionNumber__c": 3,
            "VlocityDataPackType": "VlocityMatchingKeyObject",
            "VlocityMatchingRecordSourceKey": "%vlocity_namespace%__CalculationMatrixVersion__c/OtherClaimScore V3",
            "VlocityRecordSObjectType": "%vlocity_namespace%__CalculationMatrixVersion__c"
        },
        "%vlocity_namespace%__InputData__c": {
            "columnKey": "ca9c56",
            "dataType": "Number",
            "displayOrder": 9,
            "headerType": "Output",
            "label": null,
            "lineItemId": null,
            "listValues": null,
            "name": "CTG"
        },
        "CurrencyIsoCode": "GBP",
        "Name": "Header",
        "VlocityDataPackType": "SObject",
        "VlocityRecordSObjectType": "%vlocity_namespace%__CalculationMatrixRow__c"
    },
    {
        "%vlocity_namespace%__CalculationMatrixVersionId__c": {
            "%vlocity_namespace%__CalculationMatrixId__r.Name": "OtherClaimScore",
            "%vlocity_namespace%__VersionNumber__c": 3,
            "VlocityDataPackType": "VlocityMatchingKeyObject",
            "VlocityMatchingRecordSourceKey": "%vlocity_namespace%__CalculationMatrixVersion__c/OtherClaimScore V3",
            "VlocityRecordSObjectType": "%vlocity_namespace%__CalculationMatrixVersion__c"
        },
        "%vlocity_namespace%__InputData__c": {
            "otherClaimScore": "-1"
        },
        "%vlocity_namespace%__OutputDataLong__c": "{\"FE\":1.0,\"ATI\":1.0,\"AGC\":1.0,\"ABI\":1.0,\"AAC\":1.0,\"AJW\":1.0,\"LI\":0.95,\"CAL\":0.975,\"BAL\":0.975,\"CAD\":0.975,\"BAD\":0.975,\"CSU\":1.0,\"BSU\":1.0,\"CWE\":0.95,\"BWE\":0.95,\"CTG\":1.0,\"BTG\":1.0,\"CFI\":0.95,\"BFI\":0.95,\"CFL\":1.0,\"BFL\":1.0,\"CEW\":0.975,\"BEW\":0.975}",
        "CurrencyIsoCode": "GBP",
        "Name": "71adfe27d1c2cc1878d2ec6f015696c7",
        "VlocityDataPackType": "SObject",
        "VlocityRecordSObjectType": "%vlocity_namespace%__CalculationMatrixRow__c"
    },
    {
        "%vlocity_namespace%__CalculationMatrixVersionId__c": {
            "%vlocity_namespace%__CalculationMatrixId__r.Name": "OtherClaimScore",
            "%vlocity_namespace%__VersionNumber__c": 3,
            "VlocityDataPackType": "VlocityMatchingKeyObject",
            "VlocityMatchingRecordSourceKey": "%vlocity_namespace%__CalculationMatrixVersion__c/OtherClaimScore V3",
            "VlocityRecordSObjectType": "%vlocity_namespace%__CalculationMatrixVersion__c"
        },
        "%vlocity_namespace%__InputData__c": {
            "otherClaimScore": "0.0001"
        },
        "%vlocity_namespace%__OutputDataLong__c": "{\"FE\":1.0,\"ATI\":1.0,\"AGC\":1.0,\"ABI\":1.0,\"AAC\":1.0,\"AJW\":1.0,\"LI\":1.0,\"CAL\":1.0,\"BAL\":1.0,\"CAD\":1.0,\"BAD\":1.0,\"CSU\":1.0,\"BSU\":1.0,\"CWE\":1.0,\"BWE\":1.0,\"CTG\":1.0,\"BTG\":1.0,\"CFI\":1.0,\"BFI\":1.0,\"CFL\":1.0,\"BFL\":1.0,\"CEW\":1.0,\"BEW\":1.0}",
        "CurrencyIsoCode": "GBP",
        "Name": "ee35d2acf780453e8c9a947a4d894f89",
        "VlocityDataPackType": "SObject",
        "VlocityRecordSObjectType": "%vlocity_namespace%__CalculationMatrixRow__c"
    },
    {
        "%vlocity_namespace%__CalculationMatrixVersionId__c": {
            "%vlocity_namespace%__CalculationMatrixId__r.Name": "OtherClaimScore",
            "%vlocity_namespace%__VersionNumber__c": 3,
            "VlocityDataPackType": "VlocityMatchingKeyObject",
            "VlocityMatchingRecordSourceKey": "%vlocity_namespace%__CalculationMatrixVersion__c/OtherClaimScore V3",
            "VlocityRecordSObjectType": "%vlocity_namespace%__CalculationMatrixVersion__c"
        },
        "%vlocity_namespace%__InputData__c": {
            "otherClaimScore": "0.5001"
        },
        "%vlocity_namespace%__OutputDataLong__c": "{\"FE\":1.0,\"ATI\":1.0,\"AGC\":1.0,\"ABI\":1.0,\"AAC\":1.0,\"AJW\":1.0,\"LI\":1.075,\"CAL\":1.05,\"BAL\":1.05,\"CAD\":1.05,\"BAD\":1.05,\"CSU\":1.0,\"BSU\":1.0,\"CWE\":1.075,\"BWE\":1.05,\"CTG\":1.0,\"BTG\":1.0,\"CFI\":1.1,\"BFI\":1.1,\"CFL\":1.0,\"BFL\":1.0,\"CEW\":1.05,\"BEW\":1.05}",
        "CurrencyIsoCode": "GBP",
        "Name": "03dde4a91c3869ba1b74620e59316128",
        "VlocityDataPackType": "SObject",
        "VlocityRecordSObjectType": "%vlocity_namespace%__CalculationMatrixRow__c"
    },
    {
        "%vlocity_namespace%__CalculationMatrixVersionId__c": {
            "%vlocity_namespace%__CalculationMatrixId__r.Name": "OtherClaimScore",
            "%vlocity_namespace%__VersionNumber__c": 3,
            "VlocityDataPackType": "VlocityMatchingKeyObject",
            "VlocityMatchingRecordSourceKey": "%vlocity_namespace%__CalculationMatrixVersion__c/OtherClaimScore V3",
            "VlocityRecordSObjectType": "%vlocity_namespace%__CalculationMatrixVersion__c"
        },
        "%vlocity_namespace%__InputData__c": {
            "otherClaimScore": "1.0001"
        },
        "%vlocity_namespace%__OutputDataLong__c": "{\"FE\":1.0,\"ATI\":1.0,\"AGC\":1.0,\"ABI\":1.0,\"AAC\":1.0,\"AJW\":1.0,\"LI\":1.15,\"CAL\":1.1,\"BAL\":1.1,\"CAD\":1.1,\"BAD\":1.1,\"CSU\":1.0,\"BSU\":1.0,\"CWE\":1.15,\"BWE\":1.1,\"CTG\":1.0,\"BTG\":1.0,\"CFI\":1.2,\"BFI\":1.2,\"CFL\":1.0,\"BFL\":1.0,\"CEW\":1.1,\"BEW\":1.1}",
        "CurrencyIsoCode": "GBP",
        "Name": "289523528d5b0a95db5a9caea58b72a6",
        "VlocityDataPackType": "SObject",
        "VlocityRecordSObjectType": "%vlocity_namespace%__CalculationMatrixRow__c"
    },
    {
        "%vlocity_namespace%__CalculationMatrixVersionId__c": {
            "%vlocity_namespace%__CalculationMatrixId__r.Name": "OtherClaimScore",
            "%vlocity_namespace%__VersionNumber__c": 3,
            "VlocityDataPackType": "VlocityMatchingKeyObject",
            "VlocityMatchingRecordSourceKey": "%vlocity_namespace%__CalculationMatrixVersion__c/OtherClaimScore V3",
            "VlocityRecordSObjectType": "%vlocity_namespace%__CalculationMatrixVersion__c"
        },
        "%vlocity_namespace%__InputData__c": {
            "otherClaimScore": "1.5001"
        },
        "%vlocity_namespace%__OutputDataLong__c": "{\"FE\":1.0,\"ATI\":1.0,\"AGC\":1.0,\"ABI\":1.0,\"AAC\":1.0,\"AJW\":1.0,\"LI\":1.225,\"CAL\":1.1375,\"BAL\":1.1375,\"CAD\":1.1375,\"BAD\":1.1375,\"CSU\":1.0,\"BSU\":1.0,\"CWE\":1.225,\"BWE\":1.15,\"CTG\":1.0,\"BTG\":1.0,\"CFI\":1.275,\"BFI\":1.275,\"CFL\":1.0,\"BFL\":1.0,\"CEW\":1.1375,\"BEW\":1.1375}",
        "CurrencyIsoCode": "GBP",
        "Name": "1269fab68692efdb1804a3d8f8823738",
        "VlocityDataPackType": "SObject",
        "VlocityRecordSObjectType": "%vlocity_namespace%__CalculationMatrixRow__c"
    },
    {
        "%vlocity_namespace%__CalculationMatrixVersionId__c": {
            "%vlocity_namespace%__CalculationMatrixId__r.Name": "OtherClaimScore",
            "%vlocity_namespace%__VersionNumber__c": 3,
            "VlocityDataPackType": "VlocityMatchingKeyObject",
            "VlocityMatchingRecordSourceKey": "%vlocity_namespace%__CalculationMatrixVersion__c/OtherClaimScore V3",
            "VlocityRecordSObjectType": "%vlocity_namespace%__CalculationMatrixVersion__c"
        },
        "%vlocity_namespace%__InputData__c": {
            "otherClaimScore": "1.7501"
        },
        "%vlocity_namespace%__OutputDataLong__c": "{\"FE\":1.0,\"ATI\":1.0,\"AGC\":1.0,\"ABI\":1.0,\"AAC\":1.0,\"AJW\":1.0,\"LI\":1.3,\"CAL\":1.175,\"BAL\":1.175,\"CAD\":1.175,\"BAD\":1.175,\"CSU\":1.0,\"BSU\":1.0,\"CWE\":1.3,\"BWE\":1.2,\"CTG\":1.0,\"BTG\":1.0,\"CFI\":1.35,\"BFI\":1.35,\"CFL\":1.0,\"BFL\":1.0,\"CEW\":1.175,\"BEW\":1.175}",
        "CurrencyIsoCode": "GBP",
        "Name": "e26d5bcd5eea10a31ae5122a0df23555",
        "VlocityDataPackType": "SObject",
        "VlocityRecordSObjectType": "%vlocity_namespace%__CalculationMatrixRow__c"
    },
    {
        "%vlocity_namespace%__CalculationMatrixVersionId__c": {
            "%vlocity_namespace%__CalculationMatrixId__r.Name": "OtherClaimScore",
            "%vlocity_namespace%__VersionNumber__c": 3,
            "VlocityDataPackType": "VlocityMatchingKeyObject",
            "VlocityMatchingRecordSourceKey": "%vlocity_namespace%__CalculationMatrixVersion__c/OtherClaimScore V3",
            "VlocityRecordSObjectType": "%vlocity_namespace%__CalculationMatrixVersion__c"
        },
        "%vlocity_namespace%__InputData__c": {
            "otherClaimScore": "2.0001"
        },
        "%vlocity_namespace%__OutputDataLong__c": "{\"FE\":1.0,\"ATI\":1.0,\"AGC\":1.0,\"ABI\":1.0,\"AAC\":1.0,\"AJW\":1.0,\"LI\":1.375,\"CAL\":1.2,\"BAL\":1.2115,\"CAD\":1.2,\"BAD\":1.2115,\"CSU\":1.0,\"BSU\":1.0,\"CWE\":1.375,\"BWE\":1.25,\"CTG\":1.0,\"BTG\":1.0,\"CFI\":1.4,\"BFI\":1.423,\"CFL\":1.0,\"BFL\":1.0,\"CEW\":1.2,\"BEW\":1.2115}",
        "CurrencyIsoCode": "GBP",
        "Name": "a6ed0a68f4ba012284f5818cdfceca96",
        "VlocityDataPackType": "SObject",
        "VlocityRecordSObjectType": "%vlocity_namespace%__CalculationMatrixRow__c"
    },
    {
        "%vlocity_namespace%__CalculationMatrixVersionId__c": {
            "%vlocity_namespace%__CalculationMatrixId__r.Name": "OtherClaimScore",
            "%vlocity_namespace%__VersionNumber__c": 3,
            "VlocityDataPackType": "VlocityMatchingKeyObject",
            "VlocityMatchingRecordSourceKey": "%vlocity_namespace%__CalculationMatrixVersion__c/OtherClaimScore V3",
            "VlocityRecordSObjectType": "%vlocity_namespace%__CalculationMatrixVersion__c"
        },
        "%vlocity_namespace%__InputData__c": {
            "otherClaimScore": "2.2501"
        },
        "%vlocity_namespace%__OutputDataLong__c": "{\"FE\":1.0,\"ATI\":1.0,\"AGC\":1.0,\"ABI\":1.0,\"AAC\":1.0,\"AJW\":1.0,\"LI\":1.45,\"CAL\":1.225,\"BAL\":1.25,\"CAD\":1.225,\"BAD\":1.25,\"CSU\":1.0,\"BSU\":1.0,\"CWE\":1.45,\"BWE\":1.3,\"CTG\":1.0,\"BTG\":1.0,\"CFI\":1.45,\"BFI\":1.5,\"CFL\":1.0,\"BFL\":1.0,\"CEW\":1.225,\"BEW\":1.25}",
        "CurrencyIsoCode": "GBP",
        "Name": "4284de724b0f533ed86a6e095a945554",
        "VlocityDataPackType": "SObject",
        "VlocityRecordSObjectType": "%vlocity_namespace%__CalculationMatrixRow__c"
    },
    {
        "%vlocity_namespace%__CalculationMatrixVersionId__c": {
            "%vlocity_namespace%__CalculationMatrixId__r.Name": "OtherClaimScore",
            "%vlocity_namespace%__VersionNumber__c": 3,
            "VlocityDataPackType": "VlocityMatchingKeyObject",
            "VlocityMatchingRecordSourceKey": "%vlocity_namespace%__CalculationMatrixVersion__c/OtherClaimScore V3",
            "VlocityRecordSObjectType": "%vlocity_namespace%__CalculationMatrixVersion__c"
        },
        "%vlocity_namespace%__InputData__c": {
            "otherClaimScore": "2.5001"
        },
        "%vlocity_namespace%__OutputDataLong__c": "{\"FE\":1.0,\"ATI\":1.0,\"AGC\":1.0,\"ABI\":1.0,\"AAC\":1.0,\"AJW\":1.0,\"LI\":1.525,\"CAL\":1.2625,\"BAL\":1.275,\"CAD\":1.2625,\"BAD\":1.275,\"CSU\":1.0,\"BSU\":1.0,\"CWE\":1.525,\"BWE\":1.35,\"CTG\":1.0,\"BTG\":1.0,\"CFI\":1.525,\"BFI\":1.55,\"CFL\":1.0,\"BFL\":1.0,\"CEW\":1.2625,\"BEW\":1.275}",
        "CurrencyIsoCode": "GBP",
        "Name": "ebcd5be58b03df91458b1a035a894375",
        "VlocityDataPackType": "SObject",
        "VlocityRecordSObjectType": "%vlocity_namespace%__CalculationMatrixRow__c"
    },
    {
        "%vlocity_namespace%__CalculationMatrixVersionId__c": {
            "%vlocity_namespace%__CalculationMatrixId__r.Name": "OtherClaimScore",
            "%vlocity_namespace%__VersionNumber__c": 3,
            "VlocityDataPackType": "VlocityMatchingKeyObject",
            "VlocityMatchingRecordSourceKey": "%vlocity_namespace%__CalculationMatrixVersion__c/OtherClaimScore V3",
            "VlocityRecordSObjectType": "%vlocity_namespace%__CalculationMatrixVersion__c"
        },
        "%vlocity_namespace%__InputData__c": {
            "otherClaimScore": "2.7501"
        },
        "%vlocity_namespace%__OutputDataLong__c": "{\"FE\":1.0,\"ATI\":1.0,\"AGC\":1.0,\"ABI\":1.0,\"AAC\":1.0,\"AJW\":1.0,\"LI\":1.6,\"CAL\":1.3,\"BAL\":1.3,\"CAD\":1.3,\"BAD\":1.3,\"CSU\":1.0,\"BSU\":1.0,\"CWE\":1.6,\"BWE\":1.4,\"CTG\":1.0,\"BTG\":1.0,\"CFI\":1.6,\"BFI\":1.6,\"CFL\":1.0,\"BFL\":1.0,\"CEW\":1.3,\"BEW\":1.3}",
        "CurrencyIsoCode": "GBP",
        "Name": "f8fddf208d9f30dea3d7e5337da2a7b6",
        "VlocityDataPackType": "SObject",
        "VlocityRecordSObjectType": "%vlocity_namespace%__CalculationMatrixRow__c"
    },
    {
        "%vlocity_namespace%__CalculationMatrixVersionId__c": {
            "%vlocity_namespace%__CalculationMatrixId__r.Name": "OtherClaimScore",
            "%vlocity_namespace%__VersionNumber__c": 3,
            "VlocityDataPackType": "VlocityMatchingKeyObject",
            "VlocityMatchingRecordSourceKey": "%vlocity_namespace%__CalculationMatrixVersion__c/OtherClaimScore V3",
            "VlocityRecordSObjectType": "%vlocity_namespace%__CalculationMatrixVersion__c"
        },
        "%vlocity_namespace%__InputData__c": {
            "otherClaimScore": "3.0001"
        },
        "%vlocity_namespace%__OutputDataLong__c": "{\"FE\":1.0,\"ATI\":1.0,\"AGC\":1.0,\"ABI\":1.0,\"AAC\":1.0,\"AJW\":1.0,\"LI\":1.75,\"CAL\":1.375,\"BAL\":1.375,\"CAD\":1.375,\"BAD\":1.375,\"CSU\":1.0,\"BSU\":1.0,\"CWE\":1.75,\"BWE\":1.5,\"CTG\":1.0,\"BTG\":1.0,\"CFI\":1.75,\"BFI\":1.75,\"CFL\":1.0,\"BFL\":1.0,\"CEW\":1.375,\"BEW\":1.375}",
        "CurrencyIsoCode": "GBP",
        "Name": "4173d3fbc7979e3224a717569b84df7a",
        "VlocityDataPackType": "SObject",
        "VlocityRecordSObjectType": "%vlocity_namespace%__CalculationMatrixRow__c"
    },
    {
        "%vlocity_namespace%__CalculationMatrixVersionId__c": {
            "%vlocity_namespace%__CalculationMatrixId__r.Name": "OtherClaimScore",
            "%vlocity_namespace%__VersionNumber__c": 3,
            "VlocityDataPackType": "VlocityMatchingKeyObject",
            "VlocityMatchingRecordSourceKey": "%vlocity_namespace%__CalculationMatrixVersion__c/OtherClaimScore V3",
            "VlocityRecordSObjectType": "%vlocity_namespace%__CalculationMatrixVersion__c"
        },
        "%vlocity_namespace%__InputData__c": {
            "otherClaimScore": "3.5001"
        },
        "%vlocity_namespace%__OutputDataLong__c": "{\"FE\":1.0,\"ATI\":1.0,\"AGC\":1.0,\"ABI\":1.0,\"AAC\":1.0,\"AJW\":1.0,\"LI\":2.05,\"CAL\":1.525,\"BAL\":1.525,\"CAD\":1.525,\"BAD\":1.525,\"CSU\":1.0,\"BSU\":1.0,\"CWE\":2.05,\"BWE\":1.7,\"CTG\":1.0,\"BTG\":1.0,\"CFI\":2.05,\"BFI\":2.05,\"CFL\":1.0,\"BFL\":1.0,\"CEW\":1.525,\"BEW\":1.525}",
        "CurrencyIsoCode": "GBP",
        "Name": "1ff0f5078058c79f5625252a19b854fc",
        "VlocityDataPackType": "SObject",
        "VlocityRecordSObjectType": "%vlocity_namespace%__CalculationMatrixRow__c"
    },
    {
        "%vlocity_namespace%__CalculationMatrixVersionId__c": {
            "%vlocity_namespace%__CalculationMatrixId__r.Name": "OtherClaimScore",
            "%vlocity_namespace%__VersionNumber__c": 3,
            "VlocityDataPackType": "VlocityMatchingKeyObject",
            "VlocityMatchingRecordSourceKey": "%vlocity_namespace%__CalculationMatrixVersion__c/OtherClaimScore V3",
            "VlocityRecordSObjectType": "%vlocity_namespace%__CalculationMatrixVersion__c"
        },
        "%vlocity_namespace%__InputData__c": {
            "otherClaimScore": "4.0001"
        },
        "%vlocity_namespace%__OutputDataLong__c": "{\"FE\":1.0,\"ATI\":1.0,\"AGC\":1.0,\"ABI\":1.0,\"AAC\":1.0,\"AJW\":1.0,\"LI\":2.2,\"CAL\":1.6,\"BAL\":1.6,\"CAD\":1.6,\"BAD\":1.6,\"CSU\":1.0,\"BSU\":1.0,\"CWE\":2.2,\"BWE\":1.8,\"CTG\":1.0,\"BTG\":1.0,\"CFI\":2.2,\"BFI\":2.2,\"CFL\":1.0,\"BFL\":1.0,\"CEW\":1.6,\"BEW\":1.6}",
        "CurrencyIsoCode": "GBP",
        "Name": "984556c943305ace9185e3bef23ac562",
        "VlocityDataPackType": "SObject",
        "VlocityRecordSObjectType": "%vlocity_namespace%__CalculationMatrixRow__c"
    },
    {
        "%vlocity_namespace%__CalculationMatrixVersionId__c": {
            "%vlocity_namespace%__CalculationMatrixId__r.Name": "OtherClaimScore",
            "%vlocity_namespace%__VersionNumber__c": 3,
            "VlocityDataPackType": "VlocityMatchingKeyObject",
            "VlocityMatchingRecordSourceKey": "%vlocity_namespace%__CalculationMatrixVersion__c/OtherClaimScore V3",
            "VlocityRecordSObjectType": "%vlocity_namespace%__CalculationMatrixVersion__c"
        },
        "%vlocity_namespace%__InputData__c": {
            "otherClaimScore": "4.5001"
        },
        "%vlocity_namespace%__OutputDataLong__c": "{\"FE\":1.0,\"ATI\":1.0,\"AGC\":1.0,\"ABI\":1.0,\"AAC\":1.0,\"AJW\":1.0,\"LI\":2.5,\"CAL\":1.75,\"BAL\":1.75,\"CAD\":1.75,\"BAD\":1.75,\"CSU\":1.0,\"BSU\":1.0,\"CWE\":2.5,\"BWE\":2.0,\"CTG\":1.0,\"BTG\":1.0,\"CFI\":2.5,\"BFI\":2.5,\"CFL\":1.0,\"BFL\":1.0,\"CEW\":1.75,\"BEW\":1.75}",
        "CurrencyIsoCode": "GBP",
        "Name": "93540c4e544bce983768ab9f8a8296bd",
        "VlocityDataPackType": "SObject",
        "VlocityRecordSObjectType": "%vlocity_namespace%__CalculationMatrixRow__c"
    },
    {
        "%vlocity_namespace%__CalculationMatrixVersionId__c": {
            "%vlocity_namespace%__CalculationMatrixId__r.Name": "OtherClaimScore",
            "%vlocity_namespace%__VersionNumber__c": 3,
            "VlocityDataPackType": "VlocityMatchingKeyObject",
            "VlocityMatchingRecordSourceKey": "%vlocity_namespace%__CalculationMatrixVersion__c/OtherClaimScore V3",
            "VlocityRecordSObjectType": "%vlocity_namespace%__CalculationMatrixVersion__c"
        },
        "%vlocity_namespace%__InputData__c": {
            "otherClaimScore": "5.0001"
        },
        "%vlocity_namespace%__OutputDataLong__c": "{\"FE\":1.0,\"ATI\":1.0,\"AGC\":1.0,\"ABI\":1.0,\"AAC\":1.0,\"AJW\":1.0,\"LI\":4.0,\"CAL\":2.5,\"BAL\":2.5,\"CAD\":2.5,\"BAD\":2.5,\"CSU\":1.0,\"BSU\":1.0,\"CWE\":4.0,\"BWE\":3.0,\"CTG\":1.0,\"BTG\":1.0,\"CFI\":4.0,\"BFI\":4.0,\"CFL\":1.0,\"BFL\":1.0,\"CEW\":2.5,\"BEW\":2.5}",
        "CurrencyIsoCode": "GBP",
        "Name": "389bf96f728da10c6b4c5f6ee84c012c",
        "VlocityDataPackType": "SObject",
        "VlocityRecordSObjectType": "%vlocity_namespace%__CalculationMatrixRow__c"
    },
    {
        "%vlocity_namespace%__CalculationMatrixVersionId__c": {
            "%vlocity_namespace%__CalculationMatrixId__r.Name": "OtherClaimScore",
            "%vlocity_namespace%__VersionNumber__c": 3,
            "VlocityDataPackType": "VlocityMatchingKeyObject",
            "VlocityMatchingRecordSourceKey": "%vlocity_namespace%__CalculationMatrixVersion__c/OtherClaimScore V3",
            "VlocityRecordSObjectType": "%vlocity_namespace%__CalculationMatrixVersion__c"
        },
        "%vlocity_namespace%__InputData__c": {
            "otherClaimScore": "6.0001"
        },
        "%vlocity_namespace%__OutputDataLong__c": "{\"FE\":1.0,\"ATI\":1.0,\"AGC\":1.0,\"ABI\":1.0,\"AAC\":1.0,\"AJW\":1.0,\"LI\":5.5,\"CAL\":3.25,\"BAL\":3.25,\"CAD\":3.25,\"BAD\":3.25,\"CSU\":1.0,\"BSU\":1.0,\"CWE\":5.5,\"BWE\":4.0,\"CTG\":1.0,\"BTG\":1.0,\"CFI\":5.5,\"BFI\":5.5,\"CFL\":1.0,\"BFL\":1.0,\"CEW\":3.25,\"BEW\":3.25}",
        "CurrencyIsoCode": "GBP",
        "Name": "4807477fb1e8db7e0080457bdac7ee71",
        "VlocityDataPackType": "SObject",
        "VlocityRecordSObjectType": "%vlocity_namespace%__CalculationMatrixRow__c"
    },
    {
        "%vlocity_namespace%__CalculationMatrixVersionId__c": {
            "%vlocity_namespace%__CalculationMatrixId__r.Name": "OtherClaimScore",
            "%vlocity_namespace%__VersionNumber__c": 3,
            "VlocityDataPackType": "VlocityMatchingKeyObject",
            "VlocityMatchingRecordSourceKey": "%vlocity_namespace%__CalculationMatrixVersion__c/OtherClaimScore V3",
            "VlocityRecordSObjectType": "%vlocity_namespace%__CalculationMatrixVersion__c"
        },
        "%vlocity_namespace%__InputData__c": {
            "otherClaimScore": "7.0001"
        },
        "%vlocity_namespace%__OutputDataLong__c": "{\"FE\":1.0,\"ATI\":1.0,\"AGC\":1.0,\"ABI\":1.0,\"AAC\":1.0,\"AJW\":1.0,\"LI\":6.0,\"CAL\":3.5,\"BAL\":3.5,\"CAD\":3.5,\"BAD\":3.5,\"CSU\":1.0,\"BSU\":1.0,\"CWE\":6.0,\"BWE\":5.0,\"CTG\":1.0,\"BTG\":1.0,\"CFI\":6.0,\"BFI\":6.0,\"CFL\":1.0,\"BFL\":1.0,\"CEW\":3.5,\"BEW\":3.5}",
        "CurrencyIsoCode": "GBP",
        "Name": "1f6965172be9bb02b3b0c07c52b18e5a",
        "VlocityDataPackType": "SObject",
        "VlocityRecordSObjectType": "%vlocity_namespace%__CalculationMatrixRow__c"
    },
    {
        "%vlocity_namespace%__CalculationMatrixVersionId__c": {
            "%vlocity_namespace%__CalculationMatrixId__r.Name": "OtherClaimScore",
            "%vlocity_namespace%__VersionNumber__c": 3,
            "VlocityDataPackType": "VlocityMatchingKeyObject",
            "VlocityMatchingRecordSourceKey": "%vlocity_namespace%__CalculationMatrixVersion__c/OtherClaimScore V3",
            "VlocityRecordSObjectType": "%vlocity_namespace%__CalculationMatrixVersion__c"
        },
        "%vlocity_namespace%__InputData__c": {
            "otherClaimScore": "8.0001"
        },
        "%vlocity_namespace%__OutputDataLong__c": "{\"FE\":1.0,\"ATI\":1.0,\"AGC\":1.0,\"ABI\":1.0,\"AAC\":1.0,\"AJW\":1.0,\"LI\":7.5,\"CAL\":4.25,\"BAL\":4.25,\"CAD\":4.25,\"BAD\":4.25,\"CSU\":1.0,\"BSU\":1.0,\"CWE\":7.5,\"BWE\":6.0,\"CTG\":1.0,\"BTG\":1.0,\"CFI\":7.5,\"BFI\":7.5,\"CFL\":1.0,\"BFL\":1.0,\"CEW\":4.25,\"BEW\":4.25}",
        "CurrencyIsoCode": "GBP",
        "Name": "5fcf66244f90667a99b7503f10397dba",
        "VlocityDataPackType": "SObject",
        "VlocityRecordSObjectType": "%vlocity_namespace%__CalculationMatrixRow__c"
    }
]