{
    "%vlocity_namespace%__Category__c": "Insured Item Level",
    "%vlocity_namespace%__ClauseContent__c": "This condition applies to the following section(s)\nPART IV – Buildings, contents, pedal cycles and collections\n\nAll flat roofs at the home must be inspected and maintained as recommended by suitably qualified persons at least every 10 years. Proof of inspection must be provided to us prior to our obligation to provide settlement of a related covered loss. In the event any flat roof is not inspected or any proof of inspection cannot be provided any loss arising directly or indirectly as a consequence or a result of that flat roof's lack of maintenance shall be excluded.",
    "%vlocity_namespace%__ContractTypes__c": "",
    "%vlocity_namespace%__IsArchived__c": false,
    "%vlocity_namespace%__IsRestricted__c": true,
    "%vlocity_namespace%__Tokens__c": "",
    "%vlocity_namespace%__Type__c": "Home",
    "Clause_Body__c": "",
    "CurrencyIsoCode": "GBP",
    "Name": "Flat Roof Inspection condition",
    "VlocityDataPackType": "SObject",
    "VlocityRecordSObjectType": "%vlocity_namespace%__DocumentClause__c",
    "VlocityRecordSourceKey": "%vlocity_namespace%__DocumentClause__c/Flat Roof Inspection condition"
}