{
    "%vlocity_namespace%__AdditionalInformation__c": "EWH-1826 - Direct Debit Reversals - adding MTA",
    "%vlocity_namespace%__CustomJavaScript__c": "EW_PCLCheckInceptionDate_SampleInput.json",
    "%vlocity_namespace%__DisableMetadataCache__c": false,
    "%vlocity_namespace%__ElementTypeToHTMLTemplateList__c": "{\"ElementTypeToHTMLTemplateList\":[]}",
    "%vlocity_namespace%__Element__c": [
        "EW_PCLCheckInceptionDate_Element_DR_ExtractAuthProperties.json",
        "EW_PCLCheckInceptionDate_Element_SV_SetRequestBody.json",
        "EW_PCLCheckInceptionDate_Element_HTTP_PCLAuth.json",
        "EW_PCLCheckInceptionDate_Element_SV_SetUpValuesForCallout.json",
        "EW_PCLCheckInceptionDate_Element_HTTP_GetAgreementCreatedDate.json",
        "EW_PCLCheckInceptionDate_Element_SV_CalloutSetup.json",
        "EW_PCLCheckInceptionDate_Element_RES_AgreementOver31Days.json"
    ],
    "%vlocity_namespace%__IsLwcEnabled__c": false,
    "%vlocity_namespace%__IsProcedure__c": true,
    "%vlocity_namespace%__IsReusable__c": false,
    "%vlocity_namespace%__Language__c": "Procedure",
    "%vlocity_namespace%__ProcedureKey__c": "EW_PCLCheckInceptionDate",
    "%vlocity_namespace%__PropertySet__c": "EW_PCLCheckInceptionDate_PropertySet.json",
    "%vlocity_namespace%__SubType__c": "PCLCheckInceptionDate",
    "%vlocity_namespace%__Type__c": "EW",
    "CurrencyIsoCode": "GBP",
    "Name": "PCLCheckInceptionDate",
    "VlocityDataPackType": "SObject",
    "VlocityRecordSObjectType": "%vlocity_namespace%__OmniScript__c",
    "VlocityRecordSourceKey": "%vlocity_namespace%__OmniScript__c/EW/PCLCheckInceptionDate/Procedure"
}