{
    "30PriorDate": "2017-03-14",
    "Additional Details": {
        "EmergencyOption": null,
        "blkAmbulanceDetails": null,
        "blkFireDetails": null,
        "blkOtherDetails": null,
        "blkPoliceDetails": null,
        "blkThirdPartyIndividuals": null,
        "blkThirdPartyVehicles": {
            "blkVehicleDetails": {
                "TPReserve": 2500,
                "make": null,
                "makeModel": null,
                "model": null,
                "noPassengers": null,
                "regNo": null,
                "tpEmail": null,
                "tpFirstName": null,
                "tpFullName": null,
                "tpInsurer": null,
                "tpInsurerAddress": null,
                "tpLastName": null,
                "tpMailingCity": null,
                "tpMailingCountry": null,
                "tpMailingPostalCode": null,
                "tpMailingStreet": null,
                "tpPolicyNum": null,
                "tpTelephone": null
            }
        },
        "blkWitness": null,
        "independentWitnesses": null,
        "thirdPartyInvolved": null
    },
    "AnyDriver.RecordTypeId": "a3o4E0000001baWQAQ",
    "ContextId": "02i4E000001yDbW",
    "DRCode": "12345",
    "DRId_%vlocity_namespace%__InsuranceClaim__c": "a3I4E000000LiP2UAK",
    "DRId_Case": "5004E000002zNTfQAM",
    "DRId_Vehicle__c": "a5Y4E0000008bHFUAY",
    "InvPropPropertyRecordTypeId": "012580000005gR2AAI",
    "InvPropVehicleRecordTypeId": "012580000005gR3AAI",
    "LiaInjuryRecordTypeId": "0124E0000000Q1CQAU",
    "LiaPropertyRecordTypeId": "0124E0000000Q1DQAU",
    "PolicyHolder.RecordTypeId": "a3o4E00000001cpQAA",
    "PolicyHolderPassenger.RecordTypeId": "a3o4E00000001coQAA",
    "StartPolicyId": "02i4E000001yDbW",
    "TODAY": "2017-04-13T08:15:31.324Z",
    "ThirdPartyDriver.RecordTypeId": "a3o4E00000001crQAA",
    "ThirdPartyPassenger.RecordTypeId": "a3o4E00000001cqQAA",
    "Time (Approx)": "1970-01-01T12:00:00.000Z",
    "Witness.RecordTypeId": "a3o4E00000001csQAA",
    "accountId": "0014E00000OmPRtQAN",
    "brokerAccountBillingCity": "London",
    "brokerAccountBillingCountry": "United Kingdom",
    "brokerAccountBillingPostalCode": "E14",
    "brokerAccountBillingStreet": "5 N Colonade",
    "brokerAccountId": "0014E00000OQ9yWQAT",
    "brokerAccountName": "Brokerage London AON",
    "brokerAccountPhone": "0800777666",
    "brokerEmail": "fpattisson@azuruw.com",
    "brokerFirstName": "Adam",
    "brokerLastName": "Sandler",
    "brokerPhone": "1423412341",
    "brokerageRecordTypeId": "012580000005gQYAAY",
    "brokertId": "0034E00000Nsda6QAB",
    "claimProcessingRecordTypeId": "0124E0000000Q19QAE",
    "currency": "GBP",
    "data3rdPartyCity": "",
    "data3rdPartyCountry": "",
    "data3rdPartyEmail": "",
    "data3rdPartyFirstName": "",
    "data3rdPartyFullName": "",
    "data3rdPartyInsurer": "",
    "data3rdPartyLastName": "",
    "data3rdPartyMake": "",
    "data3rdPartyMakeModel": "",
    "data3rdPartyModel": "",
    "data3rdPartyPhone": "",
    "data3rdPartyPostCode": "",
    "data3rdPartyReg": "",
    "data3rdPartyStreet": "",
    "dataCaseOrigin": "Phone",
    "dataCaseRecordType": "0124E0000000Q19QAE",
    "dataCaseStatus": "New",
    "dataClaimName": "New Claim",
    "dataClaimStatus": "Open",
    "dataCoverageConfirmed": true,
    "dataIncidentCity": "",
    "dataIncidentCoordinates": "",
    "dataIncidentCountry": "",
    "dataIncidentDate": "2017-04-13T08:15:31.324Z",
    "dataIncidentDateTime": "",
    "dataIncidentDescription": "",
    "dataIncidentLocationDescription": "",
    "dataIncidentPostalCode": "",
    "dataIncidentStreet": "",
    "dataInsuredPartyName": "",
    "dataInsuredVehicleName": "",
    "dataLiability": "Non-Fault",
    "dataMainCause": "Replacement",
    "dataNotifierContactId": "",
    "dataNotifierType": "",
    "dataOwner": "",
    "dataPartyId": "",
    "dataPersonAccountRecordTypeId": "0124E0000004Z9TQAU",
    "dataPolicyId": "02i4E000001yDbW",
    "dataReportedDate": "2017-04-13T08:15:31.324Z",
    "dataReserve": 2500,
    "dataSubCause": "",
    "id": "a3f4E0000000TSeQAM",
    "incidentDate": "2017-04-13T08:15:31.324Z",
    "incidentDetails": {
        "Case Subject": "New Motor Claim for:Tina Turner on: 13/4/2017",
        "DateWarningStop": true,
        "Hide Location": false,
        "IncidentAddressGoogle-Block": null,
        "IncidentDate": "2017-04-13T08:15:31.324Z",
        "IncidentDateFormula": "Valid",
        "Peril": "Glass",
        "Product": "Motor",
        "Time": null,
        "Total Clauses": 1,
        "blkDriversClaim": {
            "AnyDriver": null,
            "blkVehicleinsured": {
                "AnyVehicle": {
                    "AVMake": "Test",
                    "AVModel": "Vehicle",
                    "AVReg": "TE5 7VE"
                },
                "HireCarRequired": false,
                "insuredVehicleDamageArea": null,
                "insuredVehicleGarageDetails": null,
                "insuredVehicleStatus": "In use",
                "lineItemVehicle": null,
                "reserve": 2500
            },
            "drivingLicenceMessaging": true,
            "drivingLicense": true,
            "lineItemDriver": [
                {
                    "%vlocity_namespace%__Age__c": 77,
                    "AnyVehicle": true,
                    "Id": "a5u4E000000CbDOQA0",
                    "InsuredOn": "Any Vehicle",
                    "Name": "Tina Turner",
                    "PartyID": "a3q4E0000006TfH",
                    "relatedContact": "0034E00000NwR3o",
                    "vlcSelected": true
                }
            ]
        },
        "broker": "Adam Sandler",
        "brokerCompany": "Brokerage London AON",
        "brokerageAddress": "5 N Colonade, London, E14, United Kingdom",
        "brokerageContactDetails": "Tel: 0800777666",
        "firstNameInsured": "Tina",
        "incidentTheft": null,
        "insuredAddress": "",
        "insuredEmail": "tturner@gmail.com",
        "insuredTelephone": null,
        "lastNameInsured": "Turner",
        "liabilityDecision": "Non-Fault",
        "mainCause": "Replacement",
        "notifierId": "",
        "notifierIdBroker": "",
        "notifierIdInsured": "",
        "notifierIdOther": "",
        "notifierIdThirdParty": "",
        "policyConfirmMessage": true,
        "policyConfirmed": true,
        "policyValidFormula": "Valid",
        "policyValidFrom": "2017-02-02T00:01:00.000Z",
        "policyValidUntil": "2018-02-02T00:01:00.000Z",
        "reportedDate": "2017-04-13T08:15:31.324Z",
        "reportedDateFormula": "Valid",
        "subCause": null
    },
    "insuredBirthdate": "1939-11-23",
    "notifierTelephoneBrokerAccount": "0800777666",
    "personAccountRecordTypeId": "0124E0000004Z9TQAU",
    "policyMaster": "a634E0000004Cr7QAE",
    "primaryBroker": "0034E00000Nsda6QAB",
    "timeStamp": "2017-04-13T08:15:31.324Z",
    "totalclauses": 1,
    "userName": "cdecisions@azuruw.com.qa",
    "userProfile": "System Administrator",
    "vlcPersistentComponent": {
    },
    "vlcTimeTracking": {
        "Additional Details": 7544,
        "DRGetAccountInformationForClaim": 675,
        "DRGetBrokerAccountInformationForClaim": 384,
        "DRGetBrokerInformationForClaim": 322,
        "DRGetContactId": 347,
        "DRGetInsuredDrivers": 757,
        "DRGetItemAccountId": 422,
        "DRGetPolicyClauses": 335,
        "DRGetPolicyInformationForClaim": 779,
        "DRGetRecordTypeIds": 424,
        "DRGetRelationshipIDs": 509,
        "DRGetVehicles": 419,
        "DRPostCreateAnyVehicle": 686,
        "DRPostCreateClaimOnly": 2235,
        "FixContextId": 1,
        "OmniScriptSessionToken": "355d637c-ea1a-4d53-b4b1-0bdff2e21510",
        "TPRserveSetValue": 1,
        "incidentDetails": 38120,
        "reserveSetValue": 7,
        "setClaimValues": 2,
        "setTestContext": 3,
        "setValueNewClaim": 5
    }
}