{
  "activeViewId" : "5c4663a4-9ba9-4339-8338-a4c8ddab2831",
  "appPageId" : "b78a2a62-fe0f-4a3e-97ea-aa1767322713",
  "configurationTags" : [ ],
  "id" : "17e78d09-df16-4f78-845e-c070e64b2b8e",
  "label" : "Cancellation Quote",
  "pageAccess" : "UseParent",
  "routeType" : "custom-cancellation-quote",
  "type" : "route",
  "urlPrefix" : "cancellation-quote"
}