{
  "activeViewId" : "4bce231d-b7b1-46fe-a91c-f65ee8e0ad75",
  "appPageId" : "b78a2a62-fe0f-4a3e-97ea-aa1767322713",
  "configurationTags" : [ ],
  "id" : "8c58cfef-0607-4274-8827-6d8b037b7dec",
  "label" : "Case List",
  "routeType" : "list-500",
  "type" : "route",
  "urlPrefix" : "case"
}