{
  "activeViewId" : "565c82f9-24eb-455f-8d8c-df73aca9bfae",
  "appPageId" : "b78a2a62-fe0f-4a3e-97ea-aa1767322713",
  "configurationTags" : [ ],
  "id" : "08a3b770-a1f4-4fe8-8d40-a65460df0285",
  "label" : "Error",
  "pageAccess" : "UseParent",
  "routeType" : "error",
  "type" : "route",
  "urlPrefix" : "error"
}