{
  "activeViewId" : "e93e3a8b-5a7f-49f1-8cd9-d25e10faff7c",
  "appPageId" : "9d5585de-8961-4d82-bd95-ef611a99ce0f",
  "configurationTags" : [ ],
  "id" : "500a35b9-ea0a-4a88-b422-897171c5c2fc",
  "label" : "Register",
  "routeType" : "self-register",
  "type" : "route",
  "urlPrefix" : "SelfRegister"
}