{
  "activeViewId" : "8a324f55-13a2-46d3-a58c-5e687d4cf1bc",
  "appPageId" : "b78a2a62-fe0f-4a3e-97ea-aa1767322713",
  "configurationTags" : [ ],
  "id" : "be91e414-5677-4a90-aa66-b50b4ffbfba3",
  "label" : "Topic Catalog",
  "pageAccess" : "UseParent",
  "routeType" : "topic-catalog",
  "type" : "route",
  "urlPrefix" : "topiccatalog"
}