{
  "activeViewId" : "033c0fa3-f9a4-48e1-8268-18ac00aaa58d",
  "appPageId" : "b78a2a62-fe0f-4a3e-97ea-aa1767322713",
  "configurationTags" : [ ],
  "id" : "ad9ffa9b-1a4a-47e1-9dda-ce03e97e4438",
  "label" : "User Settings",
  "routeType" : "usersettings",
  "type" : "route",
  "urlPrefix" : "settings"
}