{
    "%vlocity_namespace%__Active__c": true,
    "%vlocity_namespace%__OmniScriptId__c": {
        "Name": "Get Quote Data",
        "VlocityDataPackType": "VlocityMatchingKeyObject",
        "VlocityMatchingRecordSourceKey": "%vlocity_namespace%__OmniScript__c/EW/GetQuoteData/Procedure",
        "VlocityRecordSObjectType": "%vlocity_namespace%__OmniScript__c"
    },
    "%vlocity_namespace%__PropertySet__c": {
        "actionMessage": "",
        "additionalInput": {
        },
        "additionalOutput": {
        },
        "chainOnStep": false,
        "disOnTplt": false,
        "executionConditionalFormula": "%blockQuote% == false && %skipToCoverageStep% == false && %SV_checkAddressChanged:addressChanged%",
        "failOnStepError": true,
        "failureConditionalFormula": "",
        "failureResponse": {
        },
        "label": "HTTPAction1",
        "namedCredential": "",
        "postActionLogging": "",
        "preActionLogging": "%endpoint%",
        "responseJSONNode": "outraAPIResponse",
        "responseJSONPath": "",
        "restMethod": "GET",
        "restOptions": {
            "clientCertificateName": "",
            "headers": {
                "Accept": "application/json"
            },
            "isCompressed": false,
            "params": {
                "pv": "%postcodePvParam%",
                "uprn": "%propertyDetails:propAmbPostalCode-Block:uprn%"
            },
            "sendBody": false,
            "timeout": 0,
            "xmlEscapeResponse": false
        },
        "restPath": "%propertyDetailsUrl%",
        "retryCount": 0,
        "returnOnlyAdditionalOutput": false,
        "returnOnlyFailureResponse": false,
        "sendJSONNode": "",
        "sendJSONPath": "",
        "sendOnlyAdditionalInput": false,
        "show": null,
        "type": "Integration",
        "useFormulas": true
    },
    "%vlocity_namespace%__ReusableOmniScript__c": false,
    "%vlocity_namespace%__Type__c": "Rest Action",
    "CurrencyIsoCode": "GBP",
    "Name": "HTTP_GetPropertyData",
    "VlocityDataPackType": "SObject",
    "VlocityRecordSObjectType": "%vlocity_namespace%__Element__c",
    "VlocityRecordSourceKey": "%vlocity_namespace%__Element__c/%vlocity_namespace%__OmniScript__c/EW/GetQuoteData/Procedure/HTTP_GetPropertyData"
}