{
  "activeViewId" : "4405e170-2d51-4dde-8aef-45dd0e6ccf60",
  "appPageId" : "86657beb-92b6-44a9-b752-ddcf3858517d",
  "configurationTags" : [ ],
  "id" : "ecf46973-6702-40e2-b010-d75f1cd40e6b",
  "label" : "Home",
  "pageAccess" : "UseParent",
  "routeType" : "home",
  "type" : "route",
  "urlPrefix" : ""
}