{
  "activeViewId" : "fd99b4b5-8b42-4bd3-9e02-e0bb8e0246a4",
  "appPageId" : "86657beb-92b6-44a9-b752-ddcf3858517d",
  "configurationTags" : [ ],
  "id" : "89ec9097-48e0-49b6-a7dd-c5d93f394872",
  "label" : "Terms of use",
  "pageAccess" : "UseParent",
  "routeType" : "custom-terms-of-use",
  "type" : "route",
  "urlPrefix" : "terms-of-use"
}