[
    {
        "%vlocity_namespace%__CalculationMatrixVersionId__c": {
            "%vlocity_namespace%__CalculationMatrixId__r.Name": "Modelled",
            "%vlocity_namespace%__VersionNumber__c": 2,
            "VlocityDataPackType": "VlocityMatchingKeyObject",
            "VlocityMatchingRecordSourceKey": "%vlocity_namespace%__CalculationMatrixVersion__c/2/%vlocity_namespace%__CalculationMatrix__c/Modelled",
            "VlocityRecordSObjectType": "%vlocity_namespace%__CalculationMatrixVersion__c"
        },
        "%vlocity_namespace%__InputData__c": {
            "columnKey": "210986",
            "dataType": "Number",
            "displayOrder": 14,
            "headerType": "Output",
            "label": null,
            "listValues": null,
            "name": "BAD"
        },
        "CurrencyIsoCode": "GBP",
        "Name": "Header",
        "VlocityDataPackType": "SObject",
        "VlocityRecordSObjectType": "%vlocity_namespace%__CalculationMatrixRow__c"
    },
    {
        "%vlocity_namespace%__CalculationMatrixVersionId__c": {
            "%vlocity_namespace%__CalculationMatrixId__r.Name": "Modelled",
            "%vlocity_namespace%__VersionNumber__c": 2,
            "VlocityDataPackType": "VlocityMatchingKeyObject",
            "VlocityMatchingRecordSourceKey": "%vlocity_namespace%__CalculationMatrixVersion__c/2/%vlocity_namespace%__CalculationMatrix__c/Modelled",
            "VlocityRecordSObjectType": "%vlocity_namespace%__CalculationMatrixVersion__c"
        },
        "%vlocity_namespace%__InputData__c": {
            "columnKey": "21544f",
            "dataType": "Number",
            "displayOrder": 5,
            "headerType": "Output",
            "label": null,
            "listValues": null,
            "name": "CFL"
        },
        "CurrencyIsoCode": "GBP",
        "Name": "Header",
        "VlocityDataPackType": "SObject",
        "VlocityRecordSObjectType": "%vlocity_namespace%__CalculationMatrixRow__c"
    },
    {
        "%vlocity_namespace%__CalculationMatrixVersionId__c": {
            "%vlocity_namespace%__CalculationMatrixId__r.Name": "Modelled",
            "%vlocity_namespace%__VersionNumber__c": 2,
            "VlocityDataPackType": "VlocityMatchingKeyObject",
            "VlocityMatchingRecordSourceKey": "%vlocity_namespace%__CalculationMatrixVersion__c/2/%vlocity_namespace%__CalculationMatrix__c/Modelled",
            "VlocityRecordSObjectType": "%vlocity_namespace%__CalculationMatrixVersion__c"
        },
        "%vlocity_namespace%__InputData__c": {
            "columnKey": "21ce62",
            "dataType": "Number",
            "displayOrder": 9,
            "headerType": "Output",
            "label": null,
            "listValues": null,
            "name": "CTG"
        },
        "CurrencyIsoCode": "GBP",
        "Name": "Header",
        "VlocityDataPackType": "SObject",
        "VlocityRecordSObjectType": "%vlocity_namespace%__CalculationMatrixRow__c"
    },
    {
        "%vlocity_namespace%__CalculationMatrixVersionId__c": {
            "%vlocity_namespace%__CalculationMatrixId__r.Name": "Modelled",
            "%vlocity_namespace%__VersionNumber__c": 2,
            "VlocityDataPackType": "VlocityMatchingKeyObject",
            "VlocityMatchingRecordSourceKey": "%vlocity_namespace%__CalculationMatrixVersion__c/2/%vlocity_namespace%__CalculationMatrix__c/Modelled",
            "VlocityRecordSObjectType": "%vlocity_namespace%__CalculationMatrixVersion__c"
        },
        "%vlocity_namespace%__InputData__c": {
            "columnKey": "3615e4",
            "dataType": "Number",
            "displayOrder": 20,
            "headerType": "Output",
            "label": null,
            "listValues": null,
            "name": "AAC"
        },
        "CurrencyIsoCode": "GBP",
        "Name": "Header",
        "VlocityDataPackType": "SObject",
        "VlocityRecordSObjectType": "%vlocity_namespace%__CalculationMatrixRow__c"
    },
    {
        "%vlocity_namespace%__CalculationMatrixVersionId__c": {
            "%vlocity_namespace%__CalculationMatrixId__r.Name": "Modelled",
            "%vlocity_namespace%__VersionNumber__c": 2,
            "VlocityDataPackType": "VlocityMatchingKeyObject",
            "VlocityMatchingRecordSourceKey": "%vlocity_namespace%__CalculationMatrixVersion__c/2/%vlocity_namespace%__CalculationMatrix__c/Modelled",
            "VlocityRecordSObjectType": "%vlocity_namespace%__CalculationMatrixVersion__c"
        },
        "%vlocity_namespace%__InputData__c": {
            "columnKey": "386916",
            "dataType": "Number",
            "displayOrder": 2,
            "headerType": "Output",
            "label": null,
            "listValues": null,
            "name": "BEW"
        },
        "CurrencyIsoCode": "GBP",
        "Name": "Header",
        "VlocityDataPackType": "SObject",
        "VlocityRecordSObjectType": "%vlocity_namespace%__CalculationMatrixRow__c"
    },
    {
        "%vlocity_namespace%__CalculationMatrixVersionId__c": {
            "%vlocity_namespace%__CalculationMatrixId__r.Name": "Modelled",
            "%vlocity_namespace%__VersionNumber__c": 2,
            "VlocityDataPackType": "VlocityMatchingKeyObject",
            "VlocityMatchingRecordSourceKey": "%vlocity_namespace%__CalculationMatrixVersion__c/2/%vlocity_namespace%__CalculationMatrix__c/Modelled",
            "VlocityRecordSObjectType": "%vlocity_namespace%__CalculationMatrixVersion__c"
        },
        "%vlocity_namespace%__InputData__c": {
            "columnKey": "405253",
            "dataType": "Number",
            "displayOrder": 11,
            "headerType": "Output",
            "label": null,
            "listValues": null,
            "name": "CWE"
        },
        "CurrencyIsoCode": "GBP",
        "Name": "Header",
        "VlocityDataPackType": "SObject",
        "VlocityRecordSObjectType": "%vlocity_namespace%__CalculationMatrixRow__c"
    },
    {
        "%vlocity_namespace%__CalculationMatrixVersionId__c": {
            "%vlocity_namespace%__CalculationMatrixId__r.Name": "Modelled",
            "%vlocity_namespace%__VersionNumber__c": 2,
            "VlocityDataPackType": "VlocityMatchingKeyObject",
            "VlocityMatchingRecordSourceKey": "%vlocity_namespace%__CalculationMatrixVersion__c/2/%vlocity_namespace%__CalculationMatrix__c/Modelled",
            "VlocityRecordSObjectType": "%vlocity_namespace%__CalculationMatrixVersion__c"
        },
        "%vlocity_namespace%__InputData__c": {
            "columnKey": "41e2b8",
            "dataType": "Number",
            "displayOrder": 19,
            "headerType": "Output",
            "label": null,
            "listValues": null,
            "name": "AJW"
        },
        "CurrencyIsoCode": "GBP",
        "Name": "Header",
        "VlocityDataPackType": "SObject",
        "VlocityRecordSObjectType": "%vlocity_namespace%__CalculationMatrixRow__c"
    },
    {
        "%vlocity_namespace%__CalculationMatrixVersionId__c": {
            "%vlocity_namespace%__CalculationMatrixId__r.Name": "Modelled",
            "%vlocity_namespace%__VersionNumber__c": 2,
            "VlocityDataPackType": "VlocityMatchingKeyObject",
            "VlocityMatchingRecordSourceKey": "%vlocity_namespace%__CalculationMatrixVersion__c/2/%vlocity_namespace%__CalculationMatrix__c/Modelled",
            "VlocityRecordSObjectType": "%vlocity_namespace%__CalculationMatrixVersion__c"
        },
        "%vlocity_namespace%__InputData__c": {
            "columnKey": "46d0e4",
            "dataType": "Number",
            "displayOrder": 18,
            "headerType": "Output",
            "label": null,
            "listValues": null,
            "name": "LI"
        },
        "CurrencyIsoCode": "GBP",
        "Name": "Header",
        "VlocityDataPackType": "SObject",
        "VlocityRecordSObjectType": "%vlocity_namespace%__CalculationMatrixRow__c"
    },
    {
        "%vlocity_namespace%__CalculationMatrixVersionId__c": {
            "%vlocity_namespace%__CalculationMatrixId__r.Name": "Modelled",
            "%vlocity_namespace%__VersionNumber__c": 2,
            "VlocityDataPackType": "VlocityMatchingKeyObject",
            "VlocityMatchingRecordSourceKey": "%vlocity_namespace%__CalculationMatrixVersion__c/2/%vlocity_namespace%__CalculationMatrix__c/Modelled",
            "VlocityRecordSObjectType": "%vlocity_namespace%__CalculationMatrixVersion__c"
        },
        "%vlocity_namespace%__InputData__c": {
            "columnKey": "5d3c7a",
            "dataType": "Number",
            "displayOrder": 22,
            "headerType": "Output",
            "label": null,
            "listValues": null,
            "name": "AGC"
        },
        "CurrencyIsoCode": "GBP",
        "Name": "Header",
        "VlocityDataPackType": "SObject",
        "VlocityRecordSObjectType": "%vlocity_namespace%__CalculationMatrixRow__c"
    },
    {
        "%vlocity_namespace%__CalculationMatrixVersionId__c": {
            "%vlocity_namespace%__CalculationMatrixId__r.Name": "Modelled",
            "%vlocity_namespace%__VersionNumber__c": 2,
            "VlocityDataPackType": "VlocityMatchingKeyObject",
            "VlocityMatchingRecordSourceKey": "%vlocity_namespace%__CalculationMatrixVersion__c/2/%vlocity_namespace%__CalculationMatrix__c/Modelled",
            "VlocityRecordSObjectType": "%vlocity_namespace%__CalculationMatrixVersion__c"
        },
        "%vlocity_namespace%__InputData__c": {
            "columnKey": "70ca9d",
            "dataType": "Number",
            "displayOrder": 23,
            "headerType": "Output",
            "label": null,
            "listValues": null,
            "name": "ATI"
        },
        "CurrencyIsoCode": "GBP",
        "Name": "Header",
        "VlocityDataPackType": "SObject",
        "VlocityRecordSObjectType": "%vlocity_namespace%__CalculationMatrixRow__c"
    },
    {
        "%vlocity_namespace%__CalculationMatrixVersionId__c": {
            "%vlocity_namespace%__CalculationMatrixId__r.Name": "Modelled",
            "%vlocity_namespace%__VersionNumber__c": 2,
            "VlocityDataPackType": "VlocityMatchingKeyObject",
            "VlocityMatchingRecordSourceKey": "%vlocity_namespace%__CalculationMatrixVersion__c/2/%vlocity_namespace%__CalculationMatrix__c/Modelled",
            "VlocityRecordSObjectType": "%vlocity_namespace%__CalculationMatrixVersion__c"
        },
        "%vlocity_namespace%__InputData__c": {
            "columnKey": "746502",
            "dataType": "Number",
            "displayOrder": 17,
            "headerType": "Output",
            "label": null,
            "listValues": null,
            "name": "CAL"
        },
        "CurrencyIsoCode": "GBP",
        "Name": "Header",
        "VlocityDataPackType": "SObject",
        "VlocityRecordSObjectType": "%vlocity_namespace%__CalculationMatrixRow__c"
    },
    {
        "%vlocity_namespace%__CalculationMatrixVersionId__c": {
            "%vlocity_namespace%__CalculationMatrixId__r.Name": "Modelled",
            "%vlocity_namespace%__VersionNumber__c": 2,
            "VlocityDataPackType": "VlocityMatchingKeyObject",
            "VlocityMatchingRecordSourceKey": "%vlocity_namespace%__CalculationMatrixVersion__c/2/%vlocity_namespace%__CalculationMatrix__c/Modelled",
            "VlocityRecordSObjectType": "%vlocity_namespace%__CalculationMatrixVersion__c"
        },
        "%vlocity_namespace%__InputData__c": {
            "columnKey": "844175",
            "dataType": "Number",
            "displayOrder": 6,
            "headerType": "Output",
            "label": null,
            "listValues": null,
            "name": "BFI"
        },
        "CurrencyIsoCode": "GBP",
        "Name": "Header",
        "VlocityDataPackType": "SObject",
        "VlocityRecordSObjectType": "%vlocity_namespace%__CalculationMatrixRow__c"
    },
    {
        "%vlocity_namespace%__CalculationMatrixVersionId__c": {
            "%vlocity_namespace%__CalculationMatrixId__r.Name": "Modelled",
            "%vlocity_namespace%__VersionNumber__c": 2,
            "VlocityDataPackType": "VlocityMatchingKeyObject",
            "VlocityMatchingRecordSourceKey": "%vlocity_namespace%__CalculationMatrixVersion__c/2/%vlocity_namespace%__CalculationMatrix__c/Modelled",
            "VlocityRecordSObjectType": "%vlocity_namespace%__CalculationMatrixVersion__c"
        },
        "%vlocity_namespace%__InputData__c": {
            "columnKey": "8868b3",
            "dataType": "Number",
            "displayOrder": 15,
            "headerType": "Output",
            "label": null,
            "listValues": null,
            "name": "CAD"
        },
        "CurrencyIsoCode": "GBP",
        "Name": "Header",
        "VlocityDataPackType": "SObject",
        "VlocityRecordSObjectType": "%vlocity_namespace%__CalculationMatrixRow__c"
    },
    {
        "%vlocity_namespace%__CalculationMatrixVersionId__c": {
            "%vlocity_namespace%__CalculationMatrixId__r.Name": "Modelled",
            "%vlocity_namespace%__VersionNumber__c": 2,
            "VlocityDataPackType": "VlocityMatchingKeyObject",
            "VlocityMatchingRecordSourceKey": "%vlocity_namespace%__CalculationMatrixVersion__c/2/%vlocity_namespace%__CalculationMatrix__c/Modelled",
            "VlocityRecordSObjectType": "%vlocity_namespace%__CalculationMatrixVersion__c"
        },
        "%vlocity_namespace%__InputData__c": {
            "columnKey": "973574",
            "dataType": "Number",
            "displayOrder": 24,
            "headerType": "Output",
            "label": null,
            "listValues": null,
            "name": "FE"
        },
        "CurrencyIsoCode": "GBP",
        "Name": "Header",
        "VlocityDataPackType": "SObject",
        "VlocityRecordSObjectType": "%vlocity_namespace%__CalculationMatrixRow__c"
    },
    {
        "%vlocity_namespace%__CalculationMatrixVersionId__c": {
            "%vlocity_namespace%__CalculationMatrixId__r.Name": "Modelled",
            "%vlocity_namespace%__VersionNumber__c": 2,
            "VlocityDataPackType": "VlocityMatchingKeyObject",
            "VlocityMatchingRecordSourceKey": "%vlocity_namespace%__CalculationMatrixVersion__c/2/%vlocity_namespace%__CalculationMatrix__c/Modelled",
            "VlocityRecordSObjectType": "%vlocity_namespace%__CalculationMatrixVersion__c"
        },
        "%vlocity_namespace%__InputData__c": {
            "columnKey": "b612ee",
            "dataType": "Text",
            "displayOrder": 1,
            "headerType": "Input",
            "label": null,
            "listValues": null,
            "name": "modelled"
        },
        "CurrencyIsoCode": "GBP",
        "Name": "Header",
        "VlocityDataPackType": "SObject",
        "VlocityRecordSObjectType": "%vlocity_namespace%__CalculationMatrixRow__c"
    },
    {
        "%vlocity_namespace%__CalculationMatrixVersionId__c": {
            "%vlocity_namespace%__CalculationMatrixId__r.Name": "Modelled",
            "%vlocity_namespace%__VersionNumber__c": 2,
            "VlocityDataPackType": "VlocityMatchingKeyObject",
            "VlocityMatchingRecordSourceKey": "%vlocity_namespace%__CalculationMatrixVersion__c/2/%vlocity_namespace%__CalculationMatrix__c/Modelled",
            "VlocityRecordSObjectType": "%vlocity_namespace%__CalculationMatrixVersion__c"
        },
        "%vlocity_namespace%__InputData__c": {
            "columnKey": "b7e173",
            "dataType": "Number",
            "displayOrder": 16,
            "headerType": "Output",
            "label": null,
            "listValues": null,
            "name": "BAL"
        },
        "CurrencyIsoCode": "GBP",
        "Name": "Header",
        "VlocityDataPackType": "SObject",
        "VlocityRecordSObjectType": "%vlocity_namespace%__CalculationMatrixRow__c"
    },
    {
        "%vlocity_namespace%__CalculationMatrixVersionId__c": {
            "%vlocity_namespace%__CalculationMatrixId__r.Name": "Modelled",
            "%vlocity_namespace%__VersionNumber__c": 2,
            "VlocityDataPackType": "VlocityMatchingKeyObject",
            "VlocityMatchingRecordSourceKey": "%vlocity_namespace%__CalculationMatrixVersion__c/2/%vlocity_namespace%__CalculationMatrix__c/Modelled",
            "VlocityRecordSObjectType": "%vlocity_namespace%__CalculationMatrixVersion__c"
        },
        "%vlocity_namespace%__InputData__c": {
            "columnKey": "b8700c",
            "dataType": "Number",
            "displayOrder": 8,
            "headerType": "Output",
            "label": null,
            "listValues": null,
            "name": "BTG"
        },
        "CurrencyIsoCode": "GBP",
        "Name": "Header",
        "VlocityDataPackType": "SObject",
        "VlocityRecordSObjectType": "%vlocity_namespace%__CalculationMatrixRow__c"
    },
    {
        "%vlocity_namespace%__CalculationMatrixVersionId__c": {
            "%vlocity_namespace%__CalculationMatrixId__r.Name": "Modelled",
            "%vlocity_namespace%__VersionNumber__c": 2,
            "VlocityDataPackType": "VlocityMatchingKeyObject",
            "VlocityMatchingRecordSourceKey": "%vlocity_namespace%__CalculationMatrixVersion__c/2/%vlocity_namespace%__CalculationMatrix__c/Modelled",
            "VlocityRecordSObjectType": "%vlocity_namespace%__CalculationMatrixVersion__c"
        },
        "%vlocity_namespace%__InputData__c": {
            "columnKey": "b8b6e1",
            "dataType": "Number",
            "displayOrder": 13,
            "headerType": "Output",
            "label": null,
            "listValues": null,
            "name": "CSU"
        },
        "CurrencyIsoCode": "GBP",
        "Name": "Header",
        "VlocityDataPackType": "SObject",
        "VlocityRecordSObjectType": "%vlocity_namespace%__CalculationMatrixRow__c"
    },
    {
        "%vlocity_namespace%__CalculationMatrixVersionId__c": {
            "%vlocity_namespace%__CalculationMatrixId__r.Name": "Modelled",
            "%vlocity_namespace%__VersionNumber__c": 2,
            "VlocityDataPackType": "VlocityMatchingKeyObject",
            "VlocityMatchingRecordSourceKey": "%vlocity_namespace%__CalculationMatrixVersion__c/2/%vlocity_namespace%__CalculationMatrix__c/Modelled",
            "VlocityRecordSObjectType": "%vlocity_namespace%__CalculationMatrixVersion__c"
        },
        "%vlocity_namespace%__InputData__c": {
            "columnKey": "c02c7f",
            "dataType": "Number",
            "displayOrder": 12,
            "headerType": "Output",
            "label": null,
            "listValues": null,
            "name": "BSU"
        },
        "CurrencyIsoCode": "GBP",
        "Name": "Header",
        "VlocityDataPackType": "SObject",
        "VlocityRecordSObjectType": "%vlocity_namespace%__CalculationMatrixRow__c"
    },
    {
        "%vlocity_namespace%__CalculationMatrixVersionId__c": {
            "%vlocity_namespace%__CalculationMatrixId__r.Name": "Modelled",
            "%vlocity_namespace%__VersionNumber__c": 2,
            "VlocityDataPackType": "VlocityMatchingKeyObject",
            "VlocityMatchingRecordSourceKey": "%vlocity_namespace%__CalculationMatrixVersion__c/2/%vlocity_namespace%__CalculationMatrix__c/Modelled",
            "VlocityRecordSObjectType": "%vlocity_namespace%__CalculationMatrixVersion__c"
        },
        "%vlocity_namespace%__InputData__c": {
            "columnKey": "c99a3a",
            "dataType": "Number",
            "displayOrder": 21,
            "headerType": "Output",
            "label": null,
            "listValues": null,
            "name": "ABI"
        },
        "CurrencyIsoCode": "GBP",
        "Name": "Header",
        "VlocityDataPackType": "SObject",
        "VlocityRecordSObjectType": "%vlocity_namespace%__CalculationMatrixRow__c"
    },
    {
        "%vlocity_namespace%__CalculationMatrixVersionId__c": {
            "%vlocity_namespace%__CalculationMatrixId__r.Name": "Modelled",
            "%vlocity_namespace%__VersionNumber__c": 2,
            "VlocityDataPackType": "VlocityMatchingKeyObject",
            "VlocityMatchingRecordSourceKey": "%vlocity_namespace%__CalculationMatrixVersion__c/2/%vlocity_namespace%__CalculationMatrix__c/Modelled",
            "VlocityRecordSObjectType": "%vlocity_namespace%__CalculationMatrixVersion__c"
        },
        "%vlocity_namespace%__InputData__c": {
            "columnKey": "d25dc1",
            "dataType": "Number",
            "displayOrder": 10,
            "headerType": "Output",
            "label": null,
            "listValues": null,
            "name": "BWE"
        },
        "CurrencyIsoCode": "GBP",
        "Name": "Header",
        "VlocityDataPackType": "SObject",
        "VlocityRecordSObjectType": "%vlocity_namespace%__CalculationMatrixRow__c"
    },
    {
        "%vlocity_namespace%__CalculationMatrixVersionId__c": {
            "%vlocity_namespace%__CalculationMatrixId__r.Name": "Modelled",
            "%vlocity_namespace%__VersionNumber__c": 2,
            "VlocityDataPackType": "VlocityMatchingKeyObject",
            "VlocityMatchingRecordSourceKey": "%vlocity_namespace%__CalculationMatrixVersion__c/2/%vlocity_namespace%__CalculationMatrix__c/Modelled",
            "VlocityRecordSObjectType": "%vlocity_namespace%__CalculationMatrixVersion__c"
        },
        "%vlocity_namespace%__InputData__c": {
            "columnKey": "e4614c",
            "dataType": "Number",
            "displayOrder": 4,
            "headerType": "Output",
            "label": null,
            "listValues": null,
            "name": "BFL"
        },
        "CurrencyIsoCode": "GBP",
        "Name": "Header",
        "VlocityDataPackType": "SObject",
        "VlocityRecordSObjectType": "%vlocity_namespace%__CalculationMatrixRow__c"
    },
    {
        "%vlocity_namespace%__CalculationMatrixVersionId__c": {
            "%vlocity_namespace%__CalculationMatrixId__r.Name": "Modelled",
            "%vlocity_namespace%__VersionNumber__c": 2,
            "VlocityDataPackType": "VlocityMatchingKeyObject",
            "VlocityMatchingRecordSourceKey": "%vlocity_namespace%__CalculationMatrixVersion__c/2/%vlocity_namespace%__CalculationMatrix__c/Modelled",
            "VlocityRecordSObjectType": "%vlocity_namespace%__CalculationMatrixVersion__c"
        },
        "%vlocity_namespace%__InputData__c": {
            "columnKey": "faff75",
            "dataType": "Number",
            "displayOrder": 7,
            "headerType": "Output",
            "label": null,
            "listValues": null,
            "name": "CFI"
        },
        "CurrencyIsoCode": "GBP",
        "Name": "Header",
        "VlocityDataPackType": "SObject",
        "VlocityRecordSObjectType": "%vlocity_namespace%__CalculationMatrixRow__c"
    },
    {
        "%vlocity_namespace%__CalculationMatrixVersionId__c": {
            "%vlocity_namespace%__CalculationMatrixId__r.Name": "Modelled",
            "%vlocity_namespace%__VersionNumber__c": 2,
            "VlocityDataPackType": "VlocityMatchingKeyObject",
            "VlocityMatchingRecordSourceKey": "%vlocity_namespace%__CalculationMatrixVersion__c/2/%vlocity_namespace%__CalculationMatrix__c/Modelled",
            "VlocityRecordSObjectType": "%vlocity_namespace%__CalculationMatrixVersion__c"
        },
        "%vlocity_namespace%__InputData__c": {
            "columnKey": "fb3fc",
            "dataType": "Number",
            "displayOrder": 3,
            "headerType": "Output",
            "label": null,
            "listValues": null,
            "name": "CEW"
        },
        "CurrencyIsoCode": "GBP",
        "Name": "Header",
        "VlocityDataPackType": "SObject",
        "VlocityRecordSObjectType": "%vlocity_namespace%__CalculationMatrixRow__c"
    },
    {
        "%vlocity_namespace%__CalculationMatrixVersionId__c": {
            "%vlocity_namespace%__CalculationMatrixId__r.Name": "Modelled",
            "%vlocity_namespace%__VersionNumber__c": 2,
            "VlocityDataPackType": "VlocityMatchingKeyObject",
            "VlocityMatchingRecordSourceKey": "%vlocity_namespace%__CalculationMatrixVersion__c/2/%vlocity_namespace%__CalculationMatrix__c/Modelled",
            "VlocityRecordSObjectType": "%vlocity_namespace%__CalculationMatrixVersion__c"
        },
        "%vlocity_namespace%__InputData__c": {
            "modelled": "Modelled"
        },
        "%vlocity_namespace%__OutputData__c": {
            "AAC": 1,
            "ABI": 1,
            "AGC": 1,
            "AJW": 1,
            "ATI": 1,
            "BAD": 1.06,
            "BAL": 1.06,
            "BEW": 1.06,
            "BFI": 1.06,
            "BFL": 1.06,
            "BSU": 1.06,
            "BTG": 1.06,
            "BWE": 1.06,
            "CAD": 1.06,
            "CAL": 1.06,
            "CEW": 1.06,
            "CFI": 1.06,
            "CFL": 1.06,
            "CSU": 1.06,
            "CTG": 1.06,
            "CWE": 1.06,
            "FE": 1,
            "LI": 1
        },
        "CurrencyIsoCode": "GBP",
        "Name": "d9d6c67d5386158c03ccdc65292b377a",
        "VlocityDataPackType": "SObject",
        "VlocityRecordSObjectType": "%vlocity_namespace%__CalculationMatrixRow__c"
    },
    {
        "%vlocity_namespace%__CalculationMatrixVersionId__c": {
            "%vlocity_namespace%__CalculationMatrixId__r.Name": "Modelled",
            "%vlocity_namespace%__VersionNumber__c": 2,
            "VlocityDataPackType": "VlocityMatchingKeyObject",
            "VlocityMatchingRecordSourceKey": "%vlocity_namespace%__CalculationMatrixVersion__c/2/%vlocity_namespace%__CalculationMatrix__c/Modelled",
            "VlocityRecordSObjectType": "%vlocity_namespace%__CalculationMatrixVersion__c"
        },
        "%vlocity_namespace%__InputData__c": {
            "modelled": "Not Modelled"
        },
        "%vlocity_namespace%__OutputData__c": {
            "AAC": 1,
            "ABI": 1,
            "AGC": 1,
            "AJW": 1,
            "ATI": 1,
            "BAD": 0.96,
            "BAL": 0.96,
            "BEW": 0.96,
            "BFI": 0.96,
            "BFL": 0.96,
            "BSU": 0.96,
            "BTG": 0.96,
            "BWE": 0.96,
            "CAD": 0.96,
            "CAL": 0.96,
            "CEW": 0.96,
            "CFI": 0.96,
            "CFL": 0.96,
            "CSU": 0.96,
            "CTG": 0.96,
            "CWE": 0.96,
            "FE": 1,
            "LI": 1
        },
        "CurrencyIsoCode": "GBP",
        "Name": "b6df62c99717dcd077f447e2d804c92d",
        "VlocityDataPackType": "SObject",
        "VlocityRecordSObjectType": "%vlocity_namespace%__CalculationMatrixRow__c"
    }
]