[
    {
        "%vlocity_namespace%__CalculationMatrixVersionId__c": {
            "%vlocity_namespace%__CalculationMatrixId__r.Name": "AgeOfHome",
            "%vlocity_namespace%__VersionNumber__c": 2,
            "VlocityDataPackType": "VlocityMatchingKeyObject",
            "VlocityMatchingRecordSourceKey": "%vlocity_namespace%__CalculationMatrixVersion__c/AgeOfHome V2",
            "VlocityRecordSObjectType": "%vlocity_namespace%__CalculationMatrixVersion__c"
        },
        "%vlocity_namespace%__InputData__c": {
            "columnKey": "28feed",
            "dataType": "Number",
            "displayOrder": 13,
            "headerType": "Output",
            "label": null,
            "lineItemId": null,
            "listValues": null,
            "name": "CSU"
        },
        "CurrencyIsoCode": "GBP",
        "Name": "Header",
        "VlocityDataPackType": "SObject",
        "VlocityRecordSObjectType": "%vlocity_namespace%__CalculationMatrixRow__c"
    },
    {
        "%vlocity_namespace%__CalculationMatrixVersionId__c": {
            "%vlocity_namespace%__CalculationMatrixId__r.Name": "AgeOfHome",
            "%vlocity_namespace%__VersionNumber__c": 2,
            "VlocityDataPackType": "VlocityMatchingKeyObject",
            "VlocityMatchingRecordSourceKey": "%vlocity_namespace%__CalculationMatrixVersion__c/AgeOfHome V2",
            "VlocityRecordSObjectType": "%vlocity_namespace%__CalculationMatrixVersion__c"
        },
        "%vlocity_namespace%__InputData__c": {
            "columnKey": "2bbd2a",
            "dataType": "Number",
            "displayOrder": 15,
            "headerType": "Output",
            "label": null,
            "lineItemId": null,
            "listValues": null,
            "name": "CAD"
        },
        "CurrencyIsoCode": "GBP",
        "Name": "Header",
        "VlocityDataPackType": "SObject",
        "VlocityRecordSObjectType": "%vlocity_namespace%__CalculationMatrixRow__c"
    },
    {
        "%vlocity_namespace%__CalculationMatrixVersionId__c": {
            "%vlocity_namespace%__CalculationMatrixId__r.Name": "AgeOfHome",
            "%vlocity_namespace%__VersionNumber__c": 2,
            "VlocityDataPackType": "VlocityMatchingKeyObject",
            "VlocityMatchingRecordSourceKey": "%vlocity_namespace%__CalculationMatrixVersion__c/AgeOfHome V2",
            "VlocityRecordSObjectType": "%vlocity_namespace%__CalculationMatrixVersion__c"
        },
        "%vlocity_namespace%__InputData__c": {
            "columnKey": "3e0fe",
            "dataType": "Number",
            "displayOrder": 4,
            "headerType": "Output",
            "label": null,
            "lineItemId": null,
            "listValues": null,
            "name": "BFL"
        },
        "CurrencyIsoCode": "GBP",
        "Name": "Header",
        "VlocityDataPackType": "SObject",
        "VlocityRecordSObjectType": "%vlocity_namespace%__CalculationMatrixRow__c"
    },
    {
        "%vlocity_namespace%__CalculationMatrixVersionId__c": {
            "%vlocity_namespace%__CalculationMatrixId__r.Name": "AgeOfHome",
            "%vlocity_namespace%__VersionNumber__c": 2,
            "VlocityDataPackType": "VlocityMatchingKeyObject",
            "VlocityMatchingRecordSourceKey": "%vlocity_namespace%__CalculationMatrixVersion__c/AgeOfHome V2",
            "VlocityRecordSObjectType": "%vlocity_namespace%__CalculationMatrixVersion__c"
        },
        "%vlocity_namespace%__InputData__c": {
            "columnKey": "51d1dc",
            "dataType": "Number",
            "displayOrder": 19,
            "headerType": "Output",
            "label": null,
            "lineItemId": null,
            "listValues": null,
            "name": "AJW"
        },
        "CurrencyIsoCode": "GBP",
        "Name": "Header",
        "VlocityDataPackType": "SObject",
        "VlocityRecordSObjectType": "%vlocity_namespace%__CalculationMatrixRow__c"
    },
    {
        "%vlocity_namespace%__CalculationMatrixVersionId__c": {
            "%vlocity_namespace%__CalculationMatrixId__r.Name": "AgeOfHome",
            "%vlocity_namespace%__VersionNumber__c": 2,
            "VlocityDataPackType": "VlocityMatchingKeyObject",
            "VlocityMatchingRecordSourceKey": "%vlocity_namespace%__CalculationMatrixVersion__c/AgeOfHome V2",
            "VlocityRecordSObjectType": "%vlocity_namespace%__CalculationMatrixVersion__c"
        },
        "%vlocity_namespace%__InputData__c": {
            "columnKey": "5e36e7",
            "dataType": "Number",
            "displayOrder": 7,
            "headerType": "Output",
            "label": null,
            "lineItemId": null,
            "listValues": null,
            "name": "CFI"
        },
        "CurrencyIsoCode": "GBP",
        "Name": "Header",
        "VlocityDataPackType": "SObject",
        "VlocityRecordSObjectType": "%vlocity_namespace%__CalculationMatrixRow__c"
    },
    {
        "%vlocity_namespace%__CalculationMatrixVersionId__c": {
            "%vlocity_namespace%__CalculationMatrixId__r.Name": "AgeOfHome",
            "%vlocity_namespace%__VersionNumber__c": 2,
            "VlocityDataPackType": "VlocityMatchingKeyObject",
            "VlocityMatchingRecordSourceKey": "%vlocity_namespace%__CalculationMatrixVersion__c/AgeOfHome V2",
            "VlocityRecordSObjectType": "%vlocity_namespace%__CalculationMatrixVersion__c"
        },
        "%vlocity_namespace%__InputData__c": {
            "columnKey": "62154",
            "dataType": "Number",
            "displayOrder": 11,
            "headerType": "Output",
            "label": null,
            "lineItemId": null,
            "listValues": null,
            "name": "CWE"
        },
        "CurrencyIsoCode": "GBP",
        "Name": "Header",
        "VlocityDataPackType": "SObject",
        "VlocityRecordSObjectType": "%vlocity_namespace%__CalculationMatrixRow__c"
    },
    {
        "%vlocity_namespace%__CalculationMatrixVersionId__c": {
            "%vlocity_namespace%__CalculationMatrixId__r.Name": "AgeOfHome",
            "%vlocity_namespace%__VersionNumber__c": 2,
            "VlocityDataPackType": "VlocityMatchingKeyObject",
            "VlocityMatchingRecordSourceKey": "%vlocity_namespace%__CalculationMatrixVersion__c/AgeOfHome V2",
            "VlocityRecordSObjectType": "%vlocity_namespace%__CalculationMatrixVersion__c"
        },
        "%vlocity_namespace%__InputData__c": {
            "columnKey": "67b082",
            "dataType": "Number",
            "displayOrder": 24,
            "headerType": "Output",
            "label": null,
            "lineItemId": null,
            "listValues": null,
            "name": "FE"
        },
        "CurrencyIsoCode": "GBP",
        "Name": "Header",
        "VlocityDataPackType": "SObject",
        "VlocityRecordSObjectType": "%vlocity_namespace%__CalculationMatrixRow__c"
    },
    {
        "%vlocity_namespace%__CalculationMatrixVersionId__c": {
            "%vlocity_namespace%__CalculationMatrixId__r.Name": "AgeOfHome",
            "%vlocity_namespace%__VersionNumber__c": 2,
            "VlocityDataPackType": "VlocityMatchingKeyObject",
            "VlocityMatchingRecordSourceKey": "%vlocity_namespace%__CalculationMatrixVersion__c/AgeOfHome V2",
            "VlocityRecordSObjectType": "%vlocity_namespace%__CalculationMatrixVersion__c"
        },
        "%vlocity_namespace%__InputData__c": {
            "columnKey": "69c481",
            "dataType": "Number",
            "displayOrder": 5,
            "headerType": "Output",
            "label": null,
            "lineItemId": null,
            "listValues": null,
            "name": "CFL"
        },
        "CurrencyIsoCode": "GBP",
        "Name": "Header",
        "VlocityDataPackType": "SObject",
        "VlocityRecordSObjectType": "%vlocity_namespace%__CalculationMatrixRow__c"
    },
    {
        "%vlocity_namespace%__CalculationMatrixVersionId__c": {
            "%vlocity_namespace%__CalculationMatrixId__r.Name": "AgeOfHome",
            "%vlocity_namespace%__VersionNumber__c": 2,
            "VlocityDataPackType": "VlocityMatchingKeyObject",
            "VlocityMatchingRecordSourceKey": "%vlocity_namespace%__CalculationMatrixVersion__c/AgeOfHome V2",
            "VlocityRecordSObjectType": "%vlocity_namespace%__CalculationMatrixVersion__c"
        },
        "%vlocity_namespace%__InputData__c": {
            "columnKey": "764756",
            "dataType": "Number",
            "displayOrder": 20,
            "headerType": "Output",
            "label": null,
            "lineItemId": null,
            "listValues": null,
            "name": "AAC"
        },
        "CurrencyIsoCode": "GBP",
        "Name": "Header",
        "VlocityDataPackType": "SObject",
        "VlocityRecordSObjectType": "%vlocity_namespace%__CalculationMatrixRow__c"
    },
    {
        "%vlocity_namespace%__CalculationMatrixVersionId__c": {
            "%vlocity_namespace%__CalculationMatrixId__r.Name": "AgeOfHome",
            "%vlocity_namespace%__VersionNumber__c": 2,
            "VlocityDataPackType": "VlocityMatchingKeyObject",
            "VlocityMatchingRecordSourceKey": "%vlocity_namespace%__CalculationMatrixVersion__c/AgeOfHome V2",
            "VlocityRecordSObjectType": "%vlocity_namespace%__CalculationMatrixVersion__c"
        },
        "%vlocity_namespace%__InputData__c": {
            "columnKey": "81f2ed",
            "dataType": "Number",
            "displayOrder": 16,
            "headerType": "Output",
            "label": null,
            "lineItemId": null,
            "listValues": null,
            "name": "BAL"
        },
        "CurrencyIsoCode": "GBP",
        "Name": "Header",
        "VlocityDataPackType": "SObject",
        "VlocityRecordSObjectType": "%vlocity_namespace%__CalculationMatrixRow__c"
    },
    {
        "%vlocity_namespace%__CalculationMatrixVersionId__c": {
            "%vlocity_namespace%__CalculationMatrixId__r.Name": "AgeOfHome",
            "%vlocity_namespace%__VersionNumber__c": 2,
            "VlocityDataPackType": "VlocityMatchingKeyObject",
            "VlocityMatchingRecordSourceKey": "%vlocity_namespace%__CalculationMatrixVersion__c/AgeOfHome V2",
            "VlocityRecordSObjectType": "%vlocity_namespace%__CalculationMatrixVersion__c"
        },
        "%vlocity_namespace%__InputData__c": {
            "columnKey": "8d2751",
            "dataType": "Number",
            "displayOrder": 2,
            "headerType": "Output",
            "label": null,
            "lineItemId": null,
            "listValues": null,
            "name": "BEW"
        },
        "CurrencyIsoCode": "GBP",
        "Name": "Header",
        "VlocityDataPackType": "SObject",
        "VlocityRecordSObjectType": "%vlocity_namespace%__CalculationMatrixRow__c"
    },
    {
        "%vlocity_namespace%__CalculationMatrixVersionId__c": {
            "%vlocity_namespace%__CalculationMatrixId__r.Name": "AgeOfHome",
            "%vlocity_namespace%__VersionNumber__c": 2,
            "VlocityDataPackType": "VlocityMatchingKeyObject",
            "VlocityMatchingRecordSourceKey": "%vlocity_namespace%__CalculationMatrixVersion__c/AgeOfHome V2",
            "VlocityRecordSObjectType": "%vlocity_namespace%__CalculationMatrixVersion__c"
        },
        "%vlocity_namespace%__InputData__c": {
            "columnKey": "92c09f",
            "dataType": "Number",
            "displayOrder": 8,
            "headerType": "Output",
            "label": null,
            "lineItemId": null,
            "listValues": null,
            "name": "BTG"
        },
        "CurrencyIsoCode": "GBP",
        "Name": "Header",
        "VlocityDataPackType": "SObject",
        "VlocityRecordSObjectType": "%vlocity_namespace%__CalculationMatrixRow__c"
    },
    {
        "%vlocity_namespace%__CalculationMatrixVersionId__c": {
            "%vlocity_namespace%__CalculationMatrixId__r.Name": "AgeOfHome",
            "%vlocity_namespace%__VersionNumber__c": 2,
            "VlocityDataPackType": "VlocityMatchingKeyObject",
            "VlocityMatchingRecordSourceKey": "%vlocity_namespace%__CalculationMatrixVersion__c/AgeOfHome V2",
            "VlocityRecordSObjectType": "%vlocity_namespace%__CalculationMatrixVersion__c"
        },
        "%vlocity_namespace%__InputData__c": {
            "columnKey": "950384",
            "dataType": "Number Range",
            "displayOrder": 1,
            "headerType": "Input",
            "label": null,
            "lineItemId": null,
            "listValues": "0,5.0001,10.0001,15.0001,20.0001,30.0001,40.0001,50.0001,60.0001,70.0001,80.0001,90.0001,100.0001,125.0001,150.0001,200.0001",
            "name": "ageRange"
        },
        "CurrencyIsoCode": "GBP",
        "Name": "Header",
        "VlocityDataPackType": "SObject",
        "VlocityRecordSObjectType": "%vlocity_namespace%__CalculationMatrixRow__c"
    },
    {
        "%vlocity_namespace%__CalculationMatrixVersionId__c": {
            "%vlocity_namespace%__CalculationMatrixId__r.Name": "AgeOfHome",
            "%vlocity_namespace%__VersionNumber__c": 2,
            "VlocityDataPackType": "VlocityMatchingKeyObject",
            "VlocityMatchingRecordSourceKey": "%vlocity_namespace%__CalculationMatrixVersion__c/AgeOfHome V2",
            "VlocityRecordSObjectType": "%vlocity_namespace%__CalculationMatrixVersion__c"
        },
        "%vlocity_namespace%__InputData__c": {
            "columnKey": "9a0d28",
            "dataType": "Number",
            "displayOrder": 14,
            "headerType": "Output",
            "label": null,
            "lineItemId": null,
            "listValues": null,
            "name": "BAD"
        },
        "CurrencyIsoCode": "GBP",
        "Name": "Header",
        "VlocityDataPackType": "SObject",
        "VlocityRecordSObjectType": "%vlocity_namespace%__CalculationMatrixRow__c"
    },
    {
        "%vlocity_namespace%__CalculationMatrixVersionId__c": {
            "%vlocity_namespace%__CalculationMatrixId__r.Name": "AgeOfHome",
            "%vlocity_namespace%__VersionNumber__c": 2,
            "VlocityDataPackType": "VlocityMatchingKeyObject",
            "VlocityMatchingRecordSourceKey": "%vlocity_namespace%__CalculationMatrixVersion__c/AgeOfHome V2",
            "VlocityRecordSObjectType": "%vlocity_namespace%__CalculationMatrixVersion__c"
        },
        "%vlocity_namespace%__InputData__c": {
            "columnKey": "a06e31",
            "dataType": "Number",
            "displayOrder": 6,
            "headerType": "Output",
            "label": null,
            "lineItemId": null,
            "listValues": null,
            "name": "BFI"
        },
        "CurrencyIsoCode": "GBP",
        "Name": "Header",
        "VlocityDataPackType": "SObject",
        "VlocityRecordSObjectType": "%vlocity_namespace%__CalculationMatrixRow__c"
    },
    {
        "%vlocity_namespace%__CalculationMatrixVersionId__c": {
            "%vlocity_namespace%__CalculationMatrixId__r.Name": "AgeOfHome",
            "%vlocity_namespace%__VersionNumber__c": 2,
            "VlocityDataPackType": "VlocityMatchingKeyObject",
            "VlocityMatchingRecordSourceKey": "%vlocity_namespace%__CalculationMatrixVersion__c/AgeOfHome V2",
            "VlocityRecordSObjectType": "%vlocity_namespace%__CalculationMatrixVersion__c"
        },
        "%vlocity_namespace%__InputData__c": {
            "columnKey": "b01c26",
            "dataType": "Number",
            "displayOrder": 10,
            "headerType": "Output",
            "label": null,
            "lineItemId": null,
            "listValues": null,
            "name": "BWE"
        },
        "CurrencyIsoCode": "GBP",
        "Name": "Header",
        "VlocityDataPackType": "SObject",
        "VlocityRecordSObjectType": "%vlocity_namespace%__CalculationMatrixRow__c"
    },
    {
        "%vlocity_namespace%__CalculationMatrixVersionId__c": {
            "%vlocity_namespace%__CalculationMatrixId__r.Name": "AgeOfHome",
            "%vlocity_namespace%__VersionNumber__c": 2,
            "VlocityDataPackType": "VlocityMatchingKeyObject",
            "VlocityMatchingRecordSourceKey": "%vlocity_namespace%__CalculationMatrixVersion__c/AgeOfHome V2",
            "VlocityRecordSObjectType": "%vlocity_namespace%__CalculationMatrixVersion__c"
        },
        "%vlocity_namespace%__InputData__c": {
            "columnKey": "b113ce",
            "dataType": "Number",
            "displayOrder": 18,
            "headerType": "Output",
            "label": null,
            "lineItemId": null,
            "listValues": null,
            "name": "LI"
        },
        "CurrencyIsoCode": "GBP",
        "Name": "Header",
        "VlocityDataPackType": "SObject",
        "VlocityRecordSObjectType": "%vlocity_namespace%__CalculationMatrixRow__c"
    },
    {
        "%vlocity_namespace%__CalculationMatrixVersionId__c": {
            "%vlocity_namespace%__CalculationMatrixId__r.Name": "AgeOfHome",
            "%vlocity_namespace%__VersionNumber__c": 2,
            "VlocityDataPackType": "VlocityMatchingKeyObject",
            "VlocityMatchingRecordSourceKey": "%vlocity_namespace%__CalculationMatrixVersion__c/AgeOfHome V2",
            "VlocityRecordSObjectType": "%vlocity_namespace%__CalculationMatrixVersion__c"
        },
        "%vlocity_namespace%__InputData__c": {
            "columnKey": "b614ec",
            "dataType": "Number",
            "displayOrder": 9,
            "headerType": "Output",
            "label": null,
            "lineItemId": null,
            "listValues": null,
            "name": "CTG"
        },
        "CurrencyIsoCode": "GBP",
        "Name": "Header",
        "VlocityDataPackType": "SObject",
        "VlocityRecordSObjectType": "%vlocity_namespace%__CalculationMatrixRow__c"
    },
    {
        "%vlocity_namespace%__CalculationMatrixVersionId__c": {
            "%vlocity_namespace%__CalculationMatrixId__r.Name": "AgeOfHome",
            "%vlocity_namespace%__VersionNumber__c": 2,
            "VlocityDataPackType": "VlocityMatchingKeyObject",
            "VlocityMatchingRecordSourceKey": "%vlocity_namespace%__CalculationMatrixVersion__c/AgeOfHome V2",
            "VlocityRecordSObjectType": "%vlocity_namespace%__CalculationMatrixVersion__c"
        },
        "%vlocity_namespace%__InputData__c": {
            "columnKey": "b65692",
            "dataType": "Number",
            "displayOrder": 17,
            "headerType": "Output",
            "label": null,
            "lineItemId": null,
            "listValues": null,
            "name": "CAL"
        },
        "CurrencyIsoCode": "GBP",
        "Name": "Header",
        "VlocityDataPackType": "SObject",
        "VlocityRecordSObjectType": "%vlocity_namespace%__CalculationMatrixRow__c"
    },
    {
        "%vlocity_namespace%__CalculationMatrixVersionId__c": {
            "%vlocity_namespace%__CalculationMatrixId__r.Name": "AgeOfHome",
            "%vlocity_namespace%__VersionNumber__c": 2,
            "VlocityDataPackType": "VlocityMatchingKeyObject",
            "VlocityMatchingRecordSourceKey": "%vlocity_namespace%__CalculationMatrixVersion__c/AgeOfHome V2",
            "VlocityRecordSObjectType": "%vlocity_namespace%__CalculationMatrixVersion__c"
        },
        "%vlocity_namespace%__InputData__c": {
            "columnKey": "bc75d5",
            "dataType": "Number",
            "displayOrder": 23,
            "headerType": "Output",
            "label": null,
            "lineItemId": null,
            "listValues": null,
            "name": "ATI"
        },
        "CurrencyIsoCode": "GBP",
        "Name": "Header",
        "VlocityDataPackType": "SObject",
        "VlocityRecordSObjectType": "%vlocity_namespace%__CalculationMatrixRow__c"
    },
    {
        "%vlocity_namespace%__CalculationMatrixVersionId__c": {
            "%vlocity_namespace%__CalculationMatrixId__r.Name": "AgeOfHome",
            "%vlocity_namespace%__VersionNumber__c": 2,
            "VlocityDataPackType": "VlocityMatchingKeyObject",
            "VlocityMatchingRecordSourceKey": "%vlocity_namespace%__CalculationMatrixVersion__c/AgeOfHome V2",
            "VlocityRecordSObjectType": "%vlocity_namespace%__CalculationMatrixVersion__c"
        },
        "%vlocity_namespace%__InputData__c": {
            "columnKey": "bd7e40",
            "dataType": "Number",
            "displayOrder": 3,
            "headerType": "Output",
            "label": null,
            "lineItemId": null,
            "listValues": null,
            "name": "CEW"
        },
        "CurrencyIsoCode": "GBP",
        "Name": "Header",
        "VlocityDataPackType": "SObject",
        "VlocityRecordSObjectType": "%vlocity_namespace%__CalculationMatrixRow__c"
    },
    {
        "%vlocity_namespace%__CalculationMatrixVersionId__c": {
            "%vlocity_namespace%__CalculationMatrixId__r.Name": "AgeOfHome",
            "%vlocity_namespace%__VersionNumber__c": 2,
            "VlocityDataPackType": "VlocityMatchingKeyObject",
            "VlocityMatchingRecordSourceKey": "%vlocity_namespace%__CalculationMatrixVersion__c/AgeOfHome V2",
            "VlocityRecordSObjectType": "%vlocity_namespace%__CalculationMatrixVersion__c"
        },
        "%vlocity_namespace%__InputData__c": {
            "columnKey": "ca781f",
            "dataType": "Number",
            "displayOrder": 21,
            "headerType": "Output",
            "label": null,
            "lineItemId": null,
            "listValues": null,
            "name": "ABI"
        },
        "CurrencyIsoCode": "GBP",
        "Name": "Header",
        "VlocityDataPackType": "SObject",
        "VlocityRecordSObjectType": "%vlocity_namespace%__CalculationMatrixRow__c"
    },
    {
        "%vlocity_namespace%__CalculationMatrixVersionId__c": {
            "%vlocity_namespace%__CalculationMatrixId__r.Name": "AgeOfHome",
            "%vlocity_namespace%__VersionNumber__c": 2,
            "VlocityDataPackType": "VlocityMatchingKeyObject",
            "VlocityMatchingRecordSourceKey": "%vlocity_namespace%__CalculationMatrixVersion__c/AgeOfHome V2",
            "VlocityRecordSObjectType": "%vlocity_namespace%__CalculationMatrixVersion__c"
        },
        "%vlocity_namespace%__InputData__c": {
            "columnKey": "dcf865",
            "dataType": "Number",
            "displayOrder": 12,
            "headerType": "Output",
            "label": null,
            "lineItemId": null,
            "listValues": null,
            "name": "BSU"
        },
        "CurrencyIsoCode": "GBP",
        "Name": "Header",
        "VlocityDataPackType": "SObject",
        "VlocityRecordSObjectType": "%vlocity_namespace%__CalculationMatrixRow__c"
    },
    {
        "%vlocity_namespace%__CalculationMatrixVersionId__c": {
            "%vlocity_namespace%__CalculationMatrixId__r.Name": "AgeOfHome",
            "%vlocity_namespace%__VersionNumber__c": 2,
            "VlocityDataPackType": "VlocityMatchingKeyObject",
            "VlocityMatchingRecordSourceKey": "%vlocity_namespace%__CalculationMatrixVersion__c/AgeOfHome V2",
            "VlocityRecordSObjectType": "%vlocity_namespace%__CalculationMatrixVersion__c"
        },
        "%vlocity_namespace%__InputData__c": {
            "columnKey": "ec9ecc",
            "dataType": "Number",
            "displayOrder": 22,
            "headerType": "Output",
            "label": null,
            "lineItemId": null,
            "listValues": null,
            "name": "AGC"
        },
        "CurrencyIsoCode": "GBP",
        "Name": "Header",
        "VlocityDataPackType": "SObject",
        "VlocityRecordSObjectType": "%vlocity_namespace%__CalculationMatrixRow__c"
    },
    {
        "%vlocity_namespace%__CalculationMatrixVersionId__c": {
            "%vlocity_namespace%__CalculationMatrixId__r.Name": "AgeOfHome",
            "%vlocity_namespace%__VersionNumber__c": 2,
            "VlocityDataPackType": "VlocityMatchingKeyObject",
            "VlocityMatchingRecordSourceKey": "%vlocity_namespace%__CalculationMatrixVersion__c/AgeOfHome V2",
            "VlocityRecordSObjectType": "%vlocity_namespace%__CalculationMatrixVersion__c"
        },
        "%vlocity_namespace%__InputData__c": {
            "ageRange": "0"
        },
        "%vlocity_namespace%__OutputDataLong__c": "{\"FE\":1.0,\"ATI\":0.94075,\"AGC\":0.989425,\"ABI\":0.989425,\"AAC\":0.989425,\"AJW\":0.989425,\"LI\":0.94075,\"CAL\":0.989425,\"BAL\":0.94075,\"CAD\":0.989425,\"BAD\":0.94075,\"CSU\":0.989425,\"BSU\":0.94075,\"CWE\":0.989425,\"BWE\":0.94075,\"CTG\":0.989425,\"BTG\":0.94075,\"CFI\":0.989425,\"BFI\":0.94075,\"CFL\":0.989425,\"BFL\":0.94075,\"CEW\":0.989425,\"BEW\":0.94075}",
        "CurrencyIsoCode": "GBP",
        "Name": "d0b5b5b8206d75cefe7025bf6e20f320",
        "VlocityDataPackType": "SObject",
        "VlocityRecordSObjectType": "%vlocity_namespace%__CalculationMatrixRow__c"
    },
    {
        "%vlocity_namespace%__CalculationMatrixVersionId__c": {
            "%vlocity_namespace%__CalculationMatrixId__r.Name": "AgeOfHome",
            "%vlocity_namespace%__VersionNumber__c": 2,
            "VlocityDataPackType": "VlocityMatchingKeyObject",
            "VlocityMatchingRecordSourceKey": "%vlocity_namespace%__CalculationMatrixVersion__c/AgeOfHome V2",
            "VlocityRecordSObjectType": "%vlocity_namespace%__CalculationMatrixVersion__c"
        },
        "%vlocity_namespace%__InputData__c": {
            "ageRange": "10.0001"
        },
        "%vlocity_namespace%__OutputDataLong__c": "{\"FE\":1.0,\"ATI\":0.954625,\"AGC\":0.98965,\"ABI\":0.98965,\"AAC\":0.98965,\"AJW\":0.98965,\"LI\":0.954625,\"CAL\":0.98965,\"BAL\":0.954625,\"CAD\":0.98965,\"BAD\":0.954625,\"CSU\":0.98965,\"BSU\":0.954625,\"CWE\":0.98965,\"BWE\":0.954625,\"CTG\":0.98965,\"BTG\":0.954625,\"CFI\":0.98965,\"BFI\":0.954625,\"CFL\":0.98965,\"BFL\":0.954625,\"CEW\":0.98965,\"BEW\":0.954625}",
        "CurrencyIsoCode": "GBP",
        "Name": "5c707f85c3cd5ad44773d70c104afb27",
        "VlocityDataPackType": "SObject",
        "VlocityRecordSObjectType": "%vlocity_namespace%__CalculationMatrixRow__c"
    },
    {
        "%vlocity_namespace%__CalculationMatrixVersionId__c": {
            "%vlocity_namespace%__CalculationMatrixId__r.Name": "AgeOfHome",
            "%vlocity_namespace%__VersionNumber__c": 2,
            "VlocityDataPackType": "VlocityMatchingKeyObject",
            "VlocityMatchingRecordSourceKey": "%vlocity_namespace%__CalculationMatrixVersion__c/AgeOfHome V2",
            "VlocityRecordSObjectType": "%vlocity_namespace%__CalculationMatrixVersion__c"
        },
        "%vlocity_namespace%__InputData__c": {
            "ageRange": "100.0001"
        },
        "%vlocity_namespace%__OutputDataLong__c": "{\"FE\":1.0,\"ATI\":1.0624,\"AGC\":1.0258,\"ABI\":1.0258,\"AAC\":1.0258,\"AJW\":1.0258,\"LI\":1.0624,\"CAL\":1.0258,\"BAL\":1.0624,\"CAD\":1.0258,\"BAD\":1.0624,\"CSU\":1.0258,\"BSU\":1.0624,\"CWE\":1.0258,\"BWE\":1.0624,\"CTG\":1.0258,\"BTG\":1.0624,\"CFI\":1.0258,\"BFI\":1.0624,\"CFL\":1.0258,\"BFL\":1.0624,\"CEW\":1.0258,\"BEW\":1.0624}",
        "CurrencyIsoCode": "GBP",
        "Name": "5ea6222b64c70ebd2b47a94cc3417e9a",
        "VlocityDataPackType": "SObject",
        "VlocityRecordSObjectType": "%vlocity_namespace%__CalculationMatrixRow__c"
    },
    {
        "%vlocity_namespace%__CalculationMatrixVersionId__c": {
            "%vlocity_namespace%__CalculationMatrixId__r.Name": "AgeOfHome",
            "%vlocity_namespace%__VersionNumber__c": 2,
            "VlocityDataPackType": "VlocityMatchingKeyObject",
            "VlocityMatchingRecordSourceKey": "%vlocity_namespace%__CalculationMatrixVersion__c/AgeOfHome V2",
            "VlocityRecordSObjectType": "%vlocity_namespace%__CalculationMatrixVersion__c"
        },
        "%vlocity_namespace%__InputData__c": {
            "ageRange": "125.0001"
        },
        "%vlocity_namespace%__OutputDataLong__c": "{\"FE\":1.0,\"ATI\":1.108875,\"AGC\":1.0408,\"ABI\":1.0408,\"AAC\":1.0408,\"AJW\":1.0408,\"LI\":1.108875,\"CAL\":1.0408,\"BAL\":1.108875,\"CAD\":1.0408,\"BAD\":1.108875,\"CSU\":1.0408,\"BSU\":1.108875,\"CWE\":1.0408,\"BWE\":1.108875,\"CTG\":1.0408,\"BTG\":1.108875,\"CFI\":1.0408,\"BFI\":1.108875,\"CFL\":1.0408,\"BFL\":1.108875,\"CEW\":1.0408,\"BEW\":1.108875}",
        "CurrencyIsoCode": "GBP",
        "Name": "0286aa733e61eff8709356532ffbbe5b",
        "VlocityDataPackType": "SObject",
        "VlocityRecordSObjectType": "%vlocity_namespace%__CalculationMatrixRow__c"
    },
    {
        "%vlocity_namespace%__CalculationMatrixVersionId__c": {
            "%vlocity_namespace%__CalculationMatrixId__r.Name": "AgeOfHome",
            "%vlocity_namespace%__VersionNumber__c": 2,
            "VlocityDataPackType": "VlocityMatchingKeyObject",
            "VlocityMatchingRecordSourceKey": "%vlocity_namespace%__CalculationMatrixVersion__c/AgeOfHome V2",
            "VlocityRecordSObjectType": "%vlocity_namespace%__CalculationMatrixVersion__c"
        },
        "%vlocity_namespace%__InputData__c": {
            "ageRange": "15.0001"
        },
        "%vlocity_namespace%__OutputDataLong__c": "{\"FE\":1.0,\"ATI\":0.95565,\"AGC\":0.9894,\"ABI\":0.9894,\"AAC\":0.9894,\"AJW\":0.9894,\"LI\":0.95565,\"CAL\":0.9894,\"BAL\":0.95565,\"CAD\":0.9894,\"BAD\":0.95565,\"CSU\":0.9894,\"BSU\":0.95565,\"CWE\":0.9894,\"BWE\":0.95565,\"CTG\":0.9894,\"BTG\":0.95565,\"CFI\":0.9894,\"BFI\":0.95565,\"CFL\":0.9894,\"BFL\":0.95565,\"CEW\":0.9894,\"BEW\":0.95565}",
        "CurrencyIsoCode": "GBP",
        "Name": "1b7fccbf59520844266b01c93f69e138",
        "VlocityDataPackType": "SObject",
        "VlocityRecordSObjectType": "%vlocity_namespace%__CalculationMatrixRow__c"
    },
    {
        "%vlocity_namespace%__CalculationMatrixVersionId__c": {
            "%vlocity_namespace%__CalculationMatrixId__r.Name": "AgeOfHome",
            "%vlocity_namespace%__VersionNumber__c": 2,
            "VlocityDataPackType": "VlocityMatchingKeyObject",
            "VlocityMatchingRecordSourceKey": "%vlocity_namespace%__CalculationMatrixVersion__c/AgeOfHome V2",
            "VlocityRecordSObjectType": "%vlocity_namespace%__CalculationMatrixVersion__c"
        },
        "%vlocity_namespace%__InputData__c": {
            "ageRange": "150.0001"
        },
        "%vlocity_namespace%__OutputDataLong__c": "{\"FE\":1.0,\"ATI\":1.1666,\"AGC\":1.086175,\"ABI\":1.086175,\"AAC\":1.086175,\"AJW\":1.086175,\"LI\":1.1666,\"CAL\":1.086175,\"BAL\":1.1666,\"CAD\":1.086175,\"BAD\":1.1666,\"CSU\":1.086175,\"BSU\":1.1666,\"CWE\":1.086175,\"BWE\":1.1666,\"CTG\":1.086175,\"BTG\":1.1666,\"CFI\":1.086175,\"BFI\":1.1666,\"CFL\":1.086175,\"BFL\":1.1666,\"CEW\":1.086175,\"BEW\":1.1666}",
        "CurrencyIsoCode": "GBP",
        "Name": "9d6ae8b826f01372a74d2cb98df9ae17",
        "VlocityDataPackType": "SObject",
        "VlocityRecordSObjectType": "%vlocity_namespace%__CalculationMatrixRow__c"
    },
    {
        "%vlocity_namespace%__CalculationMatrixVersionId__c": {
            "%vlocity_namespace%__CalculationMatrixId__r.Name": "AgeOfHome",
            "%vlocity_namespace%__VersionNumber__c": 2,
            "VlocityDataPackType": "VlocityMatchingKeyObject",
            "VlocityMatchingRecordSourceKey": "%vlocity_namespace%__CalculationMatrixVersion__c/AgeOfHome V2",
            "VlocityRecordSObjectType": "%vlocity_namespace%__CalculationMatrixVersion__c"
        },
        "%vlocity_namespace%__InputData__c": {
            "ageRange": "20.0001"
        },
        "%vlocity_namespace%__OutputDataLong__c": "{\"FE\":1.0,\"ATI\":0.97195,\"AGC\":0.989925,\"ABI\":0.989925,\"AAC\":0.989925,\"AJW\":0.989925,\"LI\":0.97195,\"CAL\":0.989925,\"BAL\":0.97195,\"CAD\":0.989925,\"BAD\":0.97195,\"CSU\":0.989925,\"BSU\":0.97195,\"CWE\":0.989925,\"BWE\":0.97195,\"CTG\":0.989925,\"BTG\":0.97195,\"CFI\":0.989925,\"BFI\":0.97195,\"CFL\":0.989925,\"BFL\":0.97195,\"CEW\":0.989925,\"BEW\":0.97195}",
        "CurrencyIsoCode": "GBP",
        "Name": "ebc044e028662331d80facc09c7d8113",
        "VlocityDataPackType": "SObject",
        "VlocityRecordSObjectType": "%vlocity_namespace%__CalculationMatrixRow__c"
    },
    {
        "%vlocity_namespace%__CalculationMatrixVersionId__c": {
            "%vlocity_namespace%__CalculationMatrixId__r.Name": "AgeOfHome",
            "%vlocity_namespace%__VersionNumber__c": 2,
            "VlocityDataPackType": "VlocityMatchingKeyObject",
            "VlocityMatchingRecordSourceKey": "%vlocity_namespace%__CalculationMatrixVersion__c/AgeOfHome V2",
            "VlocityRecordSObjectType": "%vlocity_namespace%__CalculationMatrixVersion__c"
        },
        "%vlocity_namespace%__InputData__c": {
            "ageRange": "200.0001"
        },
        "%vlocity_namespace%__OutputDataLong__c": "{\"FE\":1.0,\"ATI\":1.220925,\"AGC\":1.130025,\"ABI\":1.130025,\"AAC\":1.130025,\"AJW\":1.130025,\"LI\":1.220925,\"CAL\":1.130025,\"BAL\":1.220925,\"CAD\":1.130025,\"BAD\":1.220925,\"CSU\":1.130025,\"BSU\":1.220925,\"CWE\":1.130025,\"BWE\":1.220925,\"CTG\":1.130025,\"BTG\":1.220925,\"CFI\":1.130025,\"BFI\":1.220925,\"CFL\":1.130025,\"BFL\":1.220925,\"CEW\":1.130025,\"BEW\":1.220925}",
        "CurrencyIsoCode": "GBP",
        "Name": "0ca88a121c29322ea2ad274cad49f41d",
        "VlocityDataPackType": "SObject",
        "VlocityRecordSObjectType": "%vlocity_namespace%__CalculationMatrixRow__c"
    },
    {
        "%vlocity_namespace%__CalculationMatrixVersionId__c": {
            "%vlocity_namespace%__CalculationMatrixId__r.Name": "AgeOfHome",
            "%vlocity_namespace%__VersionNumber__c": 2,
            "VlocityDataPackType": "VlocityMatchingKeyObject",
            "VlocityMatchingRecordSourceKey": "%vlocity_namespace%__CalculationMatrixVersion__c/AgeOfHome V2",
            "VlocityRecordSObjectType": "%vlocity_namespace%__CalculationMatrixVersion__c"
        },
        "%vlocity_namespace%__InputData__c": {
            "ageRange": "30.0001"
        },
        "%vlocity_namespace%__OutputDataLong__c": "{\"FE\":1.0,\"ATI\":0.987975,\"AGC\":0.999575,\"ABI\":0.999575,\"AAC\":0.999575,\"AJW\":0.999575,\"LI\":0.987975,\"CAL\":0.999575,\"BAL\":0.987975,\"CAD\":0.999575,\"BAD\":0.987975,\"CSU\":0.999575,\"BSU\":0.987975,\"CWE\":0.999575,\"BWE\":0.987975,\"CTG\":0.999575,\"BTG\":0.987975,\"CFI\":0.999575,\"BFI\":0.987975,\"CFL\":0.999575,\"BFL\":0.987975,\"CEW\":0.999575,\"BEW\":0.987975}",
        "CurrencyIsoCode": "GBP",
        "Name": "0106f30524917e7fc4dec314e8d65369",
        "VlocityDataPackType": "SObject",
        "VlocityRecordSObjectType": "%vlocity_namespace%__CalculationMatrixRow__c"
    },
    {
        "%vlocity_namespace%__CalculationMatrixVersionId__c": {
            "%vlocity_namespace%__CalculationMatrixId__r.Name": "AgeOfHome",
            "%vlocity_namespace%__VersionNumber__c": 2,
            "VlocityDataPackType": "VlocityMatchingKeyObject",
            "VlocityMatchingRecordSourceKey": "%vlocity_namespace%__CalculationMatrixVersion__c/AgeOfHome V2",
            "VlocityRecordSObjectType": "%vlocity_namespace%__CalculationMatrixVersion__c"
        },
        "%vlocity_namespace%__InputData__c": {
            "ageRange": "40.0001"
        },
        "%vlocity_namespace%__OutputDataLong__c": "{\"FE\":1.0,\"ATI\":1.0,\"AGC\":1.0,\"ABI\":1.0,\"AAC\":1.0,\"AJW\":1.0,\"LI\":1.0,\"CAL\":1.0,\"BAL\":1.0,\"CAD\":1.0,\"BAD\":1.0,\"CSU\":1.0,\"BSU\":1.0,\"CWE\":1.0,\"BWE\":1.0,\"CTG\":1.0,\"BTG\":1.0,\"CFI\":1.0,\"BFI\":1.0,\"CFL\":1.0,\"BFL\":1.0,\"CEW\":1.0,\"BEW\":1.0}",
        "CurrencyIsoCode": "GBP",
        "Name": "26707848d569d3f9646361cc28ddeca7",
        "VlocityDataPackType": "SObject",
        "VlocityRecordSObjectType": "%vlocity_namespace%__CalculationMatrixRow__c"
    },
    {
        "%vlocity_namespace%__CalculationMatrixVersionId__c": {
            "%vlocity_namespace%__CalculationMatrixId__r.Name": "AgeOfHome",
            "%vlocity_namespace%__VersionNumber__c": 2,
            "VlocityDataPackType": "VlocityMatchingKeyObject",
            "VlocityMatchingRecordSourceKey": "%vlocity_namespace%__CalculationMatrixVersion__c/AgeOfHome V2",
            "VlocityRecordSObjectType": "%vlocity_namespace%__CalculationMatrixVersion__c"
        },
        "%vlocity_namespace%__InputData__c": {
            "ageRange": "5.0001"
        },
        "%vlocity_namespace%__OutputDataLong__c": "{\"FE\":1.0,\"ATI\":0.94075,\"AGC\":0.989425,\"ABI\":0.989425,\"AAC\":0.989425,\"AJW\":0.989425,\"LI\":0.94075,\"CAL\":0.989425,\"BAL\":0.94075,\"CAD\":0.989425,\"BAD\":0.94075,\"CSU\":0.989425,\"BSU\":0.94075,\"CWE\":0.989425,\"BWE\":0.94075,\"CTG\":0.989425,\"BTG\":0.94075,\"CFI\":0.989425,\"BFI\":0.94075,\"CFL\":0.989425,\"BFL\":0.94075,\"CEW\":0.989425,\"BEW\":0.94075}",
        "CurrencyIsoCode": "GBP",
        "Name": "445226b25d0f9e4eabc70774fc4b965e",
        "VlocityDataPackType": "SObject",
        "VlocityRecordSObjectType": "%vlocity_namespace%__CalculationMatrixRow__c"
    },
    {
        "%vlocity_namespace%__CalculationMatrixVersionId__c": {
            "%vlocity_namespace%__CalculationMatrixId__r.Name": "AgeOfHome",
            "%vlocity_namespace%__VersionNumber__c": 2,
            "VlocityDataPackType": "VlocityMatchingKeyObject",
            "VlocityMatchingRecordSourceKey": "%vlocity_namespace%__CalculationMatrixVersion__c/AgeOfHome V2",
            "VlocityRecordSObjectType": "%vlocity_namespace%__CalculationMatrixVersion__c"
        },
        "%vlocity_namespace%__InputData__c": {
            "ageRange": "50.0001"
        },
        "%vlocity_namespace%__OutputDataLong__c": "{\"FE\":1.0,\"ATI\":1.0065,\"AGC\":1.0055,\"ABI\":1.0055,\"AAC\":1.0055,\"AJW\":1.0055,\"LI\":1.0065,\"CAL\":1.0055,\"BAL\":1.0065,\"CAD\":1.0055,\"BAD\":1.0065,\"CSU\":1.0055,\"BSU\":1.0065,\"CWE\":1.0055,\"BWE\":1.0065,\"CTG\":1.0055,\"BTG\":1.0065,\"CFI\":1.0055,\"BFI\":1.0065,\"CFL\":1.0055,\"BFL\":1.0065,\"CEW\":1.0055,\"BEW\":1.0065}",
        "CurrencyIsoCode": "GBP",
        "Name": "d4aaf61e21f0336eb832304c6b29bd0d",
        "VlocityDataPackType": "SObject",
        "VlocityRecordSObjectType": "%vlocity_namespace%__CalculationMatrixRow__c"
    },
    {
        "%vlocity_namespace%__CalculationMatrixVersionId__c": {
            "%vlocity_namespace%__CalculationMatrixId__r.Name": "AgeOfHome",
            "%vlocity_namespace%__VersionNumber__c": 2,
            "VlocityDataPackType": "VlocityMatchingKeyObject",
            "VlocityMatchingRecordSourceKey": "%vlocity_namespace%__CalculationMatrixVersion__c/AgeOfHome V2",
            "VlocityRecordSObjectType": "%vlocity_namespace%__CalculationMatrixVersion__c"
        },
        "%vlocity_namespace%__InputData__c": {
            "ageRange": "60.0001"
        },
        "%vlocity_namespace%__OutputDataLong__c": "{\"FE\":1.0,\"ATI\":1.014175,\"AGC\":1.007,\"ABI\":1.007,\"AAC\":1.007,\"AJW\":1.007,\"LI\":1.014175,\"CAL\":1.007,\"BAL\":1.014175,\"CAD\":1.007,\"BAD\":1.014175,\"CSU\":1.007,\"BSU\":1.014175,\"CWE\":1.007,\"BWE\":1.014175,\"CTG\":1.007,\"BTG\":1.014175,\"CFI\":1.007,\"BFI\":1.014175,\"CFL\":1.007,\"BFL\":1.014175,\"CEW\":1.007,\"BEW\":1.014175}",
        "CurrencyIsoCode": "GBP",
        "Name": "83dabd7616c76ddaefc811f53f9efe66",
        "VlocityDataPackType": "SObject",
        "VlocityRecordSObjectType": "%vlocity_namespace%__CalculationMatrixRow__c"
    },
    {
        "%vlocity_namespace%__CalculationMatrixVersionId__c": {
            "%vlocity_namespace%__CalculationMatrixId__r.Name": "AgeOfHome",
            "%vlocity_namespace%__VersionNumber__c": 2,
            "VlocityDataPackType": "VlocityMatchingKeyObject",
            "VlocityMatchingRecordSourceKey": "%vlocity_namespace%__CalculationMatrixVersion__c/AgeOfHome V2",
            "VlocityRecordSObjectType": "%vlocity_namespace%__CalculationMatrixVersion__c"
        },
        "%vlocity_namespace%__InputData__c": {
            "ageRange": "70.0001"
        },
        "%vlocity_namespace%__OutputDataLong__c": "{\"FE\":1.0,\"ATI\":1.019525,\"AGC\":1.011675,\"ABI\":1.011675,\"AAC\":1.011675,\"AJW\":1.011675,\"LI\":1.019525,\"CAL\":1.011675,\"BAL\":1.019525,\"CAD\":1.011675,\"BAD\":1.019525,\"CSU\":1.011675,\"BSU\":1.019525,\"CWE\":1.011675,\"BWE\":1.019525,\"CTG\":1.011675,\"BTG\":1.019525,\"CFI\":1.011675,\"BFI\":1.019525,\"CFL\":1.011675,\"BFL\":1.019525,\"CEW\":1.011675,\"BEW\":1.019525}",
        "CurrencyIsoCode": "GBP",
        "Name": "484088b740cf2aa1ff43258a9edbdc6b",
        "VlocityDataPackType": "SObject",
        "VlocityRecordSObjectType": "%vlocity_namespace%__CalculationMatrixRow__c"
    },
    {
        "%vlocity_namespace%__CalculationMatrixVersionId__c": {
            "%vlocity_namespace%__CalculationMatrixId__r.Name": "AgeOfHome",
            "%vlocity_namespace%__VersionNumber__c": 2,
            "VlocityDataPackType": "VlocityMatchingKeyObject",
            "VlocityMatchingRecordSourceKey": "%vlocity_namespace%__CalculationMatrixVersion__c/AgeOfHome V2",
            "VlocityRecordSObjectType": "%vlocity_namespace%__CalculationMatrixVersion__c"
        },
        "%vlocity_namespace%__InputData__c": {
            "ageRange": "80.0001"
        },
        "%vlocity_namespace%__OutputDataLong__c": "{\"FE\":1.0,\"ATI\":1.028325,\"AGC\":1.0142,\"ABI\":1.0142,\"AAC\":1.0142,\"AJW\":1.0142,\"LI\":1.028325,\"CAL\":1.0142,\"BAL\":1.028325,\"CAD\":1.0142,\"BAD\":1.028325,\"CSU\":1.0142,\"BSU\":1.028325,\"CWE\":1.0142,\"BWE\":1.028325,\"CTG\":1.0142,\"BTG\":1.028325,\"CFI\":1.0142,\"BFI\":1.028325,\"CFL\":1.0142,\"BFL\":1.028325,\"CEW\":1.0142,\"BEW\":1.028325}",
        "CurrencyIsoCode": "GBP",
        "Name": "966926aa74f5e4723ef60b007421c4e4",
        "VlocityDataPackType": "SObject",
        "VlocityRecordSObjectType": "%vlocity_namespace%__CalculationMatrixRow__c"
    },
    {
        "%vlocity_namespace%__CalculationMatrixVersionId__c": {
            "%vlocity_namespace%__CalculationMatrixId__r.Name": "AgeOfHome",
            "%vlocity_namespace%__VersionNumber__c": 2,
            "VlocityDataPackType": "VlocityMatchingKeyObject",
            "VlocityMatchingRecordSourceKey": "%vlocity_namespace%__CalculationMatrixVersion__c/AgeOfHome V2",
            "VlocityRecordSObjectType": "%vlocity_namespace%__CalculationMatrixVersion__c"
        },
        "%vlocity_namespace%__InputData__c": {
            "ageRange": "90.0001"
        },
        "%vlocity_namespace%__OutputDataLong__c": "{\"FE\":1.0,\"ATI\":1.041225,\"AGC\":1.017625,\"ABI\":1.017625,\"AAC\":1.017625,\"AJW\":1.017625,\"LI\":1.041225,\"CAL\":1.017625,\"BAL\":1.041225,\"CAD\":1.017625,\"BAD\":1.041225,\"CSU\":1.017625,\"BSU\":1.041225,\"CWE\":1.017625,\"BWE\":1.041225,\"CTG\":1.017625,\"BTG\":1.041225,\"CFI\":1.017625,\"BFI\":1.041225,\"CFL\":1.017625,\"BFL\":1.041225,\"CEW\":1.017625,\"BEW\":1.041225}",
        "CurrencyIsoCode": "GBP",
        "Name": "cf919436362f415aef8ed0a1f2ccd302",
        "VlocityDataPackType": "SObject",
        "VlocityRecordSObjectType": "%vlocity_namespace%__CalculationMatrixRow__c"
    }
]