{
  "appPageId" : "9466f045-a0fc-4117-bc13-317bbd589f22",
  "componentName" : "siteforce:sldsOneColLayout",
  "id" : "90228404-6c04-4f4d-9c77-6c6ae1f59c06",
  "label" : "Case Detail",
  "regions" : [ {
    "id" : "69c0ce63-53b0-489b-84a3-3be3eda1d7b9",
    "regionName" : "header",
    "type" : "region"
  }, {
    "components" : [ {
      "componentAttributes" : {
        "recordId" : "{!recordId}"
      },
      "componentName" : "forceCommunity:recordHeadline",
      "id" : "89c75cf0-d766-4d72-a653-81f74d03de7d",
      "renderPriority" : "NEUTRAL",
      "renditionMap" : { },
      "type" : "component"
    }, {
      "componentAttributes" : {
        "detailsTabLabel" : "Details",
        "discussionsTabLabel" : "Feed",
        "recordId" : "{!recordId}",
        "relatedTabLabel" : "Related",
        "tab1Type" : "details",
        "tab2Type" : "related",
        "tab3Type" : "chatter"
      },
      "componentName" : "forceCommunity:recordHomeTabs",
      "id" : "b61d14b0-2f2b-4859-ada1-9391ff1cb912",
      "renderPriority" : "NEUTRAL",
      "renditionMap" : { },
      "type" : "component"
    } ],
    "id" : "273242ae-a3ff-4d10-8c85-7e1fe956db82",
    "regionName" : "content",
    "type" : "region"
  }, {
    "id" : "eb3ed97d-a695-4f7d-b97f-a367e35f2b4c",
    "regionName" : "footer",
    "type" : "region"
  }, {
    "components" : [ {
      "componentAttributes" : {
        "customHeadTags" : "",
        "description" : "",
        "title" : "{!Record._Object}: {!Record._Title}"
      },
      "componentName" : "forceCommunity:seoAssistant",
      "id" : "75deb34c-fe6e-4814-a7d1-dd3b6b3f3b1f",
      "renditionMap" : { },
      "type" : "component"
    } ],
    "id" : "bb723078-a5a2-4307-b704-8a077925b88c",
    "regionName" : "sfdcHiddenRegion",
    "type" : "region"
  } ],
  "themeLayoutType" : "Inner",
  "type" : "view",
  "viewType" : "detail-500"
}