{
  "appPageId" : "9466f045-a0fc-4117-bc13-317bbd589f22",
  "componentName" : "siteforce:sldsOneColLayout",
  "id" : "24b9d5d4-eb3f-4759-bc79-83d1d32f1df0",
  "label" : "Dashboard Detail",
  "regions" : [ {
    "id" : "665b2b26-3170-4fdc-9f03-6c719fe2f48b",
    "regionName" : "header",
    "type" : "region"
  }, {
    "components" : [ {
      "componentAttributes" : {
        "height" : "1065",
        "recordId" : "{!recordId}"
      },
      "componentName" : "forceCommunity:dashboard",
      "id" : "e94a7357-1897-4b78-8e87-46a62f84aaca",
      "renderPriority" : "NEUTRAL",
      "renditionMap" : { },
      "type" : "component"
    } ],
    "id" : "82628b09-99b9-4e2c-a2cc-48f757741384",
    "regionName" : "content",
    "type" : "region"
  }, {
    "components" : [ {
      "componentAttributes" : {
        "askCommunityLabel" : "Ask A Question",
        "contactSupportLabel" : "Contact Support",
        "headerLabel" : "Don't see what you're looking for?",
        "showDetails" : false,
        "showTopics" : true
      },
      "componentName" : "siteforce:napiliFooter",
      "id" : "008a4a54-e28a-47a7-bf70-3736d230d41d",
      "renderPriority" : "NEUTRAL",
      "renditionMap" : { },
      "type" : "component"
    } ],
    "id" : "e53dbed0-aa7f-4b22-80de-c7c7adea45d8",
    "regionName" : "footer",
    "type" : "region"
  }, {
    "components" : [ {
      "componentAttributes" : {
        "customHeadTags" : "",
        "description" : "",
        "title" : "{!Record._Object}: {!Record._Title}"
      },
      "componentName" : "forceCommunity:seoAssistant",
      "id" : "9d94c2c5-b472-49f0-bef5-a4fd298a7c28",
      "renditionMap" : { },
      "type" : "component"
    } ],
    "id" : "73d0c474-2f1d-4d61-bf0a-57c7ea8684ac",
    "regionName" : "sfdcHiddenRegion",
    "type" : "region"
  } ],
  "themeLayoutType" : "Inner",
  "type" : "view",
  "viewType" : "detail-01Z"
}