{
  "appPageId" : "9466f045-a0fc-4117-bc13-317bbd589f22",
  "componentName" : "siteforce:sldsOneColLayout",
  "id" : "aa51a4de-7f56-44ec-ba44-c9a6d2f4fea3",
  "label" : "Flow",
  "regions" : [ {
    "id" : "16e0f371-d4fd-4eb1-96d9-e77181562ba1",
    "regionName" : "header",
    "type" : "region"
  }, {
    "components" : [ {
      "componentAttributes" : {
        "flowArguments" : "",
        "flowLayout" : "oneColumn",
        "flowName" : "{!flowName}"
      },
      "componentName" : "forceCommunity:flowCommunity",
      "id" : "edfe106c-a493-4292-88f8-96499b38a60f",
      "renderPriority" : "NEUTRAL",
      "renditionMap" : { },
      "type" : "component"
    } ],
    "id" : "745e1f0d-4044-402e-a2d2-2db57f690c94",
    "regionName" : "content",
    "type" : "region"
  }, {
    "id" : "d5211e7c-48d9-4ac0-99c5-3dc146c5c73f",
    "regionName" : "footer",
    "type" : "region"
  } ],
  "themeLayoutType" : "Inner",
  "type" : "view",
  "viewType" : "flow"
}