{
  "appPageId" : "9466f045-a0fc-4117-bc13-317bbd589f22",
  "componentName" : "c:BrokerIqLayoutSectionWrapper",
  "id" : "25a9146c-12c7-47bf-af9c-0bb5db875fa3",
  "label" : "History",
  "regions" : [ {
    "id" : "7dca517c-94d8-49bb-ab22-214b3e1894da",
    "regionName" : "header",
    "type" : "region"
  }, {
    "components" : [ {
      "componentAttributes" : {
        "labelForCurrentPage" : "My Viewing History"
      },
      "componentName" : "c:BrokerIqBreadCrumbs",
      "id" : "1355a22f-87d3-44ca-9843-ae711707e398",
      "renderPriority" : "NEUTRAL",
      "renditionMap" : { },
      "type" : "component"
    }, {
      "componentAttributes" : {
        "current" : "history"
      },
      "componentName" : "c:BrokerIqMyMenu",
      "id" : "9c0b1e5c-353a-4e69-81bb-4996fab85d80",
      "renderPriority" : "NEUTRAL",
      "renditionMap" : { },
      "type" : "component"
    }, {
      "componentAttributes" : { },
      "componentName" : "c:BrokerIqHistories",
      "id" : "efc4b89d-b861-42eb-a671-a7f75f81a610",
      "renderPriority" : "NEUTRAL",
      "renditionMap" : { },
      "type" : "component"
    } ],
    "id" : "494b0036-82f1-46e6-9192-082858173598",
    "regionName" : "content",
    "type" : "region"
  }, {
    "id" : "f1f5f412-4ca1-430d-99dd-6cfc767b266c",
    "regionName" : "footer",
    "type" : "region"
  }, {
    "components" : [ {
      "componentAttributes" : {
        "customHeadTags" : "",
        "description" : "",
        "title" : "My Viewing History | Azur Broker iQ"
      },
      "componentName" : "forceCommunity:seoAssistant",
      "id" : "8d7106d2-e784-4c33-b402-5252e4618809",
      "renditionMap" : { },
      "type" : "component"
    } ],
    "id" : "b4f9151a-3923-47b6-86ae-e12d7fd46881",
    "regionName" : "sfdcHiddenRegion",
    "type" : "region"
  } ],
  "themeLayoutType" : "Inner",
  "type" : "view",
  "viewType" : "custom-history"
}