{
  "appPageId" : "9466f045-a0fc-4117-bc13-317bbd589f22",
  "componentName" : "siteforce:sldsOneColLayout",
  "id" : "acef352a-16d7-4027-9e8a-f765c2056250",
  "label" : "IQ Content List",
  "regions" : [ {
    "id" : "3467d093-de13-4b15-8789-ce2c5e6cb3fc",
    "regionName" : "header",
    "type" : "region"
  }, {
    "components" : [ {
      "componentAttributes" : {
        "filterName" : "{!filterId}",
        "layout" : "FULL",
        "pageSize" : 25,
        "scope" : "{!objectName}",
        "showDisplay" : "showall"
      },
      "componentName" : "forceCommunity:objectHome",
      "id" : "d580eed5-dc76-467c-8ec5-8f2412b3b7be",
      "renderPriority" : "NEUTRAL",
      "renditionMap" : { },
      "type" : "component"
    } ],
    "id" : "f5a15e90-491e-4841-a33a-3c8ea2117e0b",
    "regionName" : "content",
    "type" : "region"
  }, {
    "id" : "2a1bb3a2-cc25-4d73-aa87-cb992bba7a52",
    "regionName" : "footer",
    "type" : "region"
  } ],
  "themeLayoutType" : "Inner",
  "type" : "view",
  "viewType" : "list-a62"
}