{
  "appPageId" : "9466f045-a0fc-4117-bc13-317bbd589f22",
  "componentName" : "siteforce:sldsOneColLayout",
  "id" : "4e0171d9-73ee-4c22-86ec-039114286f80",
  "label" : "Report Builder",
  "regions" : [ {
    "id" : "dbc912af-1b20-462c-a41b-60be4fc52900",
    "regionName" : "header",
    "type" : "region"
  }, {
    "components" : [ {
      "componentAttributes" : {
        "recordId" : "{!recordId}"
      },
      "componentName" : "forceCommunity:reportBuilder",
      "id" : "ca064c2f-bccd-47b6-9c8a-ff4b4a1f3bf9",
      "renderPriority" : "NEUTRAL",
      "renditionMap" : { },
      "type" : "component"
    } ],
    "id" : "43f81aeb-26f4-4dc1-9692-aa16800ec71e",
    "regionName" : "content",
    "type" : "region"
  }, {
    "id" : "69aa31a5-8468-461a-af67-132fb74d5668",
    "regionName" : "footer",
    "type" : "region"
  } ],
  "themeLayoutType" : "Inner",
  "type" : "view",
  "viewType" : "createreport"
}