{
  "appPageId" : "9466f045-a0fc-4117-bc13-317bbd589f22",
  "componentName" : "siteforce:sldsOneColLayout",
  "id" : "be636c4c-d4f6-47d3-aa24-aba316f9c3cc",
  "label" : "Stream Related List",
  "regions" : [ {
    "id" : "cc57ee03-340a-4aba-bbd0-a79e4c86fe5b",
    "regionName" : "header",
    "type" : "region"
  }, {
    "id" : "56a69251-2874-4588-9034-25c61d36c0be",
    "regionName" : "content",
    "type" : "region"
  }, {
    "id" : "fedbddc1-dbda-458c-a2e8-799cc8f4edc2",
    "regionName" : "footer",
    "type" : "region"
  } ],
  "themeLayoutType" : "Inner",
  "type" : "view",
  "viewType" : "relatedlist-0Fq"
}