{
  "appPageId" : "9466f045-a0fc-4117-bc13-317bbd589f22",
  "componentName" : "siteforce:sldsOneColLayout",
  "id" : "36f7d7d9-89c8-4c84-87a2-86d4d3195d0f",
  "label" : "User Settings",
  "regions" : [ {
    "id" : "5efe88ca-31b6-4f58-a9c2-175c983be544",
    "regionName" : "header",
    "type" : "region"
  }, {
    "components" : [ {
      "componentAttributes" : {
        "id" : "{!userId}"
      },
      "componentName" : "forceCommunity:userSettings",
      "id" : "eff1be57-6c65-4c20-b7ff-5ce1d14fb304",
      "renderPriority" : "NEUTRAL",
      "renditionMap" : { },
      "type" : "component"
    } ],
    "id" : "826e5c90-4e46-408f-863f-6612039a37f8",
    "regionName" : "content",
    "type" : "region"
  }, {
    "id" : "fe3ca87e-9f71-4c39-991c-33d0a909f8f2",
    "regionName" : "footer",
    "type" : "region"
  } ],
  "themeLayoutType" : "Inner",
  "type" : "view",
  "viewType" : "usersettings"
}