{
    "%vlocity_namespace%__Active__c": true,
    "%vlocity_namespace%__OmniScriptId__c": {
        "Name": "MTA Quote",
        "VlocityDataPackType": "VlocityMatchingKeyObject",
        "VlocityMatchingRecordSourceKey": "%vlocity_namespace%__OmniScript__c/EW/MTA Quote/English",
        "VlocityRecordSObjectType": "%vlocity_namespace%__OmniScript__c"
    },
    "%vlocity_namespace%__PropertySet__c": {
        "HTMLTemplateId": "",
        "controlWidth": 12,
        "disOnTplt": false,
        "extraPayload": {
        },
        "failureAbortLabel": "Abort",
        "failureAbortMessage": "Are you sure?",
        "failureNextLabel": "Continue",
        "inProgressMessage": "In Progress",
        "label": null,
        "message": {
        },
        "namedCredential": "",
        "postMessage": "Done",
        "postTransformBundle": "",
        "preTransformBundle": "",
        "redirectNextLabel": "Next",
        "redirectNextWidth": 3,
        "redirectPageName": "",
        "redirectPreviousLabel": "Previous",
        "redirectPreviousWidth": 3,
        "redirectTemplateUrl": "vlcAcknowledge.html",
        "responseJSONNode": "subsAPIResponse",
        "responseJSONPath": "data",
        "restMethod": "GET",
        "restOptions": {
            "URIEncode": false,
            "cache": false,
            "headers": {
            },
            "params": {
                "pc": "%outraAPIResponse:postcode%"
            },
            "sendBody": true,
            "timeout": 0,
            "withCredentials": false
        },
        "restPath": "https://azur-integrations.herokuapp.com/subsidence",
        "sendJSONNode": "",
        "sendJSONPath": "",
        "show": {
            "group": {
                "operator": "AND",
                "rules": [
                    {
                        "condition": "=",
                        "data": "true",
                        "field": "addressChanged"
                    },
                    {
                        "condition": "=",
                        "data": "false",
                        "field": "skipToCoverageStep"
                    }
                ]
            }
        },
        "showPersistentComponent": [
            false,
            false
        ],
        "ssm": false,
        "svgIcon": "",
        "svgSprite": "",
        "type": "Web",
        "validationRequired": "None",
        "wpm": false,
        "xmlPostTransformBundle": "",
        "xmlPreTransformBundle": ""
    },
    "%vlocity_namespace%__ReusableOmniScript__c": false,
    "%vlocity_namespace%__Type__c": "Rest Action",
    "CurrencyIsoCode": "GBP",
    "Name": "getAreaPerilsScore",
    "VlocityDataPackType": "SObject",
    "VlocityRecordSObjectType": "%vlocity_namespace%__Element__c",
    "VlocityRecordSourceKey": "%vlocity_namespace%__Element__c/%vlocity_namespace%__OmniScript__c/EW/MTA Quote/English/getAreaPerilsScore"
}