{
    "%vlocity_namespace%__Active__c": true,
    "%vlocity_namespace%__OmniScriptId__c": {
        "Name": "MTA Quote",
        "VlocityDataPackType": "VlocityMatchingKeyObject",
        "VlocityMatchingRecordSourceKey": "%vlocity_namespace%__OmniScript__c/EW/MTA Quote/English",
        "VlocityRecordSObjectType": "%vlocity_namespace%__OmniScript__c"
    },
    "%vlocity_namespace%__ParentElementId__c": {
        "%vlocity_namespace%__OmniScriptId__c": {
            "Name": "MTA Quote",
            "VlocityDataPackType": "VlocityMatchingKeyObject",
            "VlocityMatchingRecordSourceKey": "%vlocity_namespace%__OmniScript__c/EW/MTA Quote/English",
            "VlocityRecordSObjectType": "%vlocity_namespace%__OmniScript__c"
        },
        "Name": "summary",
        "VlocityDataPackType": "VlocityMatchingKeyObject",
        "VlocityMatchingRecordSourceKey": "%vlocity_namespace%__Element__c/%vlocity_namespace%__OmniScript__c/EW/MTA Quote/English/summary",
        "VlocityRecordSObjectType": "%vlocity_namespace%__Element__c"
    },
    "%vlocity_namespace%__ParentElementName__c": "summary",
    "%vlocity_namespace%__ParentElementType__c": "Step",
    "%vlocity_namespace%__PropertySet__c": {
        "HTMLTemplateId": "",
        "controlWidth": 12,
        "disOnTplt": false,
        "label": "<p><strong>MTA Reason:</strong>&nbsp; %mtaConfirmation:mtaReason%<br /><strong>MTA Description</strong>:&nbsp; %mtaConfirmation:mtaReasonDetail%<br /><strong>Effective Date:</strong>&nbsp; %displayEffectiveDate%<br /><strong>Transactional Premium inc IPT:</strong>&nbsp; GBP %transactionalPremiumIncIPT%<br /><strong>New Annualised Expiring Premium inc IPT:</strong>&nbsp; GBP %annualisedPremiumIncIPT%<br /><em>The new annualised premium shown above does not include any direct debit charges.</em><br /><strong>Quote expiry date:</strong>&nbsp; %displayExpirationDate%</p>",
        "labelKey": "",
        "sanitize": false,
        "show": {
            "group": {
                "operator": "AND",
                "rules": [
                    {
                        "condition": "=",
                        "data": "Broker Collection",
                        "field": "paymentMethod"
                    }
                ]
            }
        }
    },
    "%vlocity_namespace%__ReusableOmniScript__c": false,
    "%vlocity_namespace%__Type__c": "Headline",
    "CurrencyIsoCode": "GBP",
    "Name": "displaySummary",
    "VlocityDataPackType": "SObject",
    "VlocityRecordSObjectType": "%vlocity_namespace%__Element__c",
    "VlocityRecordSourceKey": "%vlocity_namespace%__Element__c/%vlocity_namespace%__OmniScript__c/EW/MTA Quote/English/displaySummary"
}