{
  "activeViewId" : "d1676185-6842-499f-83f3-90f094e47f94",
  "appPageId" : "129d4d71-8c75-4c59-b79b-56e523fc999d",
  "configurationTags" : [ ],
  "id" : "64881b80-9fac-4ab2-8b98-262f8362bf47",
  "label" : "Account Related List",
  "routeType" : "relatedlist-001",
  "type" : "route",
  "urlPrefix" : "account"
}