{
  "activeViewId" : "c9b59a43-ce8f-4c95-b2d6-42b68e406ec5",
  "appPageId" : "129d4d71-8c75-4c59-b79b-56e523fc999d",
  "configurationTags" : [ ],
  "id" : "a4df1daf-55c4-4cf2-bfda-2b4fa263788b",
  "label" : "Article Detail",
  "routeType" : "article",
  "type" : "route",
  "urlPrefix" : "article"
}