{
  "activeViewId" : "7b6954b4-0633-405c-9f89-cac2629c72c0",
  "appPageId" : "129d4d71-8c75-4c59-b79b-56e523fc999d",
  "configurationTags" : [ ],
  "id" : "6be80b17-76d2-466a-812f-94935e96e669",
  "label" : "Create Record",
  "routeType" : "createrecord",
  "type" : "route",
  "urlPrefix" : "createrecord"
}