{
  "activeViewId" : "2b9fc1cc-56a1-41db-b1a4-1d83633ffa8b",
  "appPageId" : "129d4d71-8c75-4c59-b79b-56e523fc999d",
  "configurationTags" : [ ],
  "id" : "83cc082f-c84f-4542-8084-d1e9c626b8f3",
  "label" : "Dashboard",
  "pageAccess" : "UseParent",
  "routeType" : "custom-dashboard",
  "type" : "route",
  "urlPrefix" : "dashboard"
}