{
  "activeViewId" : "8e201089-1118-4963-a258-e5f6aa1f7f57",
  "appPageId" : "129d4d71-8c75-4c59-b79b-56e523fc999d",
  "configurationTags" : [ ],
  "id" : "8f1b014e-c92b-4ba6-961e-5a09d1f9399d",
  "label" : "File Detail",
  "routeType" : "detail-069",
  "type" : "route",
  "urlPrefix" : "contentdocument"
}