{
  "activeViewId" : "800b6134-e698-4fcb-9e0e-7388ee62a2c3",
  "appPageId" : "129d4d71-8c75-4c59-b79b-56e523fc999d",
  "configurationTags" : [ ],
  "id" : "d8d5df13-eb5a-4d81-92f6-3aa5052afd76",
  "label" : "Home",
  "pageAccess" : "UseParent",
  "routeType" : "home",
  "type" : "route",
  "urlPrefix" : ""
}