{
  "activeViewId" : "709b6d2d-86b3-46ed-be87-7c93888fa309",
  "appPageId" : "129d4d71-8c75-4c59-b79b-56e523fc999d",
  "configurationTags" : [ ],
  "id" : "f896fa53-a00a-4fb9-a4fe-444c3ec58a38",
  "label" : "Quote Broker Referral",
  "pageAccess" : "UseParent",
  "routeType" : "custom-quote-broker-referral",
  "type" : "route",
  "urlPrefix" : "quote-broker-referral"
}