{
  "activeViewId" : "81f1a7d2-ad48-4a65-a473-51193d3310f8",
  "appPageId" : "129d4d71-8c75-4c59-b79b-56e523fc999d",
  "configurationTags" : [ ],
  "id" : "33d81bb1-54ce-47d7-a0d9-520c0ed1141c",
  "label" : "SmartDocs",
  "pageAccess" : "UseParent",
  "routeType" : "custom-smartdocs",
  "type" : "route",
  "urlPrefix" : "smartdocs"
}