{
  "activeViewId" : "cc873f74-7393-4ad2-9fa3-96cb59f5e114",
  "appPageId" : "129d4d71-8c75-4c59-b79b-56e523fc999d",
  "configurationTags" : [ ],
  "id" : "99552ff4-4704-4d91-91e4-f6ca40423a31",
  "label" : "Stream Detail",
  "routeType" : "detail-0Fq",
  "type" : "route",
  "urlPrefix" : "streams"
}