{
    "AdjustmentPercentage": 50,
    "AgeGenderPrice": 262.24,
    "AgeGender__AgeGenderRating": 1.05,
    "AnnualMileagePrice": 312.19,
    "AnnualMileage__AnnualMileageRating": 1,
    "AnnualPremium": 353.848,
    "AreaRatingPrice": 406.3,
    "AreaRating__AreaRatingFactor": 1,
    "BasePrice": 406.3,
    "CarKeptPrice": 249.75,
    "CarKept__CarKeptRating": 0.8,
    "ChargablePremium": 353.85,
    "ClaimsConvictionsPrice": 249.75,
    "ClaimsConvictions__ClaimsConvictionsRating": 1,
    "Commission": 35.38,
    "Comprehensive": {
        "EndDate": "2018-02-14",
        "Name": "Comprehensive",
        "StartDate": "2017-02-14T00:01:00.000Z",
        "Type": "Comprehensive"
    },
    "ContextId": "a6B4E0000008PdA",
    "DRId_Insured_Item__c": "a6B4E0000008PdAUAU",
    "DRId_Referrals__c": "a6o4E0000004DxEQAU",
    "EngineSizePrice": 262.24,
    "EngineSize__EngineSizeRating": 1,
    "GrossPremium": 389.23,
    "Ins": "a6B4E0000008PdAUAU",
    "InsItemActive": true,
    "InsItemRatedVal": 1395,
    "InsuredItem": {
        "AnnualMileage__c": 5222,
        "CoverDays": 365,
        "Driver_Setup__c": "Any driver",
        "No_of_Associated_Drivers__c": 1,
        "Rated_Excess__c": 0,
        "Rated_Value__c": 1395,
        "VehicleKept__c": "Alarmed Garage",
        "VehicleUse__c": "Class 2",
        "Vehicle_Age__c": 12,
        "Vehicle_Area_Code__c": 1,
        "Vehicle_Type__c": "Auto"
    },
    "Limit": 25,
    "MultiCarPremium": 353.848,
    "MutliCarRating": 1.363,
    "PolicyId": "02i4E000001yHT1QAM",
    "Product": {
        "%vlocity_namespace%__StandardPremium__c": 406.3
    },
    "TaxAmount": 35.38,
    "Underwriter": "00558000000tpGDAAY",
    "VehicleAgePrice": 312.19,
    "VehicleAge__VehicleAgeRating": 0.827,
    "VehicleGroupPrice": 377.5,
    "VehicleGroup__VehicleGroupRating": 1.6562,
    "VehicleProduct": "Auto",
    "VehicleSecurityPrice": 259.61,
    "VehicleSecurity__SecurityRating": 0.9,
    "VehicleUsePrice": 288.46,
    "VehicleUse__VehicleUseRating": 1.1,
    "VehicleValuePrice": 227.93,
    "VehicleValue__VehicleValueRating": 0.561,
    "VolExcessPrice": 249.75,
    "VolExcess__VolExcessRating": 1,
    "Windscreen": {
        "Excess": 100,
        "Name": "Windscreen",
        "Type": "Windscreen"
    },
    "asset": {
        "AccountId": "0014E00000OPgs3QAD",
        "Currency": "GBP",
        "CurrencySymbol": "£",
        "IncEndDate": "2018-02-14T00:01:00.000Z",
        "IncStartDate": "2017-02-14T00:01:00.000Z",
        "Name": "MO07000728Q-00-0",
        "No_of_Insured_Items__c": 3,
        "Policy_Status__c": "QL-Quote Logged",
        "RecordTypeId": "0124E0000000Os0QAE",
        "recordTypeName": "Quote"
    },
    "endDateCoverVehicle": "2018-02-14",
    "id": "a3f4E0000000QzvQAE",
    "laidUp": "No",
    "policyHolderId": "0014E00000OPgs3QAD",
    "policyMember": {
        "ClaimsConvictionPoints__c": 0,
        "Id": "a674E000000Cc4jQAC"
    },
    "referralCode": 1,
    "stepCoverDetails": {
        "AdjustmentRate": 0.5,
        "AdjustmentReferral": "1",
        "AdjustmentReferralName": "Authority to override approved rates",
        "Block 1": {
            "ageGenderPercent": 5,
            "annualMileagePercent": 0,
            "areaPercent": 0,
            "carKeptPercent": -20,
            "claimsConvictionsPercent": 0,
            "coverActive": "Yes",
            "coverType": "Comprehensive",
            "engineSizePercent": 0,
            "multiCarPercent": 36.3,
            "startDateTimeCoverVehicle": "2017-02-14T00:01:00.000Z",
            "vehicleAgePercent": -17.3,
            "vehicleGroupPercent": 65.6,
            "vehicleSecurityPercent": -10,
            "vehicleUsePercent": 10,
            "vehicleValuePercent": -43.9,
            "volExcessPercent": 0
        },
        "FormulaAnnualPremiumAdjustent": 530.772,
        "QuoteCurrency": "GBP",
        "adjustment": 50,
        "adjustmentOfFormula": 124.47200000000004,
        "adjustmentPercent": 50,
        "adjustmentPercentage": 50,
        "assetStatus": "QL-Quote Logged",
        "basePremium": 406.3,
        "notes": null,
        "reasonAdjustmentMultiSelect": null,
        "sumInsured": 1395,
        "windscreenval": 100
    },
    "timeStamp": "2017-02-21T11:39:39.269Z",
    "userName": "cdecisions@azuruw.com.vlctyrone",
    "userProfile": "System Administrator",
    "vlcPersistentComponent": {
    },
    "vlcTimeTracking": {
        "DRGetRatingData": 6320,
        "DRGetReferralData": 6702,
        "DRPostReferral": 708,
        "DataRaptor Extract Action 4": 6482,
        "GetComprehensiveCover": 6224,
        "GetWindscreenCover": 6272,
        "InsuredItemDetails": 9896,
        "OmniScriptSessionToken": "30fe322d-819a-458f-a2db-722d56dddb44",
        "Set Values 1": 4,
        "Set Values 5": 3,
        "Set Values 6": 14,
        "Set Values 7": 3,
        "Set Values 8": 6,
        "UpdateInsuredItem": 2770,
        "setValueTEST-DELETE": 11,
        "stepCoverDetails": 12723
    }
}