{
    "%vlocity_namespace%__Author__c": "Azur Underwriting",
    "%vlocity_namespace%__CSS__c": "",
    "%vlocity_namespace%__CustomJavascript__c": "",
    "%vlocity_namespace%__Definition__c": "",
    "%vlocity_namespace%__Description__c": "",
    "%vlocity_namespace%__DisplayOn__c": "",
    "%vlocity_namespace%__ExternalID__c": "ew-omniLightning-vlcRemoteAction/1/Azur Underwriting/1553180920611",
    "%vlocity_namespace%__HTML__c": "ew-omniLightning-vlcRemoteAction.html",
    "%vlocity_namespace%__ParentID__c": "",
    "%vlocity_namespace%__SampleJson__c": "",
    "%vlocity_namespace%__Sass__c": "",
    "%vlocity_namespace%__Type__c": "OmniScript Selectable Items",
    "%vlocity_namespace%__Version__c": 1,
    "CurrencyIsoCode": "GBP",
    "Name": "ew-omniLightning-vlcRemoteAction",
    "VlocityDataPackType": "SObject",
    "VlocityRecordSObjectType": "%vlocity_namespace%__VlocityUITemplate__c",
    "VlocityRecordSourceKey": "%vlocity_namespace%__VlocityUITemplate__c/ew-omniLightning-vlcRemoteAction"
}