{
    "%vlocity_namespace%__CalculationMatrixId__c": {
        "Name": "ClaimTimeDecay",
        "VlocityDataPackType": "VlocityMatchingKeyObject",
        "VlocityMatchingRecordSourceKey": "%vlocity_namespace%__CalculationMatrix__c/ClaimTimeDecay",
        "VlocityRecordSObjectType": "%vlocity_namespace%__CalculationMatrix__c"
    },
    "%vlocity_namespace%__CalculationMatrixId__r.Name": "ClaimTimeDecay",
    "%vlocity_namespace%__CalculationMatrixRow__c": "ClaimTimeDecay_Version_Rows.json",
    "%vlocity_namespace%__CurrentStatus__c": "Active",
    "%vlocity_namespace%__EndDateTime__c": "",
    "%vlocity_namespace%__GlobalKey__c": "",
    "%vlocity_namespace%__Priority__c": 1,
    "%vlocity_namespace%__StartDateTime__c": "2018-10-23T11:00:53.000Z",
    "%vlocity_namespace%__UseLongOutput__c": false,
    "%vlocity_namespace%__VersionNumber__c": 1,
    "CurrencyIsoCode": "GBP",
    "Name": "ClaimTimeDecay V1",
    "VlocityDataPackType": "SObject",
    "VlocityRecordSObjectType": "%vlocity_namespace%__CalculationMatrixVersion__c",
    "VlocityRecordSourceKey": "%vlocity_namespace%__CalculationMatrixVersion__c/ClaimTimeDecay V1"
}