{
    "%vlocity_namespace%__Active__c": true,
    "%vlocity_namespace%__OmniScriptId__c": {
        "Name": "QuoteCapAndTrap",
        "VlocityDataPackType": "VlocityMatchingKeyObject",
        "VlocityMatchingRecordSourceKey": "%vlocity_namespace%__OmniScript__c/EW/QuoteCapAndTrap/Procedure",
        "VlocityRecordSObjectType": "%vlocity_namespace%__OmniScript__c"
    },
    "%vlocity_namespace%__PropertySet__c": {
        "actionMessage": "",
        "additionalChainableResponse": {
        },
        "additionalInput": {
        },
        "additionalOutput": {
        },
        "chainOnStep": false,
        "disOnTplt": false,
        "executionConditionalFormula": "RA_getRatedProductsCapAndTrap:records <> NULL",
        "failOnStepError": true,
        "failureConditionalFormula": "",
        "failureResponse": {
        },
        "label": "RemoteAction3",
        "remoteClass": "EWVlocityRemoteActionHelper",
        "remoteMethod": "postSObject",
        "remoteOptions": {
            "Class__c": "Quote Omniscript",
            "Log_description__c": "%quoteTransactionType% Quote",
            "Log_message__c": "%RA_getRatedProductsCapAndTrap:records|1:CalculatedPriceData%",
            "Method__c": "getRatedProductsCapAndTrap:CalculatedPriceData",
            "objectName": "Azur_Log__c"
        },
        "responseJSONNode": "",
        "responseJSONPath": "",
        "returnOnlyAdditionalOutput": false,
        "returnOnlyFailureResponse": false,
        "sendJSONNode": "",
        "sendJSONPath": "RA_getRatedProductsCapAndTrap:records:CalculatedPriceData",
        "sendOnlyAdditionalInput": false,
        "show": null,
        "useFormulas": true
    },
    "%vlocity_namespace%__ReusableOmniScript__c": false,
    "%vlocity_namespace%__Type__c": "Remote Action",
    "CurrencyIsoCode": "GBP",
    "Name": "RA_postGetRatedProductsToAzurLog",
    "VlocityDataPackType": "SObject",
    "VlocityRecordSObjectType": "%vlocity_namespace%__Element__c",
    "VlocityRecordSourceKey": "%vlocity_namespace%__Element__c/%vlocity_namespace%__OmniScript__c/EW/QuoteCapAndTrap/Procedure/RA_postGetRatedProductsToAzurLog"
}