{
    "%vlocity_namespace%__Active__c": false,
    "%vlocity_namespace%__OmniScriptId__c": {
        "Name": "Documents",
        "VlocityDataPackType": "VlocityMatchingKeyObject",
        "VlocityMatchingRecordSourceKey": "%vlocity_namespace%__OmniScript__c/EW/Documents/English",
        "VlocityRecordSObjectType": "%vlocity_namespace%__OmniScript__c"
    },
    "%vlocity_namespace%__PropertySet__c": {
        "HTMLTemplateId": "",
        "cancelLabel": "Cancel",
        "cancelMessage": "Are you sure?",
        "chartLabel": null,
        "completeLabel": "Complete",
        "completeMessage": "Are you sure you want to complete the script?",
        "conditionType": "Hide if False",
        "disOnTplt": false,
        "instruction": "",
        "instructionKey": "",
        "knowledgeOptions": {
            "dataCategoryCriteria": "",
            "keyword": "",
            "language": "English",
            "publishStatus": "Online",
            "remoteTimeout": 30000,
            "typeFilter": ""
        },
        "label": "Test Step 1",
        "nextLabel": "Next",
        "nextWidth": 3,
        "previousLabel": "Previous",
        "previousWidth": 3,
        "remoteClass": "",
        "remoteMethod": "",
        "remoteOptions": {
        },
        "remoteTimeout": 30000,
        "saveLabel": "Save for later",
        "saveMessage": "Are you sure you want to save it for later?",
        "show": null,
        "showPersistentComponent": [
            false,
            false
        ],
        "validationRequired": true
    },
    "%vlocity_namespace%__ReusableOmniScript__c": true,
    "%vlocity_namespace%__Type__c": "Step",
    "CurrencyIsoCode": "GBP",
    "Name": "testStep1",
    "VlocityDataPackType": "SObject",
    "VlocityRecordSObjectType": "%vlocity_namespace%__Element__c",
    "VlocityRecordSourceKey": "%vlocity_namespace%__Element__c/%vlocity_namespace%__OmniScript__c/EW/Documents/English/testStep1"
}