{
  "activeViewId" : "d82bf4ea-150d-44d8-afde-3805ea5bb3d1",
  "appPageId" : "9466f045-a0fc-4117-bc13-317bbd589f22",
  "configurationTags" : [ ],
  "id" : "4b5a7bdc-9e8e-4429-a427-7cfbbbf4666e",
  "label" : "Broker iQ Contributor List",
  "objectApiName" : "Broker_iQ_Contributor__c",
  "routeType" : "list-aDI",
  "type" : "route",
  "urlPrefix" : "broker-iq-contributor"
}