{
  "activeViewId" : "0dc713ef-bff4-40ea-acc6-70c7d83cf85d",
  "appPageId" : "9466f045-a0fc-4117-bc13-317bbd589f22",
  "configurationTags" : [ ],
  "id" : "45fd4ccf-e67f-49b5-b6fe-a21fa691b6c6",
  "label" : "Contact Support",
  "pageAccess" : "UseParent",
  "routeType" : "contactsupport",
  "type" : "route",
  "urlPrefix" : "contactsupport"
}