{
  "activeViewId" : "24b9d5d4-eb3f-4759-bc79-83d1d32f1df0",
  "appPageId" : "9466f045-a0fc-4117-bc13-317bbd589f22",
  "configurationTags" : [ ],
  "id" : "ac548842-3301-43fc-98e1-2d68e1143aa9",
  "label" : "Dashboard Detail",
  "routeType" : "detail-01Z",
  "type" : "route",
  "urlPrefix" : "dashboard"
}