{
  "activeViewId" : "ad699b1f-442c-48af-930f-943febbd3fb8",
  "appPageId" : "9466f045-a0fc-4117-bc13-317bbd589f22",
  "configurationTags" : [ ],
  "id" : "201565bf-d4aa-463b-9f88-622b4a32d148",
  "label" : "Error",
  "pageAccess" : "UseParent",
  "routeType" : "error",
  "type" : "route",
  "urlPrefix" : "error"
}