{
  "activeViewId" : "25a9146c-12c7-47bf-af9c-0bb5db875fa3",
  "appPageId" : "9466f045-a0fc-4117-bc13-317bbd589f22",
  "configurationTags" : [ ],
  "id" : "5223d0c1-5082-4b0e-a309-5a1a0a92d30d",
  "label" : "History",
  "pageAccess" : "UseParent",
  "routeType" : "custom-history",
  "type" : "route",
  "urlPrefix" : "history"
}