{
  "activeViewId" : "b9ee5085-ea91-43be-b8b1-d6a649b9e021",
  "appPageId" : "9466f045-a0fc-4117-bc13-317bbd589f22",
  "configurationTags" : [ ],
  "id" : "9a9d6e20-32a0-45f5-88f8-9e5f43f25dd2",
  "label" : "My Account",
  "routeType" : "my-account",
  "type" : "route",
  "urlPrefix" : "comm-my-account"
}