{
  "activeViewId" : "31aaa922-f368-4876-9c5c-fa5befddd704",
  "appPageId" : "9466f045-a0fc-4117-bc13-317bbd589f22",
  "configurationTags" : [ ],
  "id" : "3a43bdee-62f0-44bf-bd56-b391fbe0ac19",
  "label" : "Report Related List",
  "routeType" : "relatedlist-00O",
  "type" : "route",
  "urlPrefix" : "report"
}