{
  "activeViewId" : "948c19ef-2515-4c81-b74e-66f09a473c33",
  "appPageId" : "9466f045-a0fc-4117-bc13-317bbd589f22",
  "configurationTags" : [ ],
  "id" : "3ccff0ec-9765-4d3f-9c73-11011a36542e",
  "label" : "User Related List",
  "routeType" : "relatedlist-005",
  "type" : "route",
  "urlPrefix" : "profile"
}