{
    "ContextId": null,
    "propertyDetails": {
        "blockCoverage": {
            "rangeArt": null,
            "rangeJewelleryWatches": null,
            "rangePedalCycles": null,
            "rangeTenantsImprovements": null
        },
        "declineWarningMessage": null,
        "editBlockClaimsHistory": {
            "claimDateText": null,
            "radioClaimAtCurrentProperty": null,
            "radioClaimStillOpen": null,
            "selectClaimType": null,
            "textClaimValue": null
        },
        "editBlockSpecifiedItems": {
            "imageItemUpload": [
                {
                    "data": null,
                    "filename": null,
                    "size": null
                }
            ],
            "selectItemType": null,
            "textAreaDescription": null,
            "textItemName": null,
            "textItemValue": null
        },
        "multiDeclarationsConfirmationOne": null,
        "propAmbPostalCode-Block": {
            "propAmbPostalCode": null,
            "uprn": null
        },
        "radioBusinessUse": null,
        "radioClaimsHistory": null,
        "radioGoodStateOfRepair": null,
        "radioListedStatus": null,
        "radioMinimumConstructionType": null,
        "radioMinimumSecurity": null,
        "radioNoSignsOfSubsidence": null,
        "radioNotBusinessUseOrOpenToPublic": null,
        "radioNotListedDeclaration": null,
        "radioNotPlanningWorks": null,
        "radioNotPreviouslyFlooded": null,
        "radioOpenToPublic": null,
        "radioPolicyType": null,
        "radioPreviousInsurance": null,
        "radioPreviousInsuranceReason": null,
        "radioSpecifiedItems": null,
        "selectFlatRoofPercentage": null,
        "selectRoofConstruction": null,
        "selectWallConstruction": null,
        "sumInsuredBuildings": null,
        "sumInsuredTenantsImprovements": null
    },
    "timeStamp": null,
    "userId": null,
    "userName": null,
    "userProfile": null,
    "userTimeZone": null,
    "vlcPersistentComponent": {
    },
    "vlcTimeTracking": {
        "DRPostOppty": null,
        "DRPostPersonAccounts": null,
        "DataRaptorExtractAction": null,
        "DataRaptorPostAction3": null,
        "RARecordTypeSelector": null,
        "SetOpptyNameByBrokerName": null,
        "getClaimsScore": null,
        "getFloodData": null,
        "getPropertyData": null,
        "propertyDetails": null,
        "setDefaultFormValues": null
    }
}