{
    "%vlocity_namespace%__AdditionalInformation__c": "EWH-1711 Ensure double-emails are not sent for MTA approvals",
    "%vlocity_namespace%__ElementTypeToHTMLTemplateList__c": "{\"ElementTypeToHTMLTemplateList\":[]}",
    "%vlocity_namespace%__Element__c": [
        "EW_UnderwriterFeedback_English_Element_DR_GetQuoteData.json",
        "EW_UnderwriterFeedback_English_Element_SV_SetMessage.json",
        "EW_UnderwriterFeedback_English_Element_Underwriting.json",
        "EW_UnderwriterFeedback_English_Element_BrokerMessage.json",
        "EW_UnderwriterFeedback_English_Element_UWMessageLabel.json",
        "EW_UnderwriterFeedback_English_Element_Message.json",
        "EW_UnderwriterFeedback_English_Element_RadioAction.json",
        "EW_UnderwriterFeedback_English_Element_suppressEmail.json",
        "EW_UnderwriterFeedback_English_Element_SV_OpptyFields.json",
        "EW_UnderwriterFeedback_English_Element_RA_UpdateQuote.json",
        "EW_UnderwriterFeedback_English_Element_RA_PostUWMessage.json",
        "EW_UnderwriterFeedback_English_Element_IP_EmailQuoteToBroker.json",
        "EW_UnderwriterFeedback_English_Element_RA_ApprovedMTA.json",
        "EW_UnderwriterFeedback_English_Element_RA_UWAdjusted.json",
        "EW_UnderwriterFeedback_English_Element_DA_ReturnBackToQuoteRecord.json"
    ],
    "%vlocity_namespace%__IsProcedure__c": false,
    "%vlocity_namespace%__IsReusable__c": false,
    "%vlocity_namespace%__Language__c": "English",
    "%vlocity_namespace%__PropertySet__c": "EW_UnderwriterFeedback_English_PropertySet.json",
    "%vlocity_namespace%__SubType__c": "UnderwriterFeedback",
    "%vlocity_namespace%__Type__c": "EW",
    "CurrencyIsoCode": "GBP",
    "Name": "UnderwriterFeedback",
    "VlocityDataPackType": "SObject",
    "VlocityRecordSObjectType": "%vlocity_namespace%__OmniScript__c",
    "VlocityRecordSourceKey": "%vlocity_namespace%__OmniScript__c/EW/UnderwriterFeedback/English"
}