{
    "%vlocity_namespace%__Active__c": true,
    "%vlocity_namespace%__OmniScriptId__c": {
        "Name": "UnderwriterFeedback",
        "VlocityDataPackType": "VlocityMatchingKeyObject",
        "VlocityMatchingRecordSourceKey": "%vlocity_namespace%__OmniScript__c/EW/UnderwriterFeedback/English",
        "VlocityRecordSObjectType": "%vlocity_namespace%__OmniScript__c"
    },
    "%vlocity_namespace%__PropertySet__c": {
        "HTMLTemplateId": "",
        "controlWidth": 12,
        "disOnTplt": false,
        "enableDefaultAbort": false,
        "errorMessage": {
            "custom": [
            ],
            "default": null
        },
        "extraPayload": {
        },
        "failureAbortLabel": "Abort",
        "failureAbortMessage": "Are you sure?",
        "failureGoBackLabel": "Go Back",
        "failureNextLabel": "Continue",
        "inProgressMessage": "In Progress",
        "label": "Notify after UW made adjustment, without attaching quote PDF to email",
        "message": {
        },
        "postMessage": "Done",
        "postTransformBundle": "",
        "preTransformBundle": "",
        "redirectNextLabel": "Next",
        "redirectNextWidth": 3,
        "redirectPageName": "",
        "redirectPreviousLabel": "Previous",
        "redirectPreviousWidth": 3,
        "redirectTemplateUrl": "vlcAcknowledge.html",
        "remoteClass": "EWVlocityRemoteActionHelper",
        "remoteMethod": "sendEmail",
        "remoteOptions": {
            "postTransformBundle": "",
            "preTransformBundle": "",
            "saveAsActivity": false,
            "targetObjectId": "%quote:OwnerId%",
            "templateName": "EW_UWApprovedEmailWithoutQuotePDF",
            "whatId": "%quote:Id%"
        },
        "remoteTimeout": 30000,
        "responseJSONNode": "",
        "responseJSONPath": "",
        "sendJSONNode": "",
        "sendJSONPath": "",
        "show": {
            "group": {
                "operator": "AND",
                "rules": [
                    {
                        "condition": "<>",
                        "data": "0",
                        "field": "quote:EW_UW_Adjustment__c"
                    },
                    {
                        "condition": "<>",
                        "data": "MTA",
                        "field": "quote:EW_TypeofTransaction__c"
                    }
                ]
            }
        },
        "showPersistentComponent": [
            false,
            false
        ],
        "ssm": false,
        "svgIcon": "",
        "svgSprite": "",
        "validationRequired": "Step",
        "wpm": false
    },
    "%vlocity_namespace%__ReusableOmniScript__c": false,
    "%vlocity_namespace%__Type__c": "Remote Action",
    "CurrencyIsoCode": "GBP",
    "Name": "RA_UWAdjusted",
    "VlocityDataPackType": "SObject",
    "VlocityRecordSObjectType": "%vlocity_namespace%__Element__c",
    "VlocityRecordSourceKey": "%vlocity_namespace%__Element__c/%vlocity_namespace%__OmniScript__c/EW/UnderwriterFeedback/English/RA_UWAdjusted"
}