{
    "BindQuote": {
        "StartDateBlock": {
            "confirmEffectiveDate": null,
            "confirmEffectiveDatePastValidation": null,
            "confirmEffectiveDateValidation": null,
            "effectiveDatePastValidation": null,
            "effectiveDateValidation": null
        },
        "brokerReferenceNumber": null,
        "hasInterestedParty": null,
        "interetedPartyName": null,
        "paymentMethod": null
    },
    "ContextId": null,
    "UnableToBind": {
        "errorHasExistingPolicy": null,
        "errorInactiveQuote": null
    },
    "ffAIGProductName": "Azur Emerging Wealth",
    "policyDefaultInitStatus": "Draft",
    "policyIssuedStatus": "Issued",
    "qDetails": {
        "quote": {
            "typeOfTransaction": "Text"
        }
    },
    "timeStamp": null,
    "userId": null,
    "userName": null,
    "userProfile": null,
    "userTimeZone": null,
    "vlcPersistentComponent": {
    },
    "vlcTimeTracking": {
        "BindQuote": null,
        "DisplayPolicy": null,
        "ReturnToHome": null,
        "TEST - Set values": null,
        "UnableToBind": null,
        "checkForDuplication": null,
        "checkIsQuoteActive": null,
        "createPolicy": null,
        "extractBrokerDetails": null,
        "extractQuoteDetails": null,
        "getCoverageDetails": null,
        "postInsuredItems": null,
        "setFormDefaultValues": null,
        "setMainSwitch": null,
        "updateQuote": null
    }
}