{
    "%vlocity_namespace%__Active__c": true,
    "%vlocity_namespace%__OmniScriptId__c": {
        "Name": "QuoteClient",
        "VlocityDataPackType": "VlocityMatchingKeyObject",
        "VlocityMatchingRecordSourceKey": "%vlocity_namespace%__OmniScript__c/EW/QuoteClient/English",
        "VlocityRecordSObjectType": "%vlocity_namespace%__OmniScript__c"
    },
    "%vlocity_namespace%__ParentElementId__c": {
        "%vlocity_namespace%__OmniScriptId__c": {
            "Name": "QuoteClient",
            "VlocityDataPackType": "VlocityMatchingKeyObject",
            "VlocityMatchingRecordSourceKey": "%vlocity_namespace%__OmniScript__c/EW/QuoteClient/English",
            "VlocityRecordSObjectType": "%vlocity_namespace%__OmniScript__c"
        },
        "Name": "clientDetails",
        "VlocityDataPackType": "VlocityMatchingKeyObject",
        "VlocityMatchingRecordSourceKey": "%vlocity_namespace%__Element__c/%vlocity_namespace%__OmniScript__c/EW/QuoteClient/English/clientDetails",
        "VlocityRecordSObjectType": "%vlocity_namespace%__Element__c"
    },
    "%vlocity_namespace%__ParentElementName__c": "clientDetails",
    "%vlocity_namespace%__ParentElementType__c": "Step",
    "%vlocity_namespace%__PropertySet__c": {
        "HTMLTemplateId": "",
        "accessibleInFutureSteps": true,
        "callFrequency": 500,
        "conditionType": "Hide if False",
        "controlWidth": 9,
        "dataJsonPath": "",
        "dataProcessorFunction": "",
        "debounceValue": 0,
        "disOnTplt": false,
        "editMode": false,
        "enableGoogleMapsAutocomplete": false,
        "enableLookup": false,
        "googleAddressCountry": "all",
        "googleMapsAPIKey": "",
        "googleTransformation": {
            "administrative_area_level_1": "",
            "country": "",
            "locality": "",
            "postal_code": "",
            "street": ""
        },
        "help": true,
        "helpText": "We only ask this in order to perform a sanctions check",
        "hideEditButton": true,
        "hideMap": true,
        "inputWidth": 12,
        "label": "Nationality",
        "maxLength": 255,
        "minLength": 0,
        "newItemLabel": "",
        "readOnly": false,
        "required": false,
        "show": null,
        "showInputWidth": false,
        "typeAheadKey": "nationalityName",
        "useDataJson": false
    },
    "%vlocity_namespace%__ReusableOmniScript__c": true,
    "%vlocity_namespace%__Type__c": "Type Ahead Block",
    "CurrencyIsoCode": "GBP",
    "Name": "primeInsNationality",
    "VlocityDataPackType": "SObject",
    "VlocityRecordSObjectType": "%vlocity_namespace%__Element__c",
    "VlocityRecordSourceKey": "%vlocity_namespace%__Element__c/%vlocity_namespace%__OmniScript__c/EW/QuoteClient/English/primeInsNationality"
}