[
    {
        "%vlocity_namespace%__DomainObjectAPIName__c": "Asset",
        "%vlocity_namespace%__DomainObjectCreationOrder__c": 1,
        "%vlocity_namespace%__DomainObjectFieldAPIName__c": "Id",
        "%vlocity_namespace%__InterfaceFieldAPIName__c": "ContextId",
        "%vlocity_namespace%__InterfaceObjectName__c": "json",
        "%vlocity_namespace%__IsDisabled__c": false,
        "%vlocity_namespace%__IsRequiredForUpsert__c": true,
        "%vlocity_namespace%__LinkCreatedIndex__c": 0,
        "%vlocity_namespace%__MapId__c": "DRPostNewVehicleFullV2Customa2i4E0000003nCBQAYItem0",
        "%vlocity_namespace%__UpsertKey__c": true,
        "CurrencyIsoCode": "GBP",
        "Name": "DRPostNewVehicleFullV2",
        "VlocityDataPackType": "SObject",
        "VlocityRecordSObjectType": "%vlocity_namespace%__DRMapItem__c"
    },
    {
        "%vlocity_namespace%__DomainObjectAPIName__c": "Asset",
        "%vlocity_namespace%__DomainObjectCreationOrder__c": 1,
        "%vlocity_namespace%__DomainObjectFieldAPIName__c": "Referrals__c",
        "%vlocity_namespace%__InterfaceFieldAPIName__c": "stpVehicleDetails:blkVehicleDetails:referralsTotal",
        "%vlocity_namespace%__InterfaceObjectName__c": "json",
        "%vlocity_namespace%__IsDisabled__c": false,
        "%vlocity_namespace%__IsRequiredForUpsert__c": false,
        "%vlocity_namespace%__LinkCreatedIndex__c": 0,
        "%vlocity_namespace%__MapId__c": "DRPostNewVehicleFullV2Customa2i4E0000003nCBQAYItem1",
        "%vlocity_namespace%__UpsertKey__c": false,
        "CurrencyIsoCode": "GBP",
        "Name": "DRPostNewVehicleFullV2",
        "VlocityDataPackType": "SObject",
        "VlocityRecordSObjectType": "%vlocity_namespace%__DRMapItem__c"
    },
    {
        "%vlocity_namespace%__DomainObjectAPIName__c": "Vehicle__c",
        "%vlocity_namespace%__DomainObjectCreationOrder__c": 2,
        "%vlocity_namespace%__DomainObjectFieldAPIName__c": "ABI_Code__c",
        "%vlocity_namespace%__InterfaceFieldAPIName__c": "stpVehicleDetails:blkVehicleDetails:Root:abiCode",
        "%vlocity_namespace%__InterfaceObjectName__c": "json",
        "%vlocity_namespace%__IsDisabled__c": false,
        "%vlocity_namespace%__IsRequiredForUpsert__c": false,
        "%vlocity_namespace%__LinkCreatedIndex__c": 0,
        "%vlocity_namespace%__MapId__c": "DRPostNewVehicleFullV2Customa2i4E0000003nCBQAYItem7",
        "%vlocity_namespace%__UpsertKey__c": false,
        "CurrencyIsoCode": "GBP",
        "Name": "DRPostNewVehicleFullV2",
        "VlocityDataPackType": "SObject",
        "VlocityRecordSObjectType": "%vlocity_namespace%__DRMapItem__c"
    },
    {
        "%vlocity_namespace%__DomainObjectAPIName__c": "Vehicle__c",
        "%vlocity_namespace%__DomainObjectCreationOrder__c": 2,
        "%vlocity_namespace%__DomainObjectFieldAPIName__c": "Build_Year__c",
        "%vlocity_namespace%__InterfaceFieldAPIName__c": "stpVehicleDetails:blkVehicleDetails:Root:VehicleDetails:YearOfManufacture",
        "%vlocity_namespace%__InterfaceObjectName__c": "json",
        "%vlocity_namespace%__IsDisabled__c": false,
        "%vlocity_namespace%__IsRequiredForUpsert__c": false,
        "%vlocity_namespace%__LinkCreatedIndex__c": 0,
        "%vlocity_namespace%__MapId__c": "DRPostNewVehicleFullV2Customa2i4E0000003nCBQAYItem17",
        "%vlocity_namespace%__UpsertKey__c": false,
        "CurrencyIsoCode": "GBP",
        "Name": "DRPostNewVehicleFullV2",
        "VlocityDataPackType": "SObject",
        "VlocityRecordSObjectType": "%vlocity_namespace%__DRMapItem__c"
    },
    {
        "%vlocity_namespace%__DomainObjectAPIName__c": "Vehicle__c",
        "%vlocity_namespace%__DomainObjectCreationOrder__c": 2,
        "%vlocity_namespace%__DomainObjectFieldAPIName__c": "CurrencyIsoCode",
        "%vlocity_namespace%__InterfaceFieldAPIName__c": "stpVehicleDetails:blkVehicleDetails:Currency",
        "%vlocity_namespace%__InterfaceObjectName__c": "json",
        "%vlocity_namespace%__IsDisabled__c": false,
        "%vlocity_namespace%__IsRequiredForUpsert__c": false,
        "%vlocity_namespace%__LinkCreatedIndex__c": 0,
        "%vlocity_namespace%__MapId__c": "DRPostNewVehicleFullV2Customa2i4E0000003nCBQAYItem3",
        "%vlocity_namespace%__UpsertKey__c": false,
        "CurrencyIsoCode": "GBP",
        "Name": "DRPostNewVehicleFullV2",
        "VlocityDataPackType": "SObject",
        "VlocityRecordSObjectType": "%vlocity_namespace%__DRMapItem__c"
    },
    {
        "%vlocity_namespace%__DomainObjectAPIName__c": "Vehicle__c",
        "%vlocity_namespace%__DomainObjectCreationOrder__c": 2,
        "%vlocity_namespace%__DomainObjectFieldAPIName__c": "Description__c",
        "%vlocity_namespace%__InterfaceFieldAPIName__c": "stpVehicleDetails:blkVehicleDetails:Root:VehicleDetails:Description",
        "%vlocity_namespace%__InterfaceObjectName__c": "json",
        "%vlocity_namespace%__IsDisabled__c": false,
        "%vlocity_namespace%__IsRequiredForUpsert__c": false,
        "%vlocity_namespace%__LinkCreatedIndex__c": 0,
        "%vlocity_namespace%__MapId__c": "DRPostNewVehicleFullV2Customa2i4E0000003nCBQAYItem10",
        "%vlocity_namespace%__UpsertKey__c": false,
        "CurrencyIsoCode": "GBP",
        "Name": "DRPostNewVehicleFullV2",
        "VlocityDataPackType": "SObject",
        "VlocityRecordSObjectType": "%vlocity_namespace%__DRMapItem__c"
    },
    {
        "%vlocity_namespace%__DomainObjectAPIName__c": "Vehicle__c",
        "%vlocity_namespace%__DomainObjectCreationOrder__c": 2,
        "%vlocity_namespace%__DomainObjectFieldAPIName__c": "EngineSize__c",
        "%vlocity_namespace%__InterfaceFieldAPIName__c": "stpVehicleDetails:blkVehicleDetails:Root:VehicleDetails:EngineCapacity",
        "%vlocity_namespace%__InterfaceObjectName__c": "json",
        "%vlocity_namespace%__IsDisabled__c": false,
        "%vlocity_namespace%__IsRequiredForUpsert__c": false,
        "%vlocity_namespace%__LinkCreatedIndex__c": 0,
        "%vlocity_namespace%__MapId__c": "DRPostNewVehicleFullV2Customa2i4E0000003nCBQAYItem11",
        "%vlocity_namespace%__UpsertKey__c": false,
        "CurrencyIsoCode": "GBP",
        "Name": "DRPostNewVehicleFullV2",
        "VlocityDataPackType": "SObject",
        "VlocityRecordSObjectType": "%vlocity_namespace%__DRMapItem__c"
    },
    {
        "%vlocity_namespace%__DomainObjectAPIName__c": "Vehicle__c",
        "%vlocity_namespace%__DomainObjectCreationOrder__c": 2,
        "%vlocity_namespace%__DomainObjectFieldAPIName__c": "Fuel_Type__c",
        "%vlocity_namespace%__InterfaceFieldAPIName__c": "stpVehicleDetails:blkVehicleDetails:Root:VehicleDetails:Fuel",
        "%vlocity_namespace%__InterfaceObjectName__c": "json",
        "%vlocity_namespace%__IsDisabled__c": false,
        "%vlocity_namespace%__IsRequiredForUpsert__c": false,
        "%vlocity_namespace%__LinkCreatedIndex__c": 0,
        "%vlocity_namespace%__MapId__c": "DRPostNewVehicleFullV2Customa2i4E0000003nCBQAYItem12",
        "%vlocity_namespace%__UpsertKey__c": false,
        "CurrencyIsoCode": "GBP",
        "Name": "DRPostNewVehicleFullV2",
        "VlocityDataPackType": "SObject",
        "VlocityRecordSObjectType": "%vlocity_namespace%__DRMapItem__c"
    },
    {
        "%vlocity_namespace%__DomainObjectAPIName__c": "Vehicle__c",
        "%vlocity_namespace%__DomainObjectCreationOrder__c": 2,
        "%vlocity_namespace%__DomainObjectFieldAPIName__c": "IsLeftHandDrive__c",
        "%vlocity_namespace%__InterfaceFieldAPIName__c": "stpVehicleDetails:blkVehicleDetails:LeftHandDrive",
        "%vlocity_namespace%__InterfaceObjectName__c": "json",
        "%vlocity_namespace%__IsDisabled__c": false,
        "%vlocity_namespace%__IsRequiredForUpsert__c": false,
        "%vlocity_namespace%__LinkCreatedIndex__c": 0,
        "%vlocity_namespace%__MapId__c": "DRPostNewVehicleFullV2Customa2i4E0000003nCBQAYItem4",
        "%vlocity_namespace%__UpsertKey__c": false,
        "CurrencyIsoCode": "GBP",
        "Name": "DRPostNewVehicleFullV2",
        "VlocityDataPackType": "SObject",
        "VlocityRecordSObjectType": "%vlocity_namespace%__DRMapItem__c"
    },
    {
        "%vlocity_namespace%__DomainObjectAPIName__c": "Vehicle__c",
        "%vlocity_namespace%__DomainObjectCreationOrder__c": 2,
        "%vlocity_namespace%__DomainObjectFieldAPIName__c": "Make__c",
        "%vlocity_namespace%__InterfaceFieldAPIName__c": "stpVehicleDetails:blkVehicleDetails:Root:VehicleDetails:Manufacturer",
        "%vlocity_namespace%__InterfaceObjectName__c": "json",
        "%vlocity_namespace%__IsDisabled__c": false,
        "%vlocity_namespace%__IsRequiredForUpsert__c": false,
        "%vlocity_namespace%__LinkCreatedIndex__c": 0,
        "%vlocity_namespace%__MapId__c": "DRPostNewVehicleFullV2Customa2i4E0000003nCBQAYItem13",
        "%vlocity_namespace%__UpsertKey__c": false,
        "CurrencyIsoCode": "GBP",
        "Name": "DRPostNewVehicleFullV2",
        "VlocityDataPackType": "SObject",
        "VlocityRecordSObjectType": "%vlocity_namespace%__DRMapItem__c"
    },
    {
        "%vlocity_namespace%__DomainObjectAPIName__c": "Vehicle__c",
        "%vlocity_namespace%__DomainObjectCreationOrder__c": 2,
        "%vlocity_namespace%__DomainObjectFieldAPIName__c": "Model__c",
        "%vlocity_namespace%__InterfaceFieldAPIName__c": "stpVehicleDetails:blkVehicleDetails:Root:VehicleDetails:Model",
        "%vlocity_namespace%__InterfaceObjectName__c": "json",
        "%vlocity_namespace%__IsDisabled__c": false,
        "%vlocity_namespace%__IsRequiredForUpsert__c": false,
        "%vlocity_namespace%__LinkCreatedIndex__c": 0,
        "%vlocity_namespace%__MapId__c": "DRPostNewVehicleFullV2Customa2i4E0000003nCBQAYItem14",
        "%vlocity_namespace%__UpsertKey__c": false,
        "CurrencyIsoCode": "GBP",
        "Name": "DRPostNewVehicleFullV2",
        "VlocityDataPackType": "SObject",
        "VlocityRecordSObjectType": "%vlocity_namespace%__DRMapItem__c"
    },
    {
        "%vlocity_namespace%__DomainObjectAPIName__c": "Vehicle__c",
        "%vlocity_namespace%__DomainObjectCreationOrder__c": 2,
        "%vlocity_namespace%__DomainObjectFieldAPIName__c": "Registration_Number__c",
        "%vlocity_namespace%__InterfaceFieldAPIName__c": "stpVehicleDetails:blkVehicleDetails:Root:VehicleDetails:RegistrationNumber",
        "%vlocity_namespace%__InterfaceObjectName__c": "json",
        "%vlocity_namespace%__IsDisabled__c": false,
        "%vlocity_namespace%__IsRequiredForUpsert__c": false,
        "%vlocity_namespace%__LinkCreatedIndex__c": 0,
        "%vlocity_namespace%__MapId__c": "DRPostNewVehicleFullV2Customa2i4E0000003nCBQAYItem6",
        "%vlocity_namespace%__UpsertKey__c": false,
        "CurrencyIsoCode": "GBP",
        "Name": "DRPostNewVehicleFullV2",
        "VlocityDataPackType": "SObject",
        "VlocityRecordSObjectType": "%vlocity_namespace%__DRMapItem__c"
    },
    {
        "%vlocity_namespace%__DomainObjectAPIName__c": "Vehicle__c",
        "%vlocity_namespace%__DomainObjectCreationOrder__c": 2,
        "%vlocity_namespace%__DomainObjectFieldAPIName__c": "Transmission__c",
        "%vlocity_namespace%__InterfaceFieldAPIName__c": "stpVehicleDetails:blkVehicleDetails:Root:VehicleDetails:TransmissionDescription",
        "%vlocity_namespace%__InterfaceObjectName__c": "json",
        "%vlocity_namespace%__IsDisabled__c": false,
        "%vlocity_namespace%__IsRequiredForUpsert__c": false,
        "%vlocity_namespace%__LinkCreatedIndex__c": 0,
        "%vlocity_namespace%__MapId__c": "DRPostNewVehicleFullV2Customa2i4E0000003nCBQAYItem15",
        "%vlocity_namespace%__UpsertKey__c": false,
        "CurrencyIsoCode": "GBP",
        "Name": "DRPostNewVehicleFullV2",
        "VlocityDataPackType": "SObject",
        "VlocityRecordSObjectType": "%vlocity_namespace%__DRMapItem__c"
    },
    {
        "%vlocity_namespace%__DomainObjectAPIName__c": "Vehicle__c",
        "%vlocity_namespace%__DomainObjectCreationOrder__c": 2,
        "%vlocity_namespace%__DomainObjectFieldAPIName__c": "Value__c",
        "%vlocity_namespace%__InterfaceFieldAPIName__c": "stpVehicleDetails:blkVehicleDetails:Root:ConsumerValues:FinalValuation",
        "%vlocity_namespace%__InterfaceObjectName__c": "json",
        "%vlocity_namespace%__IsDisabled__c": false,
        "%vlocity_namespace%__IsRequiredForUpsert__c": false,
        "%vlocity_namespace%__LinkCreatedIndex__c": 0,
        "%vlocity_namespace%__MapId__c": "DRPostNewVehicleFullV2Customa2i4E0000003nCBQAYItem9",
        "%vlocity_namespace%__UpsertKey__c": false,
        "CurrencyIsoCode": "GBP",
        "Name": "DRPostNewVehicleFullV2",
        "VlocityDataPackType": "SObject",
        "VlocityRecordSObjectType": "%vlocity_namespace%__DRMapItem__c"
    },
    {
        "%vlocity_namespace%__DomainObjectAPIName__c": "Vehicle__c",
        "%vlocity_namespace%__DomainObjectCreationOrder__c": 2,
        "%vlocity_namespace%__DomainObjectFieldAPIName__c": "VehicleAge__c",
        "%vlocity_namespace%__InterfaceFieldAPIName__c": "stpVehicleDetails:blkVehicleDetails:Root:VehicleDetails:VehicleAge",
        "%vlocity_namespace%__InterfaceObjectName__c": "json",
        "%vlocity_namespace%__IsDisabled__c": false,
        "%vlocity_namespace%__IsRequiredForUpsert__c": false,
        "%vlocity_namespace%__LinkCreatedIndex__c": 0,
        "%vlocity_namespace%__MapId__c": "DRPostNewVehicleFullV2Customa2i4E0000003nCBQAYItem16",
        "%vlocity_namespace%__UpsertKey__c": false,
        "CurrencyIsoCode": "GBP",
        "Name": "DRPostNewVehicleFullV2",
        "VlocityDataPackType": "SObject",
        "VlocityRecordSObjectType": "%vlocity_namespace%__DRMapItem__c"
    },
    {
        "%vlocity_namespace%__DomainObjectAPIName__c": "Vehicle__c",
        "%vlocity_namespace%__DomainObjectCreationOrder__c": 2,
        "%vlocity_namespace%__DomainObjectFieldAPIName__c": "VehicleGroup__c",
        "%vlocity_namespace%__InterfaceFieldAPIName__c": "stpVehicleDetails:blkVehicleDetails:Root:carGroup",
        "%vlocity_namespace%__InterfaceObjectName__c": "json",
        "%vlocity_namespace%__IsDisabled__c": false,
        "%vlocity_namespace%__IsRequiredForUpsert__c": false,
        "%vlocity_namespace%__LinkCreatedIndex__c": 0,
        "%vlocity_namespace%__MapId__c": "DRPostNewVehicleFullV2Customa2i4E0000003nCBQAYItem8",
        "%vlocity_namespace%__UpsertKey__c": false,
        "CurrencyIsoCode": "GBP",
        "Name": "DRPostNewVehicleFullV2",
        "VlocityDataPackType": "SObject",
        "VlocityRecordSObjectType": "%vlocity_namespace%__DRMapItem__c"
    },
    {
        "%vlocity_namespace%__DomainObjectAPIName__c": "Vehicle__c",
        "%vlocity_namespace%__DomainObjectCreationOrder__c": 2,
        "%vlocity_namespace%__DomainObjectFieldAPIName__c": "Vehicle_Type__c",
        "%vlocity_namespace%__InterfaceFieldAPIName__c": "product:Name",
        "%vlocity_namespace%__InterfaceObjectName__c": "json",
        "%vlocity_namespace%__IsDisabled__c": false,
        "%vlocity_namespace%__IsRequiredForUpsert__c": false,
        "%vlocity_namespace%__LinkCreatedIndex__c": 0,
        "%vlocity_namespace%__MapId__c": "DRPostNewVehicleFullV2Customa2i4E0000003nCBQAYItem2",
        "%vlocity_namespace%__UpsertKey__c": false,
        "CurrencyIsoCode": "GBP",
        "Name": "DRPostNewVehicleFullV2",
        "VlocityDataPackType": "SObject",
        "VlocityRecordSObjectType": "%vlocity_namespace%__DRMapItem__c"
    },
    {
        "%vlocity_namespace%__DomainObjectAPIName__c": "Vehicle__c",
        "%vlocity_namespace%__DomainObjectCreationOrder__c": 2,
        "%vlocity_namespace%__DomainObjectFieldAPIName__c": "Vehicle_Type__c",
        "%vlocity_namespace%__InterfaceFieldAPIName__c": "stpVehicleDetails:blkVehicleDetails:Plan Type",
        "%vlocity_namespace%__InterfaceObjectName__c": "json",
        "%vlocity_namespace%__IsDisabled__c": false,
        "%vlocity_namespace%__IsRequiredForUpsert__c": false,
        "%vlocity_namespace%__LinkCreatedIndex__c": 0,
        "%vlocity_namespace%__MapId__c": "DRPostNewVehicleFullV2Customa2i4E0000003nCBQAYItem5",
        "%vlocity_namespace%__UpsertKey__c": false,
        "CurrencyIsoCode": "GBP",
        "Name": "DRPostNewVehicleFullV2",
        "VlocityDataPackType": "SObject",
        "VlocityRecordSObjectType": "%vlocity_namespace%__DRMapItem__c"
    },
    {
        "%vlocity_namespace%__DomainObjectAPIName__c": "Insured_Item__c",
        "%vlocity_namespace%__DomainObjectCreationOrder__c": 3,
        "%vlocity_namespace%__DomainObjectFieldAPIName__c": "AnnualMileage__c",
        "%vlocity_namespace%__InterfaceFieldAPIName__c": "stpVehicleDetails:blkVehicleDetails:Root:AnnualMileage",
        "%vlocity_namespace%__InterfaceObjectName__c": "json",
        "%vlocity_namespace%__IsDisabled__c": false,
        "%vlocity_namespace%__IsRequiredForUpsert__c": false,
        "%vlocity_namespace%__LinkCreatedIndex__c": 0,
        "%vlocity_namespace%__MapId__c": "DRPostNewVehicleFullV2Customa2i4E0000003nCBQAYItem39",
        "%vlocity_namespace%__UpsertKey__c": false,
        "CurrencyIsoCode": "GBP",
        "Name": "DRPostNewVehicleFullV2",
        "VlocityDataPackType": "SObject",
        "VlocityRecordSObjectType": "%vlocity_namespace%__DRMapItem__c"
    },
    {
        "%vlocity_namespace%__DomainObjectAPIName__c": "Insured_Item__c",
        "%vlocity_namespace%__DomainObjectCreationOrder__c": 3,
        "%vlocity_namespace%__DomainObjectFieldAPIName__c": "Annual_Premium__c",
        "%vlocity_namespace%__InterfaceFieldAPIName__c": "stpPremium:Yearly Premium",
        "%vlocity_namespace%__InterfaceObjectName__c": "json",
        "%vlocity_namespace%__IsDisabled__c": false,
        "%vlocity_namespace%__IsRequiredForUpsert__c": false,
        "%vlocity_namespace%__LinkCreatedIndex__c": 0,
        "%vlocity_namespace%__MapId__c": "DRPostNewVehicleFullV2Customa2i4E0000003nCBQAYItem29",
        "%vlocity_namespace%__UpsertKey__c": false,
        "CurrencyIsoCode": "GBP",
        "Name": "DRPostNewVehicleFullV2",
        "VlocityDataPackType": "SObject",
        "VlocityRecordSObjectType": "%vlocity_namespace%__DRMapItem__c"
    },
    {
        "%vlocity_namespace%__DomainObjectAPIName__c": "Insured_Item__c",
        "%vlocity_namespace%__DomainObjectCreationOrder__c": 3,
        "%vlocity_namespace%__DomainObjectFieldAPIName__c": "Asset__c",
        "%vlocity_namespace%__InterfaceFieldAPIName__c": "ContextId",
        "%vlocity_namespace%__InterfaceObjectName__c": "json",
        "%vlocity_namespace%__IsDisabled__c": false,
        "%vlocity_namespace%__IsRequiredForUpsert__c": false,
        "%vlocity_namespace%__LinkCreatedIndex__c": 0,
        "%vlocity_namespace%__MapId__c": "DRPostNewVehicleFullV2Customa2i4E0000003nCBQAYItem20",
        "%vlocity_namespace%__UpsertKey__c": false,
        "CurrencyIsoCode": "GBP",
        "Name": "DRPostNewVehicleFullV2",
        "VlocityDataPackType": "SObject",
        "VlocityRecordSObjectType": "%vlocity_namespace%__DRMapItem__c"
    },
    {
        "%vlocity_namespace%__DomainObjectAPIName__c": "Insured_Item__c",
        "%vlocity_namespace%__DomainObjectCreationOrder__c": 3,
        "%vlocity_namespace%__DomainObjectFieldAPIName__c": "City__c",
        "%vlocity_namespace%__InterfaceFieldAPIName__c": "stpVehicleDetails:vehicleLocation-Block:vehicleCity",
        "%vlocity_namespace%__InterfaceObjectName__c": "json",
        "%vlocity_namespace%__IsDisabled__c": false,
        "%vlocity_namespace%__IsRequiredForUpsert__c": false,
        "%vlocity_namespace%__LinkCreatedIndex__c": 0,
        "%vlocity_namespace%__MapId__c": "DRPostNewVehicleFullV2Customa2i4E0000003nCBQAYItem54",
        "%vlocity_namespace%__UpsertKey__c": false,
        "CurrencyIsoCode": "GBP",
        "Name": "DRPostNewVehicleFullV2",
        "VlocityDataPackType": "SObject",
        "VlocityRecordSObjectType": "%vlocity_namespace%__DRMapItem__c"
    },
    {
        "%vlocity_namespace%__DomainObjectAPIName__c": "Insured_Item__c",
        "%vlocity_namespace%__DomainObjectCreationOrder__c": 3,
        "%vlocity_namespace%__DomainObjectFieldAPIName__c": "Compulsory_Excess__c",
        "%vlocity_namespace%__InterfaceFieldAPIName__c": "stpVehicleDetails:blkVehicleDetails:compulsoryExcess",
        "%vlocity_namespace%__InterfaceObjectName__c": "json",
        "%vlocity_namespace%__IsDisabled__c": false,
        "%vlocity_namespace%__IsRequiredForUpsert__c": false,
        "%vlocity_namespace%__LinkCreatedIndex__c": 0,
        "%vlocity_namespace%__MapId__c": "DRPostNewVehicleFullV2Customa2i4E0000003nCBQAYItem30",
        "%vlocity_namespace%__UpsertKey__c": false,
        "CurrencyIsoCode": "GBP",
        "Name": "DRPostNewVehicleFullV2",
        "VlocityDataPackType": "SObject",
        "VlocityRecordSObjectType": "%vlocity_namespace%__DRMapItem__c"
    },
    {
        "%vlocity_namespace%__DomainObjectAPIName__c": "Insured_Item__c",
        "%vlocity_namespace%__DomainObjectCreationOrder__c": 3,
        "%vlocity_namespace%__DomainObjectFieldAPIName__c": "Country__c",
        "%vlocity_namespace%__InterfaceFieldAPIName__c": "stpVehicleDetails:vehicleLocation-Block:vehicleCountry",
        "%vlocity_namespace%__InterfaceObjectName__c": "json",
        "%vlocity_namespace%__IsDisabled__c": false,
        "%vlocity_namespace%__IsRequiredForUpsert__c": false,
        "%vlocity_namespace%__LinkCreatedIndex__c": 0,
        "%vlocity_namespace%__MapId__c": "DRPostNewVehicleFullV2Customa2i4E0000003nCBQAYItem55",
        "%vlocity_namespace%__UpsertKey__c": false,
        "CurrencyIsoCode": "GBP",
        "Name": "DRPostNewVehicleFullV2",
        "VlocityDataPackType": "SObject",
        "VlocityRecordSObjectType": "%vlocity_namespace%__DRMapItem__c"
    },
    {
        "%vlocity_namespace%__DomainObjectAPIName__c": "Insured_Item__c",
        "%vlocity_namespace%__DomainObjectCreationOrder__c": 3,
        "%vlocity_namespace%__DomainObjectFieldAPIName__c": "Cover_End_Date__c",
        "%vlocity_namespace%__InterfaceFieldAPIName__c": "Policy:endDate",
        "%vlocity_namespace%__InterfaceObjectName__c": "json",
        "%vlocity_namespace%__IsDisabled__c": false,
        "%vlocity_namespace%__IsRequiredForUpsert__c": false,
        "%vlocity_namespace%__LinkCreatedIndex__c": 0,
        "%vlocity_namespace%__MapId__c": "DRPostNewVehicleFullV2Customa2i4E0000003nCBQAYItem22",
        "%vlocity_namespace%__UpsertKey__c": false,
        "CurrencyIsoCode": "GBP",
        "Name": "DRPostNewVehicleFullV2",
        "VlocityDataPackType": "SObject",
        "VlocityRecordSObjectType": "%vlocity_namespace%__DRMapItem__c"
    },
    {
        "%vlocity_namespace%__DomainObjectAPIName__c": "Insured_Item__c",
        "%vlocity_namespace%__DomainObjectCreationOrder__c": 3,
        "%vlocity_namespace%__DomainObjectFieldAPIName__c": "Cover_Start_Date__c",
        "%vlocity_namespace%__InterfaceFieldAPIName__c": "Policy:startDate",
        "%vlocity_namespace%__InterfaceObjectName__c": "json",
        "%vlocity_namespace%__IsDisabled__c": false,
        "%vlocity_namespace%__IsRequiredForUpsert__c": false,
        "%vlocity_namespace%__LinkCreatedIndex__c": 0,
        "%vlocity_namespace%__MapId__c": "DRPostNewVehicleFullV2Customa2i4E0000003nCBQAYItem24",
        "%vlocity_namespace%__UpsertKey__c": false,
        "CurrencyIsoCode": "GBP",
        "Name": "DRPostNewVehicleFullV2",
        "VlocityDataPackType": "SObject",
        "VlocityRecordSObjectType": "%vlocity_namespace%__DRMapItem__c"
    },
    {
        "%vlocity_namespace%__DomainObjectAPIName__c": "Insured_Item__c",
        "%vlocity_namespace%__DomainObjectCreationOrder__c": 3,
        "%vlocity_namespace%__DomainObjectFieldAPIName__c": "CurrencyIsoCode",
        "%vlocity_namespace%__InterfaceFieldAPIName__c": "stpVehicleDetails:blkVehicleDetails:Currency",
        "%vlocity_namespace%__InterfaceObjectName__c": "json",
        "%vlocity_namespace%__IsDisabled__c": false,
        "%vlocity_namespace%__IsRequiredForUpsert__c": false,
        "%vlocity_namespace%__LinkCreatedIndex__c": 0,
        "%vlocity_namespace%__MapId__c": "DRPostNewVehicleFullV2Customa2i4E0000003nCBQAYItem31",
        "%vlocity_namespace%__UpsertKey__c": false,
        "CurrencyIsoCode": "GBP",
        "Name": "DRPostNewVehicleFullV2",
        "VlocityDataPackType": "SObject",
        "VlocityRecordSObjectType": "%vlocity_namespace%__DRMapItem__c"
    },
    {
        "%vlocity_namespace%__DomainObjectAPIName__c": "Insured_Item__c",
        "%vlocity_namespace%__DomainObjectCreationOrder__c": 3,
        "%vlocity_namespace%__DomainObjectFieldAPIName__c": "Driver_Setup__c",
        "%vlocity_namespace%__InterfaceFieldAPIName__c": "stpVehicleDetails:blkVehicleDetails:driverSelection",
        "%vlocity_namespace%__InterfaceObjectName__c": "json",
        "%vlocity_namespace%__IsDisabled__c": false,
        "%vlocity_namespace%__IsRequiredForUpsert__c": false,
        "%vlocity_namespace%__LinkCreatedIndex__c": 0,
        "%vlocity_namespace%__MapId__c": "DRPostNewVehicleFullV2Customa2i4E0000003nCBQAYItem32",
        "%vlocity_namespace%__UpsertKey__c": false,
        "CurrencyIsoCode": "GBP",
        "Name": "DRPostNewVehicleFullV2",
        "VlocityDataPackType": "SObject",
        "VlocityRecordSObjectType": "%vlocity_namespace%__DRMapItem__c"
    },
    {
        "%vlocity_namespace%__DomainObjectAPIName__c": "Insured_Item__c",
        "%vlocity_namespace%__DomainObjectCreationOrder__c": 3,
        "%vlocity_namespace%__DomainObjectFieldAPIName__c": "Flood_Band__c",
        "%vlocity_namespace%__InterfaceFieldAPIName__c": "stpVehicleDetails:FloodBand",
        "%vlocity_namespace%__InterfaceObjectName__c": "json",
        "%vlocity_namespace%__IsDisabled__c": false,
        "%vlocity_namespace%__IsRequiredForUpsert__c": false,
        "%vlocity_namespace%__LinkCreatedIndex__c": 0,
        "%vlocity_namespace%__MapId__c": "DRPostNewVehicleFullV2Customa2i4E0000003nCBQAYItem33",
        "%vlocity_namespace%__UpsertKey__c": false,
        "CurrencyIsoCode": "GBP",
        "Name": "DRPostNewVehicleFullV2",
        "VlocityDataPackType": "SObject",
        "VlocityRecordSObjectType": "%vlocity_namespace%__DRMapItem__c"
    },
    {
        "%vlocity_namespace%__DomainObjectAPIName__c": "Insured_Item__c",
        "%vlocity_namespace%__DomainObjectCreationOrder__c": 3,
        "%vlocity_namespace%__DomainObjectFieldAPIName__c": "HasModifications__c",
        "%vlocity_namespace%__InterfaceFieldAPIName__c": "stpVehicleDetails:blkVehicleDetails:HasModifications",
        "%vlocity_namespace%__InterfaceObjectName__c": "json",
        "%vlocity_namespace%__IsDisabled__c": false,
        "%vlocity_namespace%__IsRequiredForUpsert__c": false,
        "%vlocity_namespace%__LinkCreatedIndex__c": 0,
        "%vlocity_namespace%__MapId__c": "DRPostNewVehicleFullV2Customa2i4E0000003nCBQAYItem34",
        "%vlocity_namespace%__UpsertKey__c": false,
        "CurrencyIsoCode": "GBP",
        "Name": "DRPostNewVehicleFullV2",
        "VlocityDataPackType": "SObject",
        "VlocityRecordSObjectType": "%vlocity_namespace%__DRMapItem__c"
    },
    {
        "%vlocity_namespace%__DomainObjectAPIName__c": "Insured_Item__c",
        "%vlocity_namespace%__DomainObjectCreationOrder__c": 3,
        "%vlocity_namespace%__DomainObjectFieldAPIName__c": "Id",
        "%vlocity_namespace%__InterfaceFieldAPIName__c": "DRId_Insured_Item__c",
        "%vlocity_namespace%__InterfaceObjectName__c": "json",
        "%vlocity_namespace%__IsDisabled__c": false,
        "%vlocity_namespace%__IsRequiredForUpsert__c": false,
        "%vlocity_namespace%__LinkCreatedIndex__c": 0,
        "%vlocity_namespace%__MapId__c": "DRPostNewVehicleFullV2Customa2i4E0000003nCBQAYItem21",
        "%vlocity_namespace%__UpsertKey__c": false,
        "CurrencyIsoCode": "GBP",
        "Name": "DRPostNewVehicleFullV2",
        "VlocityDataPackType": "SObject",
        "VlocityRecordSObjectType": "%vlocity_namespace%__DRMapItem__c"
    },
    {
        "%vlocity_namespace%__DomainObjectAPIName__c": "Insured_Item__c",
        "%vlocity_namespace%__DomainObjectCreationOrder__c": 3,
        "%vlocity_namespace%__DomainObjectFieldAPIName__c": "Laid_Up__c",
        "%vlocity_namespace%__InterfaceFieldAPIName__c": "stpVehicleDetails:LaidUpVehicle",
        "%vlocity_namespace%__InterfaceObjectName__c": "json",
        "%vlocity_namespace%__IsDisabled__c": false,
        "%vlocity_namespace%__IsRequiredForUpsert__c": false,
        "%vlocity_namespace%__LinkCreatedIndex__c": 0,
        "%vlocity_namespace%__MapId__c": "DRPostNewVehicleFullV2Customa2i4E0000003nCBQAYItem35",
        "%vlocity_namespace%__UpsertKey__c": false,
        "CurrencyIsoCode": "GBP",
        "Name": "DRPostNewVehicleFullV2",
        "VlocityDataPackType": "SObject",
        "VlocityRecordSObjectType": "%vlocity_namespace%__DRMapItem__c"
    },
    {
        "%vlocity_namespace%__DomainObjectAPIName__c": "Insured_Item__c",
        "%vlocity_namespace%__DomainObjectCreationOrder__c": 3,
        "%vlocity_namespace%__DomainObjectFieldAPIName__c": "Long_Lat__Latitude__s",
        "%vlocity_namespace%__InterfaceFieldAPIName__c": "stpVehicleDetails:vehicleLocation-Block:latitudeFormula",
        "%vlocity_namespace%__InterfaceObjectName__c": "json",
        "%vlocity_namespace%__IsDisabled__c": false,
        "%vlocity_namespace%__IsRequiredForUpsert__c": false,
        "%vlocity_namespace%__LinkCreatedIndex__c": 0,
        "%vlocity_namespace%__MapId__c": "DRPostNewVehicleFullV2Custom8712",
        "%vlocity_namespace%__UpsertKey__c": false,
        "CurrencyIsoCode": "GBP",
        "Name": "DRPostNewVehicleFullV2",
        "VlocityDataPackType": "SObject",
        "VlocityRecordSObjectType": "%vlocity_namespace%__DRMapItem__c"
    },
    {
        "%vlocity_namespace%__DomainObjectAPIName__c": "Insured_Item__c",
        "%vlocity_namespace%__DomainObjectCreationOrder__c": 3,
        "%vlocity_namespace%__DomainObjectFieldAPIName__c": "Long_Lat__Longitude__s",
        "%vlocity_namespace%__InterfaceFieldAPIName__c": "stpVehicleDetails:vehicleLocation-Block:longitudeFormula",
        "%vlocity_namespace%__InterfaceObjectName__c": "json",
        "%vlocity_namespace%__IsDisabled__c": false,
        "%vlocity_namespace%__IsRequiredForUpsert__c": false,
        "%vlocity_namespace%__LinkCreatedIndex__c": 0,
        "%vlocity_namespace%__MapId__c": "DRPostNewVehicleFullV2Custom1574",
        "%vlocity_namespace%__UpsertKey__c": false,
        "CurrencyIsoCode": "GBP",
        "Name": "DRPostNewVehicleFullV2",
        "VlocityDataPackType": "SObject",
        "VlocityRecordSObjectType": "%vlocity_namespace%__DRMapItem__c"
    },
    {
        "%vlocity_namespace%__DomainObjectAPIName__c": "Insured_Item__c",
        "%vlocity_namespace%__DomainObjectCreationOrder__c": 3,
        "%vlocity_namespace%__DomainObjectFieldAPIName__c": "Opportunity__c",
        "%vlocity_namespace%__InterfaceFieldAPIName__c": "Policy:OpportunityId",
        "%vlocity_namespace%__InterfaceObjectName__c": "json",
        "%vlocity_namespace%__IsDisabled__c": false,
        "%vlocity_namespace%__IsRequiredForUpsert__c": false,
        "%vlocity_namespace%__LinkCreatedIndex__c": 0,
        "%vlocity_namespace%__MapId__c": "DRPostNewVehicleFullV2Customa2i4E0000003nCBQAYItem23",
        "%vlocity_namespace%__UpsertKey__c": false,
        "CurrencyIsoCode": "GBP",
        "Name": "DRPostNewVehicleFullV2",
        "VlocityDataPackType": "SObject",
        "VlocityRecordSObjectType": "%vlocity_namespace%__DRMapItem__c"
    },
    {
        "%vlocity_namespace%__DomainObjectAPIName__c": "Insured_Item__c",
        "%vlocity_namespace%__DomainObjectCreationOrder__c": 3,
        "%vlocity_namespace%__DomainObjectFieldAPIName__c": "PostCode__c",
        "%vlocity_namespace%__InterfaceFieldAPIName__c": "stpVehicleDetails:vehicleLocation-Block:vehiclePostalCode",
        "%vlocity_namespace%__InterfaceObjectName__c": "json",
        "%vlocity_namespace%__IsDisabled__c": false,
        "%vlocity_namespace%__IsRequiredForUpsert__c": false,
        "%vlocity_namespace%__LinkCreatedIndex__c": 0,
        "%vlocity_namespace%__MapId__c": "DRPostNewVehicleFullV2Customa2i4E0000003nCBQAYItem56",
        "%vlocity_namespace%__UpsertKey__c": false,
        "CurrencyIsoCode": "GBP",
        "Name": "DRPostNewVehicleFullV2",
        "VlocityDataPackType": "SObject",
        "VlocityRecordSObjectType": "%vlocity_namespace%__DRMapItem__c"
    },
    {
        "%vlocity_namespace%__DomainObjectAPIName__c": "Insured_Item__c",
        "%vlocity_namespace%__DomainObjectCreationOrder__c": 3,
        "%vlocity_namespace%__DomainObjectFieldAPIName__c": "Product__c",
        "%vlocity_namespace%__InterfaceFieldAPIName__c": "product:Id",
        "%vlocity_namespace%__InterfaceObjectName__c": "json",
        "%vlocity_namespace%__IsDisabled__c": false,
        "%vlocity_namespace%__IsRequiredForUpsert__c": false,
        "%vlocity_namespace%__LinkCreatedIndex__c": 0,
        "%vlocity_namespace%__MapId__c": "DRPostNewVehicleFullV2Customa2i4E0000003nCBQAYItem25",
        "%vlocity_namespace%__UpsertKey__c": false,
        "CurrencyIsoCode": "GBP",
        "Name": "DRPostNewVehicleFullV2",
        "VlocityDataPackType": "SObject",
        "VlocityRecordSObjectType": "%vlocity_namespace%__DRMapItem__c"
    },
    {
        "%vlocity_namespace%__DomainObjectAPIName__c": "Insured_Item__c",
        "%vlocity_namespace%__DomainObjectCreationOrder__c": 3,
        "%vlocity_namespace%__DomainObjectFieldAPIName__c": "Product__c",
        "%vlocity_namespace%__InterfaceFieldAPIName__c": "selectProduct:product:Id",
        "%vlocity_namespace%__InterfaceObjectName__c": "json",
        "%vlocity_namespace%__IsDisabled__c": false,
        "%vlocity_namespace%__IsRequiredForUpsert__c": false,
        "%vlocity_namespace%__LinkCreatedIndex__c": 0,
        "%vlocity_namespace%__MapId__c": "DRPostNewVehicleFullV2Customa2i4E0000003nCBQAYItem27",
        "%vlocity_namespace%__UpsertKey__c": false,
        "CurrencyIsoCode": "GBP",
        "Name": "DRPostNewVehicleFullV2",
        "VlocityDataPackType": "SObject",
        "VlocityRecordSObjectType": "%vlocity_namespace%__DRMapItem__c"
    },
    {
        "%vlocity_namespace%__DomainObjectAPIName__c": "Insured_Item__c",
        "%vlocity_namespace%__DomainObjectCreationOrder__c": 3,
        "%vlocity_namespace%__DomainObjectFieldAPIName__c": "PurchaseDate__c",
        "%vlocity_namespace%__InterfaceFieldAPIName__c": "stpVehicleDetails:blkVehicleDetails:Root:Purchase Date",
        "%vlocity_namespace%__InterfaceObjectName__c": "json",
        "%vlocity_namespace%__IsDisabled__c": false,
        "%vlocity_namespace%__IsRequiredForUpsert__c": false,
        "%vlocity_namespace%__LinkCreatedIndex__c": 0,
        "%vlocity_namespace%__MapId__c": "DRPostNewVehicleFullV2Customa2i4E0000003nCBQAYItem46",
        "%vlocity_namespace%__UpsertKey__c": false,
        "CurrencyIsoCode": "GBP",
        "Name": "DRPostNewVehicleFullV2",
        "VlocityDataPackType": "SObject",
        "VlocityRecordSObjectType": "%vlocity_namespace%__DRMapItem__c"
    },
    {
        "%vlocity_namespace%__DomainObjectAPIName__c": "Insured_Item__c",
        "%vlocity_namespace%__DomainObjectCreationOrder__c": 3,
        "%vlocity_namespace%__DomainObjectFieldAPIName__c": "Rated_Excess__c",
        "%vlocity_namespace%__InterfaceFieldAPIName__c": "stpVehicleDetails:blkVehicleDetails:ratedExcess",
        "%vlocity_namespace%__InterfaceObjectName__c": "json",
        "%vlocity_namespace%__IsDisabled__c": false,
        "%vlocity_namespace%__IsRequiredForUpsert__c": false,
        "%vlocity_namespace%__LinkCreatedIndex__c": 0,
        "%vlocity_namespace%__MapId__c": "DRPostNewVehicleFullV2Customa2i4E0000003nCBQAYItem37",
        "%vlocity_namespace%__UpsertKey__c": false,
        "CurrencyIsoCode": "GBP",
        "Name": "DRPostNewVehicleFullV2",
        "VlocityDataPackType": "SObject",
        "VlocityRecordSObjectType": "%vlocity_namespace%__DRMapItem__c"
    },
    {
        "%vlocity_namespace%__DomainObjectAPIName__c": "Insured_Item__c",
        "%vlocity_namespace%__DomainObjectCreationOrder__c": 3,
        "%vlocity_namespace%__DomainObjectFieldAPIName__c": "Rated_Value__c",
        "%vlocity_namespace%__InterfaceFieldAPIName__c": "stpVehicleDetails:blkVehicleDetails:Root:ConsumerValues:FinalValuation",
        "%vlocity_namespace%__InterfaceObjectName__c": "json",
        "%vlocity_namespace%__IsDisabled__c": false,
        "%vlocity_namespace%__IsRequiredForUpsert__c": false,
        "%vlocity_namespace%__LinkCreatedIndex__c": 0,
        "%vlocity_namespace%__MapId__c": "DRPostNewVehicleFullV2Customa2i4E0000003nCBQAYItem40",
        "%vlocity_namespace%__UpsertKey__c": false,
        "CurrencyIsoCode": "GBP",
        "Name": "DRPostNewVehicleFullV2",
        "VlocityDataPackType": "SObject",
        "VlocityRecordSObjectType": "%vlocity_namespace%__DRMapItem__c"
    },
    {
        "%vlocity_namespace%__DomainObjectAPIName__c": "Insured_Item__c",
        "%vlocity_namespace%__DomainObjectCreationOrder__c": 3,
        "%vlocity_namespace%__DomainObjectFieldAPIName__c": "Restrictions__c",
        "%vlocity_namespace%__InterfaceFieldAPIName__c": "stpVehicleDetails:blkVehicleDetails:Restrictions",
        "%vlocity_namespace%__InterfaceObjectName__c": "json",
        "%vlocity_namespace%__IsDisabled__c": false,
        "%vlocity_namespace%__IsRequiredForUpsert__c": false,
        "%vlocity_namespace%__LinkCreatedIndex__c": 0,
        "%vlocity_namespace%__MapId__c": "DRPostNewVehicleFullV2Customa2i4E0000003nCBQAYItem38",
        "%vlocity_namespace%__UpsertKey__c": false,
        "CurrencyIsoCode": "GBP",
        "Name": "DRPostNewVehicleFullV2",
        "VlocityDataPackType": "SObject",
        "VlocityRecordSObjectType": "%vlocity_namespace%__DRMapItem__c"
    },
    {
        "%vlocity_namespace%__DomainObjectAPIName__c": "Insured_Item__c",
        "%vlocity_namespace%__DomainObjectCreationOrder__c": 3,
        "%vlocity_namespace%__DomainObjectFieldAPIName__c": "SecurityFeatures__c",
        "%vlocity_namespace%__InterfaceFieldAPIName__c": "stpVehicleDetails:blkVehicleDetails:ratingSecurityFeatures",
        "%vlocity_namespace%__InterfaceObjectName__c": "json",
        "%vlocity_namespace%__IsDisabled__c": false,
        "%vlocity_namespace%__IsRequiredForUpsert__c": false,
        "%vlocity_namespace%__LinkCreatedIndex__c": 0,
        "%vlocity_namespace%__MapId__c": "DRPostNewVehicleFullV2Customa2i4E0000003nCBQAYItem47",
        "%vlocity_namespace%__UpsertKey__c": false,
        "CurrencyIsoCode": "GBP",
        "Name": "DRPostNewVehicleFullV2",
        "VlocityDataPackType": "SObject",
        "VlocityRecordSObjectType": "%vlocity_namespace%__DRMapItem__c"
    },
    {
        "%vlocity_namespace%__DomainObjectAPIName__c": "Insured_Item__c",
        "%vlocity_namespace%__DomainObjectCreationOrder__c": 3,
        "%vlocity_namespace%__DomainObjectFieldAPIName__c": "Street__c",
        "%vlocity_namespace%__InterfaceFieldAPIName__c": "stpVehicleDetails:vehicleLocation-Block:vehicleStreet",
        "%vlocity_namespace%__InterfaceObjectName__c": "json",
        "%vlocity_namespace%__IsDisabled__c": false,
        "%vlocity_namespace%__IsRequiredForUpsert__c": false,
        "%vlocity_namespace%__LinkCreatedIndex__c": 0,
        "%vlocity_namespace%__MapId__c": "DRPostNewVehicleFullV2Customa2i4E0000003nCBQAYItem57",
        "%vlocity_namespace%__UpsertKey__c": false,
        "CurrencyIsoCode": "GBP",
        "Name": "DRPostNewVehicleFullV2",
        "VlocityDataPackType": "SObject",
        "VlocityRecordSObjectType": "%vlocity_namespace%__DRMapItem__c"
    },
    {
        "%vlocity_namespace%__DomainObjectAPIName__c": "Insured_Item__c",
        "%vlocity_namespace%__DomainObjectCreationOrder__c": 3,
        "%vlocity_namespace%__DomainObjectFieldAPIName__c": "Tax_Amount__c",
        "%vlocity_namespace%__InterfaceFieldAPIName__c": "stpPremium:Tax",
        "%vlocity_namespace%__InterfaceObjectName__c": "json",
        "%vlocity_namespace%__IsDisabled__c": false,
        "%vlocity_namespace%__IsRequiredForUpsert__c": false,
        "%vlocity_namespace%__LinkCreatedIndex__c": 0,
        "%vlocity_namespace%__MapId__c": "DRPostNewVehicleFullV2Customa2i4E0000003nCBQAYItem28",
        "%vlocity_namespace%__UpsertKey__c": false,
        "CurrencyIsoCode": "GBP",
        "Name": "DRPostNewVehicleFullV2",
        "VlocityDataPackType": "SObject",
        "VlocityRecordSObjectType": "%vlocity_namespace%__DRMapItem__c"
    },
    {
        "%vlocity_namespace%__DomainObjectAPIName__c": "Insured_Item__c",
        "%vlocity_namespace%__DomainObjectCreationOrder__c": 3,
        "%vlocity_namespace%__DomainObjectFieldAPIName__c": "Underwriter_Excess__c",
        "%vlocity_namespace%__InterfaceFieldAPIName__c": "stpVehicleDetails:blkVehicleDetails:uwExcess",
        "%vlocity_namespace%__InterfaceObjectName__c": "json",
        "%vlocity_namespace%__IsDisabled__c": false,
        "%vlocity_namespace%__IsRequiredForUpsert__c": false,
        "%vlocity_namespace%__LinkCreatedIndex__c": 0,
        "%vlocity_namespace%__MapId__c": "DRPostNewVehicleFullV2Customa2i4E0000003nCBQAYItem50",
        "%vlocity_namespace%__UpsertKey__c": false,
        "CurrencyIsoCode": "GBP",
        "Name": "DRPostNewVehicleFullV2",
        "VlocityDataPackType": "SObject",
        "VlocityRecordSObjectType": "%vlocity_namespace%__DRMapItem__c"
    },
    {
        "%vlocity_namespace%__DomainObjectAPIName__c": "Insured_Item__c",
        "%vlocity_namespace%__DomainObjectCreationOrder__c": 3,
        "%vlocity_namespace%__DomainObjectFieldAPIName__c": "Valuation_Type__c",
        "%vlocity_namespace%__InterfaceFieldAPIName__c": "stpVehicleDetails:blkVehicleDetails:Root:ConsumerValues:ValuationMethod",
        "%vlocity_namespace%__InterfaceObjectName__c": "json",
        "%vlocity_namespace%__IsDisabled__c": false,
        "%vlocity_namespace%__IsRequiredForUpsert__c": false,
        "%vlocity_namespace%__LinkCreatedIndex__c": 0,
        "%vlocity_namespace%__MapId__c": "DRPostNewVehicleFullV2Customa2i4E0000003nCBQAYItem44",
        "%vlocity_namespace%__UpsertKey__c": false,
        "CurrencyIsoCode": "GBP",
        "Name": "DRPostNewVehicleFullV2",
        "VlocityDataPackType": "SObject",
        "VlocityRecordSObjectType": "%vlocity_namespace%__DRMapItem__c"
    },
    {
        "%vlocity_namespace%__DomainObjectAPIName__c": "Insured_Item__c",
        "%vlocity_namespace%__DomainObjectCreationOrder__c": 3,
        "%vlocity_namespace%__DomainObjectFieldAPIName__c": "ValueGlasses__c",
        "%vlocity_namespace%__InterfaceFieldAPIName__c": "stpVehicleDetails:blkVehicleDetails:Root:ConsumerValues:RetailValue",
        "%vlocity_namespace%__InterfaceObjectName__c": "json",
        "%vlocity_namespace%__IsDisabled__c": false,
        "%vlocity_namespace%__IsRequiredForUpsert__c": false,
        "%vlocity_namespace%__LinkCreatedIndex__c": 0,
        "%vlocity_namespace%__MapId__c": "DRPostNewVehicleFullV2Customa2i4E0000003nCBQAYItem42",
        "%vlocity_namespace%__UpsertKey__c": false,
        "CurrencyIsoCode": "GBP",
        "Name": "DRPostNewVehicleFullV2",
        "VlocityDataPackType": "SObject",
        "VlocityRecordSObjectType": "%vlocity_namespace%__DRMapItem__c"
    },
    {
        "%vlocity_namespace%__DomainObjectAPIName__c": "Insured_Item__c",
        "%vlocity_namespace%__DomainObjectCreationOrder__c": 3,
        "%vlocity_namespace%__DomainObjectFieldAPIName__c": "ValueOverride__c",
        "%vlocity_namespace%__InterfaceFieldAPIName__c": "stpVehicleDetails:blkVehicleDetails:Root:ConsumerValues:VehicleOverrideValue",
        "%vlocity_namespace%__InterfaceObjectName__c": "json",
        "%vlocity_namespace%__IsDisabled__c": false,
        "%vlocity_namespace%__IsRequiredForUpsert__c": false,
        "%vlocity_namespace%__LinkCreatedIndex__c": 0,
        "%vlocity_namespace%__MapId__c": "DRPostNewVehicleFullV2Customa2i4E0000003nCBQAYItem45",
        "%vlocity_namespace%__UpsertKey__c": false,
        "CurrencyIsoCode": "GBP",
        "Name": "DRPostNewVehicleFullV2",
        "VlocityDataPackType": "SObject",
        "VlocityRecordSObjectType": "%vlocity_namespace%__DRMapItem__c"
    },
    {
        "%vlocity_namespace%__DomainObjectAPIName__c": "Insured_Item__c",
        "%vlocity_namespace%__DomainObjectCreationOrder__c": 3,
        "%vlocity_namespace%__DomainObjectFieldAPIName__c": "Value_Difference__c",
        "%vlocity_namespace%__InterfaceFieldAPIName__c": "stpVehicleDetails:blkVehicleDetails:Root:ConsumerValues:ValuationDifference",
        "%vlocity_namespace%__InterfaceObjectName__c": "json",
        "%vlocity_namespace%__IsDisabled__c": false,
        "%vlocity_namespace%__IsRequiredForUpsert__c": false,
        "%vlocity_namespace%__LinkCreatedIndex__c": 0,
        "%vlocity_namespace%__MapId__c": "DRPostNewVehicleFullV2Customa2i4E0000003nCBQAYItem43",
        "%vlocity_namespace%__UpsertKey__c": false,
        "CurrencyIsoCode": "GBP",
        "Name": "DRPostNewVehicleFullV2",
        "VlocityDataPackType": "SObject",
        "VlocityRecordSObjectType": "%vlocity_namespace%__DRMapItem__c"
    },
    {
        "%vlocity_namespace%__DomainObjectAPIName__c": "Insured_Item__c",
        "%vlocity_namespace%__DomainObjectCreationOrder__c": 3,
        "%vlocity_namespace%__DomainObjectFieldAPIName__c": "Value_Overidden__c",
        "%vlocity_namespace%__InterfaceFieldAPIName__c": "stpVehicleDetails:blkVehicleDetails:Root:ConsumerValues:OverrideValueCheckbox",
        "%vlocity_namespace%__InterfaceObjectName__c": "json",
        "%vlocity_namespace%__IsDisabled__c": false,
        "%vlocity_namespace%__IsRequiredForUpsert__c": false,
        "%vlocity_namespace%__LinkCreatedIndex__c": 0,
        "%vlocity_namespace%__MapId__c": "DRPostNewVehicleFullV2Customa2i4E0000003nCBQAYItem41",
        "%vlocity_namespace%__UpsertKey__c": false,
        "CurrencyIsoCode": "GBP",
        "Name": "DRPostNewVehicleFullV2",
        "VlocityDataPackType": "SObject",
        "VlocityRecordSObjectType": "%vlocity_namespace%__DRMapItem__c"
    },
    {
        "%vlocity_namespace%__DomainObjectAPIName__c": "Insured_Item__c",
        "%vlocity_namespace%__DomainObjectCreationOrder__c": 3,
        "%vlocity_namespace%__DomainObjectFieldAPIName__c": "VehicleKept__c",
        "%vlocity_namespace%__InterfaceFieldAPIName__c": "stpVehicleDetails:vehicleStorage",
        "%vlocity_namespace%__InterfaceObjectName__c": "json",
        "%vlocity_namespace%__IsDisabled__c": false,
        "%vlocity_namespace%__IsRequiredForUpsert__c": false,
        "%vlocity_namespace%__LinkCreatedIndex__c": 0,
        "%vlocity_namespace%__MapId__c": "DRPostNewVehicleFullV2Customa2i4E0000003nCBQAYItem51",
        "%vlocity_namespace%__UpsertKey__c": false,
        "CurrencyIsoCode": "GBP",
        "Name": "DRPostNewVehicleFullV2",
        "VlocityDataPackType": "SObject",
        "VlocityRecordSObjectType": "%vlocity_namespace%__DRMapItem__c"
    },
    {
        "%vlocity_namespace%__DomainObjectAPIName__c": "Insured_Item__c",
        "%vlocity_namespace%__DomainObjectCreationOrder__c": 3,
        "%vlocity_namespace%__DomainObjectFieldAPIName__c": "VehicleUse__c",
        "%vlocity_namespace%__InterfaceFieldAPIName__c": "stpVehicleDetails:blkVehicleDetails:Root:Vehicle Use",
        "%vlocity_namespace%__InterfaceObjectName__c": "json",
        "%vlocity_namespace%__IsDisabled__c": false,
        "%vlocity_namespace%__IsRequiredForUpsert__c": false,
        "%vlocity_namespace%__LinkCreatedIndex__c": 0,
        "%vlocity_namespace%__MapId__c": "DRPostNewVehicleFullV2Customa2i4E0000003nCBQAYItem48",
        "%vlocity_namespace%__UpsertKey__c": false,
        "CurrencyIsoCode": "GBP",
        "Name": "DRPostNewVehicleFullV2",
        "VlocityDataPackType": "SObject",
        "VlocityRecordSObjectType": "%vlocity_namespace%__DRMapItem__c"
    },
    {
        "%vlocity_namespace%__DomainObjectAPIName__c": "Insured_Item__c",
        "%vlocity_namespace%__DomainObjectCreationOrder__c": 3,
        "%vlocity_namespace%__DomainObjectFieldAPIName__c": "Vehicle_Age__c",
        "%vlocity_namespace%__InterfaceFieldAPIName__c": "stpVehicleDetails:blkVehicleDetails:Root:VehicleDetails:VehicleAge",
        "%vlocity_namespace%__InterfaceObjectName__c": "json",
        "%vlocity_namespace%__IsDisabled__c": false,
        "%vlocity_namespace%__IsRequiredForUpsert__c": false,
        "%vlocity_namespace%__LinkCreatedIndex__c": 0,
        "%vlocity_namespace%__MapId__c": "DRPostNewVehicleFullV2Customa2i4E0000003nCBQAYItem49",
        "%vlocity_namespace%__UpsertKey__c": false,
        "CurrencyIsoCode": "GBP",
        "Name": "DRPostNewVehicleFullV2",
        "VlocityDataPackType": "SObject",
        "VlocityRecordSObjectType": "%vlocity_namespace%__DRMapItem__c"
    },
    {
        "%vlocity_namespace%__DomainObjectAPIName__c": "Insured_Item__c",
        "%vlocity_namespace%__DomainObjectCreationOrder__c": 3,
        "%vlocity_namespace%__DomainObjectFieldAPIName__c": "Vehicle_Area_Code__c",
        "%vlocity_namespace%__InterfaceFieldAPIName__c": "areaOutput",
        "%vlocity_namespace%__InterfaceObjectName__c": "json",
        "%vlocity_namespace%__IsDisabled__c": false,
        "%vlocity_namespace%__IsRequiredForUpsert__c": false,
        "%vlocity_namespace%__LinkCreatedIndex__c": 0,
        "%vlocity_namespace%__MapId__c": "DRPostNewVehicleFullV2Customa2i4E0000003nCBQAYItem19",
        "%vlocity_namespace%__UpsertKey__c": false,
        "CurrencyIsoCode": "GBP",
        "Name": "DRPostNewVehicleFullV2",
        "VlocityDataPackType": "SObject",
        "VlocityRecordSObjectType": "%vlocity_namespace%__DRMapItem__c"
    },
    {
        "%vlocity_namespace%__DomainObjectAPIName__c": "Insured_Item__c",
        "%vlocity_namespace%__DomainObjectCreationOrder__c": 3,
        "%vlocity_namespace%__DomainObjectFieldAPIName__c": "Vehicle_Area_Code__c",
        "%vlocity_namespace%__InterfaceFieldAPIName__c": "stpVehicleDetails:blkVehicleDetails:Location",
        "%vlocity_namespace%__InterfaceObjectName__c": "json",
        "%vlocity_namespace%__IsDisabled__c": false,
        "%vlocity_namespace%__IsRequiredForUpsert__c": false,
        "%vlocity_namespace%__LinkCreatedIndex__c": 0,
        "%vlocity_namespace%__MapId__c": "DRPostNewVehicleFullV2Customa2i4E0000003nCBQAYItem36",
        "%vlocity_namespace%__UpsertKey__c": false,
        "CurrencyIsoCode": "GBP",
        "Name": "DRPostNewVehicleFullV2",
        "VlocityDataPackType": "SObject",
        "VlocityRecordSObjectType": "%vlocity_namespace%__DRMapItem__c"
    },
    {
        "%vlocity_namespace%__DomainObjectAPIName__c": "Insured_Item__c",
        "%vlocity_namespace%__DomainObjectCreationOrder__c": 3,
        "%vlocity_namespace%__DomainObjectFieldAPIName__c": "Vehicle_Type__c",
        "%vlocity_namespace%__InterfaceFieldAPIName__c": "product:Name",
        "%vlocity_namespace%__InterfaceObjectName__c": "json",
        "%vlocity_namespace%__IsDisabled__c": false,
        "%vlocity_namespace%__IsRequiredForUpsert__c": false,
        "%vlocity_namespace%__LinkCreatedIndex__c": 0,
        "%vlocity_namespace%__MapId__c": "DRPostNewVehicleFullV2Customa2i4E0000003nCBQAYItem26",
        "%vlocity_namespace%__UpsertKey__c": false,
        "CurrencyIsoCode": "GBP",
        "Name": "DRPostNewVehicleFullV2",
        "VlocityDataPackType": "SObject",
        "VlocityRecordSObjectType": "%vlocity_namespace%__DRMapItem__c"
    },
    {
        "%vlocity_namespace%__DomainObjectAPIName__c": "Insured_Item__c",
        "%vlocity_namespace%__DomainObjectCreationOrder__c": 3,
        "%vlocity_namespace%__DomainObjectFieldAPIName__c": "Vehicle__c",
        "%vlocity_namespace%__InterfaceObjectName__c": "json",
        "%vlocity_namespace%__IsDisabled__c": false,
        "%vlocity_namespace%__IsRequiredForUpsert__c": false,
        "%vlocity_namespace%__LinkCreatedField__c": "Id",
        "%vlocity_namespace%__LinkCreatedIndex__c": 2,
        "%vlocity_namespace%__MapId__c": "DRPostNewVehicleFullV2Customa2i4E0000003nCBQAYItem18",
        "%vlocity_namespace%__UpsertKey__c": false,
        "CurrencyIsoCode": "GBP",
        "Name": "DRPostNewVehicleFullV2",
        "VlocityDataPackType": "SObject",
        "VlocityRecordSObjectType": "%vlocity_namespace%__DRMapItem__c"
    },
    {
        "%vlocity_namespace%__DomainObjectAPIName__c": "Insured_Item__c",
        "%vlocity_namespace%__DomainObjectCreationOrder__c": 3,
        "%vlocity_namespace%__DomainObjectFieldAPIName__c": "Voluntary_Excess__c",
        "%vlocity_namespace%__InterfaceFieldAPIName__c": "stpVehicleDetails:blkVehicleDetails:volExcess",
        "%vlocity_namespace%__InterfaceObjectName__c": "json",
        "%vlocity_namespace%__IsDisabled__c": false,
        "%vlocity_namespace%__IsRequiredForUpsert__c": false,
        "%vlocity_namespace%__LinkCreatedIndex__c": 0,
        "%vlocity_namespace%__MapId__c": "DRPostNewVehicleFullV2Customa2i4E0000003nCBQAYItem52",
        "%vlocity_namespace%__UpsertKey__c": false,
        "CurrencyIsoCode": "GBP",
        "Name": "DRPostNewVehicleFullV2",
        "VlocityDataPackType": "SObject",
        "VlocityRecordSObjectType": "%vlocity_namespace%__DRMapItem__c"
    },
    {
        "%vlocity_namespace%__DomainObjectAPIName__c": "Insured_Item__c",
        "%vlocity_namespace%__DomainObjectCreationOrder__c": 3,
        "%vlocity_namespace%__DomainObjectFieldAPIName__c": "Warnings__c",
        "%vlocity_namespace%__InterfaceFieldAPIName__c": "stpVehicleDetails:blkVehicleDetails:Warnings",
        "%vlocity_namespace%__InterfaceObjectName__c": "json",
        "%vlocity_namespace%__IsDisabled__c": false,
        "%vlocity_namespace%__IsRequiredForUpsert__c": false,
        "%vlocity_namespace%__LinkCreatedIndex__c": 0,
        "%vlocity_namespace%__MapId__c": "DRPostNewVehicleFullV2Customa2i4E0000003nCBQAYItem53",
        "%vlocity_namespace%__UpsertKey__c": false,
        "CurrencyIsoCode": "GBP",
        "Name": "DRPostNewVehicleFullV2",
        "VlocityDataPackType": "SObject",
        "VlocityRecordSObjectType": "%vlocity_namespace%__DRMapItem__c"
    },
    {
        "%vlocity_namespace%__DomainObjectAPIName__c": "Referrals__c",
        "%vlocity_namespace%__DomainObjectCreationOrder__c": 4,
        "%vlocity_namespace%__DomainObjectFieldAPIName__c": "Asset__c",
        "%vlocity_namespace%__InterfaceFieldAPIName__c": "ContextId",
        "%vlocity_namespace%__InterfaceObjectName__c": "json",
        "%vlocity_namespace%__IsDisabled__c": false,
        "%vlocity_namespace%__IsRequiredForUpsert__c": false,
        "%vlocity_namespace%__LinkCreatedIndex__c": 0,
        "%vlocity_namespace%__MapId__c": "DRPostNewVehicleFullV2Customa2i4E0000003nCBQAYItem59",
        "%vlocity_namespace%__UpsertKey__c": true,
        "CurrencyIsoCode": "GBP",
        "Name": "DRPostNewVehicleFullV2",
        "VlocityDataPackType": "SObject",
        "VlocityRecordSObjectType": "%vlocity_namespace%__DRMapItem__c"
    },
    {
        "%vlocity_namespace%__DomainObjectAPIName__c": "Referrals__c",
        "%vlocity_namespace%__DomainObjectCreationOrder__c": 4,
        "%vlocity_namespace%__DomainObjectFieldAPIName__c": "Code__c",
        "%vlocity_namespace%__InterfaceFieldAPIName__c": "stpVehicleDetails:blkVehicleDetails:referralValuationCode",
        "%vlocity_namespace%__InterfaceObjectName__c": "json",
        "%vlocity_namespace%__IsDisabled__c": false,
        "%vlocity_namespace%__IsRequiredForUpsert__c": true,
        "%vlocity_namespace%__LinkCreatedIndex__c": 0,
        "%vlocity_namespace%__MapId__c": "DRPostNewVehicleFullV2Customa2i4E0000003nCBQAYItem61",
        "%vlocity_namespace%__UpsertKey__c": true,
        "CurrencyIsoCode": "GBP",
        "Name": "DRPostNewVehicleFullV2",
        "VlocityDataPackType": "SObject",
        "VlocityRecordSObjectType": "%vlocity_namespace%__DRMapItem__c"
    },
    {
        "%vlocity_namespace%__DomainObjectAPIName__c": "Referrals__c",
        "%vlocity_namespace%__DomainObjectCreationOrder__c": 4,
        "%vlocity_namespace%__DomainObjectFieldAPIName__c": "CurrencyIsoCode",
        "%vlocity_namespace%__InterfaceFieldAPIName__c": "stpVehicleDetails:blkVehicleDetails:assetCurrency",
        "%vlocity_namespace%__InterfaceObjectName__c": "json",
        "%vlocity_namespace%__IsDisabled__c": false,
        "%vlocity_namespace%__IsRequiredForUpsert__c": false,
        "%vlocity_namespace%__LinkCreatedIndex__c": 0,
        "%vlocity_namespace%__MapId__c": "DRPostNewVehicleFullV2Customa2i4E0000003nCBQAYItem60",
        "%vlocity_namespace%__UpsertKey__c": false,
        "CurrencyIsoCode": "GBP",
        "Name": "DRPostNewVehicleFullV2",
        "VlocityDataPackType": "SObject",
        "VlocityRecordSObjectType": "%vlocity_namespace%__DRMapItem__c"
    },
    {
        "%vlocity_namespace%__DomainObjectAPIName__c": "Referrals__c",
        "%vlocity_namespace%__DomainObjectCreationOrder__c": 4,
        "%vlocity_namespace%__DomainObjectFieldAPIName__c": "Description__c",
        "%vlocity_namespace%__InterfaceFieldAPIName__c": "stpVehicleDetails:blkVehicleDetails:referralValuationName",
        "%vlocity_namespace%__InterfaceObjectName__c": "json",
        "%vlocity_namespace%__IsDisabled__c": false,
        "%vlocity_namespace%__IsRequiredForUpsert__c": false,
        "%vlocity_namespace%__LinkCreatedIndex__c": 0,
        "%vlocity_namespace%__MapId__c": "DRPostNewVehicleFullV2Customa2i4E0000003nCBQAYItem63",
        "%vlocity_namespace%__UpsertKey__c": false,
        "CurrencyIsoCode": "GBP",
        "Name": "DRPostNewVehicleFullV2",
        "VlocityDataPackType": "SObject",
        "VlocityRecordSObjectType": "%vlocity_namespace%__DRMapItem__c"
    },
    {
        "%vlocity_namespace%__DomainObjectAPIName__c": "Referrals__c",
        "%vlocity_namespace%__DomainObjectCreationOrder__c": 4,
        "%vlocity_namespace%__DomainObjectFieldAPIName__c": "Insured_Item__c",
        "%vlocity_namespace%__InterfaceObjectName__c": "json",
        "%vlocity_namespace%__IsDisabled__c": false,
        "%vlocity_namespace%__IsRequiredForUpsert__c": false,
        "%vlocity_namespace%__LinkCreatedField__c": "Id",
        "%vlocity_namespace%__LinkCreatedIndex__c": 3,
        "%vlocity_namespace%__MapId__c": "DRPostNewVehicleFullV2Customa2i4E0000003nCBQAYItem58",
        "%vlocity_namespace%__UpsertKey__c": true,
        "CurrencyIsoCode": "GBP",
        "Name": "DRPostNewVehicleFullV2",
        "VlocityDataPackType": "SObject",
        "VlocityRecordSObjectType": "%vlocity_namespace%__DRMapItem__c"
    },
    {
        "%vlocity_namespace%__DomainObjectAPIName__c": "Referrals__c",
        "%vlocity_namespace%__DomainObjectCreationOrder__c": 4,
        "%vlocity_namespace%__DomainObjectFieldAPIName__c": "Limit_Value__c",
        "%vlocity_namespace%__InterfaceFieldAPIName__c": "stpVehicleDetails:blkVehicleDetails:Root:ConsumerValues:FinalValuation",
        "%vlocity_namespace%__InterfaceObjectName__c": "json",
        "%vlocity_namespace%__IsDisabled__c": false,
        "%vlocity_namespace%__IsRequiredForUpsert__c": false,
        "%vlocity_namespace%__LinkCreatedIndex__c": 0,
        "%vlocity_namespace%__MapId__c": "DRPostNewVehicleFullV2Customa2i4E0000003nCBQAYItem64",
        "%vlocity_namespace%__UpsertKey__c": false,
        "CurrencyIsoCode": "GBP",
        "Name": "DRPostNewVehicleFullV2",
        "VlocityDataPackType": "SObject",
        "VlocityRecordSObjectType": "%vlocity_namespace%__DRMapItem__c"
    },
    {
        "%vlocity_namespace%__DomainObjectAPIName__c": "Referrals__c",
        "%vlocity_namespace%__DomainObjectCreationOrder__c": 4,
        "%vlocity_namespace%__DomainObjectFieldAPIName__c": "Name",
        "%vlocity_namespace%__InterfaceFieldAPIName__c": "stpVehicleDetails:blkVehicleDetails:referralValuationName",
        "%vlocity_namespace%__InterfaceObjectName__c": "json",
        "%vlocity_namespace%__IsDisabled__c": false,
        "%vlocity_namespace%__IsRequiredForUpsert__c": true,
        "%vlocity_namespace%__LinkCreatedIndex__c": 0,
        "%vlocity_namespace%__MapId__c": "DRPostNewVehicleFullV2Customa2i4E0000003nCBQAYItem62",
        "%vlocity_namespace%__UpsertKey__c": false,
        "CurrencyIsoCode": "GBP",
        "Name": "DRPostNewVehicleFullV2",
        "VlocityDataPackType": "SObject",
        "VlocityRecordSObjectType": "%vlocity_namespace%__DRMapItem__c"
    },
    {
        "%vlocity_namespace%__DomainObjectAPIName__c": "Referrals__c",
        "%vlocity_namespace%__DomainObjectCreationOrder__c": 5,
        "%vlocity_namespace%__DomainObjectFieldAPIName__c": "Asset__c",
        "%vlocity_namespace%__InterfaceFieldAPIName__c": "ContextId",
        "%vlocity_namespace%__InterfaceObjectName__c": "json",
        "%vlocity_namespace%__IsDisabled__c": false,
        "%vlocity_namespace%__IsRequiredForUpsert__c": false,
        "%vlocity_namespace%__LinkCreatedIndex__c": 0,
        "%vlocity_namespace%__MapId__c": "DRPostNewVehicleFullV2Customa2i4E0000003nCBQAYItem66",
        "%vlocity_namespace%__UpsertKey__c": true,
        "CurrencyIsoCode": "GBP",
        "Name": "DRPostNewVehicleFullV2",
        "VlocityDataPackType": "SObject",
        "VlocityRecordSObjectType": "%vlocity_namespace%__DRMapItem__c"
    },
    {
        "%vlocity_namespace%__DomainObjectAPIName__c": "Referrals__c",
        "%vlocity_namespace%__DomainObjectCreationOrder__c": 5,
        "%vlocity_namespace%__DomainObjectFieldAPIName__c": "Code__c",
        "%vlocity_namespace%__InterfaceFieldAPIName__c": "stpVehicleDetails:blkVehicleDetails:referralNumberOfVehiclesCode",
        "%vlocity_namespace%__InterfaceObjectName__c": "json",
        "%vlocity_namespace%__IsDisabled__c": false,
        "%vlocity_namespace%__IsRequiredForUpsert__c": true,
        "%vlocity_namespace%__LinkCreatedIndex__c": 0,
        "%vlocity_namespace%__MapId__c": "DRPostNewVehicleFullV2Customa2i4E0000003nCBQAYItem69",
        "%vlocity_namespace%__UpsertKey__c": true,
        "CurrencyIsoCode": "GBP",
        "Name": "DRPostNewVehicleFullV2",
        "VlocityDataPackType": "SObject",
        "VlocityRecordSObjectType": "%vlocity_namespace%__DRMapItem__c"
    },
    {
        "%vlocity_namespace%__DomainObjectAPIName__c": "Referrals__c",
        "%vlocity_namespace%__DomainObjectCreationOrder__c": 5,
        "%vlocity_namespace%__DomainObjectFieldAPIName__c": "CurrencyIsoCode",
        "%vlocity_namespace%__InterfaceFieldAPIName__c": "stpVehicleDetails:blkVehicleDetails:assetCurrency",
        "%vlocity_namespace%__InterfaceObjectName__c": "json",
        "%vlocity_namespace%__IsDisabled__c": false,
        "%vlocity_namespace%__IsRequiredForUpsert__c": false,
        "%vlocity_namespace%__LinkCreatedIndex__c": 0,
        "%vlocity_namespace%__MapId__c": "DRPostNewVehicleFullV2Customa2i4E0000003nCBQAYItem68",
        "%vlocity_namespace%__UpsertKey__c": false,
        "CurrencyIsoCode": "GBP",
        "Name": "DRPostNewVehicleFullV2",
        "VlocityDataPackType": "SObject",
        "VlocityRecordSObjectType": "%vlocity_namespace%__DRMapItem__c"
    },
    {
        "%vlocity_namespace%__DomainObjectAPIName__c": "Referrals__c",
        "%vlocity_namespace%__DomainObjectCreationOrder__c": 5,
        "%vlocity_namespace%__DomainObjectFieldAPIName__c": "Description__c",
        "%vlocity_namespace%__InterfaceFieldAPIName__c": "stpVehicleDetails:blkVehicleDetails:referralNumberofVehiclesName",
        "%vlocity_namespace%__InterfaceObjectName__c": "json",
        "%vlocity_namespace%__IsDisabled__c": false,
        "%vlocity_namespace%__IsRequiredForUpsert__c": false,
        "%vlocity_namespace%__LinkCreatedIndex__c": 0,
        "%vlocity_namespace%__MapId__c": "DRPostNewVehicleFullV2Customa2i4E0000003nCBQAYItem71",
        "%vlocity_namespace%__UpsertKey__c": false,
        "CurrencyIsoCode": "GBP",
        "Name": "DRPostNewVehicleFullV2",
        "VlocityDataPackType": "SObject",
        "VlocityRecordSObjectType": "%vlocity_namespace%__DRMapItem__c"
    },
    {
        "%vlocity_namespace%__DomainObjectAPIName__c": "Referrals__c",
        "%vlocity_namespace%__DomainObjectCreationOrder__c": 5,
        "%vlocity_namespace%__DomainObjectFieldAPIName__c": "Insured_Item__c",
        "%vlocity_namespace%__InterfaceObjectName__c": "json",
        "%vlocity_namespace%__IsDisabled__c": false,
        "%vlocity_namespace%__IsRequiredForUpsert__c": false,
        "%vlocity_namespace%__LinkCreatedField__c": "Id",
        "%vlocity_namespace%__LinkCreatedIndex__c": 3,
        "%vlocity_namespace%__MapId__c": "DRPostNewVehicleFullV2Customa2i4E0000003nCBQAYItem65",
        "%vlocity_namespace%__UpsertKey__c": false,
        "CurrencyIsoCode": "GBP",
        "Name": "DRPostNewVehicleFullV2",
        "VlocityDataPackType": "SObject",
        "VlocityRecordSObjectType": "%vlocity_namespace%__DRMapItem__c"
    },
    {
        "%vlocity_namespace%__DomainObjectAPIName__c": "Referrals__c",
        "%vlocity_namespace%__DomainObjectCreationOrder__c": 5,
        "%vlocity_namespace%__DomainObjectFieldAPIName__c": "Limit_Value__c",
        "%vlocity_namespace%__InterfaceFieldAPIName__c": "NumberOfInsuredItems",
        "%vlocity_namespace%__InterfaceObjectName__c": "json",
        "%vlocity_namespace%__IsDisabled__c": false,
        "%vlocity_namespace%__IsRequiredForUpsert__c": false,
        "%vlocity_namespace%__LinkCreatedIndex__c": 0,
        "%vlocity_namespace%__MapId__c": "DRPostNewVehicleFullV2Customa2i4E0000003nCBQAYItem67",
        "%vlocity_namespace%__UpsertKey__c": false,
        "CurrencyIsoCode": "GBP",
        "Name": "DRPostNewVehicleFullV2",
        "VlocityDataPackType": "SObject",
        "VlocityRecordSObjectType": "%vlocity_namespace%__DRMapItem__c"
    },
    {
        "%vlocity_namespace%__DomainObjectAPIName__c": "Referrals__c",
        "%vlocity_namespace%__DomainObjectCreationOrder__c": 5,
        "%vlocity_namespace%__DomainObjectFieldAPIName__c": "Name",
        "%vlocity_namespace%__InterfaceFieldAPIName__c": "stpVehicleDetails:blkVehicleDetails:referralNumberofVehiclesName",
        "%vlocity_namespace%__InterfaceObjectName__c": "json",
        "%vlocity_namespace%__IsDisabled__c": false,
        "%vlocity_namespace%__IsRequiredForUpsert__c": true,
        "%vlocity_namespace%__LinkCreatedIndex__c": 0,
        "%vlocity_namespace%__MapId__c": "DRPostNewVehicleFullV2Customa2i4E0000003nCBQAYItem70",
        "%vlocity_namespace%__UpsertKey__c": false,
        "CurrencyIsoCode": "GBP",
        "Name": "DRPostNewVehicleFullV2",
        "VlocityDataPackType": "SObject",
        "VlocityRecordSObjectType": "%vlocity_namespace%__DRMapItem__c"
    },
    {
        "%vlocity_namespace%__DomainObjectAPIName__c": "Policy_Member_Rel__c",
        "%vlocity_namespace%__DomainObjectCreationOrder__c": 6,
        "%vlocity_namespace%__DomainObjectFieldAPIName__c": "Account__c",
        "%vlocity_namespace%__InterfaceFieldAPIName__c": "Policyholder",
        "%vlocity_namespace%__InterfaceObjectName__c": "json",
        "%vlocity_namespace%__IsDisabled__c": false,
        "%vlocity_namespace%__IsRequiredForUpsert__c": false,
        "%vlocity_namespace%__LinkCreatedIndex__c": 0,
        "%vlocity_namespace%__MapId__c": "DRPostNewVehicleFullV2Customa2i4E0000003nCBQAYItem74",
        "%vlocity_namespace%__UpsertKey__c": true,
        "CurrencyIsoCode": "GBP",
        "Name": "DRPostNewVehicleFullV2",
        "VlocityDataPackType": "SObject",
        "VlocityRecordSObjectType": "%vlocity_namespace%__DRMapItem__c"
    },
    {
        "%vlocity_namespace%__DomainObjectAPIName__c": "Policy_Member_Rel__c",
        "%vlocity_namespace%__DomainObjectCreationOrder__c": 6,
        "%vlocity_namespace%__DomainObjectFieldAPIName__c": "Policy__c",
        "%vlocity_namespace%__InterfaceFieldAPIName__c": "ContextId",
        "%vlocity_namespace%__InterfaceObjectName__c": "json",
        "%vlocity_namespace%__IsDisabled__c": false,
        "%vlocity_namespace%__IsRequiredForUpsert__c": false,
        "%vlocity_namespace%__LinkCreatedIndex__c": 0,
        "%vlocity_namespace%__MapId__c": "DRPostNewVehicleFullV2Customa2i4E0000003nCBQAYItem73",
        "%vlocity_namespace%__UpsertKey__c": true,
        "CurrencyIsoCode": "GBP",
        "Name": "DRPostNewVehicleFullV2",
        "VlocityDataPackType": "SObject",
        "VlocityRecordSObjectType": "%vlocity_namespace%__DRMapItem__c"
    },
    {
        "%vlocity_namespace%__DefaultValue__c": "Driver",
        "%vlocity_namespace%__DomainObjectAPIName__c": "Policy_Member_Rel__c",
        "%vlocity_namespace%__DomainObjectCreationOrder__c": 6,
        "%vlocity_namespace%__DomainObjectFieldAPIName__c": "Type__c",
        "%vlocity_namespace%__InterfaceObjectName__c": "json",
        "%vlocity_namespace%__IsDisabled__c": false,
        "%vlocity_namespace%__IsRequiredForUpsert__c": false,
        "%vlocity_namespace%__LinkCreatedIndex__c": 0,
        "%vlocity_namespace%__MapId__c": "DRPostNewVehicleFullV2Customa2i4E0000003nCBQAYItem72",
        "%vlocity_namespace%__UpsertKey__c": false,
        "CurrencyIsoCode": "GBP",
        "Name": "DRPostNewVehicleFullV2",
        "VlocityDataPackType": "SObject",
        "VlocityRecordSObjectType": "%vlocity_namespace%__DRMapItem__c"
    },
    {
        "%vlocity_namespace%__DomainObjectAPIName__c": "Referrals__c",
        "%vlocity_namespace%__DomainObjectCreationOrder__c": 7,
        "%vlocity_namespace%__DomainObjectFieldAPIName__c": "Asset__c",
        "%vlocity_namespace%__InterfaceFieldAPIName__c": "ContextId",
        "%vlocity_namespace%__InterfaceObjectName__c": "json",
        "%vlocity_namespace%__IsDisabled__c": false,
        "%vlocity_namespace%__IsRequiredForUpsert__c": false,
        "%vlocity_namespace%__LinkCreatedIndex__c": 0,
        "%vlocity_namespace%__MapId__c": "DRPostNewVehicleFullV2Customa2i4E0000003nCBQAYItem76",
        "%vlocity_namespace%__UpsertKey__c": true,
        "CurrencyIsoCode": "GBP",
        "Name": "DRPostNewVehicleFullV2",
        "VlocityDataPackType": "SObject",
        "VlocityRecordSObjectType": "%vlocity_namespace%__DRMapItem__c"
    },
    {
        "%vlocity_namespace%__DomainObjectAPIName__c": "Referrals__c",
        "%vlocity_namespace%__DomainObjectCreationOrder__c": 7,
        "%vlocity_namespace%__DomainObjectFieldAPIName__c": "Code__c",
        "%vlocity_namespace%__InterfaceFieldAPIName__c": "stpVehicleDetails:blkVehicleDetails:referralBackdateCoverageCode",
        "%vlocity_namespace%__InterfaceObjectName__c": "json",
        "%vlocity_namespace%__IsDisabled__c": false,
        "%vlocity_namespace%__IsRequiredForUpsert__c": true,
        "%vlocity_namespace%__LinkCreatedIndex__c": 0,
        "%vlocity_namespace%__MapId__c": "DRPostNewVehicleFullV2Customa2i4E0000003nCBQAYItem77",
        "%vlocity_namespace%__UpsertKey__c": true,
        "CurrencyIsoCode": "GBP",
        "Name": "DRPostNewVehicleFullV2",
        "VlocityDataPackType": "SObject",
        "VlocityRecordSObjectType": "%vlocity_namespace%__DRMapItem__c"
    },
    {
        "%vlocity_namespace%__DomainObjectAPIName__c": "Referrals__c",
        "%vlocity_namespace%__DomainObjectCreationOrder__c": 7,
        "%vlocity_namespace%__DomainObjectFieldAPIName__c": "Description__c",
        "%vlocity_namespace%__InterfaceFieldAPIName__c": "stpVehicleDetails:blkVehicleDetails:referralBackdateCoverageName",
        "%vlocity_namespace%__InterfaceObjectName__c": "json",
        "%vlocity_namespace%__IsDisabled__c": false,
        "%vlocity_namespace%__IsRequiredForUpsert__c": false,
        "%vlocity_namespace%__LinkCreatedIndex__c": 0,
        "%vlocity_namespace%__MapId__c": "DRPostNewVehicleFullV2Customa2i4E0000003nCBQAYItem78",
        "%vlocity_namespace%__UpsertKey__c": false,
        "CurrencyIsoCode": "GBP",
        "Name": "DRPostNewVehicleFullV2",
        "VlocityDataPackType": "SObject",
        "VlocityRecordSObjectType": "%vlocity_namespace%__DRMapItem__c"
    },
    {
        "%vlocity_namespace%__DomainObjectAPIName__c": "Referrals__c",
        "%vlocity_namespace%__DomainObjectCreationOrder__c": 7,
        "%vlocity_namespace%__DomainObjectFieldAPIName__c": "Insured_Item__c",
        "%vlocity_namespace%__InterfaceObjectName__c": "json",
        "%vlocity_namespace%__IsDisabled__c": false,
        "%vlocity_namespace%__IsRequiredForUpsert__c": false,
        "%vlocity_namespace%__LinkCreatedField__c": "Id",
        "%vlocity_namespace%__LinkCreatedIndex__c": 3,
        "%vlocity_namespace%__MapId__c": "DRPostNewVehicleFullV2Customa2i4E0000003nCBQAYItem75",
        "%vlocity_namespace%__UpsertKey__c": true,
        "CurrencyIsoCode": "GBP",
        "Name": "DRPostNewVehicleFullV2",
        "VlocityDataPackType": "SObject",
        "VlocityRecordSObjectType": "%vlocity_namespace%__DRMapItem__c"
    },
    {
        "%vlocity_namespace%__DomainObjectAPIName__c": "Referrals__c",
        "%vlocity_namespace%__DomainObjectCreationOrder__c": 7,
        "%vlocity_namespace%__DomainObjectFieldAPIName__c": "Name",
        "%vlocity_namespace%__InterfaceFieldAPIName__c": "stpVehicleDetails:blkVehicleDetails:referralBackdateCoverageName",
        "%vlocity_namespace%__InterfaceObjectName__c": "json",
        "%vlocity_namespace%__IsDisabled__c": false,
        "%vlocity_namespace%__IsRequiredForUpsert__c": false,
        "%vlocity_namespace%__LinkCreatedIndex__c": 0,
        "%vlocity_namespace%__MapId__c": "DRPostNewVehicleFullV2Customa2i4E0000003nCBQAYItem79",
        "%vlocity_namespace%__UpsertKey__c": false,
        "CurrencyIsoCode": "GBP",
        "Name": "DRPostNewVehicleFullV2",
        "VlocityDataPackType": "SObject",
        "VlocityRecordSObjectType": "%vlocity_namespace%__DRMapItem__c"
    },
    {
        "%vlocity_namespace%__DefaultValue__c": "true",
        "%vlocity_namespace%__DomainObjectAPIName__c": "Coverage__c",
        "%vlocity_namespace%__DomainObjectCreationOrder__c": 8,
        "%vlocity_namespace%__DomainObjectFieldAPIName__c": "Active__c",
        "%vlocity_namespace%__InterfaceObjectName__c": "json",
        "%vlocity_namespace%__IsDisabled__c": false,
        "%vlocity_namespace%__IsRequiredForUpsert__c": false,
        "%vlocity_namespace%__LinkCreatedIndex__c": 0,
        "%vlocity_namespace%__MapId__c": "DRPostNewVehicleFullV2Customa2i4E0000003nCBQAYItem80",
        "%vlocity_namespace%__UpsertKey__c": false,
        "CurrencyIsoCode": "GBP",
        "Name": "DRPostNewVehicleFullV2",
        "VlocityDataPackType": "SObject",
        "VlocityRecordSObjectType": "%vlocity_namespace%__DRMapItem__c"
    },
    {
        "%vlocity_namespace%__DomainObjectAPIName__c": "Coverage__c",
        "%vlocity_namespace%__DomainObjectCreationOrder__c": 8,
        "%vlocity_namespace%__DomainObjectFieldAPIName__c": "Asset__c",
        "%vlocity_namespace%__InterfaceFieldAPIName__c": "ContextId",
        "%vlocity_namespace%__InterfaceObjectName__c": "json",
        "%vlocity_namespace%__IsDisabled__c": false,
        "%vlocity_namespace%__IsRequiredForUpsert__c": false,
        "%vlocity_namespace%__LinkCreatedIndex__c": 0,
        "%vlocity_namespace%__MapId__c": "DRPostNewVehicleFullV2Customa2i4E0000003nCBQAYItem88",
        "%vlocity_namespace%__UpsertKey__c": false,
        "CurrencyIsoCode": "GBP",
        "Name": "DRPostNewVehicleFullV2",
        "VlocityDataPackType": "SObject",
        "VlocityRecordSObjectType": "%vlocity_namespace%__DRMapItem__c"
    },
    {
        "%vlocity_namespace%__DomainObjectAPIName__c": "Coverage__c",
        "%vlocity_namespace%__DomainObjectCreationOrder__c": 8,
        "%vlocity_namespace%__DomainObjectFieldAPIName__c": "Insured_Item__c",
        "%vlocity_namespace%__InterfaceObjectName__c": "json",
        "%vlocity_namespace%__IsDisabled__c": false,
        "%vlocity_namespace%__IsRequiredForUpsert__c": false,
        "%vlocity_namespace%__LinkCreatedField__c": "Id",
        "%vlocity_namespace%__LinkCreatedIndex__c": 3,
        "%vlocity_namespace%__MapId__c": "DRPostNewVehicleFullV2Customa2i4E0000003nCBQAYItem82",
        "%vlocity_namespace%__UpsertKey__c": false,
        "CurrencyIsoCode": "GBP",
        "Name": "DRPostNewVehicleFullV2",
        "VlocityDataPackType": "SObject",
        "VlocityRecordSObjectType": "%vlocity_namespace%__DRMapItem__c"
    },
    {
        "%vlocity_namespace%__DefaultValue__c": "Driver",
        "%vlocity_namespace%__DomainObjectAPIName__c": "Coverage__c",
        "%vlocity_namespace%__DomainObjectCreationOrder__c": 8,
        "%vlocity_namespace%__DomainObjectFieldAPIName__c": "Name",
        "%vlocity_namespace%__InterfaceObjectName__c": "json",
        "%vlocity_namespace%__IsDisabled__c": false,
        "%vlocity_namespace%__IsRequiredForUpsert__c": false,
        "%vlocity_namespace%__LinkCreatedIndex__c": 0,
        "%vlocity_namespace%__MapId__c": "DRPostNewVehicleFullV2Customa2i4E0000003nCBQAYItem83",
        "%vlocity_namespace%__UpsertKey__c": false,
        "CurrencyIsoCode": "GBP",
        "Name": "DRPostNewVehicleFullV2",
        "VlocityDataPackType": "SObject",
        "VlocityRecordSObjectType": "%vlocity_namespace%__DRMapItem__c"
    },
    {
        "%vlocity_namespace%__DefaultValue__c": "true",
        "%vlocity_namespace%__DomainObjectAPIName__c": "Coverage__c",
        "%vlocity_namespace%__DomainObjectCreationOrder__c": 8,
        "%vlocity_namespace%__DomainObjectFieldAPIName__c": "Policy_Holder__c",
        "%vlocity_namespace%__InterfaceObjectName__c": "json",
        "%vlocity_namespace%__IsDisabled__c": false,
        "%vlocity_namespace%__IsRequiredForUpsert__c": false,
        "%vlocity_namespace%__LinkCreatedIndex__c": 0,
        "%vlocity_namespace%__MapId__c": "DRPostNewVehicleFullV2Customa2i4E0000003nCBQAYItem84",
        "%vlocity_namespace%__UpsertKey__c": false,
        "CurrencyIsoCode": "GBP",
        "Name": "DRPostNewVehicleFullV2",
        "VlocityDataPackType": "SObject",
        "VlocityRecordSObjectType": "%vlocity_namespace%__DRMapItem__c"
    },
    {
        "%vlocity_namespace%__DomainObjectAPIName__c": "Coverage__c",
        "%vlocity_namespace%__DomainObjectCreationOrder__c": 8,
        "%vlocity_namespace%__DomainObjectFieldAPIName__c": "Policy_Member_Relationship__c",
        "%vlocity_namespace%__InterfaceObjectName__c": "json",
        "%vlocity_namespace%__IsDisabled__c": false,
        "%vlocity_namespace%__IsRequiredForUpsert__c": false,
        "%vlocity_namespace%__LinkCreatedField__c": "Id",
        "%vlocity_namespace%__LinkCreatedIndex__c": 6,
        "%vlocity_namespace%__MapId__c": "DRPostNewVehicleFullV2Customa2i4E0000003nCBQAYItem81",
        "%vlocity_namespace%__UpsertKey__c": false,
        "CurrencyIsoCode": "GBP",
        "Name": "DRPostNewVehicleFullV2",
        "VlocityDataPackType": "SObject",
        "VlocityRecordSObjectType": "%vlocity_namespace%__DRMapItem__c"
    },
    {
        "%vlocity_namespace%__DefaultValue__c": "true",
        "%vlocity_namespace%__DomainObjectAPIName__c": "Coverage__c",
        "%vlocity_namespace%__DomainObjectCreationOrder__c": 8,
        "%vlocity_namespace%__DomainObjectFieldAPIName__c": "Primary_Driver__c",
        "%vlocity_namespace%__InterfaceObjectName__c": "json",
        "%vlocity_namespace%__IsDisabled__c": false,
        "%vlocity_namespace%__IsRequiredForUpsert__c": false,
        "%vlocity_namespace%__LinkCreatedIndex__c": 0,
        "%vlocity_namespace%__MapId__c": "DRPostNewVehicleFullV2Customa2i4E0000003nCBQAYItem85",
        "%vlocity_namespace%__UpsertKey__c": false,
        "CurrencyIsoCode": "GBP",
        "Name": "DRPostNewVehicleFullV2",
        "VlocityDataPackType": "SObject",
        "VlocityRecordSObjectType": "%vlocity_namespace%__DRMapItem__c"
    },
    {
        "%vlocity_namespace%__DefaultValue__c": "true",
        "%vlocity_namespace%__DomainObjectAPIName__c": "Coverage__c",
        "%vlocity_namespace%__DomainObjectCreationOrder__c": 8,
        "%vlocity_namespace%__DomainObjectFieldAPIName__c": "Rated_Driver__c",
        "%vlocity_namespace%__InterfaceObjectName__c": "json",
        "%vlocity_namespace%__IsDisabled__c": false,
        "%vlocity_namespace%__IsRequiredForUpsert__c": false,
        "%vlocity_namespace%__LinkCreatedIndex__c": 0,
        "%vlocity_namespace%__MapId__c": "DRPostNewVehicleFullV2Customa2i4E0000003nCBQAYItem86",
        "%vlocity_namespace%__UpsertKey__c": false,
        "CurrencyIsoCode": "GBP",
        "Name": "DRPostNewVehicleFullV2",
        "VlocityDataPackType": "SObject",
        "VlocityRecordSObjectType": "%vlocity_namespace%__DRMapItem__c"
    },
    {
        "%vlocity_namespace%__DefaultValue__c": "true",
        "%vlocity_namespace%__DomainObjectAPIName__c": "Coverage__c",
        "%vlocity_namespace%__DomainObjectCreationOrder__c": 8,
        "%vlocity_namespace%__DomainObjectFieldAPIName__c": "SHOW_ON_Certificate__c",
        "%vlocity_namespace%__InterfaceObjectName__c": "json",
        "%vlocity_namespace%__IsDisabled__c": false,
        "%vlocity_namespace%__IsRequiredForUpsert__c": false,
        "%vlocity_namespace%__LinkCreatedIndex__c": 0,
        "%vlocity_namespace%__MapId__c": "DRPostNewVehicleFullV2Custom6651",
        "%vlocity_namespace%__UpsertKey__c": false,
        "CurrencyIsoCode": "GBP",
        "Name": "DRPostNewVehicleFullV2",
        "VlocityDataPackType": "SObject",
        "VlocityRecordSObjectType": "%vlocity_namespace%__DRMapItem__c"
    },
    {
        "%vlocity_namespace%__DefaultValue__c": "Driver",
        "%vlocity_namespace%__DomainObjectAPIName__c": "Coverage__c",
        "%vlocity_namespace%__DomainObjectCreationOrder__c": 8,
        "%vlocity_namespace%__DomainObjectFieldAPIName__c": "Type__c",
        "%vlocity_namespace%__InterfaceObjectName__c": "json",
        "%vlocity_namespace%__IsDisabled__c": false,
        "%vlocity_namespace%__IsRequiredForUpsert__c": false,
        "%vlocity_namespace%__LinkCreatedIndex__c": 0,
        "%vlocity_namespace%__MapId__c": "DRPostNewVehicleFullV2Customa2i4E0000003nCBQAYItem87",
        "%vlocity_namespace%__UpsertKey__c": false,
        "CurrencyIsoCode": "GBP",
        "Name": "DRPostNewVehicleFullV2",
        "VlocityDataPackType": "SObject",
        "VlocityRecordSObjectType": "%vlocity_namespace%__DRMapItem__c"
    },
    {
        "%vlocity_namespace%__DomainObjectAPIName__c": "Coverage__c",
        "%vlocity_namespace%__DomainObjectCreationOrder__c": 9,
        "%vlocity_namespace%__DomainObjectFieldAPIName__c": "Asset__c",
        "%vlocity_namespace%__InterfaceFieldAPIName__c": "ContextId",
        "%vlocity_namespace%__InterfaceObjectName__c": "json",
        "%vlocity_namespace%__IsDisabled__c": false,
        "%vlocity_namespace%__IsRequiredForUpsert__c": false,
        "%vlocity_namespace%__LinkCreatedIndex__c": 0,
        "%vlocity_namespace%__MapId__c": "DRPostNewVehicleFullV2Customa2i4E0000003nCBQAYItem91",
        "%vlocity_namespace%__UpsertKey__c": true,
        "CurrencyIsoCode": "GBP",
        "Name": "DRPostNewVehicleFullV2",
        "VlocityDataPackType": "SObject",
        "VlocityRecordSObjectType": "%vlocity_namespace%__DRMapItem__c"
    },
    {
        "%vlocity_namespace%__DomainObjectAPIName__c": "Coverage__c",
        "%vlocity_namespace%__DomainObjectCreationOrder__c": 9,
        "%vlocity_namespace%__DomainObjectFieldAPIName__c": "End_Date__c",
        "%vlocity_namespace%__InterfaceFieldAPIName__c": "InceptionEndDate",
        "%vlocity_namespace%__InterfaceObjectName__c": "json",
        "%vlocity_namespace%__IsDisabled__c": false,
        "%vlocity_namespace%__IsRequiredForUpsert__c": false,
        "%vlocity_namespace%__LinkCreatedIndex__c": 0,
        "%vlocity_namespace%__MapId__c": "DRPostNewVehicleFullV2Customa2i4E0000003nCBQAYItem92",
        "%vlocity_namespace%__UpsertKey__c": false,
        "CurrencyIsoCode": "GBP",
        "Name": "DRPostNewVehicleFullV2",
        "VlocityDataPackType": "SObject",
        "VlocityRecordSObjectType": "%vlocity_namespace%__DRMapItem__c"
    },
    {
        "%vlocity_namespace%__DomainObjectAPIName__c": "Coverage__c",
        "%vlocity_namespace%__DomainObjectCreationOrder__c": 9,
        "%vlocity_namespace%__DomainObjectFieldAPIName__c": "Insured_Item__c",
        "%vlocity_namespace%__InterfaceObjectName__c": "json",
        "%vlocity_namespace%__IsDisabled__c": false,
        "%vlocity_namespace%__IsRequiredForUpsert__c": false,
        "%vlocity_namespace%__LinkCreatedField__c": "Id",
        "%vlocity_namespace%__LinkCreatedIndex__c": 3,
        "%vlocity_namespace%__MapId__c": "DRPostNewVehicleFullV2Customa2i4E0000003nCBQAYItem90",
        "%vlocity_namespace%__UpsertKey__c": true,
        "CurrencyIsoCode": "GBP",
        "Name": "DRPostNewVehicleFullV2",
        "VlocityDataPackType": "SObject",
        "VlocityRecordSObjectType": "%vlocity_namespace%__DRMapItem__c"
    },
    {
        "%vlocity_namespace%__DomainObjectAPIName__c": "Coverage__c",
        "%vlocity_namespace%__DomainObjectCreationOrder__c": 9,
        "%vlocity_namespace%__DomainObjectFieldAPIName__c": "Start_Date__c",
        "%vlocity_namespace%__InterfaceFieldAPIName__c": "InceptionStartDateTime",
        "%vlocity_namespace%__InterfaceObjectName__c": "json",
        "%vlocity_namespace%__IsDisabled__c": false,
        "%vlocity_namespace%__IsRequiredForUpsert__c": false,
        "%vlocity_namespace%__LinkCreatedIndex__c": 0,
        "%vlocity_namespace%__MapId__c": "DRPostNewVehicleFullV2Customa2i4E0000003nCBQAYItem93",
        "%vlocity_namespace%__UpsertKey__c": false,
        "CurrencyIsoCode": "GBP",
        "Name": "DRPostNewVehicleFullV2",
        "VlocityDataPackType": "SObject",
        "VlocityRecordSObjectType": "%vlocity_namespace%__DRMapItem__c"
    },
    {
        "%vlocity_namespace%__DefaultValue__c": "Comprehensive",
        "%vlocity_namespace%__DomainObjectAPIName__c": "Coverage__c",
        "%vlocity_namespace%__DomainObjectCreationOrder__c": 9,
        "%vlocity_namespace%__DomainObjectFieldAPIName__c": "Type__c",
        "%vlocity_namespace%__InterfaceObjectName__c": "json",
        "%vlocity_namespace%__IsDisabled__c": false,
        "%vlocity_namespace%__IsRequiredForUpsert__c": false,
        "%vlocity_namespace%__LinkCreatedIndex__c": 0,
        "%vlocity_namespace%__MapId__c": "DRPostNewVehicleFullV2Customa2i4E0000003nCBQAYItem89",
        "%vlocity_namespace%__UpsertKey__c": true,
        "CurrencyIsoCode": "GBP",
        "Name": "DRPostNewVehicleFullV2",
        "VlocityDataPackType": "SObject",
        "VlocityRecordSObjectType": "%vlocity_namespace%__DRMapItem__c"
    },
    {
        "%vlocity_namespace%__DomainObjectAPIName__c": "Coverage__c",
        "%vlocity_namespace%__DomainObjectCreationOrder__c": 10,
        "%vlocity_namespace%__DomainObjectFieldAPIName__c": "Asset__c",
        "%vlocity_namespace%__InterfaceFieldAPIName__c": "ContextId",
        "%vlocity_namespace%__InterfaceObjectName__c": "json",
        "%vlocity_namespace%__IsDisabled__c": false,
        "%vlocity_namespace%__IsRequiredForUpsert__c": false,
        "%vlocity_namespace%__LinkCreatedIndex__c": 0,
        "%vlocity_namespace%__MapId__c": "DRPostNewVehicleFullV2Customa2i4E0000003nCBQAYItem97",
        "%vlocity_namespace%__UpsertKey__c": true,
        "CurrencyIsoCode": "GBP",
        "Name": "DRPostNewVehicleFullV2",
        "VlocityDataPackType": "SObject",
        "VlocityRecordSObjectType": "%vlocity_namespace%__DRMapItem__c"
    },
    {
        "%vlocity_namespace%__DomainObjectAPIName__c": "Coverage__c",
        "%vlocity_namespace%__DomainObjectCreationOrder__c": 10,
        "%vlocity_namespace%__DomainObjectFieldAPIName__c": "End_Date__c",
        "%vlocity_namespace%__InterfaceFieldAPIName__c": "InceptionEndDate",
        "%vlocity_namespace%__InterfaceObjectName__c": "json",
        "%vlocity_namespace%__IsDisabled__c": false,
        "%vlocity_namespace%__IsRequiredForUpsert__c": false,
        "%vlocity_namespace%__LinkCreatedIndex__c": 0,
        "%vlocity_namespace%__MapId__c": "DRPostNewVehicleFullV2Customa2i4E0000003nCBQAYItem98",
        "%vlocity_namespace%__UpsertKey__c": false,
        "CurrencyIsoCode": "GBP",
        "Name": "DRPostNewVehicleFullV2",
        "VlocityDataPackType": "SObject",
        "VlocityRecordSObjectType": "%vlocity_namespace%__DRMapItem__c"
    },
    {
        "%vlocity_namespace%__DefaultValue__c": "100",
        "%vlocity_namespace%__DomainObjectAPIName__c": "Coverage__c",
        "%vlocity_namespace%__DomainObjectCreationOrder__c": 10,
        "%vlocity_namespace%__DomainObjectFieldAPIName__c": "Excess__c",
        "%vlocity_namespace%__InterfaceObjectName__c": "json",
        "%vlocity_namespace%__IsDisabled__c": false,
        "%vlocity_namespace%__IsRequiredForUpsert__c": false,
        "%vlocity_namespace%__LinkCreatedIndex__c": 0,
        "%vlocity_namespace%__MapId__c": "DRPostNewVehicleFullV2Customa2i4E0000003nCBQAYItem94",
        "%vlocity_namespace%__UpsertKey__c": false,
        "CurrencyIsoCode": "GBP",
        "Name": "DRPostNewVehicleFullV2",
        "VlocityDataPackType": "SObject",
        "VlocityRecordSObjectType": "%vlocity_namespace%__DRMapItem__c"
    },
    {
        "%vlocity_namespace%__DomainObjectAPIName__c": "Coverage__c",
        "%vlocity_namespace%__DomainObjectCreationOrder__c": 10,
        "%vlocity_namespace%__DomainObjectFieldAPIName__c": "Insured_Item__c",
        "%vlocity_namespace%__InterfaceObjectName__c": "json",
        "%vlocity_namespace%__IsDisabled__c": false,
        "%vlocity_namespace%__IsRequiredForUpsert__c": false,
        "%vlocity_namespace%__LinkCreatedField__c": "Id",
        "%vlocity_namespace%__LinkCreatedIndex__c": 3,
        "%vlocity_namespace%__MapId__c": "DRPostNewVehicleFullV2Customa2i4E0000003nCBQAYItem95",
        "%vlocity_namespace%__UpsertKey__c": true,
        "CurrencyIsoCode": "GBP",
        "Name": "DRPostNewVehicleFullV2",
        "VlocityDataPackType": "SObject",
        "VlocityRecordSObjectType": "%vlocity_namespace%__DRMapItem__c"
    },
    {
        "%vlocity_namespace%__DomainObjectAPIName__c": "Coverage__c",
        "%vlocity_namespace%__DomainObjectCreationOrder__c": 10,
        "%vlocity_namespace%__DomainObjectFieldAPIName__c": "Start_Date__c",
        "%vlocity_namespace%__InterfaceFieldAPIName__c": "InceptionStartDateTime",
        "%vlocity_namespace%__InterfaceObjectName__c": "json",
        "%vlocity_namespace%__IsDisabled__c": false,
        "%vlocity_namespace%__IsRequiredForUpsert__c": false,
        "%vlocity_namespace%__LinkCreatedIndex__c": 0,
        "%vlocity_namespace%__MapId__c": "DRPostNewVehicleFullV2Customa2i4E0000003nCBQAYItem99",
        "%vlocity_namespace%__UpsertKey__c": false,
        "CurrencyIsoCode": "GBP",
        "Name": "DRPostNewVehicleFullV2",
        "VlocityDataPackType": "SObject",
        "VlocityRecordSObjectType": "%vlocity_namespace%__DRMapItem__c"
    },
    {
        "%vlocity_namespace%__DefaultValue__c": "Windscreen",
        "%vlocity_namespace%__DomainObjectAPIName__c": "Coverage__c",
        "%vlocity_namespace%__DomainObjectCreationOrder__c": 10,
        "%vlocity_namespace%__DomainObjectFieldAPIName__c": "Type__c",
        "%vlocity_namespace%__InterfaceObjectName__c": "json",
        "%vlocity_namespace%__IsDisabled__c": false,
        "%vlocity_namespace%__IsRequiredForUpsert__c": false,
        "%vlocity_namespace%__LinkCreatedIndex__c": 0,
        "%vlocity_namespace%__MapId__c": "DRPostNewVehicleFullV2Customa2i4E0000003nCBQAYItem96",
        "%vlocity_namespace%__UpsertKey__c": true,
        "CurrencyIsoCode": "GBP",
        "Name": "DRPostNewVehicleFullV2",
        "VlocityDataPackType": "SObject",
        "VlocityRecordSObjectType": "%vlocity_namespace%__DRMapItem__c"
    }
]