{
  "componentVariants" : [ {
    "id" : "f1bbddc3-9810-4a9b-91fa-dfb72a41e01c",
    "propertyOverrides" : {
      "activeViewId" : "3802000d-f985-4328-bea1-979a1a18ba34"
    },
    "targetId" : "d8d5df13-eb5a-4d81-92f6-3aa5052afd76",
    "type" : "componentVariant"
  } ],
  "developerName" : "Home_BrokerNetworkHome_Page",
  "id" : "dc850e58-da69-4574-9a6b-518eb2e3a582",
  "type" : "experienceVariation"
}