{
    "AgencyBrokerage": "012580000005gQYAAY",
    "ArtPBId": "01u0E000006DgdkQAC",
    "BuildingsPBId": "01u0E000006DgdlQAC",
    "Business_Account": "012580000005gQZAAY",
    "Business_Type": "01258000000FR74AAG",
    "Carrier": "012580000005gQaAAI",
    "ContentsPBId": "01u0E000006DgdmQAC",
    "ContextId": "",
    "DRId_Account": "0010E00000GxPUrQAN",
    "DRId_Customer_Survey__c": "aEo0E000000005aSAA",
    "DRId_Opportunity": "0060E000007UOOJQA4",
    "DRId_Quote": "0Q00E000000AlOiSAK",
    "Emerging WealthPBId": "01u0E000006DgdnQAC",
    "Employers LiabilityPBId": "01u0E000006DgdoQAC",
    "FineArtPBId": "01u0E000004JvmEQAS",
    "Group": "012580000005gQbAAI",
    "Home EmergencyPBId": "01u0E000006DgdpQAC",
    "Insured PersonPBId": "01u0E000004JvkhQAC",
    "Jewellery and WatchesPBId": "01u0E000006DgdqQAC",
    "JewelleryPBId": "01u0E000004JvlfQAC",
    "Legal ExpensesPBId": "01u0E000006DgdrQAC",
    "MobilePhoneAccount": "012580000005gQcAAI",
    "Nationality": "0120E0000005XFjQAM",
    "Occupation": "01258000000FR75AAG",
    "Pedal CyclesPBId": "01u0E000006DgdsQAC",
    "PersonAccount": "01258000000cYS8AAM",
    "Personal CyberPBId": "01u0E000006DgdtQAC",
    "PolicyJson": {
        "accountId": "0010E00000GxPUrQAN",
        "additionalFields": {
            "Status": "Assessment"
        },
        "coverages": {
            "Art": {
                "sumInsured": 10000
            },
            "Buildings": {
                "sumInsured": 1000000
            },
            "Employers Liability": {
                "sumInsured": 10000000
            },
            "FineArt": {
                "sumInsured": 10000
            },
            "Jewellery": {
                "sumInsured": 10000
            },
            "Jewellery and Watches": {
                "sumInsured": 10000
            },
            "Pedal Cycles": {
                "sumInsured": 2000
            },
            "Public Liability": {
                "sumInsured": 5000000
            },
            "Tenants Improvements": {
                "sumInsured": 0
            }
        },
        "insuredItems": {
            "Insured Person": {
                "declarations": {
                    "neverBankrupt": true,
                    "neverOffence": true,
                    "neverPreviousInsuranceRefused": true,
                    "neverSpecialTerms": true
                },
                "insBirthdate": "1969-12-29T00:00:00.000Z",
                "insFirstName": "steve",
                "insLastName": "loftus",
                "insNationality": "danish",
                "insTitle": "Mr"
            },
            "Property": {
                "declarations": {
                    "hasMinimumConstruction": true,
                    "hasMinimumSecurity": true,
                    "hasPreviousInsurance": true,
                    "inGoodRepair": true,
                    "noBusinessPublic": true,
                    "noPlannedWorks": true,
                    "noSubsidence": true,
                    "notFlooded": true,
                    "notListed": true
                },
                "policyType": "buildingsAndContents",
                "propUPRN": "200020421",
                "propValue": 450000
            }
        },
        "opportunityId": "0060E000007UOOJQA4"
    },
    "PropertyPBId": "01u0E000004JvlGQAS",
    "Public LiabilityPBId": "01u0E000006DgduQAC",
    "Range1": 7,
    "StandardAccount": "012580000005gQdAAI",
    "Supplier": "01258000000FR6lAAG",
    "Tenants ImprovementsPBId": "01u0E000006DgdvQAC",
    "Title": "01258000000FR76AAG",
    "ambAPIResponse": {
        "address": "1, CHAMBERLAIN ROAD, EAST FINCHLEY, LONDON, N2 8JS",
        "addressVersion": "GB_ABP_E46",
        "administrative_area": "BARNET",
        "band": "None",
        "bufferRadius": 15,
        "building_name": null,
        "building_number": null,
        "changeType": "I",
        "class": "RD04",
        "code": 200,
        "combinedFloodScore": 0,
        "country": "ENG",
        "defendedCombinedFloodScore": 0,
        "defendedFluvial1000YrDepth": 0,
        "defendedFluvial100YrDepth": 0,
        "defendedFluvial250YrDepth": 0,
        "defendedFluvial500YrDepth": 0,
        "defendedFluvial75YrDepth": 0,
        "defendedFluvialFloodScore": 0,
        "defendedFluvil30YrDepth": 0,
        "defendedTidal1000YrDepth": 0,
        "defendedTidal100YrDepth": 0,
        "defendedTidal250YrDepth": 0,
        "defendedTidal30YrDepth": 0,
        "defendedTidal500YrDepth": 0,
        "defendedTidal75YrDepth": 0,
        "defendedTidalFloodScore": 0,
        "department_name": null,
        "dependent_locality": null,
        "distanceToNearestFluvialFloodplain": "> 250m",
        "distanceToNearestPluvialFloodplain": "81m",
        "distanceToNearestTidalFloodplain": "> 250m",
        "floodDefences": 0,
        "floodRatingScore": 1,
        "fluvial1000YrDepth": 0,
        "fluvial100YrDepth": 0,
        "fluvial250YrDepth": 0,
        "fluvial30YrDepth": 0,
        "fluvial500YrDepth": 0,
        "fluvial75YrDepth": 0,
        "fluvialFloodScore": 0,
        "groundWaterRisk": 4,
        "id": 8193144,
        "latitude": 51.5960921,
        "locality": "EAST FINCHLEY",
        "longitude": -0.1786841,
        "message": "OK",
        "modelledOnLidar": 1,
        "organisation": "",
        "organisation_name": null,
        "pao_end_number": "",
        "pao_end_suffix": "",
        "pao_start_number": "1",
        "pao_start_suffix": "",
        "pao_text": "",
        "pluvial1000YrDepth": 0,
        "pluvial100YrDepth": 0,
        "pluvial250YrDepth": 0,
        "pluvial30YrDepth": 0,
        "pluvial500YrDepth": 0,
        "pluvial75YrDepth": 0,
        "pluvialFloodScore": 0,
        "postcodeLocator": "N2 8JS",
        "sao_end_number": "",
        "sao_end_suffix": "",
        "sao_start_number": "",
        "sao_start_suffix": "",
        "sao_text": "",
        "street_description": "CHAMBERLAIN ROAD",
        "sub_building_name": null,
        "thoroughfare": null,
        "tidal1000YrDepth": 0,
        "tidal100YrDepth": 0,
        "tidal250YrDepth": 0,
        "tidal30YrDepth": 0,
        "tidal500YrDepth": 0,
        "tidal75YrDepth": 0,
        "tidalFloodScore": 0,
        "town_name": "LONDON",
        "uprn": 200020421,
        "xCoordinate": 526250.28,
        "yCoordinate": 190153.63
    },
    "brokerAccountName": "Steve Loftus",
    "claimScoreAPIResponse": {
        "adjustedSizeClaims": {
            "AccidentalDamageMD": {
                "peril": "Accidental",
                "score": 1.25,
                "size": "MD",
                "value": 0
            }
        },
        "claims": [
            {
                "checkboxClaimAtPreviousProperty": false,
                "dateClaimDate": "01-02-2016",
                "dateClaimYear": 2016,
                "otherPropFactor": 1,
                "peril": "Accidental",
                "radioClaimStillOpen": "no",
                "score": 1.25,
                "selectClaimType": "AccidentalDamage",
                "size": "MD",
                "textClaimValue": 5000,
                "timeDecay": 2,
                "timeDecayStr": "TD2",
                "timeDecayValue": 0.5
            },
            {
                "checkboxClaimAtPreviousProperty": false,
                "dateClaimDate": "02-02-2017",
                "dateClaimYear": 2017,
                "otherPropFactor": 1,
                "peril": "Accidental",
                "radioClaimStillOpen": "no",
                "score": 1.25,
                "selectClaimType": "AccidentalDamage",
                "size": "MD",
                "textClaimValue": 5000,
                "timeDecay": 1,
                "timeDecayStr": "TD1",
                "timeDecayValue": 1
            }
        ],
        "combinedPerilClaims": {
            "AccidentalMD": {
                "peril": "Accidental",
                "size": "MD",
                "value": 0
            }
        },
        "multiPropClaims": {
            "AccidentalDamageMDTD1": {
                "inProperty": 0,
                "multiPropScore": 0,
                "otherPropFactor": 1,
                "outProperty": 1,
                "peril": "Accidental",
                "score": 1.25,
                "size": "MD",
                "timeDecayValue": 1
            },
            "AccidentalDamageMDTD2": {
                "inProperty": 0,
                "multiPropScore": 0,
                "otherPropFactor": 1,
                "outProperty": 1,
                "peril": "Accidental",
                "score": 1.25,
                "size": "MD",
                "timeDecayValue": 0.5
            }
        },
        "sumDeclineRule": 4,
        "totalScoresClaims": {
            "AccidentalScore": 0,
            "OtherScore": 0,
            "TheftScore": 0,
            "WaterDamageScore": 0
        }
    },
    "clientDetails": {
        "brokerConfirmation": true,
        "declarationsFalseMsg": false,
        "hasJointPolicyHolder": "No",
        "jointInsAge": null,
        "jointInsBirthdate": null,
        "jointInsBusinessType-Block": null,
        "jointInsFirstName": null,
        "jointInsLastName": null,
        "jointInsNationality-Block": null,
        "jointInsOccupation-Block": null,
        "jointInsSalutation-Block": null,
        "msgInsuredAge": false,
        "primeInsAge": 48,
        "primeInsBirthdate": "1969-12-29T00:00:00.000Z",
        "primeInsBusinessType-Block": null,
        "primeInsFirstName": "steve",
        "primeInsLastName": "loftus",
        "primeInsNationality-Block": {
            "primeInsNationality": "danish"
        },
        "primeInsOccupation-Block": {
            "primeInsOccupation": "beekeeper"
        },
        "primeInsSalutation-Block": {
            "primeInsSalutation": "Mr"
        },
        "radioBankrupt": "Yes",
        "radioOffence": "Yes",
        "radioPreviousInsuranceRefused": "Yes",
        "radioSpecialTerms": "Yes"
    },
    "closeDate": "2018-02-08T00:00:00.000Z",
    "config": {
        "cache": false,
        "data": null,
        "headers": {
            "Accept": "application/json"
        },
        "jsonpCallbackParam": "callback",
        "label": "getPropertyData",
        "method": "GET",
        "params": {
            "uprn": "200020421"
        },
        "responseType": "json",
        "timeout": 0,
        "transformRequest": [
            null
        ],
        "transformResponse": [
            null
        ],
        "url": "https://azur-integrations.herokuapp.com/outraUPRN",
        "withCredentials": false
    },
    "cover": {
        "additionalCoversBlock": {
            "homeEmergencyRadio": "homeEmergency",
            "legalExpensesRadio": "legalExpenses",
            "personalCyberRadio": "personalCyber"
        },
        "basicCoverBreakdownBlock": null,
        "excessAndComissionBlock": {
            "commissionRange": 15,
            "excessRange": 500
        },
        "paymentAndStartDateBlock": {
            "paymentRadio": "cashToBroker",
            "startDate": "2018-02-08T00:00:00.000Z"
        }
    },
    "employersLiabilityCoverage": 10000000,
    "error": "OK",
    "id": "a3f0E0000004OtPQAU",
    "jointInsAge": 0,
    "layout": "lightning",
    "objectType": "Account",
    "occupancyType": "Main residence",
    "opptyName": "Steve Loftus - EW",
    "outraAPIResponse": {
        "bathrooms": 1,
        "bathrooms$confidence": 0.665542,
        "bathrooms$is_modelled": true,
        "bedrooms": 3,
        "bedrooms$confidence": null,
        "bedrooms$is_modelled": false,
        "building_name": "",
        "building_number": "1.0",
        "code": 200,
        "dependent_locality": "",
        "dependent_thoroughfare": "",
        "double_dependent_locality": "",
        "floor_area": 96,
        "floor_area$confidence": 0.819646,
        "floor_area$is_modelled": true,
        "ht_property_type": "Terraced",
        "ht_property_type$confidence": null,
        "ht_property_type$is_modelled": false,
        "id": 20221138,
        "message": "OK",
        "postcode": "N2 8JS",
        "property_rental_value": 1933,
        "property_rental_value$confidence": 0.16152,
        "property_rental_value$is_modelled": false,
        "property_style": "Mid-Terrace",
        "property_style$confidence": null,
        "property_style$is_modelled": false,
        "property_type": "House",
        "property_type$confidence": null,
        "property_type$is_modelled": false,
        "property_value": 739737,
        "property_value$confidence": 0.11952,
        "property_value$is_modelled": false,
        "reinstatement_cost_final_adjusted_azur": 313934,
        "reinstatement_cost_higher_rate_azur": 336000,
        "reinstatement_cost_higher_rate_azur$confidence": 0.819646,
        "reinstatement_cost_ht": null,
        "reinstatement_cost_notional": 220216,
        "reinstatement_cost_outra": 218009,
        "sub_building_name": "",
        "tenure": "Freehold",
        "tenure$confidence": null,
        "tenure$is_modelled": false,
        "thoroughfare": "CHAMBERLAIN ROAD",
        "uprn": "200020421",
        "year_built": 1900,
        "year_built$confidence": null,
        "year_built$is_modelled": false
    },
    "primeInsAge": 0,
    "propertyDetails": {
        "blockCoverage": {
            "rangeArt": 10000,
            "rangeJewelleryWatches": 10000,
            "rangePedalCycles": 2000,
            "rangeTenantsImprovements": null
        },
        "declineWarningMessage": false,
        "editBlockClaimsHistory": null,
        "editBlockSpecifiedItems": null,
        "multiDeclarationsConfirmationOne": "yes",
        "propAmbPostalCode-Block": {
            "propAmbPostalCode": "1, CHAMBERLAIN ROAD, EAST FINCHLEY, LONDON, N2 8JS",
            "uprn": "200020421"
        },
        "radioBusinessUse": null,
        "radioClaimsHistory": "no",
        "radioGoodStateOfRepair": "yes",
        "radioListedStatus": null,
        "radioMinimumConstructionType": "yes",
        "radioMinimumSecurity": "yes",
        "radioNoSignsOfSubsidence": "yes",
        "radioNotBusinessUseOrOpenToPublic": "yes",
        "radioNotListedDeclaration": "yes",
        "radioNotPlanningWorks": "yes",
        "radioNotPreviouslyFlooded": "yes",
        "radioOpenToPublic": null,
        "radioPolicyType": "buildingsAndContents",
        "radioPreviousInsurance": "yes",
        "radioPreviousInsuranceReason": null,
        "radioSpecifiedItems": "no",
        "selectFlatRoofPercentage": null,
        "selectRoofConstruction": null,
        "selectWallConstruction": null,
        "sumInsuredBuildings": 1000000,
        "sumInsuredTenantsImprovements": 0
    },
    "publicLiabilityCoverage": 5000000,
    "status": 200,
    "statusText": "OK",
    "summaryDetails": {
        "alternativePremium": 2222,
        "feedback": "This will bind",
        "feedbackForm": null,
        "insurerName": "dfds",
        "premium": "1600",
        "rebuildCapture": 3333,
        "refer": "No",
        "referReason": null,
        "referReasonCode": null
    },
    "timeStamp": "2018-02-08T13:34:10.262Z",
    "userCurrencyCode": "GBP",
    "userId": "0050E000001AaGeQAK",
    "userIdBroker": "0050E000001E7c1",
    "userName": "sloftus@azuruw.com.devdimitri",
    "userProfile": "System Administrator",
    "userTimeZone": 0,
    "vlcPersistentComponent": {
    },
    "vlcTimeTracking": {
        "DRPostOppty": 1083,
        "DRPostPersonAccounts": 5628,
        "DataRaptorExtractAction": 471,
        "DataRaptorPostCoveragesExcessAndCommission": 2350,
        "OmniScriptSessionToken": "93bc4adb-fb45-4553-b50c-c512060672d8",
        "RAGetPriceBookEntryIds": 354,
        "RARecordTypeSelector": 371,
        "SetFormDefaultValues": 149,
        "SetOpptyNameByBrokerName": 25,
        "SetValues": 159,
        "SetValues1": 55,
        "TransformToQuote": 380,
        "clientDetails": 30705,
        "cover": 6146,
        "getFloodData": 698,
        "getPropertyData": 404,
        "propertyDetails": 34178,
        "setDefaultFormValues": 133
    }
}