{
    "%vlocity_namespace%__AdditionalInformation__c": "EWH-1724 Quote and Policy Documents Driven by Quote Created Date. IP was created to move data manipulations from Policy Document omniscript to improve performance and readability.",
    "%vlocity_namespace%__CustomJavaScript__c": "EW_PolicyDocumentation_SampleInput.json",
    "%vlocity_namespace%__ElementTypeToHTMLTemplateList__c": "{\"ElementTypeToHTMLTemplateList\":[]}",
    "%vlocity_namespace%__Element__c": [
        "EW_PolicyDocumentation_Element_SetPolicyId.json",
        "EW_PolicyDocumentation_Element_getPolicyTransactionId.json",
        "EW_PolicyDocumentation_Element_getDocumentData.json",
        "EW_PolicyDocumentation_Element_extractPolicyDetails.json",
        "EW_PolicyDocumentation_Element_SetQuote.json",
        "EW_PolicyDocumentation_Element_getCoverageDetails.json",
        "EW_PolicyDocumentation_Element_getFullJSONData.json",
        "EW_PolicyDocumentation_Element_extractBrokerDetails.json",
        "EW_PolicyDocumentation_Element_SetCONSTANTS.json",
        "EW_PolicyDocumentation_Element_MA_GetAdditionalCoverLimits.json",
        "EW_PolicyDocumentation_Element_SV_SetAdditionalCoverLimits.json",
        "EW_PolicyDocumentation_Element_getDocumentTemplateId.json",
        "EW_PolicyDocumentation_Element_preTransformJSONtoContextData.json",
        "EW_PolicyDocumentation_Element_CreateDocument.json",
        "EW_PolicyDocumentation_Element_PostDocumentId.json",
        "EW_PolicyDocumentation_Element_CreatePDF.json",
        "EW_PolicyDocumentation_Element_ResponseTransformation.json",
        "EW_PolicyDocumentation_Element_ResponseAction.json"
    ],
    "%vlocity_namespace%__IsProcedure__c": true,
    "%vlocity_namespace%__IsReusable__c": false,
    "%vlocity_namespace%__Language__c": "Procedure",
    "%vlocity_namespace%__ProcedureKey__c": "EW_PolicyDocumentation",
    "%vlocity_namespace%__PropertySet__c": "EW_PolicyDocumentation_PropertySet.json",
    "%vlocity_namespace%__SubType__c": "PolicyDocumentation",
    "%vlocity_namespace%__Type__c": "EW",
    "CurrencyIsoCode": "GBP",
    "Name": "PolicyDocumentation",
    "VlocityDataPackType": "SObject",
    "VlocityRecordSObjectType": "%vlocity_namespace%__OmniScript__c",
    "VlocityRecordSourceKey": "%vlocity_namespace%__OmniScript__c/EW/PolicyDocumentation/Procedure"
}