{
    "%vlocity_namespace%__CalculationMatrixId__c": {
        "Name": "BurglarAlarm",
        "VlocityDataPackType": "VlocityMatchingKeyObject",
        "VlocityMatchingRecordSourceKey": "%vlocity_namespace%__CalculationMatrix__c/BurglarAlarm",
        "VlocityRecordSObjectType": "%vlocity_namespace%__CalculationMatrix__c"
    },
    "%vlocity_namespace%__CalculationMatrixId__r.Name": "BurglarAlarm",
    "%vlocity_namespace%__CalculationMatrixRow__c": "BurglarAlarm_Version_Rows.json",
    "%vlocity_namespace%__CurrentStatus__c": "Active",
    "%vlocity_namespace%__EndDateTime__c": "",
    "%vlocity_namespace%__GlobalKey__c": "BurglarAlarm V2",
    "%vlocity_namespace%__Priority__c": 3,
    "%vlocity_namespace%__StartDateTime__c": "2020-01-30T09:53:17.000Z",
    "%vlocity_namespace%__UseLongOutput__c": false,
    "%vlocity_namespace%__VersionNumber__c": 2,
    "CurrencyIsoCode": "GBP",
    "Name": "BurglarAlarm V2",
    "VlocityDataPackType": "SObject",
    "VlocityRecordSObjectType": "%vlocity_namespace%__CalculationMatrixVersion__c",
    "VlocityRecordSourceKey": "%vlocity_namespace%__CalculationMatrixVersion__c/2/%vlocity_namespace%__CalculationMatrix__c/BurglarAlarm"
}