{
    "30PriorDate": "2017-03-12",
    "Additional Details": {
        "EmergencyOption": null,
        "blkAmbulanceDetails": null,
        "blkFireDetails": null,
        "blkOtherDetails": null,
        "blkPoliceDetails": null,
        "blkThirdPartyIndividuals": null,
        "blkThirdPartyVehicles": {
            "blkVehicleDetails": {
                "TPReserve": 2500,
                "make": null,
                "makeModel": null,
                "model": null,
                "noPassengers": null,
                "regNo": null,
                "tpEmail": null,
                "tpFirstName": null,
                "tpFullName": null,
                "tpInsurer": null,
                "tpInsurerAddress": null,
                "tpLastName": null,
                "tpMailingCity": null,
                "tpMailingCountry": null,
                "tpMailingPostalCode": null,
                "tpMailingStreet": null,
                "tpPolicyNum": null,
                "tpTelephone": null
            }
        },
        "blkWitness": null,
        "independentWitnesses": null,
        "thirdPartyInvolved": null
    },
    "AnyDriver.RecordTypeId": "a3o5E0000004D1BQAU",
    "ContextId": "02i5E0000002fmZ",
    "DRCode": "2",
    "DRId_%vlocity_namespace%__InsuranceClaimInvolvedProperty__c": "a3D5E000000LOqBUAW",
    "DRId_%vlocity_namespace%__InsuranceClaimPartyRelationship__c": "a3F5E0000000Ol8UAE",
    "DRId_%vlocity_namespace%__InsuranceClaim__c": "a3I5E00000050NBUAY",
    "DRId_Case": "5005E0000012e28QAA",
    "DRId_Liability__c": "a6K5E0000008RJlUAM",
    "InsuredCity": "Aberdeen",
    "InsuredPostalCode": "AB6 3GH",
    "InsuredState": "Aberdeenshite",
    "InsuredStreet": "Test Street",
    "InvPropPropertyRecordTypeId": "012580000005gR2AAI",
    "InvPropVehicleRecordTypeId": "012580000005gR3AAI",
    "LiaInjuryRecordTypeId": "0125E000000065BQAQ",
    "LiaPropertyRecordTypeId": "0125E000000065CQAQ",
    "Pedestrian.RecordTypeId": "a3o5E0000004CHoQAM",
    "PolicyHolder.RecordTypeId": "a3o5E0000004CHrQAM",
    "PolicyHolderPassenger.RecordTypeId": "a3o5E0000004CHqQAM",
    "StartPolicyId": "02i5E0000002fmZ",
    "TODAY": "2017-04-11T15:38:18.520Z",
    "ThirdPartyDriver.RecordTypeId": "a3o5E0000004CHnQAM",
    "ThirdPartyPassenger.RecordTypeId": "a3o5E0000004CHpQAM",
    "Time (Approx)": "1970-01-01T12:00:00.000Z",
    "Witness.RecordTypeId": "a3o5E0000004CHmQAM",
    "accountId": "0015E0000030xfaQAA",
    "brokerAccountId": "0015E0000042cXJQAY",
    "brokerAccountName": "Magor Test",
    "brokerEmail": "dimitri.schizas@azur.com",
    "brokerFirstName": "Test",
    "brokerLastName": "Broker",
    "brokerageRecordTypeId": "012580000005gQYAAY",
    "brokertId": "0035E0000037XjiQAE",
    "claimProcessingRecordTypeId": "0125E00000006uuQAA",
    "currency": "GBP",
    "data3rdPartyCity": "",
    "data3rdPartyCountry": "",
    "data3rdPartyEmail": "",
    "data3rdPartyFirstName": "",
    "data3rdPartyFullName": "",
    "data3rdPartyInsurer": "",
    "data3rdPartyLastName": "",
    "data3rdPartyMake": "",
    "data3rdPartyMakeModel": "",
    "data3rdPartyModel": "",
    "data3rdPartyPhone": "",
    "data3rdPartyPostCode": "",
    "data3rdPartyReg": "",
    "data3rdPartyStreet": "",
    "dataCaseOrigin": "Phone",
    "dataCaseRecordType": "0125E00000006uuQAA",
    "dataCaseStatus": "New",
    "dataClaimName": "New Claim",
    "dataClaimStatus": "Open",
    "dataCoverageConfirmed": true,
    "dataIncidentCity": "",
    "dataIncidentCoordinates": "",
    "dataIncidentCountry": "",
    "dataIncidentDate": "2017-04-11T15:38:18.520Z",
    "dataIncidentDateTime": "",
    "dataIncidentDescription": "",
    "dataIncidentLocationDescription": "",
    "dataIncidentPostalCode": "",
    "dataIncidentStreet": "",
    "dataInsuredPartyName": "",
    "dataInsuredVehicleName": "",
    "dataLiability": "Non-Fault",
    "dataMainCause": "Keys",
    "dataNotifierContactId": "",
    "dataNotifierType": "",
    "dataOwner": "",
    "dataPartyId": "",
    "dataPersonAccountRecordTypeId": "01258000000cYS8AAM",
    "dataPolicyId": "02i5E0000002fmZ",
    "dataReportedDate": "2017-04-11T15:38:18.520Z",
    "dataReserve": 2500,
    "dataSubCause": "",
    "id": "a3f5E0000008RY6QAM",
    "incidentDate": "2017-04-11T15:38:18.520Z",
    "incidentDetails": {
        "Case Subject": "New Motor Claim for:Tony Stark on: 11/4/2017",
        "DateWarningStop": true,
        "Hide Location": false,
        "IncidentAddressGoogle-Block": null,
        "IncidentDate": "2017-04-11T15:38:18.520Z",
        "IncidentDateFormula": "Valid",
        "Peril": "Theft",
        "Product": "Motor",
        "Time": null,
        "Total Clauses": 3,
        "blkDriversClaim": {
            "AnyDriver": null,
            "blkVehicleinsured": {
                "AnyVehicle": null,
                "HireCarRequired": false,
                "insuredVehicleDamageArea": null,
                "insuredVehicleGarageDetails": null,
                "insuredVehicleStatus": "In use",
                "lineItemVehicle": [
                    {
                        "%vlocity_namespace%__MarketValue__c": 60000,
                        "%vlocity_namespace%__VIN__c": "CV57 NUO",
                        "Clauses": 2,
                        "Currency": "GBP",
                        "CurrencySymbol": "£",
                        "DriverSetup": "Any driver",
                        "Excess": 500,
                        "Id": "a6Q5E0000008OI5UAM",
                        "Name": "CV57 NUO -",
                        "VehicleId": "a6L5E0000000006UAA",
                        "vlcSelected": true
                    }
                ],
                "reserve": 2500
            },
            "drivingLicenceMessaging": true,
            "drivingLicense": true,
            "lineItemDriver": [
                {
                    "%vlocity_namespace%__Age__c": 31,
                    "AnyVehicle": true,
                    "Id": "a6R5E0000004C9RUAU",
                    "InsuredOn": "Any Vehicle",
                    "Name": "Tony Stark",
                    "PartyID": "a3q5E0000008OOp",
                    "relatedContact": "0035E000002D9JC",
                    "vlcSelected": true
                }
            ]
        },
        "broker": "Test Broker",
        "brokerCompany": "Magor Test",
        "brokerageAddress": "",
        "brokerageContactDetails": "",
        "firstNameInsured": "Tony",
        "incidentTheft": null,
        "insuredAddress": "Test Street, Aberdeen, Aberdeenshite, AB6 3GH, ",
        "insuredEmail": null,
        "insuredTelephone": null,
        "lastNameInsured": "Stark",
        "liabilityDecision": "Non-Fault",
        "mainCause": "Keys",
        "notifierId": "",
        "notifierIdBroker": "",
        "notifierIdInsured": "",
        "notifierIdOther": "",
        "notifierIdThirdParty": "",
        "policyConfirmMessage": true,
        "policyConfirmed": true,
        "policyValidFormula": "Valid",
        "policyValidFrom": "2017-01-01T01:00:00.000Z",
        "policyValidUntil": "2017-12-31T23:59:00.000Z",
        "reportedDate": "2017-04-11T15:38:18.520Z",
        "reportedDateFormula": "Valid",
        "subCause": null
    },
    "insuredBirthdate": "1985-12-30",
    "personAccountRecordTypeId": "01258000000cYS8AAM",
    "policyMaster": "a6Y5E0000004D1RUAU",
    "primaryBroker": "0035E0000037XjiQAE",
    "timeStamp": "2017-04-11T15:38:18.520Z",
    "totalclauses": 3,
    "userName": "dschizas@azuruw.com.devdimitri",
    "userProfile": "System Administrator",
    "vlcPersistentComponent": {
    },
    "vlcTimeTracking": {
        "Additional Details": 9512,
        "DRGetAccountInformationForClaim": 2960,
        "DRGetBrokerAccountInformationForClaim": 2951,
        "DRGetBrokerInformationForClaim": 3218,
        "DRGetContactId": 3519,
        "DRGetInsuredDrivers": 632,
        "DRGetItemAccountId": 601,
        "DRGetPolicyClauses": 513,
        "DRGetPolicyInformationForClaim": 5136,
        "DRGetRecordTypeIds": 5999,
        "DRGetRelationshipIDs": 2356,
        "DRGetVehicles": 6429,
        "DRPostCUECue": 14149,
        "DRPostCreateClaimOnly": 6834,
        "DRPostCreatePolicyholders&Vehicles": 2149,
        "FixContextId": 0,
        "OmniScriptSessionToken": "a97cfb69-db30-4fcf-8a01-c1d44e5b595f",
        "TPRserveSetValue": 0,
        "incidentDetails": 23460,
        "reserveSetValue": 2,
        "setClaimValues": 2,
        "setTestContext": 3,
        "setValueNewClaim": 3
    }
}