{
    "%vlocity_namespace%__CalculationMatrixVersion__c": "AdditionalCoverLimits_Version.json",
    "%vlocity_namespace%__Description__c": "",
    "%vlocity_namespace%__GlobalKey__c": "AdditionalCoverLimits",
    "%vlocity_namespace%__GroupKey__c": "",
    "%vlocity_namespace%__SubGroupKey__c": "",
    "%vlocity_namespace%__VersionsWithLongOutputCount__c": 2,
    "%vlocity_namespace%__WildcardColumn__c": "",
    "%vlocity_namespace%__WildcardValue__c": "",
    "CurrencyIsoCode": "GBP",
    "Name": "AdditionalCoverLimits",
    "RecordTypeId": "",
    "VlocityDataPackType": "SObject",
    "VlocityRecordSObjectType": "%vlocity_namespace%__CalculationMatrix__c",
    "VlocityRecordSourceKey": "%vlocity_namespace%__CalculationMatrix__c/AdditionalCoverLimits"
}