{
    "Client": {
        "BillingCity": "London",
        "BillingCountry": "United Kingdom",
        "BillingPostalCode": "EC2A 2BS",
        "BillingStreet": "4 Christopher Street",
        "Birthdate": "1980-12-27",
        "ClaimsConvictionsPoints": 0,
        "Gender": "Female",
        "isPersonAccount": true
    },
    "Code6Limit": 2,
    "Code8Limit": 2,
    "ContextId": "02i4E000002AzzXQAS",
    "FloodClause": {
        "Body": "<b><span style=\"color: black;\"><span style=\"font-family: arial,sans-serif;\"><span style=\"font-size: 10.0pt;\">We</span></span></span></b><span style=\"color: black;\"><span style=\"font-family: arial,sans-serif;\"><span style=\"font-size: 10.0pt;\"> do not cover loss or damage directly or indirectly caused by surface, rising or tidal water, or the overflow of ponds, streams, rivers, lakes, or any other bodies of water.</span></span></span><br> ",
        "Id": "a2p4E0000008hIpQAI",
        "Name": "Flood Exclusion"
    },
    "InceptionEndDate": "2018-02-23T00:01:00.000Z",
    "InceptionStartDateTime": "2017-02-23T00:01:00.000Z",
    "NumberOfInsuredItems": 9,
    "Policy": {
        "Currency": "GBP",
        "Id": "02i4E000002AzzXQAS",
        "Referrals__c": "Vehicle has group 0\nFlood band significant or higher\nPrivate car over 50k with no security\ntest2\nanother referral\nFlood band significant or higher\nFlood band significant or higher\nFlood band significant or higher\nFlood band significant or higher\nFlood band significant or higher\nFlood band significant or higher\nVehicle Value is Above the Limit\nNumber of Insured Vehicles in above the Limit\nVehicle Value is Above the Limit\nNumber of Insured Vehicles in above the Limit",
        "Status": "QL-Quote Logged",
        "endDate": "2018-02-23T00:01:00.000Z",
        "startDate": "2017-02-23T00:01:00.000Z"
    },
    "Policy Name": "MO07000755Q-00-0",
    "Policyholder": "0014E00000OPgs3QAD",
    "assetId": "02i4E000002AzzXQAS",
    "code6": 6,
    "code8": 8,
    "family": "Motor",
    "id": "a3f4E0000000TGSQA2",
    "loggedUser": {
        "Id": "00558000000tpGDAAY"
    },
    "numberOfDrivers": 1,
    "policyHolder": "0014E00000OPgs3QAD",
    "policyMember": {
        "ClaimsConvictionPoints__c": 0,
        "Id": "a674E000000CcA2QAK"
    },
    "ratingNumberOfVehicles": "6orMore",
    "ruleADR": {
        "Body": "<b><span style=\"color: black;\"><span style=\"font-family: arial,sans-serif;\"><span style=\"font-size: 10.0pt;\">We</span></span></span></b><span style=\"color: black;\"><span style=\"font-family: arial,sans-serif;\"><span style=\"font-size: 10.0pt;\"> do not cover any loss or damage arising from the theft or attempted theft of this <b>vehicle</b> unless the <b>vehicle</b> has been fitted with a proactive anti-theft <b>vehicle</b> tracking system that uses automatic driver recognition (ADR) technology.</span></span></span><br><span style=\"color: black;\"><span style=\"font-family: arial,sans-serif;\"><span style=\"font-size: 10.0pt;\">The system must be installed and operational within 14 days of inception and once installed must be in full working order and activated at the time of theft or attempted theft. </span></span></span><br> ",
        "Id": "a2p4E0000008hJYQAY",
        "Name": "Tracker Condition – Automatic Driver Recognition System"
    },
    "ruleGPS": {
        "Body": "<b><span style=\"color: black;\"><span style=\"font-family: arial,sans-serif;\"><span style=\"font-size: 10.0pt;\">We</span></span></span></b><span style=\"color: black;\"><span style=\"font-family: arial,sans-serif;\"><span style=\"font-size: 10.0pt;\"> do not cover any loss or damage arising from the theft or attempted theft of this <b>vehicle</b> unless the <b>vehicle</b> has been fitted with a proactive anti-theft <b>vehicle</b> tracking system that uses satellite GPS (global positioning system) technology.</span></span></span><br><span style=\"color: black;\"><span style=\"font-family: arial,sans-serif;\"><span style=\"font-size: 10.0pt;\">The system must be installed and operational within 14 days of inception and once installed must be in full working order and activated at the time of theft or attempted theft.</span></span></span><br> ",
        "Id": "a2p4E0000008hJTQAY",
        "Name": "Tracker Condition – Proactive GPS System"
    },
    "ruleLaidUp": {
        "Body": "<span style=\"color: black;\"><span style=\"font-family: arial,sans-serif;\"><span style=\"font-size: 10.0pt;\">Cover for this <b>vehicle</b> is restricted to fire, theft, malicious damage and accidental damage only.</span></span></span><br><span style=\"color: black;\"><span style=\"font-family: arial,sans-serif;\"><span style=\"font-size: 10.0pt;\">There is no cover for the <b>vehicle</b> whilst being used on the road. </span></span></span><br> ",
        "Id": "a2p4E0000008hJJQAY",
        "Name": "SORN Certified and Laid Up Vehicles"
    },
    "ruleThatchCat5": {
        "Body": "<b><span style=\"color: black;\"><span style=\"font-family: arial,sans-serif;\"><span style=\"font-size: 10.0pt;\">We</span></span></span></b><span style=\"color: black;\"><span style=\"font-family: arial,sans-serif;\"><span style=\"font-size: 10.0pt;\"> do not cover any loss or damage arising from the theft or attempted theft of this <b>vehicle</b> unless the <b>vehicle</b> has been fitted with a Thatcham Category 5 approved anti-theft <b>vehicle</b> tracking system.</span></span></span><br><span style=\"color: black;\"><span style=\"font-family: arial,sans-serif;\"><span style=\"font-size: 10.0pt;\">The system must be installed and operational within 14 days of inception and once installed must be in full working order and activated at the time of theft or attempted theft. </span></span></span><br> ",
        "Id": "a2p4E0000008hJdQAI",
        "Name": "Tracker Condition – Thatcham Category 5 System"
    },
    "stpVehicleDetails": {
        "Select Product": null,
        "addressFull": "4 Christopher Street + London + EC2A 2BS + United Kingdom",
        "blkVehicleDetails": {
            "ChangeGlassData": false,
            "Currency": "GBP",
            "FloodBand": null,
            "Formula 12": null,
            "HasModifications": null,
            "LaidUpVehicle": false,
            "LeftHandDrive": null,
            "Location": 1,
            "Name": "",
            "OpportunityId": "",
            "PolicyId": "[object Object]",
            "PolicyholderAge": 36,
            "PolicyholderGender": "Female",
            "ReferralCode24": "",
            "ReferralCode25": "",
            "ReferralCode26": "",
            "ReferralCode27": "",
            "RegNo": "",
            "RegNoInput": null,
            "Restrictions": " - Make or Model Missing\n - Vehicle type not selected\n - Fuel type not selected\n - Transmission not selected\n - Car group not selected\n - Engine capacity not selected\n - Build year not entered\n - Vehicle modifications question not specified\n - Left hand drive question not specified\n - Annual mileage not entered\n - Registration number not entered",
            "Root": {
                "AnnualMileage": null,
                "ConsumerValues": {
                    "ExcellentVehicleTradeValue": null,
                    "FinalValuation": 0,
                    "OverrideValueCheckbox": false,
                    "ValuationDifference": null,
                    "ValuationMethod": null,
                    "VehicleOverrideValue": null
                },
                "Purchase Date": null,
                "SecurityFeatures": null,
                "Vehicle Use": null,
                "VehicleDetails": {
                    "Description": null,
                    "EngineCapacity": null,
                    "Fuel": null,
                    "Manufacturer": null,
                    "Model": null,
                    "TransmissionDescription": null,
                    "VehicleAge": "",
                    "YearOfManufacture": null
                },
                "abiCode": null,
                "carGroup": null
            },
            "RuleFlood": "",
            "RuleLaidUp": "",
            "RuleProactiveADR": "",
            "RuleProactiveGPS": "",
            "RuleThatcham": "",
            "Warnings": "",
            "assetCurrency": "GBP",
            "compulsoryExcess": 250,
            "diffMTAdate": 42,
            "driverSelection": null,
            "numberOfCars": "6orMore",
            "ratedExcess": 0,
            "ratingGroup": 0,
            "ratingSecurityFeatures": "",
            "referralBackdateCoverageCode": "",
            "referralBackdateCoverageName": "",
            "referralNumberOfVehiclesCode": 8,
            "referralNumberofVehiclesName": "\n Number of Insured Vehicles in above the Limit",
            "referralValuationCode": 6,
            "referralValuationName": "\n Vehicle Value is Above the Limit",
            "todayDate": "2017-04-05T23:00:00.000Z",
            "uwExcess": null,
            "vehicleStorage": null,
            "volExcess": null
        },
        "isDriver": "existDriver",
        "shortenedPostcode": "EC2A2",
        "vehicleLocation-Block": {
            "vehicleCity": "London",
            "vehicleCountry": "United Kingdom",
            "vehicleLocation": null,
            "vehiclePostalCode": "EC2A 2BS",
            "vehicleStreet": "4 Christopher Street"
        }
    },
    "timeStamp": "2017-04-06T13:48:58.446Z",
    "type": "General Insurance",
    "userName": "cdecisions@azuruw.com.vlctyrone",
    "userProfile": "System Administrator",
    "vlcPersistentComponent": {
    },
    "vlcTimeTracking": {
        "DRGetPolicyId": 562,
        "DRGetPolicyMemberRel": 484,
        "DRGetReferralData": 990,
        "OmniScriptSessionToken": "7462dfd1-70ae-4a40-9285-ae8b27476211",
        "Set Values 1": 2,
        "Set Values 5": 3,
        "SetPolicyHolder": 0,
        "TestValuesREMOVEonDEPLOY": 7
    }
}