{
    "%vlocity_namespace%__AdditionalInformation__c": "Integration procedure to post claim data as %vlocity_namespace%__InsuranceClaim__c records.",
    "%vlocity_namespace%__CustomJavaScript__c": "{}",
    "%vlocity_namespace%__Element__c": [
        "EW_Claims_Element_transformClaimData.json",
        "EW_Claims_Element_postClaimData.json"
    ],
    "%vlocity_namespace%__IsProcedure__c": true,
    "%vlocity_namespace%__IsReusable__c": false,
    "%vlocity_namespace%__Language__c": "Procedure",
    "%vlocity_namespace%__ProcedureKey__c": "EW_Claims",
    "%vlocity_namespace%__PropertySet__c": "EW_Claims_PropertySet.json",
    "%vlocity_namespace%__SubType__c": "Claims",
    "%vlocity_namespace%__Type__c": "EW",
    "CurrencyIsoCode": "GBP",
    "Name": "Post Claims",
    "VlocityDataPackType": "SObject",
    "VlocityRecordSObjectType": "%vlocity_namespace%__OmniScript__c",
    "VlocityRecordSourceKey": "%vlocity_namespace%__OmniScript__c/EW/Claims/Procedure"
}