{
    "%vlocity_namespace%__Active__c": true,
    "%vlocity_namespace%__OmniScriptId__c": {
        "Name": "Property Details",
        "VlocityDataPackType": "VlocityMatchingKeyObject",
        "VlocityMatchingRecordSourceKey": "%vlocity_namespace%__OmniScript__c/EW/PropertyDetails/English",
        "VlocityRecordSObjectType": "%vlocity_namespace%__OmniScript__c"
    },
    "%vlocity_namespace%__ParentElementId__c": {
        "%vlocity_namespace%__OmniScriptId__c": {
            "Name": "Property Details",
            "VlocityDataPackType": "VlocityMatchingKeyObject",
            "VlocityMatchingRecordSourceKey": "%vlocity_namespace%__OmniScript__c/EW/PropertyDetails/English",
            "VlocityRecordSObjectType": "%vlocity_namespace%__OmniScript__c"
        },
        "Name": "editBlockSpecifiedItems",
        "VlocityDataPackType": "VlocityMatchingKeyObject",
        "VlocityMatchingRecordSourceKey": "%vlocity_namespace%__Element__c/%vlocity_namespace%__OmniScript__c/EW/PropertyDetails/English/editBlockSpecifiedItems",
        "VlocityRecordSObjectType": "%vlocity_namespace%__Element__c"
    },
    "%vlocity_namespace%__ParentElementName__c": "editBlockSpecifiedItems",
    "%vlocity_namespace%__ParentElementType__c": "Edit Block",
    "%vlocity_namespace%__PropertySet__c": {
        "HTMLTemplateId": "",
        "accessibleInFutureSteps": false,
        "conditionType": "Hide if False",
        "controlWidth": 12,
        "controllingField": {
            "element": "",
            "source": "",
            "type": ""
        },
        "disOnTplt": true,
        "documentNames": [
            "BuildingAndContents",
            "Contents"
        ],
        "help": false,
        "helpText": "",
        "hide": false,
        "inputWidth": 12,
        "label": "Select Cover Type",
        "optionSource": {
            "source": "",
            "type": ""
        },
        "options": [
            {
                "name": "contents",
                "value": "Contents"
            },
            {
                "name": "jewelleryAndWatches",
                "value": "Jewellery & Watches"
            },
            {
                "name": "art",
                "value": "Art & Collectables"
            },
            {
                "name": "pedalCycles",
                "value": "Pedal Cycles"
            }
        ],
        "readOnly": false,
        "repeat": false,
        "repeatClone": false,
        "required": true,
        "show": null,
        "showInputWidth": false
    },
    "%vlocity_namespace%__ReusableOmniScript__c": true,
    "%vlocity_namespace%__Type__c": "Select",
    "CurrencyIsoCode": "GBP",
    "Name": "selectItemType",
    "VlocityDataPackType": "SObject",
    "VlocityRecordSObjectType": "%vlocity_namespace%__Element__c",
    "VlocityRecordSourceKey": "%vlocity_namespace%__Element__c/%vlocity_namespace%__OmniScript__c/EW/PropertyDetails/English/selectItemType"
}