{
    "%vlocity_namespace%__Active__c": true,
    "%vlocity_namespace%__OmniScriptId__c": {
        "Name": "Property Details",
        "VlocityDataPackType": "VlocityMatchingKeyObject",
        "VlocityMatchingRecordSourceKey": "%vlocity_namespace%__OmniScript__c/EW/PropertyDetails/English",
        "VlocityRecordSObjectType": "%vlocity_namespace%__OmniScript__c"
    },
    "%vlocity_namespace%__ParentElementId__c": {
        "%vlocity_namespace%__OmniScriptId__c": "%vlocity_namespace%__OmniScript__c/EW/PropertyDetails/English",
        "Name": "blockCoverage",
        "VlocityDataPackType": "VlocityMatchingKeyObject",
        "VlocityMatchingRecordSourceKey": "%vlocity_namespace%__Element__c/%vlocity_namespace%__OmniScript__c/EW/PropertyDetails/English/blockCoverage",
        "VlocityRecordSObjectType": "%vlocity_namespace%__Element__c"
    },
    "%vlocity_namespace%__ParentElementName__c": "blockCoverage",
    "%vlocity_namespace%__ParentElementType__c": "Block",
    "%vlocity_namespace%__PropertySet__c": {
        "HTMLTemplateId": "",
        "accessibleInFutureSteps": false,
        "allowNegative": false,
        "conditionType": "Hide if False",
        "controlWidth": 12,
        "debounceValue": 0,
        "disOnTplt": false,
        "documentNames": [
            "BuildingAndContents",
            "Contents"
        ],
        "help": true,
        "helpText": "Jewellery including articles of personal adornment containing gemstones, silver, gold, platinum or other precious metals; costume jewellery and watches.  We do not include unset gemstones within Jewellery and Watches",
        "hide": false,
        "hideGroupSep": false,
        "inputWidth": 12,
        "label": "Total Sum Insured: Jewellery & Watches (maximum £100,000)",
        "mask": 0,
        "max": 100000,
        "min": 0,
        "readOnly": false,
        "repeat": false,
        "repeatClone": false,
        "repeatLimit": null,
        "required": false,
        "show": null,
        "showInputWidth": true
    },
    "%vlocity_namespace%__ReusableOmniScript__c": true,
    "%vlocity_namespace%__Type__c": "Currency",
    "CurrencyIsoCode": "GBP",
    "Name": "rangeJewelleryWatches",
    "VlocityDataPackType": "SObject",
    "VlocityRecordSObjectType": "%vlocity_namespace%__Element__c",
    "VlocityRecordSourceKey": "%vlocity_namespace%__Element__c/%vlocity_namespace%__OmniScript__c/EW/PropertyDetails/English/rangeJewelleryWatches"
}