{
    "%vlocity_namespace%__Active__c": true,
    "%vlocity_namespace%__OmniScriptId__c": {
        "Name": "Cancellation",
        "VlocityDataPackType": "VlocityMatchingKeyObject",
        "VlocityMatchingRecordSourceKey": "%vlocity_namespace%__OmniScript__c/EW/Cancellation/English",
        "VlocityRecordSObjectType": "%vlocity_namespace%__OmniScript__c"
    },
    "%vlocity_namespace%__PropertySet__c": {
        "HTMLTemplateId": "",
        "controlWidth": 12,
        "disOnTplt": false,
        "elementValueMap": {
            "transactionalPremium": "=IF(%quoteOverrideValue% != NULL, %quoteOverrideValue%, %transactionalPremium%)"
        },
        "label": "SV_SetTransactionalPremium",
        "message": {
        },
        "pubsub": false,
        "show": null,
        "showPersistentComponent": [
            false,
            false
        ],
        "ssm": false,
        "wpm": false
    },
    "%vlocity_namespace%__ReusableOmniScript__c": false,
    "%vlocity_namespace%__Type__c": "Set Values",
    "CurrencyIsoCode": "GBP",
    "Name": "SV_SetTransactionalPremium",
    "VlocityDataPackType": "SObject",
    "VlocityRecordSObjectType": "%vlocity_namespace%__Element__c",
    "VlocityRecordSourceKey": "%vlocity_namespace%__Element__c/%vlocity_namespace%__OmniScript__c/EW/Cancellation/English/SV_SetTransactionalPremium"
}