{
    "%vlocity_namespace%__Active__c": false,
    "%vlocity_namespace%__OmniScriptId__c": {
        "Name": "Cancellation",
        "VlocityDataPackType": "VlocityMatchingKeyObject",
        "VlocityMatchingRecordSourceKey": "%vlocity_namespace%__OmniScript__c/EW/Cancellation/English",
        "VlocityRecordSObjectType": "%vlocity_namespace%__OmniScript__c"
    },
    "%vlocity_namespace%__PropertySet__c": {
        "HTMLTemplateId": "",
        "Outcome": "",
        "consoleTabLabel": "New",
        "controlWidth": 12,
        "disOnTplt": false,
        "label": null,
        "message": {
        },
        "redirectPageName": "mobileDone",
        "redirectTemplateUrl": "vlcMobileConfirmation.html",
        "show": null,
        "source": "%ContextId%",
        "ssm": false,
        "type": "SObject",
        "validationRequired": "Submit",
        "wpm": false
    },
    "%vlocity_namespace%__ReusableOmniScript__c": false,
    "%vlocity_namespace%__Type__c": "Done Action",
    "CurrencyIsoCode": "GBP",
    "Name": "DA_ReturnToRecord",
    "VlocityDataPackType": "SObject",
    "VlocityRecordSObjectType": "%vlocity_namespace%__Element__c",
    "VlocityRecordSourceKey": "%vlocity_namespace%__Element__c/%vlocity_namespace%__OmniScript__c/EW/Cancellation/English/DA_ReturnToRecord"
}