{
    "%vlocity_namespace%__CalculationMatrixId__c": {
        "Name": "TypeOfDwelling",
        "VlocityDataPackType": "VlocityMatchingKeyObject",
        "VlocityMatchingRecordSourceKey": "%vlocity_namespace%__CalculationMatrix__c/TypeOfDwelling",
        "VlocityRecordSObjectType": "%vlocity_namespace%__CalculationMatrix__c"
    },
    "%vlocity_namespace%__CalculationMatrixId__r.Name": "TypeOfDwelling",
    "%vlocity_namespace%__CalculationMatrixRow__c": "TypeOfDwelling_Version_Rows.json",
    "%vlocity_namespace%__CurrentStatus__c": "Active",
    "%vlocity_namespace%__EndDateTime__c": "",
    "%vlocity_namespace%__GlobalKey__c": "",
    "%vlocity_namespace%__Priority__c": 5,
    "%vlocity_namespace%__StartDateTime__c": "2018-12-12T12:01:00.000Z",
    "%vlocity_namespace%__UseLongOutput__c": true,
    "%vlocity_namespace%__VersionNumber__c": 4,
    "CurrencyIsoCode": "GBP",
    "Name": "TypeOfDwelling V4",
    "VlocityDataPackType": "SObject",
    "VlocityRecordSObjectType": "%vlocity_namespace%__CalculationMatrixVersion__c",
    "VlocityRecordSourceKey": "%vlocity_namespace%__CalculationMatrixVersion__c/TypeOfDwelling V4"
}