{
    "%vlocity_namespace%__AdditionalInformation__c": "EWH-1632: Allow UW manager to backdate binds on all transaction types",
    "%vlocity_namespace%__ElementTypeToHTMLTemplateList__c": "{\"ElementTypeToHTMLTemplateList\":[]}",
    "%vlocity_namespace%__Element__c": [
        "EW_Cancellation-Policy_English_Element_RA_getFeatureSwitch.json",
        "EW_Cancellation-Policy_English_Element_RA_checkForDuplication.json",
        "EW_Cancellation-Policy_English_Element_SV_checkCommunityUser.json",
        "EW_Cancellation-Policy_English_Element_SV_getURLs.json",
        "EW_Cancellation-Policy_English_Element_SV_setURL.json",
        "EW_Cancellation-Policy_English_Element_DR_extractQuoteDetails.json",
        "EW_Cancellation-Policy_English_Element_SV_checkIsQuoteActive.json",
        "EW_Cancellation-Policy_English_Element_RA_getCoverageDetails.json",
        "EW_Cancellation-Policy_English_Element_RA_getFullJSONData.json",
        "EW_Cancellation-Policy_English_Element_SV_effectiveDateIsValid.json",
        "EW_Cancellation-Policy_English_Element_SV_setDefaultValues.json",
        "EW_Cancellation-Policy_English_Element_DR_extractJointInsured.json",
        "EW_Cancellation-Policy_English_Element_SV_getSourcePolicyId.json",
        "EW_Cancellation-Policy_English_Element_DR_getActivePolicyClaims.json",
        "EW_Cancellation-Policy_English_Element_SV_hasLiveClaims.json",
        "EW_Cancellation-Policy_English_Element_SV_quoteUWStatus.json",
        "EW_Cancellation-Policy_English_Element_SV_continueWithBindIncLiveClaims.json",
        "EW_Cancellation-Policy_English_Element_EffectiveDateInPast.json",
        "EW_Cancellation-Policy_English_Element_effectiveDateHasPassedError.json",
        "EW_Cancellation-Policy_English_Element_DA_backToQuoteEdit.json",
        "EW_Cancellation-Policy_English_Element_BindQuote.json",
        "EW_Cancellation-Policy_English_Element_quoteHeadline.json",
        "EW_Cancellation-Policy_English_Element_spacing.json",
        "EW_Cancellation-Policy_English_Element_btnEditQuote.json",
        "EW_Cancellation-Policy_English_Element_RA_checkForDuplication.json",
        "EW_Cancellation-Policy_English_Element_SV_setContinueWithBind.json",
        "EW_Cancellation-Policy_English_Element_RA_createPolicySnapshot.json",
        "EW_Cancellation-Policy_English_Element_SV_checkSnapshot.json",
        "EW_Cancellation-Policy_English_Element_RA_createUpdatePolicy.json",
        "EW_Cancellation-Policy_English_Element_DR_postPropertyInsuredItems.json",
        "EW_Cancellation-Policy_English_Element_DR_postSpecifiedInsuredItems.json",
        "EW_Cancellation-Policy_English_Element_DR_postClauses.json",
        "EW_Cancellation-Policy_English_Element_DR_updateQuoteStatus.json",
        "EW_Cancellation-Policy_English_Element_DR_updatePolicy.json",
        "EW_Cancellation-Policy_English_Element_RA_copyNotesFromQuote.json",
        "EW_Cancellation-Policy_English_Element_DR_quoteReferToUW.json",
        "EW_Cancellation-Policy_English_Element_UnableToBind.json",
        "EW_Cancellation-Policy_English_Element_msgInactiveQuote.json",
        "EW_Cancellation-Policy_English_Element_msgHasLiveClaims.json",
        "EW_Cancellation-Policy_English_Element_SV_policyVersion.json",
        "EW_Cancellation-Policy_English_Element_DR_getPolicyFirstVersion.json",
        "EW_Cancellation-Policy_English_Element_SV_formatPolicyDates.json",
        "EW_Cancellation-Policy_English_Element_EWPolicyDocuments1.json",
        "EW_Cancellation-Policy_English_Element_DA_returnToHome.json",
        "EW_Cancellation-Policy_English_Element_DA_displayPolicy.json"
    ],
    "%vlocity_namespace%__IsProcedure__c": false,
    "%vlocity_namespace%__IsReusable__c": false,
    "%vlocity_namespace%__Language__c": "English",
    "%vlocity_namespace%__PropertySet__c": "EW_Cancellation-Policy_English_PropertySet.json",
    "%vlocity_namespace%__SubType__c": "Cancellation Policy",
    "%vlocity_namespace%__Type__c": "EW",
    "CurrencyIsoCode": "GBP",
    "Name": "Cancellation Policy",
    "VlocityDataPackType": "SObject",
    "VlocityRecordSObjectType": "%vlocity_namespace%__OmniScript__c",
    "VlocityRecordSourceKey": "%vlocity_namespace%__OmniScript__c/EW/Cancellation Policy/English"
}