{
    "%vlocity_namespace%__Active__c": true,
    "%vlocity_namespace%__OmniScriptId__c": {
        "Name": "Quote",
        "VlocityDataPackType": "VlocityMatchingKeyObject",
        "VlocityMatchingRecordSourceKey": "%vlocity_namespace%__OmniScript__c/EW/Quote/English",
        "VlocityRecordSObjectType": "%vlocity_namespace%__OmniScript__c"
    },
    "%vlocity_namespace%__PropertySet__c": {
        "Language": "English",
        "Sub Type": "Documents",
        "Type": "EW",
        "disOnTplt": false,
        "show": {
            "group": {
                "operator": "AND",
                "rules": [
                    {
                        "condition": "=",
                        "data": "false",
                        "field": "blockQuote"
                    },
                    {
                        "condition": "=",
                        "data": "true",
                        "field": "ContinueWithQuote"
                    },
                    {
                        "condition": "=",
                        "data": "true",
                        "field": "isEditAllowed"
                    },
                    {
                        "condition": "=",
                        "data": "false",
                        "field": "uw_excludedPostcode"
                    }
                ]
            }
        }
    },
    "%vlocity_namespace%__ReusableOmniScript__c": false,
    "%vlocity_namespace%__SearchKey__c": "EW|Documents|English",
    "%vlocity_namespace%__Type__c": "OmniScript",
    "CurrencyIsoCode": "GBP",
    "Name": "Documents3",
    "VlocityDataPackType": "SObject",
    "VlocityRecordSObjectType": "%vlocity_namespace%__Element__c",
    "VlocityRecordSourceKey": "%vlocity_namespace%__Element__c/%vlocity_namespace%__OmniScript__c/EW/Quote/English/Documents3"
}