{
    "%vlocity_namespace%__Active__c": true,
    "%vlocity_namespace%__OmniScriptId__c": {
        "Name": "Quote",
        "VlocityDataPackType": "VlocityMatchingKeyObject",
        "VlocityMatchingRecordSourceKey": "%vlocity_namespace%__OmniScript__c/EW/Quote/English",
        "VlocityRecordSObjectType": "%vlocity_namespace%__OmniScript__c"
    },
    "%vlocity_namespace%__PropertySet__c": {
        "HTMLTemplateId": "",
        "controlWidth": 12,
        "disOnTplt": false,
        "elementValueMap": {
            "hasQuoteId": "=AND(%ContextId% <>\"\", %ContextId% <> \"undefined\", %ContextId% <> undefined, %quoteTransactionType% != \"Renewal\")",
            "isAutomaticRenewalProcess": "=false",
            "isEditAllowed": "=true",
            "isNewRenewalQuote": "=%quoteTransactionType% == 'Renewal'",
            "quoteId": "=IF(%quoteTransactionType% != 'Renewal', %ContextId%, NULL)",
            "quoteStatus": "=NULL",
            "skipToCoverageStep": "=false"
        },
        "label": "SetQuoteIdFromContext",
        "message": {
        },
        "show": null,
        "showPersistentComponent": [
            false,
            false
        ],
        "ssm": false,
        "validationRequired": "None",
        "wpm": false
    },
    "%vlocity_namespace%__ReusableOmniScript__c": false,
    "%vlocity_namespace%__Type__c": "Set Values",
    "CurrencyIsoCode": "GBP",
    "Name": "SetQuoteIdFromContext",
    "VlocityDataPackType": "SObject",
    "VlocityRecordSObjectType": "%vlocity_namespace%__Element__c",
    "VlocityRecordSourceKey": "%vlocity_namespace%__Element__c/%vlocity_namespace%__OmniScript__c/EW/Quote/English/SetQuoteIdFromContext"
}