{
  "componentVariants" : [ {
    "id" : "a9436bf7-772b-4d8c-b5c8-2082c6b54a23",
    "propertyOverrides" : {
      "activeViewId" : "7bdbf39d-4b93-456f-b8c0-aecb7f1602cb"
    },
    "targetId" : "c28cd6f2-7855-41b5-9084-87529d94c6ff",
    "type" : "componentVariant"
  } ],
  "developerName" : "IQ_Content_Detail_Webinar_Not_Authenticated_Users_Page",
  "id" : "3ec42854-37c5-46f6-90ed-82462be7cea5",
  "type" : "experienceVariation"
}