{
    "ContextId": "a6C4E00000000ic",
    "II": {
        "active": false,
        "annualMileage": 2012,
        "areaCode": 1,
        "buildYear": 2012,
        "compulsaryExcess": 250,
        "driverSetup": "Any driver over 25 or named",
        "engineSize": 2012,
        "group": 1,
        "leftHandDrive": "Yes",
        "make": "AUDI",
        "model": "GIULIETTA LUSSO JTDM-2 S/ - 1956CC",
        "modifications": "No",
        "productId": "01t4E000001GE0IQAW",
        "productLabel": "Private Car",
        "productName": "Auto",
        "ratedDriverAge": 28,
        "ratedDriverClaimsConvictionPoints": 0,
        "ratedDriverGender": "Male",
        "ratingNumberOfDrivers": "1",
        "ratingNumberOfVehicles": "6orMore",
        "registrationNumber": "zzzz",
        "securityFeatures": "Proactive ADR",
        "valueGlasses": 2012,
        "valueOverriden": false,
        "vehicleKept": "Car Port",
        "vehicleUse": "SD & P",
        "voluntaryExcess": "250"
    },
    "InsuredItemId": "a6B4E0000008P8MUAU",
    "coverage": {
        "Policy_Member_Relationship__c": "a674E000000CbczQAC"
    },
    "id": "a3f4E0000000MrgQAE",
    "insuredItem": {
        "Asset__c": "02i4E000001xoCrQAI",
        "Product__c": "01t4E000001GE0IQAW",
        "Vehicle__c": "a6C4E00000000icUAA"
    },
    "polmember": {
        "Account__c": "0014E00000N6BdeQAF"
    },
    "timeStamp": "2016-12-30T16:36:10.832Z",
    "userName": "cdecisions@azuruw.com.vlctyrone",
    "userProfile": "System Administrator",
    "vlcPersistentComponent": {
    },
    "vlcTimeTracking": {
        "DRGetInsuredId": 384,
        "DRGetVehicleDetails": 700,
        "OmniScriptSessionToken": "da6e1a9f-6edd-4dcb-9f41-aeb892af8379",
        "TestValuesREMOVEonDEPLOY": 0
    }
}