{
  "appPageId" : "129d4d71-8c75-4c59-b79b-56e523fc999d",
  "componentName" : "siteforce:sldsOneColLayout",
  "id" : "4efae071-3839-47e3-9624-25f3f9ae3909",
  "label" : "Account List",
  "regions" : [ {
    "id" : "b26826be-c969-4dc8-b96f-9111ee0706ce",
    "regionName" : "header",
    "type" : "region"
  }, {
    "components" : [ {
      "componentAttributes" : {
        "enableInlineEdit" : true,
        "filterName" : "{!filterId}",
        "layout" : "FULL",
        "pageSize" : 25,
        "scope" : "{!objectName}",
        "showActionBar" : true,
        "showDisplay" : "showall",
        "showPinnedList" : true,
        "showSearchBar" : true
      },
      "componentName" : "forceCommunity:objectHome",
      "id" : "df59ea58-e10b-4bcf-8a9c-3ec253eae902",
      "renderPriority" : "NEUTRAL",
      "renditionMap" : { },
      "type" : "component"
    } ],
    "id" : "2b608871-b76b-4ed0-a0c0-7bf2563ce610",
    "regionName" : "content",
    "type" : "region"
  }, {
    "components" : [ {
      "componentAttributes" : {
        "allowPrepopulatePrechatFields" : true,
        "avatarImgURL" : "",
        "codeSettingsName" : "",
        "defaultMinimizedText" : "Ask us a question",
        "displayHelpButton" : true,
        "eswConfigurationJSON" : {
          "baseCoreURL" : "https://azuruw.my.salesforce.com",
          "baseLiveAgentContentURL" : "https://c.la1-c1-lo3.salesforceliveagent.com/content",
          "baseLiveAgentURL" : "https://d.la1-c1-lo3.salesforceliveagent.com/chat",
          "buttonId" : "5734H00000004j3",
          "deploymentId" : "5724H000000048m",
          "enabledFeatures" : [ "LiveAgent" ],
          "entryFeature" : "LiveAgent",
          "eswConfigDevName" : "EW_Chatbot",
          "eswConfigId" : "04I4H000000TN4OUAW",
          "eswLiveAgentDevName" : "EW_Chatbot",
          "gslbBaseURL" : "https://service.force.com",
          "isOfflineCasesEnabled" : "0",
          "orgId" : "00D58000000ZiEv"
        },
        "externalScripts" : "",
        "externalStyles" : "",
        "fallbackRouting" : "",
        "offlineSupportMinimizedText" : "Contact Us",
        "offlineText" : "Agent Offline",
        "onlineLoadingText" : "Loading",
        "prechatBackgroundImgURL" : "",
        "smallCompanyLogoImgURL" : "",
        "snippetSettingsFile" : "EWBotPreChat",
        "storageDomain" : "",
        "waitingStateBackgroundImgURL" : ""
      },
      "componentName" : "forceCommunity:embeddedService",
      "id" : "a2e2ccaa-43b2-4165-baea-7c0a7eb353aa",
      "renderPriority" : "NEUTRAL",
      "renditionMap" : { },
      "type" : "component"
    } ],
    "id" : "be865672-f91c-48b5-86fb-b3b6c30dcfb6",
    "regionName" : "footer",
    "type" : "region"
  } ],
  "themeLayoutType" : "Inner",
  "type" : "view",
  "viewType" : "list-001"
}