{
  "appPageId" : "129d4d71-8c75-4c59-b79b-56e523fc999d",
  "componentName" : "siteforce:sldsOneColLayout",
  "id" : "c272db37-aa16-4710-b4db-26d8f78c60f5",
  "label" : "Case Related List",
  "regions" : [ {
    "id" : "97302698-518e-4662-8405-054747d63474",
    "regionName" : "header",
    "type" : "region"
  }, {
    "components" : [ {
      "componentAttributes" : {
        "parentRecordId" : "{!parentRecordId}",
        "relatedListName" : "{!relatedListName}"
      },
      "componentName" : "forceCommunity:relatedList",
      "id" : "b164bd83-2073-4889-bba1-8fdf39aa95a0",
      "renderPriority" : "NEUTRAL",
      "renditionMap" : { },
      "type" : "component"
    } ],
    "id" : "f67e9fe7-62f7-412a-8f67-0702e1cd471e",
    "regionName" : "content",
    "type" : "region"
  }, {
    "id" : "21b932e3-fb77-4df5-965b-3c860d4af852",
    "regionName" : "footer",
    "type" : "region"
  } ],
  "themeLayoutType" : "Inner",
  "type" : "view",
  "viewType" : "relatedlist-500"
}