{
  "appPageId" : "129d4d71-8c75-4c59-b79b-56e523fc999d",
  "componentName" : "siteforce:sldsOneColLayout",
  "id" : "2b9fc1cc-56a1-41db-b1a4-1d83633ffa8b",
  "label" : "dashboard",
  "regions" : [ {
    "components" : [ {
      "componentAttributes" : {
        "richTextValue" : "<p>Dashboards coming soon....watch this space....</p>"
      },
      "componentName" : "forceCommunity:richTextInline",
      "id" : "8f695f95-e4fc-4ae6-b522-a9ca04e49029",
      "renderPriority" : "NEUTRAL",
      "renditionMap" : { },
      "type" : "component"
    } ],
    "id" : "5bf29f53-5567-455e-8cb0-731412e86da0",
    "regionName" : "header",
    "type" : "region"
  }, {
    "id" : "9fab678e-a45d-4f36-90d2-76cd5dec907e",
    "regionName" : "content",
    "type" : "region"
  }, {
    "id" : "e0c12152-ffd6-4a00-b056-0aa7244a53e3",
    "regionName" : "footer",
    "type" : "region"
  }, {
    "components" : [ {
      "componentAttributes" : {
        "customHeadTags" : "",
        "description" : "",
        "title" : "dashboard"
      },
      "componentName" : "forceCommunity:seoAssistant",
      "id" : "229d12b3-f849-41bb-83d1-860e5d1b55ca",
      "renditionMap" : { },
      "type" : "component"
    } ],
    "id" : "b1f18ebc-2655-41bb-b0d8-9bd443fddd02",
    "regionName" : "sfdcHiddenRegion",
    "type" : "region"
  } ],
  "themeLayoutType" : "Inner",
  "type" : "view",
  "viewType" : "custom-dashboard"
}