{
  "appPageId" : "129d4d71-8c75-4c59-b79b-56e523fc999d",
  "componentName" : "siteforce:sldsOneColLayout",
  "id" : "15bd5f77-8e33-4162-b0e7-16b9567304f6",
  "label" : "Frequently Asked Questions",
  "regions" : [ {
    "id" : "33fff433-367a-4221-98ec-e08f99de0b50",
    "regionName" : "header",
    "type" : "region"
  }, {
    "components" : [ {
      "componentAttributes" : { },
      "componentName" : "c:EWFAQs",
      "id" : "9646e593-f8f3-496b-9ba7-aa8380ea4bd2",
      "renderPriority" : "NEUTRAL",
      "renditionMap" : { },
      "type" : "component"
    } ],
    "id" : "e114fe1c-b329-4df7-831e-5e3d31af0450",
    "regionName" : "content",
    "type" : "region"
  }, {
    "components" : [ {
      "componentAttributes" : {
        "allowPrepopulatePrechatFields" : true,
        "avatarImgURL" : "",
        "codeSettingsName" : "",
        "defaultMinimizedText" : "Ask us a question",
        "displayHelpButton" : true,
        "eswConfigurationJSON" : {
          "baseCoreURL" : "https://azuruw--DEV.my.salesforce.com",
          "baseLiveAgentContentURL" : "https://c.la1-c1cs-lo2.salesforceliveagent.com/content",
          "baseLiveAgentURL" : "https://d.la1-c1cs-lo2.salesforceliveagent.com/chat",
          "buttonId" : "57325000000Cb2r",
          "deploymentId" : "57225000000CbaT",
          "enabledFeatures" : [ "LiveAgent" ],
          "entryFeature" : "LiveAgent",
          "eswConfigDevName" : "EW_Chatbot",
          "eswConfigId" : "04I25000000Cb4EEAS",
          "eswLiveAgentDevName" : "EW_Chatbot",
          "gslbBaseURL" : "https://service.force.com",
          "isOfflineCasesEnabled" : "0",
          "orgId" : "00D250000008l63"
        },
        "externalScripts" : "",
        "externalStyles" : "",
        "fallbackRouting" : "",
        "offlineSupportMinimizedText" : "Contact Us",
        "offlineText" : "Agent Offline",
        "onlineLoadingText" : "Loading",
        "prechatBackgroundImgURL" : "",
        "smallCompanyLogoImgURL" : "",
        "snippetSettingsFile" : "EWBotPreChat",
        "storageDomain" : "",
        "waitingStateBackgroundImgURL" : ""
      },
      "componentName" : "forceCommunity:embeddedService",
      "id" : "a0cf6f27-22e0-4e84-bf21-705136fe2c30",
      "renderPriority" : "NEUTRAL",
      "renditionMap" : { },
      "type" : "component"
    } ],
    "id" : "363a5b0e-c67f-4723-a56c-014146872be8",
    "regionName" : "footer",
    "type" : "region"
  }, {
    "components" : [ {
      "componentAttributes" : {
        "customHeadTags" : "",
        "description" : "",
        "title" : "Frequently Asked Questions"
      },
      "componentName" : "forceCommunity:seoAssistant",
      "id" : "bf964a45-87be-48ab-a46b-62d8a068c7b5",
      "renditionMap" : { },
      "type" : "component"
    } ],
    "id" : "487759f8-3b1a-46c9-85eb-4ef196f1383c",
    "regionName" : "sfdcHiddenRegion",
    "type" : "region"
  } ],
  "themeLayoutType" : "Inner",
  "type" : "view",
  "viewType" : "custom-faq"
}