{
  "appPageId" : "45c82057-8cc9-4247-b33c-702e6b309a20",
  "componentName" : "siteforce:sldsOneColLayout",
  "id" : "8f90c0a9-84e6-4ac4-84be-5a86c1ec833d",
  "label" : "Login",
  "regions" : [ {
    "components" : [ {
      "componentAttributes" : { },
      "componentName" : "c:EWLogin",
      "id" : "01f56e62-04d7-49ca-b8d8-feff9965b401",
      "renderPriority" : "NEUTRAL",
      "renditionMap" : { },
      "type" : "component"
    } ],
    "id" : "a839d463-5c42-47db-8328-9537bd302c4d",
    "regionName" : "content",
    "type" : "region"
  }, {
    "components" : [ {
      "componentAttributes" : {
        "customHeadTags" : "",
        "description" : "",
        "title" : "Login"
      },
      "componentName" : "forceCommunity:seoAssistant",
      "id" : "408ce461-1d94-4db7-bdd6-77d4fbc324f8",
      "renditionMap" : { },
      "type" : "component"
    } ],
    "id" : "e5dfc7b0-2353-4cf4-924f-a412f47129ef",
    "regionName" : "sfdcHiddenRegion",
    "type" : "region"
  } ],
  "themeLayoutType" : "Login",
  "type" : "view",
  "viewType" : "login-home"
}