{
  "appPageId" : "129d4d71-8c75-4c59-b79b-56e523fc999d",
  "componentName" : "siteforce:dynamicLayout",
  "id" : "e91fdf9b-5fe7-4db6-8702-ffac93a33e9e",
  "label" : "Refresh Quote",
  "regions" : [ {
    "components" : [ {
      "componentAttributes" : {
        "background" : "background: rgba(0,0,0,0)",
        "backgroundOverlay" : "rgba(0,0,0,0.5)",
        "contentAreaWidth" : 100,
        "sectionConfig" : {
          "UUID" : "c2f6eb00-412c-4d76-9126-7e82fa6958f2",
          "columns" : [ {
            "UUID" : "b120bd85-9924-4334-a29f-f0524e9b85ee",
            "columnKey" : "1",
            "columnName" : "Column 1",
            "columnWidth" : "12",
            "seedComponents" : [ ]
          } ]
        },
        "sectionHeight" : 300
      },
      "componentName" : "forceCommunity:section",
      "id" : "c2f6eb00-412c-4d76-9126-7e82fa6958f2",
      "regions" : [ {
        "components" : [ {
          "componentAttributes" : {
            "customVFPage" : "",
            "disableLoadInPage" : false,
            "height" : "",
            "language" : "English",
            "layout" : "lightning",
            "recordId" : "{!recordId}",
            "scrollOffset" : "90",
            "subtype" : "Quote",
            "type" : "EW"
          },
          "componentName" : "vlocity_ins:OmniScriptCommunity",
          "id" : "0cf97474-da9f-441a-87b7-a251841d1acb",
          "renderPriority" : "NEUTRAL",
          "renditionMap" : { },
          "type" : "component"
        } ],
        "id" : "b120bd85-9924-4334-a29f-f0524e9b85ee",
        "regionLabel" : "Column 1",
        "regionName" : "1",
        "renditionMap" : { },
        "type" : "region"
      } ],
      "renderPriority" : "NEUTRAL",
      "renditionMap" : { },
      "type" : "component"
    } ],
    "id" : "a40001ac-2eb1-4eda-af7c-9e1a1cfb6ef5",
    "regionName" : "content",
    "type" : "region"
  }, {
    "components" : [ {
      "componentAttributes" : {
        "customHeadTags" : "",
        "description" : "",
        "title" : "Refresh Quote"
      },
      "componentName" : "forceCommunity:seoAssistant",
      "id" : "137befbf-ab69-4d94-bd0b-68be3bb00981",
      "renditionMap" : { },
      "type" : "component"
    } ],
    "id" : "fd98e8d1-7928-43b9-9afb-4258d7a66206",
    "regionName" : "sfdcHiddenRegion",
    "type" : "region"
  } ],
  "themeLayoutType" : "Inner",
  "type" : "view",
  "viewType" : "custom-refresh-quote"
}