{
  "appPageId" : "129d4d71-8c75-4c59-b79b-56e523fc999d",
  "componentName" : "siteforce:sldsOneColLayout",
  "id" : "c00618d9-d15d-4236-b9e7-39ce45c1dc42",
  "label" : "Stream Related List",
  "regions" : [ {
    "id" : "70297cfc-7ff1-4610-96fa-16f019797056",
    "regionName" : "header",
    "type" : "region"
  }, {
    "id" : "c2aa6cc7-7410-4104-b826-0ebfe493cb10",
    "regionName" : "content",
    "type" : "region"
  }, {
    "id" : "1033c768-17b6-43e5-86f4-d657dba3a7c9",
    "regionName" : "footer",
    "type" : "region"
  } ],
  "themeLayoutType" : "Inner",
  "type" : "view",
  "viewType" : "relatedlist-0Fq"
}