{
    "input_1": [
        {
            "ArtSpecifiedInput": 0,
            "CyclesSpecifiedInput": 0,
            "JewellerySpecifiedInput": 0,
            "ProductName": "Emerging Wealth",
            "UPRN": 100061543885,
            "ageRange": 49,
            "ambientalUniqueId": 7451400,
            "artAndCollectables.azurCommissionValue": "",
            "artAndCollectables.brokerCommissionValue": "",
            "artAndCollectables.iptTotal": "",
            "artAndCollectables.premiumGrossExIPT": "",
            "artAndCollectables.premiumGrossIncIPT": "",
            "artAndCollectables.premiumNet": "",
            "artSpec": 0,
            "artValue": 10000,
            "azurPercentCommission": 12,
            "bankruptDeclaration": "No",
            "basePremium": 1,
            "brokerPercentCommission": 25,
            "brokerPercentMaximum": 30,
            "brokerPercentMinimum": 0,
            "buildingSI": 410400,
            "buildingSumInsured": 410400,
            "buildings.buildingsLimitTotal": 1000000,
            "buildingsLimitTotalInput": 1000000,
            "burglarAlarm": "Not asked/None",
            "businessType": null,
            "businessTypeGroup": "",
            "businessUses": "No",
            "calculateBuildingsPremium": "true",
            "campaign": "Base Campaign",
            "claimsUnderwritingTotalScore": "",
            "conservationArea": "Not Listed/ Not Protected",
            "constructionType": "Brick",
            "contents.azurCommissionValue": "",
            "contents.brokerCommissionValue": "",
            "contents.iptTotal": "",
            "contents.premiumGrossExIPT": "",
            "contents.premiumGrossIncIPT": "",
            "convictions": "No",
            "courseOfConstruction": "Not more than £75k of renovation work",
            "coverage": "Building & Contents",
            "damageClaimScore": 0,
            "dateOfBirth": "1988-11-28T01:00:00.000Z",
            "daysUnoccupied": "Unoccupied Less than 60 days",
            "declined": "No",
            "domiciled": "Yes",
            "emergingWealth.aigAzurCommissionValue": "",
            "emergingWealth.aigBrokerCommission": "",
            "emergingWealth.aigIPTTotal": "",
            "emergingWealth.aigPremiumGrossExIPT": "",
            "emergingWealth.aigPremiumGrossIncIPT": "",
            "emergingWealth.aigPremiumNet": "",
            "emergingWealth.azurCommissionValue": "",
            "emergingWealth.claimedInLivePolicy": false,
            "emergingWealth.fixedExpenseGrossIncIPT": "",
            "emergingWealth.premiumGrossIncIPT": 0,
            "emergingWealth.quoteTransactionType": "New Business",
            "emergingWealth.timeBetweenQuoteAndPolicy": "",
            "employersLiability.employersLiability": "",
            "employersLiability.employersLiabilityPremium": "",
            "employersLiabilityInput": 10000000,
            "escapeOfWaterZone": "9",
            "excess": 500,
            "fireSmokeAlarm": "Battery Operated Detector or More",
            "fireZone": "1",
            "floodZone": 1,
            "floorInteraction": "Other Homes",
            "goodStateOfRepair": "Yes",
            "hasJointPolicyHolder": null,
            "homeEmergency.azurCommissionValue": "",
            "homeEmergency.brokerCommissionValue": "",
            "homeEmergency.homeEmergencyCoverageLimit": "",
            "homeEmergency.iptTotal": "",
            "homeEmergency.premiumGrossExIPT": "",
            "homeEmergency.premiumGrossIncIPT": "",
            "homeEmergency.premiumNet": "",
            "homeEmergencyCoverageLimitInput": 1000,
            "homeEmergencyPremiumNetInput": 8.7,
            "inhabitantCategories": null,
            "insuredEntity.firstName": "roy",
            "insuredEntity.lastName": "lloyd",
            "insuredEntity.mailingAddress": "14, BORROWDALE GARDENS, CAMBERLEY, GU15 1QZ",
            "insuredEntity.nationality": false,
            "insuredProperty.72555cf6-253c-330d-b62e-7fd90d327284": false,
            "insuredProperty.address": "14, BORROWDALE GARDENS, CAMBERLEY, GU15 1QZ",
            "insuredProperty.doorLocks": "yes",
            "insuredProperty.isChanged": false,
            "insuredProperty.priorInsurance": "You have insurance in place at the risk address and have done so for more than one year",
            "insuredProperty.ratio": "",
            "insuredProperty.windowLocks": "yes",
            "iptPercent": 12,
            "jewelleryAndWatches.azurCommissionValue": "",
            "jewelleryAndWatches.brokerCommissionValue": "",
            "jewelleryAndWatches.iptTotal": "",
            "jewelleryAndWatches.jewellerySpecified": "",
            "jewelleryAndWatches.premiumGrossExIPT": "",
            "jewelleryAndWatches.premiumGrossIncIPT": "",
            "jewelleryAndWatches.premiumNet": "",
            "jewelleryAndWatchesLimitBroken": false,
            "jewellerySpec": 0,
            "jewelleryValue": 10000,
            "jointBusinessTypeGroup": null,
            "jointInsAge": "",
            "jointInsuredSanctionsResult": "Passed",
            "jointOccupationGroup": null,
            "jointPolicyCategory": "Not a joint policy",
            "legalExpenses.azurCommissionValue": "",
            "legalExpenses.brokerCommissionValue": "",
            "legalExpenses.iptTotal": "",
            "legalExpenses.legalExpensesCoverageLimit": "",
            "legalExpenses.premiumGrossExIPT": "",
            "legalExpenses.premiumNet": "",
            "legalExpensesCoverageLimitInput": 100000,
            "legalExpensesPremiumNetInput": 31,
            "listingCategory": "Not Listed/ Not Protected",
            "listingGrade": null,
            "marketValue": 556520,
            "modelled": "Not Modelled",
            "notPreviouslyFlooded": "yes",
            "numberOfBathrooms": 1,
            "numberOfBedrooms": 4,
            "occupancyType": "Main residence",
            "occupation": "Development Manager",
            "occupationGroup": 10,
            "openToPublic": "Never",
            "opsSumInsured": "",
            "otherClaimScore": 0,
            "otherPermanentStructuresInput": 200000,
            "parentProdKey": "01t58000006YHT8AAO",
            "paymentMethod": "Broker Collection",
            "pedalCycles.azurCommissionValue": "",
            "pedalCycles.brokerCommissionValue": "",
            "pedalCycles.cyclesSpecified": "",
            "pedalCycles.cyclesUnspecified": "",
            "pedalCycles.iptTotal": "",
            "pedalCycles.premiumGrossExIPT": "",
            "pedalCycles.premiumGrossIncIPT": "",
            "pedalCycles.premiumNet": "",
            "pedalSpec": 0,
            "pedalValue": 2000,
            "personalCyber.azurCommissionValue": "",
            "personalCyber.brokerCommissionValue": "",
            "personalCyber.iptTotal": "",
            "personalCyber.personalCyberCoverageLimit": "",
            "personalCyber.premiumGrossExIPT": "",
            "personalCyber.premiumNet": "",
            "personalCyberCoverageLimitInput": 50000,
            "personalCyberPemiumNetInput": 24.21,
            "phAge": 30.79,
            "points": 0,
            "policyAge": 0,
            "previousInsurance": "GU15 1QZ",
            "previousInsuranceRefused": null,
            "primaryInsuredSanctionsResult": "Passed",
            "productKey": "01t58000006YHT8AAO",
            "propertyStyle": "Detached",
            "propertyType": "House",
            "propertyValue": 556520,
            "publicLiability.azurCommissionValue": "",
            "publicLiability.brokerCommissionValue": "",
            "publicLiability.iptTotal": "",
            "publicLiability.premiumGrossExIPT": "",
            "publicLiability.premiumGrossIncIPT": "",
            "publicLiability.premiumNet": "",
            "publicLiability.publicLiability": "",
            "publicLiabilityInput": 5000000,
            "quoteDateOfIssue": "2019-09-11T23:00:00.000Z",
            "quoteExpiryDate": "2019-10-12T12:49:50.148Z",
            "quotedDate": "2019-09-12 10:41:34",
            "randomNumber": 2,
            "rebuildConfidenceScore": 48973.8,
            "rentalValue": 1816,
            "roofConstruction": "Tile",
            "roofShape": "Up to 25percent",
            "safe": null,
            "signsOfSubsidence": "yes",
            "squareMetres": 171,
            "subsidenceZone": "1",
            "tenantsImprovements.azurCommissionValue": "",
            "tenantsImprovements.brokerCommissionValue": "",
            "tenantsImprovements.iptPercent": "",
            "tenantsImprovements.iptTotal": "",
            "tenantsImprovements.premiumGrossExIPT": "",
            "tenantsImprovements.premiumGrossIncIPT": "",
            "tenantsImprovements.premiumNet": "",
            "tenantsValue": 0,
            "tenure": "Freehold",
            "terms": "No",
            "theftClaimScore": 0,
            "theftZone": "2",
            "title": "Mr.",
            "totalContentSpecifiedItems": 0,
            "typeOfResidence": "Main residence",
            "underwriterAdjustmentPercent": 0,
            "waterClaimScore": 0,
            "windstormZone": "11",
            "yearBuilt": 1970
        }
    ]
}