{
    "BindQuote": {
        "StartDateBlock": {
            "confirmEffectiveDate": "2019-02-28T14:31:26.000Z",
            "confirmEffectiveDatePastValidation": false,
            "confirmEffectiveDateValidation": true,
            "effectiveDatePastValidation": false,
            "effectiveDateValidation": true
        },
        "brokerReferenceNumber": null,
        "hasInterestedParty": "no",
        "interetedPartyName": null,
        "paymentMethod": "viaBroker"
    },
    "ContextId": "",
    "ContinueWithBind": true,
    "error": "OK",
    "hasExistingPolicy": false,
    "hasJointPolicyHolder": "no",
    "id": "a3f0D0000000GCoQAM",
    "initiatedFromBind": true,
    "isdtp": "p1",
    "layout": "lightning",
    "premium": 0,
    "qDetails": {
        "Account": {
            "Name": "roy lloyd",
            "Salutation": "Mr."
        },
        "quote": {
            "%vlocity_namespace%__EffectiveDate__c": "2019-02-28",
            "%vlocity_namespace%__StandardPremium__c": 1064.64509,
            "%vlocity_namespace%__TotalSumInsured__c": 0,
            "AccountId": "0010D00000CzX4EQAV",
            "CreatedDate": "2019-02-28T14:31:26.000Z",
            "EW_AzurCommissionPercent__c": 12,
            "EW_BrokerCommissionPercent__c": 25,
            "EW_Expiration_Date__c": "2019-03-30T14:31:26.000Z",
            "EW_IPTPercent__c": 12,
            "EW_TotalCommissionPercent__c": 37,
            "Excess": 500,
            "Id": "0Q00D0000005K2zSAE",
            "QuoteDisplayNumber": "88-EWA-00001942",
            "insurableItems": [
                {
                    "%vlocity_namespace%__SpecProduct2Id__c": "01t0D000000qQV4QAM",
                    "CreatedDate": "2019-02-28T14:31:28.000Z",
                    "CurrencyIsoCode": "GBP",
                    "EW_Address1__c": "BORROWDALE GARDENS",
                    "EW_AddressId__c": "8154465",
                    "EW_BuildingNumber__c": "14",
                    "EW_BusinessUse__c": "No",
                    "EW_City__c": "CAMBERLEY",
                    "EW_Country__c": "ENG",
                    "EW_CoverType__c": "Property",
                    "EW_FireScore__c": 1,
                    "EW_FlatRoofPercentage__c": "Up to 25percent",
                    "EW_FloodScore__c": 1,
                    "EW_Geolocation__Latitude__s": 51.3319256,
                    "EW_Geolocation__Longitude__s": -0.6976066,
                    "EW_Geolocation__c": {
                        "latitude": 51.3319256,
                        "longitude": -0.6976066
                    },
                    "EW_GoodStateOfRepair__c": true,
                    "EW_HasASafe__c": false,
                    "EW_ListedStatus__c": "Not Listed/ Not Protected",
                    "EW_MarketValue__c": 556520,
                    "EW_MinimumSecurity__c": true,
                    "EW_NoSignOfSubsidence__c": true,
                    "EW_NotPlanningWorks__c": true,
                    "EW_NotPreviouslyFlooded__c": true,
                    "EW_NumberOfBathrooms__c": 1,
                    "EW_NumberOfBedrooms__c": 4,
                    "EW_OpenToThePublic__c": "Never",
                    "EW_PostalCode__c": "GU15 1QZ",
                    "EW_PreviousInsuranceReason__c": "Insured",
                    "EW_Quote__c": "0Q00D0000005K2zSAE",
                    "EW_RebuildConfidenceScore__c": 1,
                    "EW_RebuildCost__c": 410400,
                    "EW_RoofConstruction__c": "Tile",
                    "EW_SquareMetres__c": 171,
                    "EW_Style__c": "Detached",
                    "EW_SubsidenceScore__c": 1,
                    "EW_Tenure__c": "Freehold",
                    "EW_TheftScore__c": 2,
                    "EW_TotalArtAndCollectablesInsured__c": 10000,
                    "EW_TotalJewelleryAndWatchesInsured__c": 10000,
                    "EW_TotalPedalCyclesInsured__c": 2000,
                    "EW_TypeOfAlarm__c": "Not asked/None",
                    "EW_Type__c": "House",
                    "EW_UPRN__c": "100061543885",
                    "EW_WallConstruction__c": "Brick",
                    "EW_WaterScore__c": 9,
                    "EW_WindScore__c": 11,
                    "EW_YearBuilt__c": "1970",
                    "Id": "0QL0D00000059gJWAQ",
                    "Name": "Main residence",
                    "RecordTypeId": "0120D0000000ELzQAM"
                }
            ],
            "quoteLineItems": {
                "insuredEntity": {
                    "bankruptDeclaration": "No",
                    "convictions": "No",
                    "dateOfBirth": "1988-11-28T01:00:00.000Z",
                    "declined": "No",
                    "domiciled": "Yes",
                    "hasJointPolicyHolder": "no",
                    "jointInsuredSanctionsResult": "Passed",
                    "occupation": "Development Manager",
                    "occupationGroup": 10,
                    "phAge": 30.25,
                    "primaryInsuredSanctionsResult": "Passed",
                    "terms": "No",
                    "title": "Mr."
                },
                "insuredProperty": {
                    "UPRN": 100061543885,
                    "address": "14, BORROWDALE GARDENS, CAMBERLEY, GU15 1QZ",
                    "ageRange": 49,
                    "ambientalUniqueId": 8154465,
                    "buildingSI": 410400,
                    "burglarAlarm": "Not asked/None",
                    "businessUses": "No",
                    "claimsUnderwritingTotalScore": 0,
                    "conservationArea": "Not Listed/ Not Protected",
                    "constructionType": "Brick",
                    "courseOfConstruction": "Not more than £75k of renovation work",
                    "damageClaimScore": 0,
                    "daysUnoccupied": "Unoccupied Less than 60 days",
                    "escapeOfWaterZone": "9",
                    "excess": 500,
                    "fireSmokeAlarm": "Battery Operated Detector or More",
                    "fireZone": "1",
                    "floodZone": 1,
                    "floorInteraction": "Other Homes",
                    "goodStateOfRepair": "Yes",
                    "jewelleryAndWatchesLimitBroken": false,
                    "listingCategory": "Not Listed/ Not Protected",
                    "marketValue": 556520,
                    "notPreviouslyFlooded": "yes",
                    "numberOfBathrooms": 1,
                    "numberOfBedrooms": 4,
                    "occupancyType": "Main residence",
                    "openToPublic": "Never",
                    "otherClaimScore": 0,
                    "postcode": "GU15 1QZ",
                    "previousInsurance": "yes",
                    "priorInsurance": "You have insurance in place at the risk address and have done so for more than one year",
                    "propertyStyle": "Detached",
                    "propertyType": "House",
                    "propertyValue": 556520,
                    "rebuildConfidenceScore": 48973.8,
                    "rentalValue": 1816,
                    "roofConstruction": "Tile",
                    "roofShape": "Up to 25percent",
                    "signsOfSubsidence": "yes",
                    "squareMetres": 171,
                    "subsidenceZone": "1",
                    "tenure": "Freehold",
                    "theftClaimScore": 0,
                    "theftZone": "2",
                    "totalContentSpecifiedItems": 0,
                    "typeOfResidence": "Main residence",
                    "waterClaimScore": 0,
                    "windstormZone": "11",
                    "yearBuilt": 1970
                }
            }
        }
    },
    "quoteCreatedDate": "28-02-2019",
    "quoteExpirationDate": "30-03-2019",
    "quoteId": "0Q00D0000005K2zSAE",
    "sfdcIFrameHost": "web",
    "sfdcIFrameOrigin": "https://azuruw--ew--vlocity-ins.cs106.visual.force.com",
    "timeStamp": "2019-03-01T13:38:27.993Z",
    "userCurrencyCode": "GBP",
    "userId": "0050D000000GSgLQAW",
    "userName": "rlloyd@azuruw.com.ew",
    "userProfile": "System Administrator",
    "userTimeZone": 0,
    "vlcPersistentComponent": {
    },
    "vlcTimeTracking": {
        "BindQuote": 3419,
        "OmniScriptSessionToken": "afdeece8-953a-4b9c-b582-c0854d290d52",
        "TEST - Set Value": 11,
        "checkForDuplication": 319,
        "extractBrokerDetails": 665,
        "extractQuoteDetails": 568,
        "getFullJSONData": 327,
        "setFormDefaultValues": 43,
        "setMainSwitch": 171
    }
}