﻿Abattoir,1
Accountancy,1
Acoustic Engineer,1
Actuarial Consultancy,1
Acupuncture,1
Addressing/Circularising Services,1
Adjuster,1
Advertising,1
Aerial Erector,1
Aerial Manufacturer,1
Aerial Photography,1
Aerial Supplier,1
Aerial Survey,1
Aerospace Industry,1
Agricultural Engineer,1
Agricultural Produce Distribution,1
Agriculture,1
Air Transport,1
Aircraft Construction,1
Aircraft Maintenance,1
Aircraft Repair,1
Airline,1
Airport Services,1
Airports,1
Ambulance Authority,1
Amusement,20
Amusement Arcade,20
Amusement Machine Supplier,20
Animal Breeding,1
Animal Feeds,1
Animal Rescue Home,1
Animal Training,1
Animals,1
Anthropology,1
Antique Restoration,14
Antiques,14
Arable Farming,1
Arbitration,1
Architecture,1
Armed Forces - Foreign,1
Armed Forces - Republic Of Ireland,1
Armed Forces - UK,1
Armed Forces - USA,1
Art,1
Art Gallery,1
Art Restoration,14
Art Valuation,1
Arts,1
Asphalt Contractor,20
Asphalt/Road Contractors,20
Assessor,1
Astrology,1
Astronomy,1
Auction House,1
Auctioneer,1
Auditors,1
Baby Food Manufacturer,1
Baby Goods Manufacturer,1
Baby Goods Shop,1
Bagpipe Maker,1
Baker,1
Bakers Supplies,1
Bakery,1
Banking,1
Barrel Makers,1
Bathroom Design,1
Bathroom Installation,1
Beautician,1
Beauty Salon,1
Betting Shop,20
Bingo Hall,20
Blacksmith,1
Blast Cleaning,1
Blind Installation,1
Blind Manufacturer,1
Boarding Kennel,1
Boat Builder,1
Boat Hirer,1
Bookmaker - Off Course,20
Bookmaker - On Course,20
Bookmaker/Betting Shop - Off Course,20
Bookmaker/Betting shop - On Course,20
Booksellers,1
Bottled Gas Supplier,1
Brass Foundry,1
Breakdown Recovery,1
Breeding,1
Brewery,1
Brewery Transport,1
Brick Manufacturer,1
Brick Supplier,1
Broadcasting,1
Builder,1
Builders Merchant,14
Building Society,1
Building Trade,14
Bulk Earth/Rubble Removers,1
Business Consultancy,1
Business Systems,1
Business Training,1
Butchers,1
Cabinet Maker,1
Cable Manufacturer,1
Cable TV Installation,14
Cafe,14
Camp Site,14
Candle Dealer,1
Car Accessory Dealer,14
Car Delivery,1
Car Hire,1
Car Park Operator,1
Car Sales,14
Car Valeting,14
Caravan Hirer,14
Caravan Sales,14
Caravan Service,14
Caravan Site,14
Caravan/Camp Site,14
Carpentry,1
Carpet Fitting,1
Cartography,1
Cash & Carry,20
Casino,20
Cask Maker,1
Catalogue Co-ordination,1
Catalogue Distribution,1
Catering - Licensed,1
Catering - Unlicensed,1
Cattery,1
Cement Suppliers,14
Cement/Concrete Suppliers,14
Central Heating Services,1
Charity,1
Chartering,1
Chemical Industry,1
Chemical Manufacturer,1
Chemist Shop,1
Child Minding,1
Childrens Panel,1
Chimney Sweeping,1
Chiropody,1
Choreography,1
Cinema,1
Circus,20
Citizens Advice Bureau,1
Civil Aviation,1
Civil Engineering,1
Civil Service,1
Civil/Consultant Engineering,1
Cleaning Services,1
Clerical Services,1
Clock & Watch Manufacturer,14
Clock & Watch Repair,14
Clothing Manufacturer,1
Clothing Trade,1
Club,20
Coach Hirer,1
Coachbuilder,1
Coal Industry,1
Coal Merchant,1
Coffee Shop,1
Coin & Medal Dealer,14
Cold Store,1
Commissioners For Oaths,1
Commodities,14
Commodity Brokerage,14
Communications,1
Community Service,1
Computer Aided Design,1
Computer Distribution,1
Computer Sales,1
Computer Services,1
Computer Supplies,1
Computers,1
Computers - Hardware,1
Computers - Software,1
Concrete Supplier,1
Confectionery Manufacturer,1
Construction Industry,1
Consulting Engineering,1
Contact Lens Manufacturer,1
Container Hire,1
Conveyancers,1
Corporate Hospitality,1
Cosmetics,1
Costumiers,1
Cotton Mill,1
Courier Services,1
Couriers/Delivery Service,1
Crane Hire,1
Crane Manufacturer,1
Crop Spraying,1
Customs and Excise,1
Cutlery Craftsmen,1
Cycle Hire,1
Cycle Shop,1
Dairy,1
Dairy Farming,1
Data Processing,1
Data Protection,1
Debt Collection,1
Decorating,1
Delicatessen,1
Delivery Service,1
Demolition,14
Dentistry,1
Department Store,1
Design Consultancy,1
Desktop Publishing Services,1
Despatch Services,1
Diplomatic Service,1
Discotheque,20
Distillers,1
Distribution,1
DIY Store,1
Dock Authority,1
Domestic Appliance Maintenance,1
Domestic Service,1
Double Glazing,14
Drapery,1
Driving Authority,1
Driving Instruction,1
Driving School,1
Dry Cleaning,1
Earth Removers,1
Ecology,1
Education,1
Education - Private,1
Education - State,1
Effluent Disposal,1
Egg Merchants,1
Electrical Appliance Manufacturer,1
Electrical Contractors,1
Electrical Goods Consultancy,1
Electricity Industry,1
Electronics,1
Embossers,1
Emergency Services,1
Employment Agency,1
Energy Consultancy,1
Engineering,1
Engineering Consultants,1
Engraving,1
Entertainment,14
Environmental Health,1
Estate Agency,1
Excavation,1
Exhibition Centre,1
Exhibition Organisers,1
Export,14
Export Agency,14
Exporter,14
Fabric Manufacturer,1
Fabrications,1
Fairground,20
Falconry,1
Fancy Goods,1
Fancy Goods Importer,1
Farming,1
Fashion,1
Fashion Design,1
Fashion House,1
Fast Food,14
Fencing Manufacturer,1
Ferry Service,1
Fertilizer Manufacturer,1
Fibre Glass Manufacturer,1
Filling Station,1
Film Manufacturing,1
Film Processing,1
Film Production,1
Films,1
Finance Company,1
Financial Advisors,1
Financial Services,1
Fire Protection,1
Fireplace Installer,1
Fireplace Manufacturer,1
Fish & Chip Shop,14
Fish Farm,1
Fish Merchants,1
Fishing,1
Fishmonger,1
Florists,1
Flying School,1
Food Exporter,1
Food Importer,1
Food Manufacturer,1
Food Production,1
Food Store,1
Football Pools,20
Forestry,1
Fostering/Adoption Agency,1
Foundry,1
Freezer Centre,1
Freight,1
Freight Agents,1
Freight Forwarders,1
French Polishing,1
Friendly Society,1
Frozen Food Distribution,1
Fuel Distribution,1
Fuel Merchant,1
Funeral Director,1
Fur Trade,20
Furniture,1
Furniture Manufacture,1
Furniture Remover,1
Furniture Repair,1
Furniture Sales,1
Furniture Store,1
Furniture Storer,1
Furriers,1
Gambling,20
Game Breeders,1
Garage,20
Garden Centre,1
Gardening,1
Gas - Offshore,1
Gas Exploration,1
Gas Industry,1
Gas/Oil Exploration,1
Genealogy,1
General Dealer,1
General Store,1
Gift Shop,1
Glass Manufacture,1
Glaziers,1
Golf Club,1
Government - Foreign,1
Government - Republic Of Ireland,1
Government - UK,1
Government - UK Central,1
Gown Mantle or Fur Trade,1
Gown Trade,1
Grain Merchants,1
Grain Mill,1
Graphic Design,1
Graphology,1
Greengrocer,1
Greeting Card Manufacturer,1
Greeting Card Sales,1
Greyhound Racing,20
Greyhounds,1
Grit Blasters,14
Grocer,1
Ground Maintenance,1
Guest House,14
Guest House - Licensed,14
Guest House - Unlicensed,14
Hairdressing,1
Harbour Authority,1
Harbour Board,1
Hardware Manufacturer,1
Hardware Retailer,1
Haulage Contractors,1
Health Authority,1
Health Care - NHS,1
Health Care - Private,1
Health Centre,1
Health Club,1
Health Products Distribution,1
Heating Consultant,1
Heating Services,1
Hire Purchase,1
HM Forces,1
Hobby Shop,1
Holiday Accommodation,1
Holiday Camp,14
Holiday Centre,14
Home Help Services,1
Honey Producer,1
Horses,1
Horticulture,1
Hospital,1
Hotel - Licensed,1
Hotel - Unlicensed,1
House Builders,1
Housing Association,1
Housing Developers,1
Hypermarket,1
Ice Cream,1
Ice Cream Manufacturer,1
Ice Cream Shop,1
Ice Merchant,1
Ice Rink,1
Import,14
Import/Export,14
Importers,14
Industrial Building Manufacturer,1
Industrial Relations,1
Information Technology,1
Inland Revenue,1
Inn,14
Inspection Services,1
Instant Print Services,1
Insulation Engineers,1
Insurance,1
Insurance Advisor,1
Insurance Broker,1
Insurance Company,1
Insurance Consultant,1
Interior Design,1
Investment,1
Iron Foundry,1
Ironing Services,1
Ironmonger,1
Jam & Preserve Manufacturer,1
Jewellers,14
Jewellery,14
Jewellery Manufacturer,14
Joinery,1
Keep Fit,1
Kennels,1
Kitchen Equipment Manufacturer,1
Kitchen Manufacturer,1
Kitchen Planners,1
Knitwear Manufacturer,1
Laboratory,1
Ladder Manufacturer,1
Land Clearance,14
Land Draining,1
Landscaping,1
Lathe Manufacturer,1
Launderette,14
Laundry,1
Law and Order,1
Lawnmowers & Garden Machinery,1
Lawyers,1
Leasing Company,1
Legal,1
Legal System,1
Leisure Centre,14
Lens Manufacturer,1
Library,1
Licensed Premises,14
Lift Installers,1
Lift Maintenance,1
Lighting Installers,1
Linen Hire,1
Livery Stables,1
Livestock Carriers,1
Livestock Farming,1
Local Government,1
Local Government Authority,1
Local Newspaper,1
Locksmiths,1
Loft Insulation,1
Log And Firewood,1
Loss Adjusting,1
LPG Suppliers,1
Machine Tool Supplier,1
Machinery Dealers,1
Mail Order,1
Mail Order Supplier,1
Maintenance Services,1
Management Consultancy,1
Management Training,1
Mantle Trade,1
Manufacturing,1
Manufacturing Chemist,1
Marina,1
Market Garden,1
Market Gardeners,1
Market Research,1
Market Trading,14
Marketing,1
Marriage Guidance,1
Material Manufacturer,1
Mattress Manufacturer,1
Meat Market,14
Meat Products,1
Mechanical Handling,1
Medical research,1
Medical Suppliers,1
Merchant Navy,1
Metal Founders,14
Metal Treatment,14
Microfilm Services,1
Milk Delivery,1
Mining,1
Mobile Food,14
Mobile Shop,14
Model Manufacturer,1
Moneylenders,14
Monumental Masons,1
Motor Factor/Parts,14
Motor Manufacture,1
Motor Organisation,14
Motor Trade,14
Motorcar Racing,14
Motorcycle Racing,14
Motorcycle Trade,14
Motoring Organisation,14
Museums,1
Music Publisher,1
Music Retailer,1
Music School,1
Musical Instrument Manufacturer,1
National Newspaper,14
National Trust,1
National Trust For Scotland,1
Newsagents,14
Newspaper Wholesaler,14
Night Club,20
Noise Control,1
Not Applicable,14
Not In Employment,14
Notaries,1
Nuclear Energy,1
Nursery,1
Nursery School,1
Nursing Home,1
Oceanographic Survey,1
Off Licence,14
Off Licence Store,14
Office Equipment Supplier,1
Office Fitters,1
Office Services,1
Oil - Offshore,1
Oil Company,1
Oil Exploration,1
Oil Terminal Operator,1
Opinion Polls,1
Optical Services,1
Optician,1
Optometrist,1
Organ Building,1
Other-Not Significant For Underwriting,14
Outdoor Pursuits,1
Overall Hire & Maintenance,14
Packers And Storers,1
Paint Manufacturer,1
Paint Spraying,14
Painter And Decorator,14
Painting,14
Painting Contractor,14
Panel Beating,14
Paper Manufacture,1
Paperbag And Sack Manufacturer,1
Parcel Delivery,1
Passenger Transport,1
Patent Office,1
Pawnbroker,20
Performing Arts,1
Personnel Consultancy,1
Pest And Vermin Control,1
Pet Services,1
Pet Shop,1
Petrochemical Industry,1
Petrol Pump Maintenance,1
Petrol Station,14
Pharmaceutical Supplier,1
Pharmacy,1
Photo Engraving,1
Photo Processing And Printing,1
Photographic Equipment Repairs,1
Photography,1
Physiotherapy,1
Piano Sales And Repairs,1
Piano Tuning,1
Picture Framing,1
Pig Farming,1
Pipe Cleaning,1
Pizza Delivery,14
Planning Consultancy,1
Plant Hire,1
Plant Manufacturer,1
Plant Sales,1
Plastic Sheeting Manufacturer,1
Plastics Manufacture,1
Playground Equipment Manufacturer,1
Plumbers Merchant,1
Plumbing,1
Plumbing & Heating,1
Political Consultancy,1
Political Party,1
Pollution Control,1
Pool Table Manufacturer,1
Pool Table Repairer,14
Pool Table Sales,14
Port Authority,1
Post Office,1
Post Office Services,1
Potato Merchant,1
Pottery,1
Poultry Farm,1
Poultry Farming,1
Pre-Stressed Concrete Manufacturer,1
Presentation Materials Supplier,1
Press Cutting Agency,1
Pressure Cleaning,1
Print Type Services,1
Printer,1
Printing,1
Printing Engineering Services,1
Prison Service,1
Private / Public Hire,1
Private Hire,1
Private Investigation,1
Private School,1
Process Engraving,1
Produce Importers,1
Project Management,1
Promotional Consultancy,1
Property Consultants,1
Property Developers,1
Property Letting,1
Property Owner,1
Property Services,1
Protective Clothing Manufacturer,1
Protective Clothing Supplier,1
Psychiatry,1
Psychology,1
Psychotherapy,1
Public Address System Supplier,1
Public Hire,1
Public Hirer,1
Public House,14
Public Relation Consultancy,1
Public School,1
Public Transport,1
Publishing,1
Publishing - Local Press,1
Publishing - National Press,1
Quality Assurance,1
Quantity Surveyors,1
Quarry,1
Quarrying,1
Race Course,14
Racehorses,14
Racing Or Rallies,14
Racing Stable,1
Radiator Repairs,1
Radiator Sales,1
Radiography,1
Rag Merchants,1
Railway,1
Rating And Valuation,1
Record Company,1
Record Shop,1
Recording Services,1
Recovery Services,1
Recruitment Agency,1
Recycling,14
Refrigeration,1
Refuse Collection,14
Reinforced Concrete Manufacturer,1
Religion,1
Removal Contractors,1
Remover And Storer,1
Rescue Services,1
Residential Home,1
Restaurant,1
Restaurant - Licensed,1
Restaurant - Unlicensed,1
Retailer - Mobile,1
Retailing,1
Riding School,1
Ring Sports,1
River Authority,1
Road Haulage,1
Road Repair,14
Road Surfacing,14
Robotics Manufacturer,1
Roller Shutter Manufacturer,1
Roofing Services,1
Rope Merchant,1
Roughcasters,1
RSPCA,1
Rubbish Disposal,14
Rubble Removers,14
Rustproofing Services,1
Saddlers And Harness Makers,1
Safe Installation And Removal,1
Safe Manufacturer,1
Safety Consultancy,1
Safety Equipment Supplier,1
Sail Makers And Repairers,1
Sailing Equipment Supplier,1
Salvage,14
Sample Distribution,1
Sample Distributors,1
Sand And Gravel Merchants,1
Sand Blasters,1
Sand/Gravel,1
Satellite TV And Equipment Suppliers,1
Satellite TV Installers,14
Saw Sales And Repairs,1
Sawmill,1
Scaffolding Erection,14
Scaffolding Hire,14
School,1
School For Performing Arts,1
Scientific Research,1
Scrap Disposal,14
Scrap Metal Merchants,14
Scrap Waste And Effluent Disposal,14
Screen Printing,1
Screenwriting,1
Sculptors,1
Secondhand Dealers,14
Secretarial Services,1
Secretarial Training,1
Security Equipment,1
Security Services,1
Seedsmen,1
Self Catering Accommodation,1
Self Drive Hire,1
Sharpening Services,1
Sheet Metal Work,1
Sheriff Officers,1
Ship Building And Repair,1
Ship Chandlery,1
Ship Painting,1
Shipbroking,1
Shipping And Forwarding Agency,1
Shipping Company,1
Shipyard,1
Shoe Manufacturers,1
Shoe Repair,1
Shoe Shop,1
Shop Fitting,1
Shopping Centre,1
Shot Blasters,1
Shutter Manufacturer,1
Sightseeing Tours Operator,1
Sign Making,1
Signwriting,1
Site Clearance,1
Site Investigation,1
Skating Rink,1
Ski Centre,1
Skip Hire,14
Skip Maintenance,14
Slaughterhouse,1
Slimming Distribution,1
Snack Bar,1
Snooker Club,14
Social Club,14
Social Services,1
Soft Drinks Manufacturer,1
Soft Drinks Supplier,1
Soil Engineers,1
Solar Panel Manufacturer,1
Solar Panel Supplier,1
Solicitors,1
Sound Proofing,1
Spinners,1
Sports,14
Sports - Professional,14
Sports Centre,1
Sports Club,14
Sports Goods Shop,14
Sports Ground,1
Sports Promotion,14
Sportswear Manufacturer,1
Sportswear Supplier,1
Stables,1
Stamp Dealers,14
Stamp Manufacturer,1
Stamp Supplier Stationers,1
Stationers,1
Steel Industry,1
Steel Stockholders,1
Sterilizing Services,1
Stockbroking,1
Stonemasonry,1
Street Trading,20
Street/Market Trading,20
Structural Engineering,1
Studio,1
Supermarket,1
Surveying,1
Surveyors,1
Swimming Pool,1
Tailor And Outfitter,1
Take Away Food Supplier,14
Tank Cleaning Services,1
Tarpaulin Manufacturer,14
Tarpaulin Suppliers,14
Tax Consultancy,1
Taxi Service,14
Taxidermy,1
Tea Importer,1
Tea Merchant,1
Tea Room,1
Technical College,1
Telecommunication Equipment Suppliers,1
Telecommunications,1
Telemarketing,1
Telephone Answering Service,1
Telesales,1
Television,1
Television Hire,14
Television Production,1
Television Repairer,1
Television Sales,1
Tent And Marquee Hirer,1
Territorial Army,1
Textile Manufacturer,1
Thatching,1
Theatre,1
Theatrical Suppliers,1
Theme Park,14
Tilers,1
Timber Importers,1
Timber Merchants,1
Timber Preservation,1
Timeshare Operators,1
Tobacco Importer,1
Tobacco Manufacturer,1
Tobacconist,1
Tomato Grower,1
Tool Hire,14
Tour Operator,1
Tourist Board,1
Tourist Information,1
Towel Supplier,1
Toy And Game Manufacturer,1
Toy And Game Supplier,1
Trade Association,1
Trade Demonstration,1
Trade Union,1
Trading Estate,1
Trading Standards Enforcement,1
Trailer Manufacturer,1
Trailer Supplier,14
Translators,1
Transport - PSV,1
Transport - Road,1
Travel And Tourism,1
Trinity House,1
Trust Company,1
Tupperware,1
Turf Accountants,1
TV And Radio,1
TV And Video Rental,1
Typewriter Services,1
Tyre Dealer,14
Tyre Manufacturer,1
Tyre Supplier And Fitting,14
Undertaker,1
Underwater Inspection,1
Underwriting Agency,1
Unemployed,14
Uniform Manufacturer,1
University,1
Upholstery,1
Vacuum Cleaner Repairs And Service,14
Valuation,1
Van And Lorry Hirer,1
Vehicle Hire - Self Drive,1
Vehicle Repairer,14
Vending Machine Manufacturer,14
Vending Machine Supplier,14
Vending Services,14
Veneering,1
Venetian Blind Manufacturer,1
Venetian Blind Supplier,1
Ventilation,1
Vermin Control,1
Veterinary,1
Veterinary Supplies,1
Veterinary Surgeons,1
Video Hire,14
Video Services,14
Vineyard,1
Voluntary Organisation,14
Wallpaper Manufacturer/Supplier,1
Washing Machine Repairs And Servicing,1
Waste Disposal,14
Watchmaker,14
Water Industry,1
Water Sports Centre,1
Waterproof Cover Manufacturer,1
Waterproof Cover Supplier,1
Weather Forecasting,1
Weather Services,1
Weights And Measures,1
Welding,1
Welfare Organisation,1
Whisky Blenders,1
Wholesaler,1
Window Cleaning,14
Wine And Spirit Merchants,1
Wine Bar,1
Wine Makers,1
Wire Rope Manufacturer,1
Wood Carving,1
Wood Preservation,1
Woodshavings Contractor,1
Woodworking,1
Woodworm And Dry Rot Control,1
Woollen Goods Manufacturer,1
Woollen Goods Shop,1
Woollen Mill,1
Wrought Iron Manufacturer,1
Yacht Building,1
Yacht Chandlery,1
Yacht Service And Management,1
Yarn Spinning,1
Youth Hostel Organisation,1
Youth Organisation,1
Zoo Operator,14