{
    "userInputs": {
        "ArtSpecifiedInput": "Number",
        "CyclesSpecifiedInput": "Number",
        "JewellerySpecifiedInput": "Number",
        "accidentalDamageBuildingsPremium": "Number",
        "accidentalDamageContentsPremium": "Number",
        "accidentalLossBuildingsPremium": "Number",
        "accidentalLossContentsPremium": "Number",
        "artPremium": "Number",
        "artValue": "Number",
        "azurPercentCommission": "Number",
        "brokerPercentCommission": "Number",
        "buildingsLimitTotalInput": "Number",
        "calculateBuildingsPremium": "Text",
        "cyclesPremium": "Number",
        "employersLiability": "Number",
        "escapeOfWaterBuildingsPremium": "Number",
        "escapeOfWaterContentsPremium": "Number",
        "fireBuildingsPremium": "Number",
        "fireContentsPremium": "Number",
        "fixedExpensePremium": "Number",
        "floodBuildingsPremium": "Number",
        "floodContentsPremium": "Number",
        "homeEmergencyCoverageLimitInput": "Number",
        "insuredEntity.age": "Number",
        "insuredEntity.bankruptDeclaration": "Boolean",
        "insuredEntity.businessType": "Text",
        "insuredEntity.businessTypeGroup": "Number",
        "insuredEntity.convictions": "Text",
        "insuredEntity.dateOfBirth": "Datetime",
        "insuredEntity.declined": "Boolean",
        "insuredEntity.firstName": "Text",
        "insuredEntity.instanceKey": "Text",
        "insuredEntity.lastName": "Text",
        "insuredEntity.mailingAddress": "Text",
        "insuredEntity.nationality": "Text",
        "insuredEntity.occupation": "Text",
        "insuredEntity.occupationGroup": "Number",
        "insuredEntity.sanctionStatus": "Number",
        "insuredEntity.terms": "Boolean",
        "insuredEntity.title": "Text",
        "insuredProperty.UPRN": "Number",
        "insuredProperty.address": "Text",
        "insuredProperty.ageRange": "Number",
        "insuredProperty.ambientalUniqueId": "Number",
        "insuredProperty.buildingSI": "Currency",
        "insuredProperty.burglarAlarm": "Boolean",
        "insuredProperty.businessUses": "Text",
        "insuredProperty.conservationArea": "Boolean",
        "insuredProperty.constructionType": "Text",
        "insuredProperty.courseOfConstruction": "Text",
        "insuredProperty.damageClaimScore": "Number",
        "insuredProperty.daysUnoccupied": "Number",
        "insuredProperty.doorLocks": "Text",
        "insuredProperty.escapeOfWaterZone": "Number",
        "insuredProperty.excess": "Currency",
        "insuredProperty.fireSmokeAlarm": "Boolean",
        "insuredProperty.fireZone": "Number",
        "insuredProperty.floodInteraction": "Text",
        "insuredProperty.floodZone": "Number",
        "insuredProperty.goodStateOfRepair": "Boolean",
        "insuredProperty.instanceKey": "Text",
        "insuredProperty.listingCategory": "Text",
        "insuredProperty.listingGrade": "Text",
        "insuredProperty.marketValue": "Currency",
        "insuredProperty.numberOfBathrooms": "Number",
        "insuredProperty.numberOfBedrooms": "Number",
        "insuredProperty.occupancyType": "Text",
        "insuredProperty.openToPublic": "Boolean",
        "insuredProperty.opsSumInsured": "Currency",
        "insuredProperty.otherClaimScore": "Number",
        "insuredProperty.overrideRebuildValue": "Number",
        "insuredProperty.postcode": "Text",
        "insuredProperty.previousInsurance": "Boolean",
        "insuredProperty.propertyStyle": "Text",
        "insuredProperty.propertyType": "Text",
        "insuredProperty.ratio": "Number",
        "insuredProperty.rebuildConfidenceScore": "Number",
        "insuredProperty.rentalValue": "Currency",
        "insuredProperty.roofConstruction": "Text",
        "insuredProperty.roofShape": "Number",
        "insuredProperty.safe": "Boolean",
        "insuredProperty.signsOfSubsidence": "Boolean",
        "insuredProperty.squareMeters": "Number",
        "insuredProperty.subsidenceZone": "Number",
        "insuredProperty.tenure": "Text",
        "insuredProperty.theftZone": "Number",
        "insuredProperty.timeBetweenQuoteAndPolicy": "Number",
        "insuredProperty.totalContentSpecifiedItems": "Currency",
        "insuredProperty.windowLocks": "Text",
        "insuredProperty.windstormZone": "Number",
        "insuredProperty.yearBuilt": "Number",
        "insuredProperty.yearsPriorInsurance": "Number",
        "iptPercent": "Percent",
        "jewelleryPremium": "Number",
        "jewelleryValue": "Number",
        "legalExpensesCoverageLimitInput": "Number",
        "pedalValue": "Number",
        "personalCyberCoverageLimitInput": "Number",
        "publicLiabilityInput": "Number",
        "publicLiabilityPremium": "Number",
        "subsidenceBuildingsPremium": "Number",
        "subsidenceContentsPremium": "Number",
        "tenantsImprovementsPremium": "Number",
        "tenantsValue": "Number",
        "theftBuildingsPremium": "Number",
        "theftContentsPremium": "Number",
        "weatherBuildingsPremium": "Number",
        "weatherContentsPremium": "Number"
    }
}