{
    "AgencyBrokerage": "012580000005gQYAAY",
    "Business_Account": "012580000005gQZAAY",
    "Business_Type": "01258000000FR74AAG",
    "Carrier": "012580000005gQaAAI",
    "ContextId": "",
    "DRId_Account": "0010D000006fosXQAQ",
    "DRId_Opportunity": "0060D0000027LxTQAU",
    "EW_Quote": "0120D00000007blQAA",
    "Group": "012580000005gQbAAI",
    "MobilePhoneAccount": "012580000005gQcAAI",
    "Nationality": "01258000000AoNRAA0",
    "Occupation": "01258000000FR75AAG",
    "PersonAccount": "01258000000cYS8AAM",
    "Pharmacy": "0120D00000007ykQAA",
    "Provider": "0120D00000007ylQAA",
    "Range1": 7,
    "StandardAccount": "012580000005gQdAAI",
    "Supplier": "01258000000FR6lAAG",
    "Title": "01258000000FR76AAG",
    "ambAPIResponse": {
        "address": "4, OLD HILL, ORPINGTON, BR6 6BN",
        "addressVersion": "GB_ABP_E56",
        "administrative_area": "BROMLEY",
        "band": "Significant",
        "bufferRadius": 15,
        "building_name": "",
        "building_number": "4",
        "changeType": "I",
        "class": "RD03",
        "code": 200,
        "combinedFloodScore": 65,
        "country": "ENG",
        "defendedCombinedFloodScore": 65,
        "defendedFluvial1000YrDepth": 0,
        "defendedFluvial100YrDepth": 0,
        "defendedFluvial250YrDepth": 0,
        "defendedFluvial500YrDepth": 0,
        "defendedFluvial75YrDepth": 0,
        "defendedFluvialFloodScore": 0,
        "defendedFluvil30YrDepth": 0,
        "defendedTidal1000YrDepth": 0,
        "defendedTidal100YrDepth": 0,
        "defendedTidal250YrDepth": 0,
        "defendedTidal30YrDepth": 0,
        "defendedTidal500YrDepth": 0,
        "defendedTidal75YrDepth": 0,
        "defendedTidalFloodScore": 0,
        "department_name": "",
        "dependent_locality": "",
        "distanceToNearestFluvialFloodplain": "5m",
        "distanceToNearestPluvialFloodplain": "Within",
        "distanceToNearestTidalFloodplain": "> 250m",
        "floodDefences": 0,
        "floodRatingScore": 13,
        "fluvial1000YrDepth": 0,
        "fluvial100YrDepth": 0,
        "fluvial250YrDepth": 0,
        "fluvial30YrDepth": 0,
        "fluvial500YrDepth": 0,
        "fluvial75YrDepth": 0,
        "fluvialFloodScore": 0,
        "groundWaterRisk": 1,
        "id": 24702859,
        "latitude": 51.3498791,
        "locality": "",
        "longitude": 0.088024,
        "message": "OK",
        "modelledOnLidar": 1,
        "organisation": "",
        "organisation_name": "",
        "pao_end_number": "",
        "pao_end_suffix": "",
        "pao_start_number": "4",
        "pao_start_suffix": "",
        "pao_text": "",
        "pluvial1000YrDepth": 1.0991,
        "pluvial100YrDepth": 0.45877,
        "pluvial250YrDepth": 0.67337,
        "pluvial30YrDepth": 0.27904,
        "pluvial500YrDepth": 0.8863,
        "pluvial75YrDepth": 0.41118,
        "pluvialFloodScore": 65,
        "postcodeLocator": "BR6 6BN",
        "sao_end_number": "",
        "sao_end_suffix": "",
        "sao_start_number": "",
        "sao_start_suffix": "",
        "sao_text": "",
        "street_description": "OLD HILL",
        "sub_building_name": "",
        "thoroughfare": "OLD HILL",
        "tidal1000YrDepth": 0,
        "tidal100YrDepth": 0,
        "tidal250YrDepth": 0,
        "tidal30YrDepth": 0,
        "tidal500YrDepth": 0,
        "tidal75YrDepth": 0,
        "tidalFloodScore": 0,
        "town_name": "ORPINGTON",
        "uprn": 100020469214,
        "xCoordinate": 545503,
        "yCoordinate": 163269
    },
    "azurPercentageCommission": 0.12,
    "basePremium": 1,
    "blockQuote": false,
    "brokerAccountName": "Llyr Jones",
    "brokerCampaign": "Base Campaign",
    "brokerPercentageCommission": "0.24",
    "buildingsLimitTotal": 1000000,
    "burglarAlarm": "Not asked/None",
    "businessUse": "No",
    "calculateBuildingsPremium": "true",
    "calculatedPremiums": {
        "accidentalDamageBuildingsPremium": 2.94315,
        "accidentalDamageContentsPremium": 10.9,
        "accidentalLossBuildingsPremium": 2.99,
        "accidentalLossContentsPremium": 15.57,
        "artPremium": 15.48249,
        "cyclesPremium": 38.95,
        "escapeOfWaterBuildingsPremium": 55.90837,
        "escapeOfWaterContentsPremium": 6.25304,
        "fireBuildingsPremium": 17.91015,
        "fireContentsPremium": 9.34977,
        "fixedExpensePremium": 22.5,
        "floodBuildingsPremium": 31.99411,
        "floodContentsPremium": 36.57781,
        "jewelleryPremium": 61.27,
        "publicLiabilityPremium": 2.03,
        "ratio": 1.75264,
        "subsidenceBuildingsPremium": 5.14329,
        "subsidenceContentsPremium": 0.96593,
        "tenantsImprovementsPremium": 0,
        "theftBuildingsPremium": 1.36785,
        "theftContentsPremium": 20.59,
        "weatherBuildingsPremium": 35.73031,
        "weatherContentsPremium": 1.21
    },
    "claimScoreAPIResponse": {
        "claims": {
        },
        "sumDeclineRule": 0,
        "totalScoresClaims": {
            "AccidentalScore": 0,
            "OtherScore": 0,
            "TheftScore": 0,
            "WaterDamageScore": 0
        }
    },
    "claimsUnderwritingTotalScore": 0,
    "clientDetails": {
        "StartDateBlock": {
            "effectiveFromStartDate": "2018-11-21T00:00:00.000Z",
            "effectiveFromStartDateValidationFormula": true,
            "startDateTextValidation": true
        },
        "brokerConfirmation": "yes",
        "businessSelectedValidation": false,
        "hasJointPolicyHolder": "no",
        "jointBusinessSelectedValidation": false,
        "jointInsAge": null,
        "jointInsBirthdate": null,
        "jointInsBirthdateText": null,
        "jointInsBusinessType-Block": null,
        "jointInsFirstName": null,
        "jointInsLastName": null,
        "jointInsNationality-Block": null,
        "jointInsOccupation-Block": null,
        "jointInsSalutation": null,
        "jointInsYearOfBirth": "",
        "jointNationalitySelectedValidation": false,
        "jointOccupationSelectedValidation": false,
        "msgDeclarationsFalse": false,
        "msgInsuredAge": false,
        "nationalitySelectedValidation": false,
        "occupationSelectedValidation": false,
        "primaryInsuredSanctionsResult": "Passed",
        "primeInsAge": 48,
        "primeInsBirthdate": "1970-07-20T00:00:00.000Z",
        "primeInsBirthdateText": "20/07/1970",
        "primeInsBusinessType-Block": null,
        "primeInsFirstName": "Test",
        "primeInsHasLivePolicy": false,
        "primeInsHasLiveQuote": false,
        "primeInsIsDuplicate": false,
        "primeInsLastName": "tester263565",
        "primeInsNationality-Block": {
            "nationalityTypeaheadId": null,
            "primeInsNationality": null
        },
        "primeInsOccupation-Block": {
            "primeInsOccupation": "Housing Developers",
            "typeaheadId": "aD60D00000001ISSAY",
            "typeaheadScore": 1
        },
        "primeInsSalutation": "Mr.",
        "primeInsuredYearOfBirth": "1970",
        "radioBankrupt": "No",
        "radioOffence": "No",
        "radioPreviousInsuranceRefused": "No",
        "radioSpecialTerms": "No",
        "sanctionsCheckDateTime": "2018-10-22T15:43:25.000Z"
    },
    "closeDate": "2018-10-21T23:00:00.000Z",
    "constructionWork": "Not more than £75k of renovation work",
    "contentsLimitTotal": "Unlimited",
    "damageClaimScore": 0,
    "daysUnoccupied": "Unoccupied Less than 60 days",
    "defaultExcess": 500,
    "employersLiability": 5000000,
    "error": "OK",
    "excess": 500,
    "fireSmokeAlarm": "Battery Operated Detector or More",
    "flatRoofPercentage": "Up to 25%",
    "floorInteraction": "Other Homes",
    "homeEmergencyCoverageLimit": 1000,
    "homeEmergencyPremium": 8.2,
    "id": "a3f0D0000008OnYQAU",
    "insurancePremiumTaxRate": "Standard rate IPT",
    "iptId": "aFY0D0000008OIAWA2",
    "iptPercent": 0.12,
    "isdtp": "p1",
    "jointInsAge": 0,
    "jointPolicyCategory": "Not a joint policy",
    "layout": "lightning",
    "legalExpenses": 30,
    "legalExpensesCoverageLimit": 100000,
    "listedStatus": "Not Listed/ Not Protected",
    "objectType": "Picklist_Section__c",
    "occupancyType": "Main residence",
    "openToPublic": "Never",
    "opptyName": "Llyr Jones - EW",
    "otherClaimScore": 0,
    "outraAPIResponse": {
        "bathrooms": 1,
        "bathrooms$confidence": 0.715181,
        "bathrooms$is_modelled": true,
        "bedrooms": 3,
        "bedrooms$confidence": 0.368652,
        "bedrooms$is_modelled": true,
        "building_name": null,
        "building_number": "4",
        "code": 200,
        "dependent_locality": null,
        "dependent_thoroughfare": null,
        "double_dependent_locality": null,
        "floor_area": 121,
        "floor_area$confidence": 0.502698,
        "floor_area$is_modelled": true,
        "ht_property_type": "Semi-Detached",
        "ht_property_type$confidence": 0.590583,
        "ht_property_type$is_modelled": true,
        "id": 188555592,
        "last_rent": null,
        "last_sale_date": null,
        "listed": false,
        "listed$confidence": null,
        "listed$grade": null,
        "message": "OK",
        "most_recent_new_home_approval": null,
        "most_recent_planning_app_date": null,
        "most_recent_planning_dev_type": null,
        "most_recent_planning_stage": null,
        "most_recent_planning_start_date": null,
        "planning_applications_past_5_years": null,
        "planning_approvals_past_5_years": null,
        "postcode": "BR6 6BN",
        "property_rental_value": 2047.46,
        "property_rental_value$confidence": 0.83348,
        "property_rental_value$is_modelled": false,
        "property_style": "Semi-Detached",
        "property_style$confidence": 0.495822,
        "property_style$is_modelled": true,
        "property_type": "House",
        "property_type$confidence": 0.595658,
        "property_type$is_modelled": true,
        "property_value": 530174,
        "property_value$confidence": 0.86948,
        "property_value$is_modelled": false,
        "reinstatement_cost_final_adjusted_azur": 297925,
        "reinstatement_cost_higher_rate_azur": 302500,
        "reinstatement_cost_higher_rate_azur$confidence": 0.502698,
        "reinstatement_cost_ht": null,
        "reinstatement_cost_notional": 241578,
        "reinstatement_cost_notional$confidence": 0.283292,
        "reinstatement_cost_outra": 248271,
        "reinstatement_cost_outra$confidence": 0.3863,
        "rent_anniversary": null,
        "sale_anniversary": null,
        "sub_building_name": null,
        "tenure": "Freehold",
        "tenure$confidence": 0.980721,
        "tenure$is_modelled": true,
        "thoroughfare": "OLD HILL",
        "uprn": "100020469214",
        "year_built": 1935,
        "year_built$confidence": 0.96185,
        "year_built$is_modelled": true
    },
    "paymentMethod": "Broker Collection",
    "personalCyberCoverageLimit": "50000",
    "personalCyberPremium": 24.21,
    "policyAge": 0,
    "previousInsurance": "You have insurance in place at the risk address and have done so for more than one year",
    "priAccountId": "0010D000006fosXQAQ",
    "primeInsAge": 0,
    "primeInsAgeDecimal": 48.26,
    "propertyAge": 83,
    "propertyDetails": {
        "artSpec": 0,
        "blockCoverage": {
            "alarmCheck": null,
            "rangeArt": 10000,
            "rangeJewelleryWatches": 10000,
            "rangePedalCycles": 2000,
            "rangeTenantsImprovements": null,
            "safeCheck": null
        },
        "declineWarningMessage": false,
        "editBlockClaimsHistory": null,
        "editBlockSpecifiedItems": null,
        "formulaListedStatus": "Not Listed/Not protected",
        "jewellerySpec": 0,
        "multiDeclarationsConfirmationOne": "yes",
        "pedalSpec": 0,
        "percentArtSpecified": 0,
        "percentCyclesSpecified": 0,
        "percentJewellerySpecified": 0,
        "propAmbPostalCode-Block": {
            "propAmbPostalCode": "4, OLD HILL, ORPINGTON, BR6 6BN",
            "uprn": "100020469214"
        },
        "radioBusinessUse": null,
        "radioClaimsHistory": "no",
        "radioGoodStateOfRepair": "Yes",
        "radioListedStatus": null,
        "radioMinimumConstructionType": "yes",
        "radioMinimumSecurity": "yes",
        "radioNoSignsOfSubsidence": "yes",
        "radioNotBusinessUseOrOpenToPublic": "yes",
        "radioNotListedDeclaration": "yes",
        "radioNotPlanningWorks": "yes",
        "radioNotPreviouslyFlooded": "yes",
        "radioOpenToPublic": null,
        "radioPolicyType": "Building & Contents",
        "radioPreviousInsurance": "yes",
        "radioPreviousInsuranceReason": null,
        "radioSpecifiedItems": "no",
        "selectFlatRoofPercentage": null,
        "selectRoofConstruction": null,
        "selectWallConstruction": null,
        "sumInsuredBuildings": 1000000,
        "sumInsuredTenantsImprovements": 0
    },
    "propertyDetailsUrl": "https://azur-integrations.herokuapp.com/outraUPRN",
    "publicLiability": 10000000,
    "quoteDateOfIssue": "2018-10-21T23:00:00.000Z",
    "randomNumber": 2,
    "rangeTenantsImprovements": 0,
    "rewardPoints": 0,
    "roofConstruction": "Tile",
    "sfdcIFrameHost": "web",
    "sfdcIFrameOrigin": "https://azuruw--ew--vlocity-ins.cs106.visual.force.com",
    "subsAPIResponse": {
        "PC": "BR6 6BN",
        "PCNOSPACES": "BR66BN",
        "Subs_Class": "0",
        "Subs_Total": "0",
        "area": "Bromley",
        "code": 200,
        "crime_arson": "2",
        "crime_dom_theft": "3",
        "district": "Bromley",
        "easting_x": "545414",
        "easting_y": "545414",
        "latitude": "51.35",
        "longitude": "0.08",
        "message": "OK",
        "northing_x": "163336",
        "northing_y": "163336",
        "pc_area": "BR",
        "subsgroup": "2",
        "theft_score": "10",
        "ward": "Darwin",
        "water_score": "13",
        "wind_score": "9",
        "x_x": "163151",
        "x_y": "158284"
    },
    "theftClaimScore": 0,
    "timeStamp": "2018-10-22T14:56:09.504Z",
    "totalContentsSpecified": 0,
    "typeOfResidence": "Main residence",
    "urlPrefix": "https://azuruw--ew--vlocity-ins.cs106.visual.force.com/apex",
    "userCurrencyCode": "GBP",
    "userId": "0050D000000Dqx5QAC",
    "userName": "ljones@azuruw.com.ew",
    "userProfile": "System Administrator",
    "userTimeZone": 60,
    "vlcPersistentComponent": {
    },
    "vlcTimeTracking": {
        "CalculatePerilsPremium": 4121,
        "DRGetInsurancePremiumTax": 1002,
        "DRPostOpportunity": 677,
        "DRPostPrimaryInsured": 1278,
        "DataRaptorExtractAction": 983,
        "DataRaptorExtractAction9": 1236,
        "EWGetClaimScore": 169,
        "OmniScriptSessionToken": "6fe9add5-9dac-4065-a71f-ac6b92e6ec7c",
        "RARecordTypeSelectorWithOptions": 969,
        "SetFormDefaultValues": 956,
        "SetOpptyNameByBrokerName": 22,
        "clientDetails": 233939,
        "getAreaPerilsScore": 118,
        "getClaimsScore": 55,
        "getFloodData": 671,
        "getPrimaryInsuredSanctionsResult": 809,
        "getPropertyData": 321,
        "propertyDetails": 11467,
        "raJointDuplicateCheck": 443,
        "raPrimaryDuplicateCheck": 517,
        "setPriAccountId": 7,
        "setValuesForCoverages": 16,
        "svBlockQuote": 7,
        "svMainSwitch": 673
    },
    "wallConstruction": "Brick",
    "waterDamageClaimScore": 0
}