{
    "ContextId": "",
    "ContinueWithQuote": true,
    "Range1": 7,
    "ambAPIResponse": {
        "address": "23, EAVES AVENUE, HEBDEN BRIDGE, HX7 6DJ",
        "addressVersion": "GB_ABP_E60",
        "administrative_area": "CALDERDALE",
        "band": "None",
        "bufferRadius": 15,
        "building_name": "",
        "building_number": "23",
        "changeType": "I",
        "class": "RD03",
        "code": 200,
        "combinedFloodScore": 0,
        "country": "ENG",
        "defendedCombinedFloodScore": 0,
        "defendedFluvial1000YrDepth": 0,
        "defendedFluvial100YrDepth": 0,
        "defendedFluvial250YrDepth": 0,
        "defendedFluvial500YrDepth": 0,
        "defendedFluvial75YrDepth": 0,
        "defendedFluvialFloodScore": 0,
        "defendedFluvil30YrDepth": 0,
        "defendedTidal1000YrDepth": 0,
        "defendedTidal100YrDepth": 0,
        "defendedTidal250YrDepth": 0,
        "defendedTidal30YrDepth": 0,
        "defendedTidal500YrDepth": 0,
        "defendedTidal75YrDepth": 0,
        "defendedTidalFloodScore": 0,
        "department_name": "",
        "dependent_locality": "",
        "distanceToNearestFluvialFloodplain": "16m",
        "distanceToNearestPluvialFloodplain": "15m",
        "distanceToNearestTidalFloodplain": "> 250m",
        "floodDefences": 0,
        "floodRatingScore": 1,
        "fluvial1000YrDepth": 0,
        "fluvial100YrDepth": 0,
        "fluvial250YrDepth": 0,
        "fluvial30YrDepth": 0,
        "fluvial500YrDepth": 0,
        "fluvial75YrDepth": 0,
        "fluvialFloodScore": 0,
        "groundWaterRisk": 1,
        "id": 3833804,
        "latitude": 53.7467388,
        "locality": "",
        "longitude": -2.0280313,
        "message": "OK",
        "modelledOnLidar": 1,
        "organisation": "",
        "organisation_name": "",
        "pao_end_number": "",
        "pao_end_suffix": "",
        "pao_start_number": "23",
        "pao_start_suffix": "",
        "pao_text": "",
        "pluvial1000YrDepth": 0,
        "pluvial100YrDepth": 0,
        "pluvial250YrDepth": 0,
        "pluvial30YrDepth": 0,
        "pluvial500YrDepth": 0,
        "pluvial75YrDepth": 0,
        "pluvialFloodScore": 0,
        "postcodeLocator": "HX7 6DJ",
        "sao_end_number": "",
        "sao_end_suffix": "",
        "sao_start_number": "",
        "sao_start_suffix": "",
        "sao_text": "",
        "street_description": "EAVES AVENUE",
        "sub_building_name": "",
        "thoroughfare": "EAVES AVENUE",
        "tidal1000YrDepth": 0,
        "tidal100YrDepth": 0,
        "tidal250YrDepth": 0,
        "tidal30YrDepth": 0,
        "tidal500YrDepth": 0,
        "tidal75YrDepth": 0,
        "tidalFloodScore": 0,
        "town_name": "HEBDEN BRIDGE",
        "uprn": 100051347534,
        "xCoordinate": 398249,
        "yCoordinate": 427817
    },
    "azurPercentageCommission": 12,
    "basePremium": 1,
    "blockQuote": false,
    "brokerCampaign": "Base Campaign",
    "brokerPercentMaximum": 30,
    "brokerPercentMinimum": 0,
    "brokerPercentageCommission": 25,
    "buildingsLimitTotal": 1000000,
    "burglarAlarm": "Not asked/None",
    "businessUse": "No",
    "calculateBuildingsPremium": "true",
    "claimScores": {
        "AccidentalDamageClaimScore": 0,
        "ID": "UserInputList",
        "MultiClaimFactor__multiFactor": 1,
        "OtherClaimScore": 0,
        "TheftClaimScore": 0,
        "WaterDamageClaimScore": 0,
        "scoredClaims": [
        ]
    },
    "claimsUnderwritingTotalScore": 0,
    "clientDetails": {
        "StartDateBlock": {
            "effectiveFromStartDate": "2019-02-07T23:00:00.000Z",
            "effectiveFromStartDateValidationFormula": true,
            "startDateTextValidation": true
        },
        "brokerConfirmation": "yes",
        "businessSelectedValidation": false,
        "hasEmptyRequiredClientFields": false,
        "hasJointPolicyHolder": "no",
        "jointBusinessSelectedValidation": false,
        "jointInsAge": null,
        "jointInsBirthdate": null,
        "jointInsBirthdateText": null,
        "jointInsBusinessType-Block": null,
        "jointInsFirstName": null,
        "jointInsHasLivePolicy": null,
        "jointInsHasLiveQuote": null,
        "jointInsIsDuplicate": null,
        "jointInsLastName": null,
        "jointInsNationality-Block": null,
        "jointInsOccupation-Block": null,
        "jointInsSalutation": null,
        "jointInsYearOfBirth": "",
        "jointInsuredSanctionsResult": null,
        "jointNationalitySelectedValidation": false,
        "jointOccupationSelectedValidation": false,
        "msgDeclarationsFalse": false,
        "msgInsuredAge": false,
        "msgOccupationSelectedValidation": true,
        "msgRequiredClientFields": false,
        "nationalitySelectedValidation": false,
        "occupationSelectedValidation": null,
        "primaryInsuredSanctionsResult": null,
        "primeInsAge": 27,
        "primeInsBirthdate": "1992-01-29T00:00:00.000Z",
        "primeInsBirthdateText": "29/01/1992",
        "primeInsBusinessType-Block": null,
        "primeInsFirstName": "Bartosz",
        "primeInsHasLivePolicy": false,
        "primeInsHasLiveQuote": false,
        "primeInsIsDuplicate": false,
        "primeInsLastName": "Decaa23",
        "primeInsNationality-Block": {
            "nationalityTypeaheadId": null,
            "primeInsNationality": null
        },
        "primeInsOccupation-Block": {
            "primeInsOccupation": "Artist",
            "typeaheadId": "aD60D00000001c6SAA",
            "typeaheadScore": 10
        },
        "primeInsSalutation": "Mr.",
        "primeInsuredYearOfBirth": "1992",
        "radioBankrupt": "No",
        "radioDomiciledInUK": "Yes",
        "radioOffence": "No",
        "radioPreviousInsuranceRefused": "No",
        "radioSpecialTerms": "No",
        "requiredClientFieldsString": "",
        "sanctionsCheckDateTime": null,
        "warnOccupationSelectedValidation": null
    },
    "closeDate": "2019-02-07T23:00:00.000Z",
    "constructionWork": "Not more than £75k of renovation work",
    "contentsLimitTotal": "Unlimited",
    "damageClaimScore": 0,
    "daysUnoccupied": "Unoccupied Less than 60 days",
    "declineReasons": {
        "allFalse": true,
        "canTransitState": false,
        "error": "OK",
        "falseRules": {
            "Quote": [
                {
                    "ruleDetails": {
                        "action class": "DROpenImplementationClass",
                        "action method": "ReferToUnderwriting",
                        "conditions": "insuredEntity.terms == \"Yes\"",
                        "message": "We cannot quote clients who have required special terms with insurers (client declaration).",
                        "objectId": "0Q00D0000000s3DSAQ",
                        "productId": "01t0D000000BsyrQAC",
                        "requirement name": "Special Terms",
                        "transitionName": "Draft>Declined"
                    }
                },
                {
                    "ruleDetails": {
                        "action class": "DROpenImplementationClass",
                        "action method": "ReferToUnderwriting",
                        "conditions": "insuredEntity.bankruptDeclaration == \"Yes\"",
                        "message": "We cannot quote clients with this nature of financial history (client declaration).",
                        "objectId": "0Q00D0000000s3DSAQ",
                        "productId": "01t0D000000BsyrQAC",
                        "requirement name": "Bankrupt declaration",
                        "transitionName": "Draft>Declined"
                    }
                },
                {
                    "ruleDetails": {
                        "action class": "DROpenImplementationClass",
                        "action method": "ReferToUnderwriting",
                        "conditions": "insuredEntity.occupationGroup == 14",
                        "message": "The risk has been declined due to client details.",
                        "objectId": "0Q00D0000000s3DSAQ",
                        "productId": "01t0D000000BsyrQAC",
                        "requirement name": "Occupation Group 14",
                        "transitionName": "Draft>Declined"
                    }
                },
                {
                    "ruleDetails": {
                        "action class": "DROpenImplementationClass",
                        "action method": "ReferToUnderwriting",
                        "conditions": "insuredEntity.jointOccupationGroup == 14",
                        "message": "The risk has been declined due to client details.",
                        "objectId": "0Q00D0000000s3DSAQ",
                        "productId": "01t0D000000BsyrQAC",
                        "requirement name": "Joint Ins Occupation Group 14",
                        "transitionName": "Draft>Declined"
                    }
                },
                {
                    "ruleDetails": {
                        "action class": "DROpenImplementationClass",
                        "action method": "ReferToUnderwriting",
                        "conditions": "insuredEntity.phAge < 18",
                        "message": "We can't quote a policyholder or joint policy holder under the age of 18.",
                        "objectId": "0Q00D0000000s3DSAQ",
                        "productId": "01t0D000000BsyrQAC",
                        "requirement name": "Primary Ins Under 18",
                        "transitionName": "Draft>Declined"
                    }
                },
                {
                    "ruleDetails": {
                        "action class": "DROpenImplementationClass",
                        "action method": "ReferToUnderwriting",
                        "conditions": "insuredEntity.jointInsuredSanctionsResult > 0",
                        "message": "The risk has referred due to client details.",
                        "objectId": "0Q00D0000000s3DSAQ",
                        "productId": "01t0D000000BsyrQAC",
                        "requirement name": "Joint Ins Sanctions",
                        "transitionName": "Draft>Declined"
                    }
                },
                {
                    "ruleDetails": {
                        "action class": "DROpenImplementationClass",
                        "action method": "ReferToUnderwriting",
                        "conditions": "insuredEntity.jointInsAge < 18",
                        "message": "We can't quote a policyholder or joint policyholder under the age of 18.",
                        "objectId": "0Q00D0000000s3DSAQ",
                        "productId": "01t0D000000BsyrQAC",
                        "requirement name": "Joint Ins Under 18",
                        "transitionName": "Draft>Declined"
                    }
                },
                {
                    "ruleDetails": {
                        "action class": "DROpenImplementationClass",
                        "action method": "ReferToUnderwriting",
                        "conditions": "insuredEntity.jointBusinessTypeGroup == 20",
                        "message": "The risk has been declined due to client details.",
                        "objectId": "0Q00D0000000s3DSAQ",
                        "productId": "01t0D000000BsyrQAC",
                        "requirement name": "Joint Ins Business Type 20",
                        "transitionName": "Draft>Declined"
                    }
                },
                {
                    "ruleDetails": {
                        "action class": "DROpenImplementationClass",
                        "action method": "ReferToUnderwriting",
                        "conditions": "insuredEntity.declined == \"Yes\"",
                        "message": "We cannot quote clients who have had insurance refused, cancelled or declared void (client declaration).",
                        "objectId": "0Q00D0000000s3DSAQ",
                        "productId": "01t0D000000BsyrQAC",
                        "requirement name": "Insurance refused",
                        "transitionName": "Draft>Declined"
                    }
                },
                {
                    "ruleDetails": {
                        "action class": "DROpenImplementationClass",
                        "action method": "ReferToUnderwriting",
                        "conditions": "insuredEntity.convictions == \"Yes\"",
                        "message": "We cannot quote clients with a criminal record (client declaration).",
                        "objectId": "0Q00D0000000s3DSAQ",
                        "productId": "01t0D000000BsyrQAC",
                        "requirement name": "Convictions",
                        "transitionName": "Draft>Declined"
                    }
                },
                {
                    "ruleDetails": {
                        "action class": "DROpenImplementationClass",
                        "action method": "ReferToUnderwriting",
                        "conditions": "insuredEntity.businessTypeGroup == 20",
                        "message": "The risk has been declined due to client details.",
                        "objectId": "0Q00D0000000s3DSAQ",
                        "productId": "01t0D000000BsyrQAC",
                        "requirement name": "Business Type 20",
                        "transitionName": "Draft>Declined"
                    }
                },
                {
                    "ruleDetails": {
                        "action class": "DROpenImplementationClass",
                        "action method": "ReferToUnderwriting",
                        "conditions": "insuredProperty.openToPublic == \"Inside Property\"",
                        "message": "We cannot quote risks that are open to the public inside the property.",
                        "objectId": "0Q00D0000000s3DSAQ",
                        "productId": "01t0D000000BumeQAC",
                        "requirement name": "Open To Public",
                        "transitionName": "Draft>Declined"
                    }
                },
                {
                    "ruleDetails": {
                        "action class": "DROpenImplementationClass",
                        "action method": "ReferToUnderwriting",
                        "conditions": "insuredProperty.constructionType == \"Concrete\"",
                        "message": "We cannot quote homes with wall construction of concrete.",
                        "objectId": "0Q00D0000000s3DSAQ",
                        "productId": "01t0D000000BumeQAC",
                        "requirement name": "Wall Concrete",
                        "transitionName": "Draft>Declined"
                    }
                },
                {
                    "ruleDetails": {
                        "action class": "DROpenImplementationClass",
                        "action method": "ReferToUnderwriting",
                        "conditions": "insuredProperty.constructionType = \"Timber\"",
                        "message": "We cannot quote homes with wall construction of timber.",
                        "objectId": "0Q00D0000000s3DSAQ",
                        "productId": "01t0D000000BumeQAC",
                        "requirement name": "Wall Timber",
                        "transitionName": "Draft>Declined"
                    }
                },
                {
                    "ruleDetails": {
                        "action class": "DROpenImplementationClass",
                        "action method": "ReferToUnderwriting",
                        "conditions": "insuredProperty.constructionType == \"Corrugated Iron\"",
                        "message": "We cannot quote homes with wall construction of corrugated iron.",
                        "objectId": "0Q00D0000000s3DSAQ",
                        "productId": "01t0D000000BumeQAC",
                        "requirement name": "Wall Corrugated",
                        "transitionName": "Draft>Declined"
                    }
                },
                {
                    "ruleDetails": {
                        "action class": "DROpenImplementationClass",
                        "action method": "ReferToUnderwriting",
                        "conditions": "insuredProperty.constructionType == \"Woodwork\"",
                        "message": "We cannot quote homes with wall construction of woodwork.",
                        "objectId": "0Q00D0000000s3DSAQ",
                        "productId": "01t0D000000BumeQAC",
                        "requirement name": "Wall Woodwork",
                        "transitionName": "Draft>Declined"
                    }
                },
                {
                    "ruleDetails": {
                        "action class": "DROpenImplementationClass",
                        "action method": "ReferToUnderwriting",
                        "conditions": "insuredProperty.businessUses == \"Business With Visitors\"",
                        "message": "We cannot quote risks which are used for business purposes, where visitors come to the property.",
                        "objectId": "0Q00D0000000s3DSAQ",
                        "productId": "01t0D000000BumeQAC",
                        "requirement name": "Business With Visitors",
                        "transitionName": "Draft>Declined"
                    }
                },
                {
                    "ruleDetails": {
                        "action class": "DROpenImplementationClass",
                        "action method": "ReferToUnderwriting",
                        "conditions": "insuredProperty.goodStateOfRepair == \"No\"",
                        "message": "We cannot quote risks that are not in a good state of repair.",
                        "objectId": "0Q00D0000000s3DSAQ",
                        "productId": "01t0D000000BumeQAC",
                        "requirement name": "Good State",
                        "transitionName": "Draft>Declined"
                    }
                },
                {
                    "ruleDetails": {
                        "action class": "DROpenImplementationClass",
                        "action method": "ReferToUnderwriting",
                        "conditions": "insuredProperty.listingCategory == \"Grade 2*/B\"",
                        "message": "We cannot quote Grade II* listed properties.",
                        "objectId": "0Q00D0000000s3DSAQ",
                        "productId": "01t0D000000BumeQAC",
                        "requirement name": "Listed 2*/B",
                        "transitionName": "Draft>Declined"
                    }
                },
                {
                    "ruleDetails": {
                        "action class": "DROpenImplementationClass",
                        "action method": "ReferToUnderwriting",
                        "conditions": "insuredProperty.roofConstruction == \"Plastic\"",
                        "message": "We cannot quote homes with roof construction of plastic.",
                        "objectId": "0Q00D0000000s3DSAQ",
                        "productId": "01t0D000000BumeQAC",
                        "requirement name": "Roof Plastic",
                        "transitionName": "Draft>Declined"
                    }
                },
                {
                    "ruleDetails": {
                        "action class": "DROpenImplementationClass",
                        "action method": "ReferToUnderwriting",
                        "conditions": "insuredProperty.signsOfSubsidence == \"no\"",
                        "message": "We cannot quote risks which have signs of subsidence, heave or landslip.",
                        "objectId": "0Q00D0000000s3DSAQ",
                        "productId": "01t0D000000BumeQAC",
                        "requirement name": "Subsidence Signs",
                        "transitionName": "Draft>Declined"
                    }
                },
                {
                    "ruleDetails": {
                        "action class": "DROpenImplementationClass",
                        "action method": "ReferToUnderwriting",
                        "conditions": "insuredProperty.roofConstruction == \"Shingle\"",
                        "message": "We cannot quote homes with roof construction of shingle.",
                        "objectId": "0Q00D0000000s3DSAQ",
                        "productId": "01t0D000000BumeQAC",
                        "requirement name": "Roof Shingle",
                        "transitionName": "Draft>Declined"
                    }
                },
                {
                    "ruleDetails": {
                        "action class": "DROpenImplementationClass",
                        "action method": "ReferToUnderwriting",
                        "conditions": "insuredProperty.constructionType == \"Metal\"",
                        "message": "We cannot quote homes with wall construction of metal.",
                        "objectId": "0Q00D0000000s3DSAQ",
                        "productId": "01t0D000000BumeQAC",
                        "requirement name": "Wall Metal",
                        "transitionName": "Draft>Declined"
                    }
                },
                {
                    "ruleDetails": {
                        "action class": "DROpenImplementationClass",
                        "action method": "ReferToUnderwriting",
                        "conditions": "insuredProperty.roofConstruction == \"Metal\"",
                        "message": "We cannot quote homes with roof construction of metal.",
                        "objectId": "0Q00D0000000s3DSAQ",
                        "productId": "01t0D000000BumeQAC",
                        "requirement name": "Roof Metal",
                        "transitionName": "Draft>Declined"
                    }
                },
                {
                    "ruleDetails": {
                        "action class": "DROpenImplementationClass",
                        "action method": "ReferToUnderwriting",
                        "conditions": "insuredProperty.buildingSI > 1000000",
                        "message": "The rebuild is above the maximum for this product. Please contact the Azur PCG team for a High Net Worth policy.",
                        "objectId": "0Q00D0000000s3DSAQ",
                        "productId": "01t0D000000BumeQAC",
                        "requirement name": "Rebuild Above Max",
                        "transitionName": "Draft>Declined"
                    }
                },
                {
                    "ruleDetails": {
                        "action class": "DROpenImplementationClass",
                        "action method": "ReferToUnderwriting",
                        "conditions": "insuredProperty.roofConstruction == \"Flint on timber\"",
                        "message": "We cannot quote homes with roof construction of flint on timber.",
                        "objectId": "0Q00D0000000s3DSAQ",
                        "productId": "01t0D000000BumeQAC",
                        "requirement name": "Roof Flint",
                        "transitionName": "Draft>Declined"
                    }
                },
                {
                    "ruleDetails": {
                        "action class": "DROpenImplementationClass",
                        "action method": "ReferToUnderwriting",
                        "conditions": "insuredProperty.constructionType == \"Flint\"",
                        "message": "We cannot quote homes with wall construction of flint.",
                        "objectId": "0Q00D0000000s3DSAQ",
                        "productId": "01t0D000000BumeQAC",
                        "requirement name": "Wall Flint",
                        "transitionName": "Draft>Declined"
                    }
                },
                {
                    "ruleDetails": {
                        "action class": "DROpenImplementationClass",
                        "action method": "ReferToUnderwriting",
                        "conditions": "insuredProperty.roofConstruction == \"Corrugated Iron\"",
                        "message": "We cannot quote homes with roof construction of corrugated iron.",
                        "objectId": "0Q00D0000000s3DSAQ",
                        "productId": "01t0D000000BumeQAC",
                        "requirement name": "Roof Corrugated",
                        "transitionName": "Draft>Declined"
                    }
                },
                {
                    "ruleDetails": {
                        "action class": "DROpenImplementationClass",
                        "action method": "ReferToUnderwriting",
                        "conditions": "insuredProperty.floodZone > 12",
                        "message": "The risk has declined due to flood score.",
                        "objectId": "0Q00D0000000s3DSAQ",
                        "productId": "01t0D000000BumeQAC",
                        "requirement name": "Flood Zone Over 12",
                        "transitionName": "Draft>Declined"
                    }
                },
                {
                    "ruleDetails": {
                        "action class": "DROpenImplementationClass",
                        "action method": "ReferToUnderwriting",
                        "conditions": "insuredProperty.fireSmokeAlarm == \"Less than Minimum\"",
                        "message": "We cannot quote risks without minimum security and battery operated smoke detectors.",
                        "objectId": "0Q00D0000000s3DSAQ",
                        "productId": "01t0D000000BumeQAC",
                        "requirement name": "Smoke Alarm",
                        "transitionName": "Draft>Declined"
                    }
                },
                {
                    "ruleDetails": {
                        "action class": "DROpenImplementationClass",
                        "action method": "ReferToUnderwriting",
                        "conditions": "insuredProperty.constructionType == \"Plastic\"",
                        "message": "We cannot quote homes with wall construction of plastic.",
                        "objectId": "0Q00D0000000s3DSAQ",
                        "productId": "01t0D000000BumeQAC",
                        "requirement name": "Wall Plastic",
                        "transitionName": "Draft>Declined"
                    }
                },
                {
                    "ruleDetails": {
                        "action class": "DROpenImplementationClass",
                        "action method": "ReferToUnderwriting",
                        "conditions": "insuredProperty.constructionType == \"Essex construction\"",
                        "message": "We cannot quote homes with wall construction of essex construction.",
                        "objectId": "0Q00D0000000s3DSAQ",
                        "productId": "01t0D000000BumeQAC",
                        "requirement name": "Wall Essex",
                        "transitionName": "Draft>Declined"
                    }
                },
                {
                    "ruleDetails": {
                        "action class": "DROpenImplementationClass",
                        "action method": "ReferToUnderwriting",
                        "conditions": "insuredProperty.roofConstruction == \"Woodwork\"",
                        "message": "We cannot quote homes with roof construction of woodwork.",
                        "objectId": "0Q00D0000000s3DSAQ",
                        "productId": "01t0D000000BumeQAC",
                        "requirement name": "Roof Woodwork",
                        "transitionName": "Draft>Declined"
                    }
                },
                {
                    "ruleDetails": {
                        "action class": "DROpenImplementationClass",
                        "action method": "ReferToUnderwriting",
                        "conditions": "insuredProperty.listingCategory == \"Grade 1/A\"",
                        "message": "We cannot quote Grade I listed properties.",
                        "objectId": "0Q00D0000000s3DSAQ",
                        "productId": "01t0D000000BumeQAC",
                        "requirement name": "Listed 1/A",
                        "transitionName": "Draft>Declined"
                    }
                },
                {
                    "ruleDetails": {
                        "action class": "DROpenImplementationClass",
                        "action method": "ReferToUnderwriting",
                        "conditions": "insuredProperty.constructionType == \"Cob construction\"",
                        "message": "We cannot quote homes with wall construction of cob construction.",
                        "objectId": "0Q00D0000000s3DSAQ",
                        "productId": "01t0D000000BumeQAC",
                        "requirement name": "Wall Cob",
                        "transitionName": "Draft>Declined"
                    }
                },
                {
                    "ruleDetails": {
                        "action class": "DROpenImplementationClass",
                        "action method": "ReferToUnderwriting",
                        "conditions": "insuredProperty.constructionType == \"Asbestos\"",
                        "message": "We cannot quote homes with wall construction of asbestos.",
                        "objectId": "0Q00D0000000s3DSAQ",
                        "productId": "01t0D000000BumeQAC",
                        "requirement name": "Wall Asbestos",
                        "transitionName": "Draft>Declined"
                    }
                },
                {
                    "ruleDetails": {
                        "action class": "DROpenImplementationClass",
                        "action method": "ReferToUnderwriting",
                        "conditions": "insuredProperty.roofConstruction == \"Thatch\"",
                        "message": "We cannot quote homes with roof construction of thatch.",
                        "objectId": "0Q00D0000000s3DSAQ",
                        "productId": "01t0D000000BumeQAC",
                        "requirement name": "Roof Thatch",
                        "transitionName": "Draft>Declined"
                    }
                },
                {
                    "ruleDetails": {
                        "action class": "DROpenImplementationClass",
                        "action method": "ReferToUnderwriting",
                        "conditions": "insuredProperty.roofConstruction == \"Fibre Glass\"",
                        "message": "We cannot quote homes with roof construction of fibre glass.",
                        "objectId": "0Q00D0000000s3DSAQ",
                        "productId": "01t0D000000BumeQAC",
                        "requirement name": "Roof Fibre Glass",
                        "transitionName": "Draft>Declined"
                    }
                },
                {
                    "ruleDetails": {
                        "action class": "DROpenImplementationClass",
                        "action method": "ReferToUnderwriting",
                        "conditions": "insuredProperty.constructionType == \"Glass\"",
                        "message": "We cannot quote homes with wall construction of glass.",
                        "objectId": "0Q00D0000000s3DSAQ",
                        "productId": "01t0D000000BumeQAC",
                        "requirement name": "Wall Glass",
                        "transitionName": "Draft>Declined"
                    }
                },
                {
                    "ruleDetails": {
                        "action class": "DROpenImplementationClass",
                        "action method": "ReferToUnderwriting",
                        "conditions": "insuredProperty.subsidenceZone > 13",
                        "message": "The risk has declined due to subsidence score.",
                        "objectId": "0Q00D0000000s3DSAQ",
                        "productId": "01t0D000000BumeQAC",
                        "requirement name": "Subsidence Zone Over 13",
                        "transitionName": "Draft>Declined"
                    }
                },
                {
                    "ruleDetails": {
                        "action class": "DROpenImplementationClass",
                        "action method": "ReferToUnderwriting",
                        "conditions": "insuredProperty.constructionType == \"Wattle and Daub Construction\"",
                        "message": "We cannot quote homes with wall construction of wattle and daub.",
                        "objectId": "0Q00D0000000s3DSAQ",
                        "productId": "01t0D000000BumeQAC",
                        "requirement name": "Wall Wattle",
                        "transitionName": "Draft>Declined"
                    }
                },
                {
                    "ruleDetails": {
                        "action class": "DROpenImplementationClass",
                        "action method": "ReferToUnderwriting",
                        "conditions": "insuredProperty.roofConstruction == \"Timber\"",
                        "message": "We cannot quote homes with roof construction of timber.",
                        "objectId": "0Q00D0000000s3DSAQ",
                        "productId": "01t0D000000BumeQAC",
                        "requirement name": "Roof Timber",
                        "transitionName": "Draft>Declined"
                    }
                },
                {
                    "ruleDetails": {
                        "action class": "DROpenImplementationClass",
                        "action method": "ReferToUnderwriting",
                        "conditions": "insuredProperty.constructionType == \"Stramit construction\"",
                        "message": "We cannot quote homes with wall construction of stramit construction.",
                        "objectId": "0Q00D0000000s3DSAQ",
                        "productId": "01t0D000000BumeQAC",
                        "requirement name": "Wall Stramit",
                        "transitionName": "Draft>Declined"
                    }
                },
                {
                    "ruleDetails": {
                        "action class": "DROpenImplementationClass",
                        "action method": "ReferToUnderwriting",
                        "conditions": "insuredProperty.notPreviouslyFlooded == \"No\"",
                        "message": "We cannot quote risks which have previously flooded.",
                        "objectId": "0Q00D0000000s3DSAQ",
                        "productId": "01t0D000000BumeQAC",
                        "requirement name": "Previously Flooded",
                        "transitionName": "Draft>Declined"
                    }
                },
                {
                    "ruleDetails": {
                        "action class": "DROpenImplementationClass",
                        "action method": "ReferToUnderwriting",
                        "conditions": "insuredProperty.claimsUnderwritingTotalScore >= 5",
                        "message": "The risk has been declined due to the previous claims score.",
                        "objectId": "0Q00D0000000s3DSAQ",
                        "productId": "01t0D000000BumeQAC",
                        "requirement name": "Claims Score Decline",
                        "transitionName": "Draft>Declined"
                    }
                },
                {
                    "ruleDetails": {
                        "action class": "DROpenImplementationClass",
                        "action method": "ReferToUnderwriting",
                        "conditions": "insuredProperty.roofConstruction == \"Stramit construction\"",
                        "message": "We cannot quote homes with roof construction of stramit construction.",
                        "objectId": "0Q00D0000000s3DSAQ",
                        "productId": "01t0D000000BumeQAC",
                        "requirement name": "Roof Stramit",
                        "transitionName": "Draft>Declined"
                    }
                },
                {
                    "ruleDetails": {
                        "action class": "DROpenImplementationClass",
                        "action method": "ReferToUnderwriting",
                        "conditions": "insuredProperty.businessUses == \"Business With No Visitors (Cover Required For Stock Over £10k)\"",
                        "message": "We cannot quote risks which are used for business purposes, with stock over £10k.",
                        "objectId": "0Q00D0000000s3DSAQ",
                        "productId": "01t0D000000BumeQAC",
                        "requirement name": "Business Stock Over 10k",
                        "transitionName": "Draft>Declined"
                    }
                },
                {
                    "ruleDetails": {
                        "action class": "DROpenImplementationClass",
                        "action method": "ReferToUnderwriting",
                        "conditions": "insuredProperty.constructionType == \"Fibreglass construction\"",
                        "message": "We cannot quote homes with wall construction of fibreglass construction.",
                        "objectId": "0Q00D0000000s3DSAQ",
                        "productId": "01t0D000000BumeQAC",
                        "requirement name": "Wall Fibreglass",
                        "transitionName": "Draft>Declined"
                    }
                },
                {
                    "ruleDetails": {
                        "action class": "DROpenImplementationClass",
                        "action method": "ReferToUnderwriting",
                        "conditions": "insuredProperty.constructionType == \"Timber / Plaster\"",
                        "message": "We cannot quote homes with wall construction of timber/plaster.",
                        "objectId": "0Q00D0000000s3DSAQ",
                        "productId": "01t0D000000BumeQAC",
                        "requirement name": "Wall Timber/Plaster",
                        "transitionName": "Draft>Declined"
                    }
                },
                {
                    "ruleDetails": {
                        "action class": "DROpenImplementationClass",
                        "action method": "ReferToUnderwriting",
                        "conditions": "insuredProperty.roofConstruction == \"Asbestos\"",
                        "message": "We cannot quote homes with roof construction of asbestos.",
                        "objectId": "0Q00D0000000s3DSAQ",
                        "productId": "01t0D000000BumeQAC",
                        "requirement name": "Roof Asbestos",
                        "transitionName": "Draft>Declined"
                    }
                },
                {
                    "ruleDetails": {
                        "action class": "DROpenImplementationClass",
                        "action method": "ReferToUnderwriting",
                        "conditions": "insuredProperty.constructionType == \"Woodwall\"",
                        "message": "We cannot quote homes with wall construction of woodwall.",
                        "objectId": "0Q00D0000000s3DSAQ",
                        "productId": "01t0D000000BumeQAC",
                        "requirement name": "Wall Woodwall",
                        "transitionName": "Draft>Declined"
                    }
                },
                {
                    "ruleDetails": {
                        "action class": "DROpenImplementationClass",
                        "action method": "ReferToUnderwriting",
                        "conditions": "insuredProperty.roofConstruction == \"Turnerised\"",
                        "message": "We cannot quote homes with roof construction of turnerised.",
                        "objectId": "0Q00D0000000s3DSAQ",
                        "productId": "01t0D000000BumeQAC",
                        "requirement name": "Roof Turnerised",
                        "transitionName": "Draft>Declined"
                    }
                },
                {
                    "ruleDetails": {
                        "action class": "DROpenImplementationClass",
                        "action method": "ReferToUnderwriting",
                        "conditions": "insuredProperty.roofConstruction == \"Glass\"",
                        "message": "We cannot quote homes with roof construction of glass.",
                        "objectId": "0Q00D0000000s3DSAQ",
                        "productId": "01t0D000000BumeQAC",
                        "requirement name": "Roof Glass",
                        "transitionName": "Draft>Declined"
                    }
                },
                {
                    "ruleDetails": {
                        "action class": "DROpenImplementationClass",
                        "action method": "ReferToUnderwriting",
                        "conditions": "insuredProperty.constructionType == \"Prefabricated building\"",
                        "message": "We cannot quote homes with wall construction of prefabricated building.",
                        "objectId": "0Q00D0000000s3DSAQ",
                        "productId": "01t0D000000BumeQAC",
                        "requirement name": "Wall Prefabricated",
                        "transitionName": "Draft>Declined"
                    }
                },
                {
                    "ruleDetails": {
                        "action class": "DROpenImplementationClass",
                        "action method": "ReferToUnderwriting",
                        "conditions": "jewelleryAndWatches.jewelleryValue > 50000 && insuredProperty.safe == \"no\"",
                        "message": "The risk has been declined as there is no safe in the property",
                        "objectId": "0Q00D0000000s3DSAQ",
                        "productId": "01t580000055uLIAAY",
                        "requirement name": "No Safe",
                        "transitionName": "Draft>Declined"
                    }
                }
            ]
        }
    },
    "declinedRules": "",
    "defaultExcess": 500,
    "displayClauseFlatRoof25to50": false,
    "displayClauseFlatRoof51plus": false,
    "displayClauseJewelleryAndWatchesValue": false,
    "displayClauseSpecifiedItemValue": false,
    "employersLiability": 5000000,
    "error": "OK",
    "excess": 500,
    "fireSmokeAlarm": "Battery Operated Detector or More",
    "flatRoofPercentage": "Up to 25percent",
    "floorInteraction": "Other Homes",
    "homeEmergencyCoverageLimit": 1000,
    "homeEmergencyPremium": 8.7,
    "id": "a3f0D0000009GgdQAE",
    "insurancePremiumTaxRate": "Standard rate IPT",
    "iptPercent": 12,
    "isdtp": "p1",
    "jointInsAge": 0,
    "jointPolicyCategory": "Not a joint policy",
    "layout": "lightning",
    "legalExpenses": 31,
    "legalExpensesCoverageLimit": 100000,
    "listedStatus": "Not Listed/ Not Protected",
    "maxSpecifiedArtValue": 0,
    "maxSpecifiedContentsValue": 0,
    "maxSpecifiedCyclesValue": 0,
    "maxSpecifiedJewelleryAndWatchesValue": 0,
    "objectType": "Picklist_Section__c",
    "occupancyType": "Main residence",
    "openToPublic": "Never",
    "opptyName": "Decaa23-EW-08-02-2019",
    "otherClaimScore": 0,
    "otherPermanentStructures": 200000,
    "outraAPIResponse": {
        "bathrooms": 1,
        "bathrooms$confidence": 0.998843,
        "bathrooms$is_modelled": true,
        "bedrooms": 3,
        "bedrooms$confidence": 0.926222,
        "bedrooms$is_modelled": true,
        "building_name": null,
        "building_number": "23",
        "code": 200,
        "dependent_locality": null,
        "dependent_thoroughfare": null,
        "double_dependent_locality": null,
        "floor_area": 110,
        "floor_area$confidence": null,
        "floor_area$is_modelled": false,
        "ht_property_type": "Detached",
        "ht_property_type$confidence": null,
        "ht_property_type$is_modelled": false,
        "id": 289158054,
        "last_rent": null,
        "last_sale_date": "2008-06-18T00:00:00.000Z",
        "listed": false,
        "listed$confidence": null,
        "listed$grade": null,
        "message": "OK",
        "most_recent_new_home_approval": null,
        "most_recent_planning_app_date": null,
        "most_recent_planning_dev_type": null,
        "most_recent_planning_stage": null,
        "most_recent_planning_start_date": null,
        "planning_applications_past_5_years": null,
        "planning_approvals_past_5_years": null,
        "postcode": "HX7 6DJ",
        "property_rental_value": 707,
        "property_rental_value$confidence": 135.744,
        "property_rental_value$is_modelled": false,
        "property_style": "Detached",
        "property_style$confidence": null,
        "property_style$is_modelled": false,
        "property_type": "House",
        "property_type$confidence": null,
        "property_type$is_modelled": false,
        "property_value": 232891,
        "property_value$confidence": 64548.1,
        "property_value$is_modelled": false,
        "reinstatement_cost_final_adjusted_azur": 184270,
        "reinstatement_cost_higher_rate_azur": 264000,
        "reinstatement_cost_higher_rate_azur$confidence": 1,
        "reinstatement_cost_ht": null,
        "reinstatement_cost_notional": 181492,
        "reinstatement_cost_notional$confidence": 0.926222,
        "reinstatement_cost_outra": 153558,
        "reinstatement_cost_outra$confidence": 1,
        "rent_anniversary": null,
        "sale_anniversary": "2019-06-18T00:00:00.000Z",
        "sub_building_name": null,
        "tenure": "Freehold",
        "tenure$confidence": null,
        "tenure$is_modelled": false,
        "thoroughfare": "EAVES AVENUE",
        "uprn": "100051347534",
        "year_built": 1954,
        "year_built$confidence": 27.6849,
        "year_built$is_modelled": true
    },
    "paymentMethod": "Broker Collection",
    "personalCyberCoverageLimit": 50000,
    "personalCyberPremium": 24.21,
    "policyAge": 0,
    "postedQuoteDataResults": {
        "application": {
            "Id": "a260D0000005Oi7QAE"
        },
        "masterProduct": {
            "Id": "01t0D000000qQV4QAM"
        },
        "opportunity": {
            "Id": "0060D0000034iAJQAY"
        },
        "primaryInsuredAccount": {
            "Id": "0010D00000DDOXMQA5"
        }
    },
    "previousInsurance": "You have insurance in place at the risk address and have done so for more than one year",
    "primeInsAge": 0,
    "primeInsAgeDecimal": 27.03,
    "propAmbPostalCode-Block": {
        "country": "ENG"
    },
    "propertyAge": 65,
    "propertyDetails": {
        "artSpec": 0,
        "artSpecifiedCheck": true,
        "blockCoverage": {
            "alarmCheck": null,
            "errorArtMaxValue": true,
            "errorJewelleryWatchesMaxValue": true,
            "errorPedalCyclesMaxValue": true,
            "rangeArt": 10000,
            "rangeJewelleryWatches": 10000,
            "rangePedalCycles": 2000,
            "rangeTenantsImprovements": null,
            "safeCheck": null
        },
        "declineWarningMessage": false,
        "editBlockClaimsHistory": null,
        "editBlockSpecifiedItems": null,
        "errorNoAddress": true,
        "formulaListedStatus": "Not Listed/ Not Protected",
        "hasEmptyRequiredPropertyFields": false,
        "hideErrorNoAddress": true,
        "jewelleryCheck": true,
        "jewellerySpec": 0,
        "msgRequiredPropertyFields": false,
        "multiDeclarationsConfirmationOne": "yes",
        "pedalSpec": 0,
        "pedalSpecifiedCheck": true,
        "percentArtSpecified": 0,
        "percentCyclesSpecified": 0,
        "percentJewellerySpecified": 0,
        "propAmbPostalCode-Block": {
            "id": 3833804,
            "propAmbPostalCode": "23, EAVES AVENUE, HEBDEN BRIDGE, HX7 6DJ",
            "uprn": 100051347534
        },
        "radioBusinessUse": null,
        "radioClaimsHistory": "no",
        "radioGoodStateOfRepair": "Yes",
        "radioListedStatus": null,
        "radioMinimumConstructionType": "yes",
        "radioMinimumSecurity": "yes",
        "radioNoSignsOfSubsidence": "yes",
        "radioNotBusinessUseOrOpenToPublic": "yes",
        "radioNotListedDeclaration": "yes",
        "radioNotPlanningWorks": "yes",
        "radioNotPreviouslyFlooded": "yes",
        "radioOpenToPublic": null,
        "radioPolicyType": "Building & Contents",
        "radioPreviousInsurance": "yes",
        "radioPreviousInsuranceReason": null,
        "radioSpecifiedItems": "no",
        "requiredPropertyFieldsString": "",
        "selectFlatRoofPercentage": null,
        "selectRoofConstruction": null,
        "selectWallConstruction": null,
        "specifiedItemCount": 0,
        "sumInsuredTenantsImprovements": 0
    },
    "propertyDetailsUrl": "https://azur-integrations.herokuapp.com/outraUPRN",
    "publicLiability": 10000000,
    "quoteDateOfIssue": "2019-02-07T23:00:00.000Z",
    "quoteExpiryDate": "2019-03-10T10:58:47.483Z",
    "quoteId": "0Q00D0000000s3DSAQ",
    "quoteName": "Decaa23_Bartosz",
    "quotePrefix": "88-EWA",
    "randomNumber": 2,
    "rangeTenantsImprovements": 0,
    "recordTypes": {
        "%vlocity_namespace%__InsurableItem__c": {
            "EW_Property": "0120D0000000ELzQAM",
            "EW_SpecifiedItem": "0120D0000000EM4QAM"
        },
        "Account": {
            "AgencyBrokerage": "012580000005gQYAAY",
            "Business_Account": "012580000005gQZAAY",
            "Carrier": "012580000005gQaAAI",
            "Group": "012580000005gQbAAI",
            "PersonAccount": "01258000000cYS8AAM",
            "StandardAccount": "012580000005gQdAAI",
            "Supplier": "01258000000FR6lAAG"
        },
        "Opportunity": {
            "EW_Opportunity": "0120D00000007bgQAA"
        },
        "Picklist_Section__c": {
            "Business_Type": "01258000000FR74AAG",
            "Nationality": "01258000000AoNRAA0",
            "Occupation": "01258000000FR75AAG",
            "Title": "01258000000FR76AAG"
        },
        "Quote": {
            "EW_Quote": "0120D00000007blQAA"
        }
    },
    "referralRules": {
        "allFalse": true,
        "canTransitState": false,
        "error": "OK",
        "falseRules": {
            "Quote": [
                {
                    "ruleDetails": {
                        "action class": "DROpenImplementationClass",
                        "action method": "ReferToUnderwriting",
                        "conditions": "insuredEntity.phAge > 18 && insuredEntity.phAge < 26",
                        "message": "The risk has referred due to client details.",
                        "objectId": "0Q00D0000000s3DSAQ",
                        "productId": "01t0D000000BsyrQAC",
                        "requirement name": "Primary Ins Under 25",
                        "transitionName": "Draft>UW Referred"
                    }
                },
                {
                    "ruleDetails": {
                        "action class": "DROpenImplementationClass",
                        "action method": "ReferToUnderwriting",
                        "conditions": "insuredEntity.jointInsAge > 18 && insuredEntity.jointInsAge < 26",
                        "message": "The risk has referred due to client details.",
                        "objectId": "0Q00D0000000s3DSAQ",
                        "productId": "01t0D000000BsyrQAC",
                        "requirement name": "Joint Ins Under 25",
                        "transitionName": "Draft>UW Referred"
                    }
                },
                {
                    "ruleDetails": {
                        "action class": "DROpenImplementationClass",
                        "action method": "ReferToUnderwriting",
                        "conditions": "insuredEntity.businessTypeGroup == 14",
                        "message": "The risk has been referred due to client details.",
                        "objectId": "0Q00D0000000s3DSAQ",
                        "productId": "01t0D000000BsyrQAC",
                        "requirement name": "Business Type 14",
                        "transitionName": "Draft>UW Referred"
                    }
                },
                {
                    "ruleDetails": {
                        "action class": "DROpenImplementationClass",
                        "action method": "ReferToUnderwriting",
                        "conditions": "insuredEntity.occupationGroup > 10",
                        "message": "The risk has declined due to client details.",
                        "objectId": "0Q00D0000000s3DSAQ",
                        "productId": "01t0D000000BsyrQAC",
                        "requirement name": "Occupation Group Over 10",
                        "transitionName": "Draft>UW Referred"
                    }
                },
                {
                    "ruleDetails": {
                        "action class": "DROpenImplementationClass",
                        "action method": "ReferToUnderwriting",
                        "conditions": "insuredEntity.domiciled == \"No\"",
                        "message": "The risk has referred due to client details.",
                        "objectId": "0Q00D0000000s3DSAQ",
                        "productId": "01t0D000000BsyrQAC",
                        "requirement name": "Non Domiciled",
                        "transitionName": "Draft>UW Referred"
                    }
                },
                {
                    "ruleDetails": {
                        "action class": "DROpenImplementationClass",
                        "action method": "ReferToUnderwriting",
                        "conditions": "insuredEntity.jointBusinessTypeGroup == 14",
                        "message": "The risk has referred due to client details.",
                        "objectId": "0Q00D0000000s3DSAQ",
                        "productId": "01t0D000000BsyrQAC",
                        "requirement name": "Joint Ins Business Type 14",
                        "transitionName": "Draft>UW Referred"
                    }
                },
                {
                    "ruleDetails": {
                        "action class": "DROpenImplementationClass",
                        "action method": "ReferToUnderwriting",
                        "conditions": "insuredProperty.floodZone > 4",
                        "message": "The risk has referred due to flood score.",
                        "objectId": "0Q00D0000000s3DSAQ",
                        "productId": "01t0D000000BumeQAC",
                        "requirement name": "Flood Zone Over 4",
                        "transitionName": "Draft>UW Referred"
                    }
                },
                {
                    "ruleDetails": {
                        "action class": "DROpenImplementationClass",
                        "action method": "ReferToUnderwriting",
                        "conditions": "insuredProperty.listingCategory == \"Grade 2/C\"",
                        "message": "We need to understand more about the listing category.",
                        "objectId": "0Q00D0000000s3DSAQ",
                        "productId": "01t0D000000BumeQAC",
                        "requirement name": "Listed 2/C",
                        "transitionName": "Draft>UW Referred"
                    }
                },
                {
                    "ruleDetails": {
                        "action class": "DROpenImplementationClass",
                        "action method": "ReferToUnderwriting",
                        "conditions": "insuredProperty.roofConstruction == \"Other\"",
                        "message": "We need to understand more about the roof construction of the property.",
                        "objectId": "0Q00D0000000s3DSAQ",
                        "productId": "01t0D000000BumeQAC",
                        "requirement name": "Roof Other",
                        "transitionName": "Draft>UW Referred"
                    }
                },
                {
                    "ruleDetails": {
                        "action class": "DROpenImplementationClass",
                        "action method": "ReferToUnderwriting",
                        "conditions": "insuredProperty.courseOfConstruction == \"More than £75k of renovation work\"",
                        "message": "We need to understand more about the works planned to take place on the property.",
                        "objectId": "0Q00D0000000s3DSAQ",
                        "productId": "01t0D000000BumeQAC",
                        "requirement name": "Construction Over £75k",
                        "transitionName": "Draft>UW Referred"
                    }
                },
                {
                    "ruleDetails": {
                        "action class": "DROpenImplementationClass",
                        "action method": "ReferToUnderwriting",
                        "conditions": "insuredProperty.claimsUnderwritingTotalScore == 4",
                        "message": "The risk has been referred due to the previous claims score.",
                        "objectId": "0Q00D0000000s3DSAQ",
                        "productId": "01t0D000000BumeQAC",
                        "requirement name": "Claims Score Referral",
                        "transitionName": "Draft>UW Referred"
                    }
                },
                {
                    "ruleDetails": {
                        "action class": "DROpenImplementationClass",
                        "action method": "ReferToUnderwriting",
                        "conditions": "insuredProperty.priorInsurance == \"Uninsured\"",
                        "message": "The risk has been referred as the property is currently uninsured.",
                        "objectId": "0Q00D0000000s3DSAQ",
                        "productId": "01t0D000000BumeQAC",
                        "requirement name": "Previous Insurance Uninsured",
                        "transitionName": "Draft>UW Referred"
                    }
                },
                {
                    "ruleDetails": {
                        "action class": "DROpenImplementationClass",
                        "action method": "ReferToUnderwriting",
                        "conditions": "insuredProperty.priorInsurance == \"Break In Cover\"",
                        "message": "The risk has been referred as the property has had a break in cover.",
                        "objectId": "0Q00D0000000s3DSAQ",
                        "productId": "01t0D000000BumeQAC",
                        "requirement name": "Previous Insurance Break",
                        "transitionName": "Draft>UW Referred"
                    }
                },
                {
                    "ruleDetails": {
                        "action class": "DROpenImplementationClass",
                        "action method": "ReferToUnderwriting",
                        "conditions": "insuredProperty.businessUses == \"Business with no visitors (insured separately)\"",
                        "message": "The risk has referred due to business use.",
                        "objectId": "0Q00D0000000s3DSAQ",
                        "productId": "01t0D000000BumeQAC",
                        "requirement name": "Business with No Visitors  (Insured Separately)",
                        "transitionName": "Draft>UW Referred"
                    }
                },
                {
                    "ruleDetails": {
                        "action class": "DROpenImplementationClass",
                        "action method": "ReferToUnderwriting",
                        "conditions": "insuredProperty.constructionType == \"Other\"",
                        "message": "We need to understand more about the wall construction of the property.",
                        "objectId": "0Q00D0000000s3DSAQ",
                        "productId": "01t0D000000BumeQAC",
                        "requirement name": "Wall Other",
                        "transitionName": "Draft>UW Referred"
                    }
                },
                {
                    "ruleDetails": {
                        "action class": "DROpenImplementationClass",
                        "action method": "ReferToUnderwriting",
                        "conditions": "insuredProperty.buildingSI > 900000",
                        "message": "The rebuild is within 100k of the limit.",
                        "objectId": "0Q00D0000000s3DSAQ",
                        "productId": "01t0D000000BumeQAC",
                        "requirement name": "Rebuild Within 100k",
                        "transitionName": "Draft>UW Referred"
                    }
                },
                {
                    "ruleDetails": {
                        "action class": "DROpenImplementationClass",
                        "action method": "ReferToUnderwriting",
                        "conditions": "insuredProperty.businessUses == \"Business With No Visitors (Cover Required For Stock Under £10k)\"",
                        "message": "We need to understand more about the business located at the property.",
                        "objectId": "0Q00D0000000s3DSAQ",
                        "productId": "01t0D000000BumeQAC",
                        "requirement name": "Business Stock Under 10k",
                        "transitionName": "Draft>UW Referred"
                    }
                },
                {
                    "ruleDetails": {
                        "action class": "DROpenImplementationClass",
                        "action method": "ReferToUnderwriting",
                        "conditions": "jewelleryAndWatches.jewelleryAndWatchesLimitBroken == true",
                        "message": "The risk has been referred due to an individual item value.",
                        "objectId": "0Q00D0000000s3DSAQ",
                        "productId": "01t580000055uLIAAY",
                        "requirement name": "Item Limit Broken",
                        "transitionName": "Draft>UW Referred"
                    }
                },
                {
                    "ruleDetails": {
                        "action class": "DROpenImplementationClass",
                        "action method": "ReferToUnderwriting",
                        "conditions": "emergingWealth.premiumGrossIncIPT <= 800",
                        "message": "We need to look at this quote.",
                        "objectId": "0Q00D0000000s3DSAQ",
                        "productId": "01t0D000000qQV4QAM",
                        "requirement name": "Total Premium Under £800",
                        "transitionName": "Draft>UW Referred"
                    }
                },
                {
                    "ruleDetails": {
                        "action class": "DROpenImplementationClass",
                        "action method": "ReferToUnderwriting",
                        "conditions": "emergingWealth.premiumGrossIncIPT >= 5000",
                        "message": "We need to look at this quote.",
                        "objectId": "0Q00D0000000s3DSAQ",
                        "productId": "01t0D000000qQV4QAM",
                        "requirement name": "Total Premium Over £5000",
                        "transitionName": "Draft>UW Referred"
                    }
                }
            ]
        }
    },
    "rewardPoints": 0,
    "roofConstruction": "Tile",
    "safe": "no",
    "sfdcIFrameHost": "web",
    "sfdcIFrameOrigin": "https://azuruw--ew--vlocity-ins.cs106.visual.force.com",
    "subsAPIResponse": {
        "PC": "HX7 6DJ",
        "PCNOSPACES": "HX76DJ",
        "Subs_Class": "0",
        "Subs_Total": "0",
        "area": "Calderdale",
        "code": 200,
        "crime_arson": "4",
        "crime_dom_theft": "5",
        "district": "Calderdale",
        "easting_x": "398282",
        "easting_y": "398282",
        "latitude": "53.74",
        "longitude": "-2.02",
        "message": "OK",
        "northing_x": "427732",
        "northing_y": "427732",
        "pc_area": "HX",
        "subsgroup": "6",
        "theft_score": "10",
        "ward": "Calder",
        "water_score": "9",
        "wind_score": "11",
        "x_x": "711328",
        "x_y": "1476229"
    },
    "theftClaimScore": 0,
    "timeStamp": "2019-02-08T10:45:36.742Z",
    "totalContentsSpecified": 0,
    "typeOfResidence": "Main residence",
    "underwritingRules": "",
    "urlPrefix": "https://azuruw--ew--vlocity-ins.cs106.visual.force.com/apex",
    "userCurrencyCode": "GBP",
    "userId": "0050D000000e3TWQAY",
    "userName": "bdec@azuruw.com.ew",
    "userProfile": "System Administrator",
    "userTimeZone": 0,
    "vlcPersistentComponent": {
    },
    "vlcTimeTracking": {
        "DeclineRules": 1220,
        "EWGetClaimScore": 851,
        "EWGetClaimScoreForCalculation": 479,
        "OmniScriptSessionToken": "6d6305a7-9c4d-4eae-bfb7-5f1eb0062695",
        "ReferToUnderwriting": 1071,
        "SetValuesToContinueWithQuote": 22,
        "clientDetails": 750181,
        "conditionalClauses": 21,
        "createQuote": 2545,
        "extractBrokerDetails": 634,
        "extractRecordTypes": 815,
        "getAreaPerilsScore": 235,
        "getFixedCoverageValues": 334,
        "getFloodData": 852,
        "getFullJSONData": 3901,
        "getPropertyData": 494,
        "getRatedProducts": 6963,
        "postClaims": 803,
        "postInsurableItems": 1599,
        "postQuoteData": 3645,
        "postUnderwritingRules": 773,
        "propertyDetails": 25837,
        "raPrimaryDuplicateCheck": 888,
        "setFormDefaultValues": 164,
        "setMainSwitch": 1215,
        "setOpportunityName": 11,
        "setQuoteName": 10,
        "setValuesForCoverages": 58,
        "specifiedItemMaxValues": 143,
        "svBlockQuote": 28
    },
    "wallConstruction": "Brick",
    "waterDamageClaimScore": 0
}