[
    "Document/BuildingAndContents",
    "Document/Contents",
    "VlocityUITemplate/ew-ins-os-excluded-postcode-decline",
    "VlocityUITemplate/ew-omniLightning-vlcRemoteAction",
    "VlocityUITemplate/ins-os-attribute-component",
    "VlocityUITemplate/ins-os-coverage-component"
]