{
    "%vlocity_namespace%__Active__c": true,
    "%vlocity_namespace%__OmniScriptId__c": {
        "Name": "QuoteProperty",
        "VlocityDataPackType": "VlocityMatchingKeyObject",
        "VlocityMatchingRecordSourceKey": "%vlocity_namespace%__OmniScript__c/EW/QuoteProperty/English",
        "VlocityRecordSObjectType": "%vlocity_namespace%__OmniScript__c"
    },
    "%vlocity_namespace%__ParentElementId__c": {
        "%vlocity_namespace%__OmniScriptId__c": "%vlocity_namespace%__OmniScript__c/EW/QuoteProperty/English",
        "Name": "propertyDetails",
        "VlocityDataPackType": "VlocityMatchingKeyObject",
        "VlocityMatchingRecordSourceKey": "%vlocity_namespace%__Element__c/%vlocity_namespace%__OmniScript__c/EW/QuoteProperty/English/propertyDetails",
        "VlocityRecordSObjectType": "%vlocity_namespace%__Element__c"
    },
    "%vlocity_namespace%__ParentElementName__c": "propertyDetails",
    "%vlocity_namespace%__ParentElementType__c": "Step",
    "%vlocity_namespace%__PropertySet__c": {
        "HTMLTemplateId": "",
        "accessibleInFutureSteps": true,
        "conditionType": "Hide if False",
        "controlWidth": 12,
        "controllingField": {
            "element": "",
            "source": "",
            "type": ""
        },
        "disOnTplt": false,
        "documentNames": [
            "BuildingAndContents",
            "Contents"
        ],
        "enableCaption": true,
        "help": false,
        "helpText": "",
        "hide": false,
        "horizontalMode": "image",
        "imageCountInRow": 4,
        "label": "Policy Type",
        "optionHeight": 90,
        "optionSource": {
            "source": "",
            "type": "image"
        },
        "optionWidth": 150,
        "options": [
            {
                "imgId": "../servlet/servlet.ImageServer?id=01525000000Tns6AAC&&docName=BuildingAndContents&&oid=00D250000008l63EAA",
                "name": "Building & Contents",
                "value": "Buildings & Contents"
            },
            {
                "imgId": "../servlet/servlet.ImageServer?id=01525000000TnsQAAS&&docName=Contents&&oid=00D250000008l63EAA",
                "name": "Contents Only",
                "value": "Contents Only"
            }
        ],
        "readOnly": false,
        "repeat": false,
        "repeatClone": false,
        "repeatLimit": null,
        "required": false,
        "show": null
    },
    "%vlocity_namespace%__ReusableOmniScript__c": true,
    "%vlocity_namespace%__Type__c": "Radio",
    "CurrencyIsoCode": "GBP",
    "Name": "radioPolicyType",
    "VlocityDataPackType": "SObject",
    "VlocityRecordSObjectType": "%vlocity_namespace%__Element__c",
    "VlocityRecordSourceKey": "%vlocity_namespace%__Element__c/%vlocity_namespace%__OmniScript__c/EW/QuoteProperty/English/radioPolicyType"
}