{
    "%vlocity_namespace%__Active__c": true,
    "%vlocity_namespace%__OmniScriptId__c": {
        "Name": "Policy",
        "VlocityDataPackType": "VlocityMatchingKeyObject",
        "VlocityMatchingRecordSourceKey": "%vlocity_namespace%__OmniScript__c/EW/Policy/English",
        "VlocityRecordSObjectType": "%vlocity_namespace%__OmniScript__c"
    },
    "%vlocity_namespace%__PropertySet__c": {
        "HTMLTemplateId": "",
        "controlWidth": 12,
        "disOnTplt": false,
        "elementValueMap": {
            "ContinueWithBind": "=%isQuoteActive%",
            "confirmEffectiveDate1": "%qDetails:quote:%vlocity_namespace%__EffectiveDate__c%",
            "defaultForeignTaxRate": "=0",
            "ffAIGProductName": "=\"Azur Emerging Wealth\"",
            "ffPolicyActiveStatus": "=\"Active\"",
            "hasClaims": "=IF(%qDetails:quote:claims%, true, false)",
            "hasClauses": "=IF(%qDetails:quote:clauses%, true, false)",
            "hasInterestedParty": "=\"no\"",
            "hasJointPolicyHolder": "=IF(%fullJSONData:clientNode:hasJointPolicyHolder%=='no', false, true)",
            "hasPropertyInsuredItems": "=IF(%qDetails:quote:itemProperty%, true, false)",
            "hasSpecifiedInsuredItems": "=IF(%qDetails:quote:itemSpecifiedItem%, true, false)",
            "isPaymentMethodDisabled": "=IF(%qDetails:quote:EW_IsDDDisabled__c% == true,true,IF(%qDetails:quote:typeOfTransaction% != \"Renewal\" && %qDetails:quote:EW_PCLAgreementId__c%,true,false))",
            "lastIssuedDate": "=MOMENT(TODAY()).format('DD-MM-YYYY')",
            "paymentMethod": "=\"Payment via Broker\"",
            "policyDefaultInitStatus": "=\"Draft\"",
            "policyIssuedStatus": "=\"Issued\"",
            "premium": "=ROUND(%qDetails:quote:%vlocity_namespace%__StandardPremium__c%, 2)",
            "quoteCreatedDate": "=MOMENT(%qDetails:quote:CreatedDate%).format('DD-MM-YYYY')",
            "quoteExpirationDate": "=MOMENT(%qDetails:quote:EW_Expiration_Date__c%).format('DD-MM-YYYY')",
            "quoteNewStatus": "=\"Bound\"",
            "sanctionsApiKeyType": "=IF(%featureSwitches:SanctionsCheckinLive__c%, \"live\", \"test\")",
            "sanctionsCheckDateTime": "=NOW()"
        },
        "label": "Set Form Default Values",
        "message": {
        },
        "show": null,
        "showPersistentComponent": [
            false,
            false
        ],
        "ssm": false,
        "validationRequired": "None",
        "wpm": true
    },
    "%vlocity_namespace%__ReusableOmniScript__c": false,
    "%vlocity_namespace%__Type__c": "Set Values",
    "CurrencyIsoCode": "GBP",
    "Name": "setFormDefaultValues",
    "VlocityDataPackType": "SObject",
    "VlocityRecordSObjectType": "%vlocity_namespace%__Element__c",
    "VlocityRecordSourceKey": "%vlocity_namespace%__Element__c/%vlocity_namespace%__OmniScript__c/EW/Policy/English/setFormDefaultValues"
}