{
    "%vlocity_namespace%__Active__c": true,
    "%vlocity_namespace%__OmniScriptId__c": {
        "Name": "Policy",
        "VlocityDataPackType": "VlocityMatchingKeyObject",
        "VlocityMatchingRecordSourceKey": "%vlocity_namespace%__OmniScript__c/EW/Policy/English",
        "VlocityRecordSObjectType": "%vlocity_namespace%__OmniScript__c"
    },
    "%vlocity_namespace%__PropertySet__c": {
        "HTMLTemplateId": "",
        "allowSaveForLater": false,
        "cancelLabel": "Cancel",
        "cancelMessage": "Are you sure?",
        "chartLabel": null,
        "completeLabel": "Complete",
        "completeMessage": "Are you sure you want to complete the script?",
        "conditionType": "Hide if False",
        "disOnTplt": false,
        "errorMessage": {
            "custom": [
            ],
            "default": null
        },
        "instruction": "",
        "instructionKey": "",
        "knowledgeOptions": {
            "dataCategoryCriteria": "",
            "keyword": "",
            "language": "English",
            "publishStatus": "Online",
            "remoteTimeout": 30000,
            "typeFilter": ""
        },
        "label": "Temporarily Unavailable",
        "message": {
        },
        "nextLabel": "Continue",
        "nextWidth": 0,
        "previousLabel": "Previous",
        "previousWidth": 0,
        "pubsub": false,
        "remoteClass": "",
        "remoteMethod": "",
        "remoteOptions": {
        },
        "remoteTimeout": 30000,
        "saveLabel": "Save for later",
        "saveMessage": "Are you sure you want to save it for later?",
        "show": {
            "group": {
                "operator": "AND",
                "rules": [
                    {
                        "group": {
                            "operator": "OR",
                            "rules": [
                                {
                                    "condition": "=",
                                    "data": "401",
                                    "field": "info:statusCode"
                                },
                                {
                                    "condition": "=",
                                    "data": "503",
                                    "field": "info:statusCode"
                                }
                            ]
                        }
                    },
                    {
                        "condition": "=",
                        "data": "Direct Debit",
                        "field": "BindQuote:paymentMethod"
                    }
                ]
            }
        },
        "showPersistentComponent": [
            false,
            false
        ],
        "ssm": false,
        "validationRequired": true,
        "wpm": false
    },
    "%vlocity_namespace%__ReusableOmniScript__c": false,
    "%vlocity_namespace%__Type__c": "Step",
    "CurrencyIsoCode": "GBP",
    "Name": "PCLUnauthorizedCalloutError",
    "VlocityDataPackType": "SObject",
    "VlocityRecordSObjectType": "%vlocity_namespace%__Element__c",
    "VlocityRecordSourceKey": "%vlocity_namespace%__Element__c/%vlocity_namespace%__OmniScript__c/EW/Policy/English/PCLUnauthorizedCalloutError"
}