{
    "%vlocity_namespace%__Active__c": true,
    "%vlocity_namespace%__OmniScriptId__c": {
        "Name": "Policy",
        "VlocityDataPackType": "VlocityMatchingKeyObject",
        "VlocityMatchingRecordSourceKey": "%vlocity_namespace%__OmniScript__c/EW/Policy/English",
        "VlocityRecordSObjectType": "%vlocity_namespace%__OmniScript__c"
    },
    "%vlocity_namespace%__ParentElementId__c": {
        "%vlocity_namespace%__OmniScriptId__c": {
            "Name": "Policy",
            "VlocityDataPackType": "VlocityMatchingKeyObject",
            "VlocityMatchingRecordSourceKey": "%vlocity_namespace%__OmniScript__c/EW/Policy/English",
            "VlocityRecordSObjectType": "%vlocity_namespace%__OmniScript__c"
        },
        "Name": "PCLQueuedStatusWarning",
        "VlocityDataPackType": "VlocityMatchingKeyObject",
        "VlocityMatchingRecordSourceKey": "%vlocity_namespace%__Element__c/%vlocity_namespace%__OmniScript__c/EW/Policy/English/PCLQueuedStatusWarning",
        "VlocityRecordSObjectType": "%vlocity_namespace%__Element__c"
    },
    "%vlocity_namespace%__ParentElementName__c": "PCLQueuedStatusWarning",
    "%vlocity_namespace%__ParentElementType__c": "Step",
    "%vlocity_namespace%__PropertySet__c": {
        "HTMLTemplateId": "",
        "controlWidth": 12,
        "dataJSON": false,
        "disOnTplt": false,
        "label": "Checks Required",
        "sanitize": false,
        "show": null,
        "text": "<div style=\"color: #9f6000; background-color: #feefb3; border-radius: .5em; margin: 10px 0px; padding: 12px;\">Our provider needs to review the details of this direct debit application before proceeding, please allow up to 5 working days for this. <br /> <br /> Until a result is returned we can offer 5 days Hold on Cover terms for your client. You will receive an email from us confirming hold on cover status.<br /> <br /> <strong>Please send proof of address and ID of the client to <a href=\"mailto:smarthome@azuruw.com\">smarthome@azuruw.com</a> to be passed on for review. Outlined below are the forms of ID and proof of address that are accepted: </strong><br /> <br /> <strong>Proof of address:</strong><br />\n<ul>\n<li>Utility bill in the borrower&rsquo;s name, dated within the last 90 days</li>\n<li>Bank/Building Society Statement in the borrower&rsquo;s name, dated within the last 90 days</li>\n<li>Documents/cards issued by a government department showing the individual&rsquo;s name and address e.g. Inland Revenue letter</li>\n<li>Mortgage agreement, or mortgage statement issued by a regulated Financial Institution and showing the customer&rsquo;s name and address and the institution&rsquo;s name and address, dated in the last 90 days.</li>\n<li>Tenancy agreement showing the customer&rsquo;s name</li>\n</ul>\n<br /> <strong>Proof of identity:</strong><br />\n<ul>\n<li>Valid passport</li>\n<li>Valid photocard driving license (full or provisional)</li>\n<li>Citizen card</li>\n<li>Firearms certificate or shotgun license</li>\n<li>Identity card issued by the Electoral Office for Northern Ireland</li>\n<li>Valid old style paper driving license</li>\n</ul>\n</div>",
        "textKey": ""
    },
    "%vlocity_namespace%__ReusableOmniScript__c": false,
    "%vlocity_namespace%__Type__c": "Text Block",
    "CurrencyIsoCode": "GBP",
    "Name": "QueuedWarning",
    "VlocityDataPackType": "SObject",
    "VlocityRecordSObjectType": "%vlocity_namespace%__Element__c",
    "VlocityRecordSourceKey": "%vlocity_namespace%__Element__c/%vlocity_namespace%__OmniScript__c/EW/Policy/English/QueuedWarning"
}