{
    "%vlocity_namespace%__Active__c": true,
    "%vlocity_namespace%__OmniScriptId__c": {
        "Name": "Policy",
        "VlocityDataPackType": "VlocityMatchingKeyObject",
        "VlocityMatchingRecordSourceKey": "%vlocity_namespace%__OmniScript__c/EW/Policy/English",
        "VlocityRecordSObjectType": "%vlocity_namespace%__OmniScript__c"
    },
    "%vlocity_namespace%__ParentElementId__c": {
        "%vlocity_namespace%__OmniScriptId__c": {
            "Name": "Policy",
            "VlocityDataPackType": "VlocityMatchingKeyObject",
            "VlocityMatchingRecordSourceKey": "%vlocity_namespace%__OmniScript__c/EW/Policy/English",
            "VlocityRecordSObjectType": "%vlocity_namespace%__OmniScript__c"
        },
        "Name": "PCLDeclineCalloutError",
        "VlocityDataPackType": "VlocityMatchingKeyObject",
        "VlocityMatchingRecordSourceKey": "%vlocity_namespace%__Element__c/%vlocity_namespace%__OmniScript__c/EW/Policy/English/PCLDeclineCalloutError",
        "VlocityRecordSObjectType": "%vlocity_namespace%__Element__c"
    },
    "%vlocity_namespace%__ParentElementName__c": "PCLDeclineCalloutError",
    "%vlocity_namespace%__ParentElementType__c": "Step",
    "%vlocity_namespace%__PropertySet__c": {
        "HTMLTemplateId": "",
        "controlWidth": 12,
        "dataJSON": false,
        "disOnTplt": false,
        "label": "TextBlock2",
        "sanitize": false,
        "show": null,
        "text": "<div style=\"color: #d8000c; background-color: #ffd2d2; border-radius: .5em; margin: 10px 0px; padding: 12px;\">Unfortunately the application has been rejected as Premium Credit Limited have advised that they are unable to offer a credit facility to this client. Therefore we cannot offer direct debit as a payment method on this quote.<br /> <br />You can bind the policy with the&nbsp;<strong>Via Broker payment method</strong>&nbsp;by clicking 'Back' below.</div>",
        "textKey": ""
    },
    "%vlocity_namespace%__ReusableOmniScript__c": false,
    "%vlocity_namespace%__Type__c": "Text Block",
    "CurrencyIsoCode": "GBP",
    "Name": "DeclineError",
    "VlocityDataPackType": "SObject",
    "VlocityRecordSObjectType": "%vlocity_namespace%__Element__c",
    "VlocityRecordSourceKey": "%vlocity_namespace%__Element__c/%vlocity_namespace%__OmniScript__c/EW/Policy/English/DeclineError"
}