{
  "appPageId" : "b78a2a62-fe0f-4a3e-97ea-aa1767322713",
  "componentName" : "siteforce:sldsOneColLayout",
  "id" : "dde84fa0-c265-4da4-9341-2c44a4e2027c",
  "label" : "Dashboard Related List",
  "regions" : [ {
    "id" : "cbb8e008-cd44-4c39-8b6b-7762a08575b1",
    "regionName" : "header",
    "type" : "region"
  }, {
    "components" : [ {
      "componentAttributes" : {
        "parentRecordId" : "{!parentRecordId}",
        "relatedListName" : "{!relatedListName}"
      },
      "componentName" : "forceCommunity:relatedList",
      "id" : "bc27aa6c-4f9c-4a0c-8b82-d541a33bbc4e",
      "renderPriority" : "NEUTRAL",
      "renditionMap" : { },
      "type" : "component"
    } ],
    "id" : "a8c3e79e-3f70-43d9-8498-897a756ef5e1",
    "regionName" : "content",
    "type" : "region"
  }, {
    "id" : "50ffb893-2432-4c02-9a71-e56ceee68549",
    "regionName" : "footer",
    "type" : "region"
  } ],
  "themeLayoutType" : "Inner",
  "type" : "view",
  "viewType" : "relatedlist-01Z"
}