{
  "appPageId" : "b78a2a62-fe0f-4a3e-97ea-aa1767322713",
  "componentName" : "siteforce:sldsOneColLayout",
  "id" : "565c82f9-24eb-455f-8d8c-df73aca9bfae",
  "label" : "Error",
  "regions" : [ {
    "id" : "6156df5e-a23f-437e-9af2-1f4da8666300",
    "regionName" : "header",
    "type" : "region"
  }, {
    "components" : [ {
      "componentAttributes" : {
        "richTextValue" : "<div style='text-align: center;'>Invalid Page</div>"
      },
      "componentName" : "forceCommunity:richTextInline",
      "id" : "0561a169-c9bb-4f20-b7d7-ff900615756c",
      "renderPriority" : "NEUTRAL",
      "renditionMap" : { },
      "type" : "component"
    } ],
    "id" : "53c78214-d0db-4818-b9e8-2509a264368c",
    "regionName" : "content",
    "type" : "region"
  }, {
    "id" : "7e5c4ee7-c8c4-482c-ac3a-7eb835720653",
    "regionName" : "footer",
    "type" : "region"
  }, {
    "components" : [ {
      "componentAttributes" : {
        "customHeadTags" : "",
        "description" : "",
        "title" : "Error"
      },
      "componentName" : "forceCommunity:seoAssistant",
      "id" : "cc467847-7445-45e1-a696-98901b1c0475",
      "renditionMap" : { },
      "type" : "component"
    } ],
    "id" : "0cb9c817-61b6-4ba4-9cfe-5e02f8730f77",
    "regionName" : "sfdcHiddenRegion",
    "type" : "region"
  } ],
  "themeLayoutType" : "Inner",
  "type" : "view",
  "viewType" : "error"
}