{
  "appPageId" : "b78a2a62-fe0f-4a3e-97ea-aa1767322713",
  "componentName" : "siteforce:sldsOneColLayout",
  "id" : "71fdd639-d35e-48ba-9f7e-52c16adc79a9",
  "label" : "QuotePolicy List",
  "regions" : [ {
    "id" : "a2b1c1b6-7717-4580-9003-4f81b9f8c8b3",
    "regionName" : "header",
    "type" : "region"
  }, {
    "components" : [ {
      "componentAttributes" : {
        "filterName" : "00B58000002PiBPEA0",
        "layout" : "FULL",
        "pageSize" : 25,
        "scope" : "Asset",
        "showDisplay" : "showall"
      },
      "componentName" : "forceCommunity:objectHome",
      "id" : "80d9b319-e104-4a0a-b4ac-3c3ea6430cd9",
      "renderPriority" : "NEUTRAL",
      "renditionMap" : { },
      "type" : "component"
    } ],
    "id" : "9c70ccbf-73bf-4f67-9964-1a50eb510520",
    "regionName" : "content",
    "type" : "region"
  }, {
    "id" : "43e7724d-ce3c-44fc-8108-f20976136b4f",
    "regionName" : "footer",
    "type" : "region"
  } ],
  "themeLayoutType" : "Inner",
  "type" : "view",
  "viewType" : "list-02i"
}