{
  "appPageId" : "b78a2a62-fe0f-4a3e-97ea-aa1767322713",
  "componentName" : "siteforce:sldsOneColLayout",
  "id" : "033c0fa3-f9a4-48e1-8268-18ac00aaa58d",
  "label" : "User Settings",
  "regions" : [ {
    "id" : "f0179b63-0217-46f6-8d7c-89266fafff77",
    "regionName" : "header",
    "type" : "region"
  }, {
    "components" : [ {
      "componentAttributes" : {
        "hideEmailNotificationSettings" : false,
        "id" : "{!userId}"
      },
      "componentName" : "forceCommunity:userSettings",
      "id" : "123b585b-5235-42d8-9e91-fa8952de7981",
      "renderPriority" : "NEUTRAL",
      "renditionMap" : { },
      "type" : "component"
    } ],
    "id" : "7f283f7b-ad7c-49cd-9f6b-13362936bcc1",
    "regionName" : "content",
    "type" : "region"
  }, {
    "id" : "f7eb5e8f-3f7c-4ee0-8329-2001f2cfe8f0",
    "regionName" : "footer",
    "type" : "region"
  } ],
  "themeLayoutType" : "Inner",
  "type" : "view",
  "viewType" : "usersettings"
}