{
    "%vlocity_namespace%__CalculationMatrixId__c": {
        "Name": "GeneralContentsProportionSpecified",
        "VlocityDataPackType": "VlocityMatchingKeyObject",
        "VlocityMatchingRecordSourceKey": "%vlocity_namespace%__CalculationMatrix__c/GeneralContentsProportionSpecified",
        "VlocityRecordSObjectType": "%vlocity_namespace%__CalculationMatrix__c"
    },
    "%vlocity_namespace%__CalculationMatrixId__r.Name": "GeneralContentsProportionSpecified",
    "%vlocity_namespace%__CalculationMatrixRow__c": "GeneralContentsProportionSpecified_Version_Rows.json",
    "%vlocity_namespace%__CurrentStatus__c": "Active",
    "%vlocity_namespace%__EndDateTime__c": "",
    "%vlocity_namespace%__GlobalKey__c": "cf7d7a-cbf4b4-3c1fd1-37d85a-02619dafd",
    "%vlocity_namespace%__Priority__c": 1,
    "%vlocity_namespace%__StartDateTime__c": "2018-09-13T12:41:06.000Z",
    "%vlocity_namespace%__UseLongOutput__c": false,
    "%vlocity_namespace%__VersionNumber__c": 1,
    "CurrencyIsoCode": "GBP",
    "Name": "GeneralContentsProportionSpecified V1",
    "VlocityDataPackType": "SObject",
    "VlocityRecordSObjectType": "%vlocity_namespace%__CalculationMatrixVersion__c",
    "VlocityRecordSourceKey": "%vlocity_namespace%__CalculationMatrixVersion__c/GeneralContentsProportionSpecified V1"
}