{
    "%vlocity_namespace%__Category__c": "Insured Item Level",
    "%vlocity_namespace%__ClauseContent__c": "This exclusion applies to the following section(s)\nPART IV – Buildings, contents, pedal cycles and collections\n\nWe do not cover any loss or damage caused by flood including any cost of alternative accommodation arising from flood.\n\n“Flood” means water from any source external to a building, which enters a building:\n\na) at or below ground level; or above ground level, provided part of the body of such water is at ground level; and\nb) does so with a volume, weight or force which is substantial and abnormal.\n\nFor the avoidance of doubt the following do not constitute a Flood:\n\nc) the gradual seepage or percolation of water into a building (such as rising damp); and\nd) water escaping from a main, drain, sewer, pipe or other thing inside a building, unless such escape was solely the consequence of a flood falling in the above definition.",
    "%vlocity_namespace%__ContractTypes__c": "",
    "%vlocity_namespace%__IsArchived__c": false,
    "%vlocity_namespace%__IsRestricted__c": true,
    "%vlocity_namespace%__Tokens__c": "",
    "%vlocity_namespace%__Type__c": "Home",
    "Clause_Body__c": "",
    "CurrencyIsoCode": "GBP",
    "Name": "Flood Exclusion",
    "VlocityDataPackType": "SObject",
    "VlocityRecordSObjectType": "%vlocity_namespace%__DocumentClause__c",
    "VlocityRecordSourceKey": "%vlocity_namespace%__DocumentClause__c/Flood Exclusion"
}