{
    "ContextId": "02i4E000002C38Y",
    "DRId_Asset": "02i4E000002C3RVQA0",
    "asset": {
        "Azur_Commission__c": 25,
        "Calculation_Date__c": "2017-04-27 00:00:00",
        "Commission__c": 10,
        "Currency_Type__c": "GBP",
        "Inception_End_Date_Time__c": "2018-04-27T00:01:00.000Z",
        "Inception_Start_Date_Time__c": "2017-04-27T00:01:00.000Z",
        "Opportunity__c": "0064E000003iK9IQAU",
        "Policy_Section_taxes__c": "Jersey",
        "Policy_Type__c": "Auto",
        "Policyholder_Additional_Terms__c": "No",
        "Policyholder_Age__c": 36,
        "Policyholder_Bankrupt__c": "No",
        "Policyholder_Business_Type__c": "Other",
        "Policyholder_Date_of_Birth__c": "1980-12-27",
        "Policyholder_Declined_Insurance__c": "No",
        "Policyholder_Gender__c": "Female",
        "Policyholder_License_Type__c": "Provisional",
        "Policyholder_Marital_Status__c": "Single",
        "Policyholder_Non_Motoring_Convictions__c": "No",
        "Policyholder_Occupation__c": "Consultant",
        "Policyholder_Relationship__c": "Additional Adul",
        "Quote_Received_Date__c": "2017-04-27T10:59:17.000Z",
        "Renew__c": true,
        "Tax_Percent__c": 0,
        "Total_Commission__c": 40.9,
        "Total_Gross_Premium__c": 449.9,
        "Total_Premium__c": 409,
        "Total_Tax__c": 40.9,
        "accountId": "0014E00000OPgs3QAD",
        "contactId": "0034E00000NsL9dQAF",
        "coverage": [
            {
                "Active__c": true,
                "Annual_Commission_AP__c": 25,
                "Annual_Gross_Premium_AP__c": 275,
                "Annual_Premium_AP__c": 250,
                "Annual_Tax_AP__c": 25,
                "Commission__c": 25,
                "Cover_End_Date__c": "2018-04-27T00:01:00.000Z",
                "Cover_Start_Date__c": "2017-04-27T00:01:00.000Z",
                "Driving_Other_Cars__c": false,
                "Gross_Premium__c": 275,
                "Name": "Legal Expenses",
                "Overritten_Premium__c": 250,
                "Policy_Holder__c": false,
                "PremiumAmount__c": 250,
                "Primary_Driver__c": false,
                "Rated_Driver__c": false,
                "SHOW_ON_Certificate__c": false,
                "Tax_Amount__c": 25,
                "id": "a6Q4E0000008TCrUAM",
                "limit__c": 123,
                "type__c": "Legal Expenses"
            },
            {
                "Active__c": true,
                "Annual_Commission_AP__c": 15.9,
                "Annual_Gross_Premium_AP__c": 174.9,
                "Annual_Premium_AP__c": 159,
                "Annual_Tax_AP__c": 15.9,
                "Commission__c": 15.9,
                "Cover_End_Date__c": "2018-04-27T00:01:00.000Z",
                "Cover_Start_Date__c": "2017-04-27T00:01:00.000Z",
                "Driving_Other_Cars__c": false,
                "Gross_Premium__c": 174.9,
                "Name": "EU Breakdown",
                "Overritten_Premium__c": 159,
                "Policy_Holder__c": false,
                "PremiumAmount__c": 159,
                "Primary_Driver__c": false,
                "Rated_Driver__c": false,
                "SHOW_ON_Certificate__c": false,
                "Tax_Amount__c": 15.9,
                "id": "a6Q4E0000008TCsUAM",
                "limit__c": 100,
                "type__c": "EU Breakdown"
            }
        ],
        "primaryProducerId": "0034E00000NsL9dQAF",
        "status": "Quote Logged"
    },
    "id": "a3f4E0000000TggQAE",
    "newPolicyStatus": "MTA Quote",
    "recordTypeDevName": "MTA",
    "recordTypes": {
        "Id": "0124E0000000OsAQAU"
    },
    "timeStamp": "2017-04-27T11:57:06.957Z",
    "userName": "cdecisions@azuruw.com.vlctyrone",
    "userProfile": "System Administrator",
    "vlcPersistentComponent": {
    },
    "vlcTimeTracking": {
        "DRExtractAssetForClone": 1637,
        "DRPostAssetForClone": 3977,
        "DRPostCoverages": 2865,
        "OmniScriptSessionToken": "e8bf0d46-6975-4e10-b90d-20f0a3047dbf",
        "TEST-dELETEoNaCTIVATION": 4
    }
}