{
    "%vlocity_namespace%__CalculationMatrixVersion__c": "RewardPoints_Version.json",
    "%vlocity_namespace%__Description__c": "",
    "%vlocity_namespace%__GlobalKey__c": "",
    "CurrencyIsoCode": "GBP",
    "Name": "RewardPoints",
    "VlocityDataPackType": "SObject",
    "VlocityRecordSObjectType": "%vlocity_namespace%__CalculationMatrix__c",
    "VlocityRecordSourceKey": "%vlocity_namespace%__CalculationMatrix__c/RewardPoints"
}