{
    "%vlocity_namespace%__ActionIcon__c": "",
    "%vlocity_namespace%__AdditionalFilter__c": "",
    "%vlocity_namespace%__ApplicablePermissionName__c": "",
    "%vlocity_namespace%__ApplicableTypes__c": "All",
    "%vlocity_namespace%__ApplicableUserProfiles__c": "All",
    "%vlocity_namespace%__DisplayLabel__c": "Refer to Underwriting",
    "%vlocity_namespace%__DisplayOn__c": "All",
    "%vlocity_namespace%__DisplaySequence__c": 10,
    "%vlocity_namespace%__Filter__c": "",
    "%vlocity_namespace%__InvokeClassName__c": "DROpenImplementationClass",
    "%vlocity_namespace%__InvokeMethodName__c": "ReferToUnderwriting",
    "%vlocity_namespace%__IsSeedAction__c": false,
    "%vlocity_namespace%__LinkType__c": "Other",
    "%vlocity_namespace%__OpenUrlMode__c": "Current Window",
    "%vlocity_namespace%__StateId__c": {
        "%vlocity_namespace%__DTPStateModelName__c": "EW Quote Approval",
        "Name": "UW Referred",
        "VlocityDataPackType": "VlocityLookupMatchingKeyObject",
        "VlocityLookupRecordSourceKey": "%vlocity_namespace%__VlocityState__c/UW Referred",
        "VlocityRecordSObjectType": "%vlocity_namespace%__VlocityState__c"
    },
    "%vlocity_namespace%__StateModelId__c": {
        "%vlocity_namespace%__FieldAPIName__c": "Status",
        "%vlocity_namespace%__ObjectAPIName__c": "Quote",
        "%vlocity_namespace%__TypeFieldName__c": null,
        "%vlocity_namespace%__TypeFieldValue__c": null,
        "VlocityDataPackType": "VlocityLookupMatchingKeyObject",
        "VlocityLookupRecordSourceKey": "%vlocity_namespace%__VlocityStateModel__c/EW Quote Approval",
        "VlocityRecordSObjectType": "%vlocity_namespace%__VlocityStateModel__c"
    },
    "%vlocity_namespace%__UrlParameters__c": "",
    "%vlocity_namespace%__Url__c": "",
    "%vlocity_namespace%__ValidationClassName__c": "",
    "%vlocity_namespace%__ValidationMethodName__c": "",
    "%vlocity_namespace%__VlocityIcon__c": "icon-v-document1-line",
    "CurrencyIsoCode": "GBP",
    "Grouping__c": "",
    "Name": "ReferToUnderwriting",
    "VlocityDataPackType": "SObject",
    "VlocityRecordSObjectType": "%vlocity_namespace%__VlocityAction__c",
    "VlocityRecordSourceKey": "%vlocity_namespace%__VlocityAction__c/ReferToUnderwriting"
}