{
    "%vlocity_namespace%__CalculationMatrixVersion__c": "JewelleryAndWatchesValues_Version.json",
    "%vlocity_namespace%__Description__c": "",
    "%vlocity_namespace%__GlobalKey__c": "JewelleryAndWatchesValues",
    "CurrencyIsoCode": "GBP",
    "Name": "JewelleryAndWatchesValues",
    "VlocityDataPackType": "SObject",
    "VlocityRecordSObjectType": "%vlocity_namespace%__CalculationMatrix__c",
    "VlocityRecordSourceKey": "%vlocity_namespace%__CalculationMatrix__c/JewelleryAndWatchesValues"
}