{
  "appPageId" : "86657beb-92b6-44a9-b752-ddcf3858517d",
  "componentName" : "c:BrokerIqLayoutFill",
  "id" : "8554d145-42af-40a4-b3a0-91f54b8e4309",
  "label" : "Broker iQ Record Type Detail",
  "regions" : [ {
    "components" : [ {
      "componentAttributes" : { },
      "componentName" : "c:BrokerIqContentTypeHeader",
      "id" : "0ba7130a-1a3f-4bd1-9641-386af155852e",
      "renderPriority" : "NEUTRAL",
      "renditionMap" : { },
      "type" : "component"
    } ],
    "id" : "beb9d7cd-9096-4b71-8fe8-1dfac81dae97",
    "regionName" : "header",
    "type" : "region"
  }, {
    "components" : [ {
      "componentAttributes" : { },
      "componentName" : "c:BrokerIqContentTypeBody",
      "id" : "d5a817cf-7457-46a4-8916-11f95ebf2dc0",
      "renderPriority" : "NEUTRAL",
      "renditionMap" : { },
      "type" : "component"
    } ],
    "id" : "33e0f8db-df18-464a-a79e-c9e5db63ca9e",
    "regionName" : "content",
    "type" : "region"
  }, {
    "components" : [ {
      "componentAttributes" : { },
      "componentName" : "c:BrokerIqSignupBanner",
      "id" : "58f31ec7-bd56-44d8-bd57-09c1c2de00d5",
      "renderPriority" : "NEUTRAL",
      "renditionMap" : { },
      "type" : "component"
    } ],
    "id" : "17955127-9adc-4acb-8a6c-082c0062dc80",
    "regionName" : "footer",
    "type" : "region"
  }, {
    "components" : [ {
      "componentAttributes" : {
        "customHeadTags" : "",
        "description" : "",
        "title" : "{!Record._Object}: {!Record._Title}"
      },
      "componentName" : "forceCommunity:seoAssistant",
      "id" : "3a96c6d2-c43a-4cf3-a8f8-72c89e4ace86",
      "renditionMap" : { },
      "type" : "component"
    } ],
    "id" : "6dce5030-02dc-442c-b30d-ec0eaa87869f",
    "regionName" : "sfdcHiddenRegion",
    "type" : "region"
  } ],
  "themeLayoutType" : "Inner",
  "type" : "view",
  "viewType" : "detail-m0F"
}