{
  "appPageId" : "86657beb-92b6-44a9-b752-ddcf3858517d",
  "componentName" : "siteforce:sldsOneColLayout",
  "id" : "aa2c35bd-cef2-4eae-959f-4f37ef2b906e",
  "label" : "Record Detail",
  "regions" : [ {
    "id" : "45a86c47-19a4-427c-8ee5-8957a136c452",
    "regionName" : "header",
    "type" : "region"
  }, {
    "components" : [ {
      "componentAttributes" : {
        "recordId" : "{!recordId}"
      },
      "componentName" : "forceCommunity:recordHeadline",
      "id" : "0374ea58-e2e8-4262-b926-9c3de106b326",
      "renderPriority" : "NEUTRAL",
      "renditionMap" : { },
      "type" : "component"
    }, {
      "componentAttributes" : {
        "detailsTabLabel" : "Details",
        "discussionsTabLabel" : "Feed",
        "recordId" : "{!recordId}",
        "relatedTabLabel" : "Related",
        "tab1Type" : "details",
        "tab2Type" : "related",
        "tab3Type" : "chatter"
      },
      "componentName" : "forceCommunity:recordHomeTabs",
      "id" : "b3718180-cbf4-4a52-9601-3e2740766362",
      "renderPriority" : "NEUTRAL",
      "renditionMap" : { },
      "type" : "component"
    } ],
    "id" : "aed972e2-b37d-4961-8809-98a36adb7557",
    "regionName" : "content",
    "type" : "region"
  }, {
    "id" : "7361f17e-7a83-4f9e-9767-a9c2a759c0a3",
    "regionName" : "footer",
    "type" : "region"
  }, {
    "components" : [ {
      "componentAttributes" : {
        "customHeadTags" : "",
        "description" : "",
        "title" : "{!Record._Object}: {!Record._Title}"
      },
      "componentName" : "forceCommunity:seoAssistant",
      "id" : "43fe2cac-3b3e-436a-bbd1-fcd80065300b",
      "renditionMap" : { },
      "type" : "component"
    } ],
    "id" : "6576bd11-dc5d-43af-bc77-1d02c0622bec",
    "regionName" : "sfdcHiddenRegion",
    "type" : "region"
  } ],
  "themeLayoutType" : "Inner",
  "type" : "view",
  "viewType" : "detail"
}