{
  "appPageId" : "86657beb-92b6-44a9-b752-ddcf3858517d",
  "componentName" : "c:BrokerIqLayoutSectionWrapper",
  "id" : "fd99b4b5-8b42-4bd3-9e02-e0bb8e0246a4",
  "label" : "Terms of use",
  "regions" : [ {
    "id" : "abe6476b-4562-44ec-9959-ef10ee32bc95",
    "regionName" : "header",
    "type" : "region"
  }, {
    "components" : [ {
      "componentAttributes" : { },
      "componentName" : "c:BrokerIqTermsOfUse",
      "id" : "6053ec3b-64ec-4886-9a0d-c5813569fb8a",
      "renderPriority" : "NEUTRAL",
      "renditionMap" : { },
      "type" : "component"
    } ],
    "id" : "03178b8d-eee5-4cb2-a61e-9529ad4688fd",
    "regionName" : "content",
    "type" : "region"
  }, {
    "id" : "298bd266-2bb0-4aec-b487-37c5d2380347",
    "regionName" : "footer",
    "type" : "region"
  }, {
    "components" : [ {
      "componentAttributes" : {
        "customHeadTags" : "",
        "description" : "",
        "title" : "Terms of use"
      },
      "componentName" : "forceCommunity:seoAssistant",
      "id" : "31c69bf4-8ec7-47ac-978b-d04addbe959d",
      "renditionMap" : { },
      "type" : "component"
    } ],
    "id" : "37f019e7-3fbf-4c63-94f4-7891850e9f31",
    "regionName" : "sfdcHiddenRegion",
    "type" : "region"
  } ],
  "themeLayoutType" : "Inner",
  "type" : "view",
  "viewType" : "custom-terms-of-use"
}