{
    "Additional Details": {
        "EmergencyOption": null,
        "blkAmbulanceDetails": null,
        "blkFireDetails": null,
        "blkOtherDetails": null,
        "blkPoliceDetails": null,
        "blkThirdPartyIndividuals": null,
        "blkThirdPartyVehicles": null,
        "blkWitness": null,
        "independentWitnesses": null,
        "thirdPartyInvolved": null
    },
    "ContextId": "02i5E0000002fmZ",
    "DRCode": "2",
    "IncidentAddressGoogle-Block": {
        "administrative_area_level_1": "England"
    },
    "InvPropPropertyRecordTypeId": "012580000005gR2AAI",
    "InvPropVehicleRecordTypeId": "012580000005gR3AAI",
    "LiaInjuryRecordTypeId": "0125E000000065BQAQ",
    "LiaPropertyRecordTypeId": "0125E000000065CQAQ",
    "Pedestrian.RecordTypeId": "a3o5E0000004CHoQAM",
    "PolicyHolder.RecordTypeId": "a3o5E0000004CHrQAM",
    "PolicyHolderPassenger.RecordTypeId": "a3o5E0000004CHqQAM",
    "ThirdPartyDriver.RecordTypeId": "a3o5E0000004CHnQAM",
    "ThirdPartyPassenger.RecordTypeId": "a3o5E0000004CHpQAM",
    "Time (Approx)": "1970-01-01T12:00:00.000Z",
    "Witness.RecordTypeId": "a3o5E0000004CHmQAM",
    "accountId": "0015E0000030xfaQAA",
    "brokerAccountId": "0015E0000042cXJQAY",
    "brokerAccountName": "Magor Test",
    "brokerEmail": "dimitri.schizas@azur.com",
    "brokerFirstName": "Test",
    "brokerLastName": "Broker",
    "brokerageRecordTypeId": "012580000005gQYAAY",
    "brokertId": "0035E0000037XjiQAE",
    "claimProcessingRecordTypeId": "0125E00000006uuQAA",
    "id": "a3f5E0000008PKSQA2",
    "incidentDate": "2016-12-19T14:03:06.186Z",
    "incidentDetails": {
        "Case Subject": "New Motor Claim for:Tony Stark on: 19/12/2016",
        "DateWarningStop": true,
        "Event": "Placeholder",
        "Hide Location": false,
        "IncidentAddressGoogle-Block": {
            "IncidentAddressGoogle": "888 London Rd, Thornton Heath CR7 7PB, UK",
            "incidentCity": "Thornton Heath",
            "incidentCountry": "United Kingdom",
            "incidentLocationDescription": null,
            "incidentPostalCode": "CR7 7PB",
            "incidentStreet": "888 London Road"
        },
        "IncidentDate": "2016-12-19T14:03:06.186Z",
        "IncidentDateFormula": "Valid",
        "Mapping": "Placeholder",
        "Peril": "Placeholder",
        "Time": null,
        "blkDriversClaim": {
            "Driver Age Excess": null,
            "Formula 22": [
                ""
            ],
            "Licence Experience Excess": null,
            "dataContactId": "0035E000002D9JC",
            "driverConvictions": null,
            "driverRestrictions": null,
            "drivingLicenceMessaging": true,
            "drivingLicense": true,
            "lineItemDriver": [
                {
                    "%vlocity_namespace%__Age__c": 30,
                    "Name": "Tony Stark",
                    "relatedContact": "0035E000002D9JC",
                    "vlcSelected": true
                }
            ]
        },
        "blkVehicleinsured": {
            "HireCarRequired": false,
            "insuredVehicleDamageArea": null,
            "insuredVehicleGarageDetails": null,
            "insuredVehicleStatus": "In use",
            "lineItemVehicle": [
                {
                    "%vlocity_namespace%__MarketValue__c": 0,
                    "Name": ": CV57 NUO",
                    "vlcSelected": true
                }
            ],
            "reserve": 2500
        },
        "broker": "Test Broker",
        "brokerCompany": "Magor Test",
        "brokerageAddress": "",
        "brokerageContactDetails": "",
        "firstNameInsured": "Tony",
        "incidentTheft": null,
        "insuredAddress": "",
        "insuredEmail": null,
        "insuredTelephone": null,
        "lastNameInsured": "Stark",
        "liabilityDecision": "Non-Fault",
        "mainCause": "Changing Lanes",
        "notifierId": "",
        "notifierIdBroker": "",
        "notifierIdInsured": "",
        "notifierIdOther": "",
        "notifierIdThirdParty": "",
        "policyConfirmMessage": true,
        "policyConfirmed": true,
        "policyValidFormula": "Valid",
        "policyValidFrom": "2016-11-28T00:00:00.000Z",
        "policyValidUntil": "2016-12-26T00:00:00.000Z",
        "reportedDate": "2016-12-19T14:03:06.186Z",
        "reportedDateFormula": "Valid",
        "subCause": "TP Vehicle Changing Lanes"
    },
    "insuredBirthdate": "1985-12-30",
    "personAccountRecordTypeId": "01258000000cYS8AAM",
    "primaryBroker": "0035E0000037XjiQAE",
    "timeStamp": "2016-12-19T14:03:06.186Z",
    "userName": "cdecisions@azuruw.com.devdimitri",
    "userProfile": "System Administrator",
    "vlcPersistentComponent": {
    },
    "vlcTimeTracking": {
        "DRGetAccountInformationForClaim": 344,
        "DRGetBrokerAccountInformationForClaim": 333,
        "DRGetBrokerInformationForClaim": 321,
        "DRGetContactId": 253,
        "DRGetInsuredDrivers": 412,
        "DRGetPolicyInformationForClaim": 528,
        "DRGetRecordTypeIds": 515,
        "DRGetRelationshipIDs": 461,
        "DRGetVehicles": 361,
        "OmniScriptSessionToken": "4c77cf16-b3d1-404e-84fe-5e10d324f6b3",
        "incidentDetails": 38984,
        "reserveSetValue": 2,
        "setTestContext": 10,
        "setValueNewClaim": 4
    }
}